[
    {
        "type": "message",
        "user": "U1FJYUKQ9",
        "text": "Triple Threat!",
        "ts": "1466685118.000002",
        "reactions": [
            {
                "name": "moneybag",
                "users": [
                    "U1FHF07QT"
                ],
                "count": 1
            }
        ]
    },
    {
        "type": "message",
        "subtype": "file_share",
        "text": "<@U1FJYUKQ9|mkchuprin> uploaded a file: <https:\/\/tradingfutures.slack.com\/files\/mkchuprin\/F1KHP9GJX\/pasted_image_at_2016_06_23_08_42_am.png|Pasted image at 2016-06-23, 8:42 AM>",
        "file": {
            "id": "F1KHP9GJX",
            "created": 1466685734,
            "timestamp": 1466685734,
            "name": "Pasted image at 2016_06_23 08_42 AM.png",
            "title": "Pasted image at 2016-06-23, 8:42 AM",
            "mimetype": "image\/png",
            "filetype": "png",
            "pretty_type": "PNG",
            "user": "U1FJYUKQ9",
            "editable": false,
            "size": 207399,
            "mode": "hosted",
            "is_external": false,
            "external_type": "",
            "is_public": true,
            "public_url_shared": false,
            "display_as_bot": false,
            "username": "",
            "url_private": "https:\/\/files.slack.com\/files-pri\/T1FJKLSJ2-F1KHP9GJX\/pasted_image_at_2016_06_23_08_42_am.png?t=xoxe-49631706614-119786374643-119786374659-90264fc38b",
            "url_private_download": "https:\/\/files.slack.com\/files-pri\/T1FJKLSJ2-F1KHP9GJX\/download\/pasted_image_at_2016_06_23_08_42_am.png?t=xoxe-49631706614-119786374643-119786374659-90264fc38b",
            "thumb_64": "https:\/\/files.slack.com\/files-tmb\/T1FJKLSJ2-F1KHP9GJX-a67dca0804\/pasted_image_at_2016_06_23_08_42_am_64.png?t=xoxe-49631706614-119786374643-119786374659-90264fc38b",
            "thumb_80": "https:\/\/files.slack.com\/files-tmb\/T1FJKLSJ2-F1KHP9GJX-a67dca0804\/pasted_image_at_2016_06_23_08_42_am_80.png?t=xoxe-49631706614-119786374643-119786374659-90264fc38b",
            "thumb_360": "https:\/\/files.slack.com\/files-tmb\/T1FJKLSJ2-F1KHP9GJX-a67dca0804\/pasted_image_at_2016_06_23_08_42_am_360.png?t=xoxe-49631706614-119786374643-119786374659-90264fc38b",
            "thumb_360_w": 360,
            "thumb_360_h": 233,
            "thumb_480": "https:\/\/files.slack.com\/files-tmb\/T1FJKLSJ2-F1KHP9GJX-a67dca0804\/pasted_image_at_2016_06_23_08_42_am_480.png?t=xoxe-49631706614-119786374643-119786374659-90264fc38b",
            "thumb_480_w": 480,
            "thumb_480_h": 311,
            "thumb_160": "https:\/\/files.slack.com\/files-tmb\/T1FJKLSJ2-F1KHP9GJX-a67dca0804\/pasted_image_at_2016_06_23_08_42_am_160.png?t=xoxe-49631706614-119786374643-119786374659-90264fc38b",
            "thumb_720": "https:\/\/files.slack.com\/files-tmb\/T1FJKLSJ2-F1KHP9GJX-a67dca0804\/pasted_image_at_2016_06_23_08_42_am_720.png?t=xoxe-49631706614-119786374643-119786374659-90264fc38b",
            "thumb_720_w": 720,
            "thumb_720_h": 467,
            "thumb_960": "https:\/\/files.slack.com\/files-tmb\/T1FJKLSJ2-F1KHP9GJX-a67dca0804\/pasted_image_at_2016_06_23_08_42_am_960.png?t=xoxe-49631706614-119786374643-119786374659-90264fc38b",
            "thumb_960_w": 960,
            "thumb_960_h": 622,
            "thumb_1024": "https:\/\/files.slack.com\/files-tmb\/T1FJKLSJ2-F1KHP9GJX-a67dca0804\/pasted_image_at_2016_06_23_08_42_am_1024.png?t=xoxe-49631706614-119786374643-119786374659-90264fc38b",
            "thumb_1024_w": 1024,
            "thumb_1024_h": 664,
            "image_exif_rotation": 1,
            "original_w": 1353,
            "original_h": 877,
            "permalink": "https:\/\/tradingfutures.slack.com\/files\/mkchuprin\/F1KHP9GJX\/pasted_image_at_2016_06_23_08_42_am.png",
            "permalink_public": "https:\/\/slack-files.com\/T1FJKLSJ2-F1KHP9GJX-8f0d243d48",
            "channels": [
                "C1FJVD12T"
            ],
            "groups": [],
            "ims": [],
            "comments_count": 0,
            "reactions": [
                {
                    "name": "cry",
                    "users": [
                        "U1FHF07QT"
                    ],
                    "count": 1
                }
            ]
        },
        "user": "U1FJYUKQ9",
        "upload": true,
        "display_as_bot": false,
        "username": "<@U1FJYUKQ9|mkchuprin>",
        "bot_id": null,
        "ts": "1466685737.000003"
    },
    {
        "type": "message",
        "user": "U1FJYUKQ9",
        "text": "dafuq",
        "ts": "1466685739.000004"
    },
    {
        "type": "message",
        "subtype": "file_share",
        "text": "<@U1FJYUKQ9|mkchuprin> uploaded a file: <https:\/\/tradingfutures.slack.com\/files\/mkchuprin\/F1KHT2MS7\/pasted_image_at_2016_06_23_08_55_am.png|Pasted image at 2016-06-23, 8:55 AM>",
        "file": {
            "id": "F1KHT2MS7",
            "created": 1466686508,
            "timestamp": 1466686508,
            "name": "Pasted image at 2016_06_23 08_55 AM.png",
            "title": "Pasted image at 2016-06-23, 8:55 AM",
            "mimetype": "image\/png",
            "filetype": "png",
            "pretty_type": "PNG",
            "user": "U1FJYUKQ9",
            "editable": false,
            "size": 207369,
            "mode": "hosted",
            "is_external": false,
            "external_type": "",
            "is_public": true,
            "public_url_shared": false,
            "display_as_bot": false,
            "username": "",
            "url_private": "https:\/\/files.slack.com\/files-pri\/T1FJKLSJ2-F1KHT2MS7\/pasted_image_at_2016_06_23_08_55_am.png?t=xoxe-49631706614-119786374643-119786374659-90264fc38b",
            "url_private_download": "https:\/\/files.slack.com\/files-pri\/T1FJKLSJ2-F1KHT2MS7\/download\/pasted_image_at_2016_06_23_08_55_am.png?t=xoxe-49631706614-119786374643-119786374659-90264fc38b",
            "thumb_64": "https:\/\/files.slack.com\/files-tmb\/T1FJKLSJ2-F1KHT2MS7-e89ce908c5\/pasted_image_at_2016_06_23_08_55_am_64.png?t=xoxe-49631706614-119786374643-119786374659-90264fc38b",
            "thumb_80": "https:\/\/files.slack.com\/files-tmb\/T1FJKLSJ2-F1KHT2MS7-e89ce908c5\/pasted_image_at_2016_06_23_08_55_am_80.png?t=xoxe-49631706614-119786374643-119786374659-90264fc38b",
            "thumb_360": "https:\/\/files.slack.com\/files-tmb\/T1FJKLSJ2-F1KHT2MS7-e89ce908c5\/pasted_image_at_2016_06_23_08_55_am_360.png?t=xoxe-49631706614-119786374643-119786374659-90264fc38b",
            "thumb_360_w": 360,
            "thumb_360_h": 233,
            "thumb_480": "https:\/\/files.slack.com\/files-tmb\/T1FJKLSJ2-F1KHT2MS7-e89ce908c5\/pasted_image_at_2016_06_23_08_55_am_480.png?t=xoxe-49631706614-119786374643-119786374659-90264fc38b",
            "thumb_480_w": 480,
            "thumb_480_h": 311,
            "thumb_160": "https:\/\/files.slack.com\/files-tmb\/T1FJKLSJ2-F1KHT2MS7-e89ce908c5\/pasted_image_at_2016_06_23_08_55_am_160.png?t=xoxe-49631706614-119786374643-119786374659-90264fc38b",
            "thumb_720": "https:\/\/files.slack.com\/files-tmb\/T1FJKLSJ2-F1KHT2MS7-e89ce908c5\/pasted_image_at_2016_06_23_08_55_am_720.png?t=xoxe-49631706614-119786374643-119786374659-90264fc38b",
            "thumb_720_w": 720,
            "thumb_720_h": 467,
            "thumb_960": "https:\/\/files.slack.com\/files-tmb\/T1FJKLSJ2-F1KHT2MS7-e89ce908c5\/pasted_image_at_2016_06_23_08_55_am_960.png?t=xoxe-49631706614-119786374643-119786374659-90264fc38b",
            "thumb_960_w": 960,
            "thumb_960_h": 622,
            "thumb_1024": "https:\/\/files.slack.com\/files-tmb\/T1FJKLSJ2-F1KHT2MS7-e89ce908c5\/pasted_image_at_2016_06_23_08_55_am_1024.png?t=xoxe-49631706614-119786374643-119786374659-90264fc38b",
            "thumb_1024_w": 1024,
            "thumb_1024_h": 664,
            "image_exif_rotation": 1,
            "original_w": 1353,
            "original_h": 877,
            "permalink": "https:\/\/tradingfutures.slack.com\/files\/mkchuprin\/F1KHT2MS7\/pasted_image_at_2016_06_23_08_55_am.png",
            "permalink_public": "https:\/\/slack-files.com\/T1FJKLSJ2-F1KHT2MS7-2a3f2bb2c5",
            "channels": [
                "C1FJVD12T"
            ],
            "groups": [],
            "ims": [],
            "comments_count": 0
        },
        "user": "U1FJYUKQ9",
        "upload": true,
        "display_as_bot": false,
        "username": "<@U1FJYUKQ9|mkchuprin>",
        "bot_id": null,
        "ts": "1466686512.000006"
    },
    {
        "type": "message",
        "user": "U1FJYUKQ9",
        "text": "doesnt look as bad at 900",
        "ts": "1466686522.000007"
    }
]