[
    {
        "type": "message",
        "subtype": "file_share",
        "text": "<@U1FKCRD8D|hernanavella> uploaded a file: <https:\/\/tradingfutures.slack.com\/files\/hernanavella\/F261KRQJ0\/potentially__close.txt|Potentially @Close>",
        "file": {
            "id": "F261KRQJ0",
            "created": 1472488316,
            "timestamp": 1472488316,
            "name": "Potentially__Close.txt",
            "title": "Potentially @Close",
            "mimetype": "text\/plain",
            "filetype": "text",
            "pretty_type": "Plain Text",
            "user": "U1FKCRD8D",
            "editable": true,
            "size": 2539,
            "mode": "snippet",
            "is_external": false,
            "external_type": "",
            "is_public": true,
            "public_url_shared": false,
            "display_as_bot": false,
            "username": "",
            "url_private": "https:\/\/files.slack.com\/files-pri\/T1FJKLSJ2-F261KRQJ0\/potentially__close.txt?t=xoxe-49631706614-119786374643-119786374659-90264fc38b",
            "url_private_download": "https:\/\/files.slack.com\/files-pri\/T1FJKLSJ2-F261KRQJ0\/download\/potentially__close.txt?t=xoxe-49631706614-119786374643-119786374659-90264fc38b",
            "permalink": "https:\/\/tradingfutures.slack.com\/files\/hernanavella\/F261KRQJ0\/potentially__close.txt",
            "permalink_public": "https:\/\/slack-files.com\/T1FJKLSJ2-F261KRQJ0-945a686b57",
            "edit_link": "https:\/\/tradingfutures.slack.com\/files\/hernanavella\/F261KRQJ0\/potentially__close.txt\/edit",
            "preview": "HERNAN-HP::Mon Aug 29 11:31:23 2016\r\nDEP VAR CRUDE AT 1720 MON: 1\/1\/2011 to 7\/29\/2016\r\nINDEPENDNT   LAG1 HOUR   LAG2 HOUR       LO       HI     (TRADING DAYS)\r\n     CRUDE     2  1720     1  1720    -5000       -1\r\n     CRUDE     1  1720     0  1720    -5000       -1\r",
            "preview_highlight": "<div class=\"CodeMirror cm-s-default CodeMirrorServer\" oncopy=\"if(event.clipboardData){event.clipboardData.setData('text\/plain',window.getSelection().toString().replace(\/\\u200b\/g,''));event.preventDefault();event.stopPropagation();}\">\n<div class=\"CodeMirror-code\">\n<div><pre>HERNAN-HP::Mon Aug 29 11:31:23 2016<\/pre><\/div>\n<div><pre>DEP VAR CRUDE AT 1720 MON: 1\/1\/2011 to 7\/29\/2016<\/pre><\/div>\n<div><pre>INDEPENDNT   LAG1 HOUR   LAG2 HOUR       LO       HI     (TRADING DAYS)<\/pre><\/div>\n<div><pre>     CRUDE     2  1720     1  1720    -5000       -1<\/pre><\/div>\n<div><pre>     CRUDE     1  1720     0  1720    -5000       -1<\/pre><\/div>\n<div><pre><\/pre><\/div>\n<\/div>\n<\/div>\n",
            "lines": 38,
            "lines_more": 33,
            "preview_is_truncated": true,
            "channels": [
                "C1FJVD12T"
            ],
            "groups": [],
            "ims": [],
            "comments_count": 1
        },
        "user": "U1FKCRD8D",
        "upload": true,
        "display_as_bot": false,
        "username": "<@U1FKCRD8D|hernanavella>",
        "bot_id": null,
        "ts": "1472488316.000002"
    },
    {
        "type": "message",
        "subtype": "file_comment",
        "text": "<@U1FKCRD8D|hernanavella> commented on <@U1FKCRD8D|hernanavella>'s file <https:\/\/tradingfutures.slack.com\/files\/hernanavella\/F261KRQJ0\/potentially__close.txt|Potentially @Close>: The monday down patt in general has been kind of random since 2013",
        "file": {
            "id": "F261KRQJ0",
            "created": 1472488316,
            "timestamp": 1472488316,
            "name": "Potentially__Close.txt",
            "title": "Potentially @Close",
            "mimetype": "text\/plain",
            "filetype": "text",
            "pretty_type": "Plain Text",
            "user": "U1FKCRD8D",
            "editable": true,
            "size": 2539,
            "mode": "snippet",
            "is_external": false,
            "external_type": "",
            "is_public": true,
            "public_url_shared": false,
            "display_as_bot": false,
            "username": "",
            "url_private": "https:\/\/files.slack.com\/files-pri\/T1FJKLSJ2-F261KRQJ0\/potentially__close.txt?t=xoxe-49631706614-119786374643-119786374659-90264fc38b",
            "url_private_download": "https:\/\/files.slack.com\/files-pri\/T1FJKLSJ2-F261KRQJ0\/download\/potentially__close.txt?t=xoxe-49631706614-119786374643-119786374659-90264fc38b",
            "permalink": "https:\/\/tradingfutures.slack.com\/files\/hernanavella\/F261KRQJ0\/potentially__close.txt",
            "permalink_public": "https:\/\/slack-files.com\/T1FJKLSJ2-F261KRQJ0-945a686b57",
            "edit_link": "https:\/\/tradingfutures.slack.com\/files\/hernanavella\/F261KRQJ0\/potentially__close.txt\/edit",
            "preview": "HERNAN-HP::Mon Aug 29 11:31:23 2016\r\nDEP VAR CRUDE AT 1720 MON: 1\/1\/2011 to 7\/29\/2016\r\nINDEPENDNT   LAG1 HOUR   LAG2 HOUR       LO       HI     (TRADING DAYS)\r\n     CRUDE     2  1720     1  1720    -5000       -1\r\n     CRUDE     1  1720     0  1720    -5000       -1\r",
            "preview_highlight": "<div class=\"CodeMirror cm-s-default CodeMirrorServer\" oncopy=\"if(event.clipboardData){event.clipboardData.setData('text\/plain',window.getSelection().toString().replace(\/\\u200b\/g,''));event.preventDefault();event.stopPropagation();}\">\n<div class=\"CodeMirror-code\">\n<div><pre>HERNAN-HP::Mon Aug 29 11:31:23 2016<\/pre><\/div>\n<div><pre>DEP VAR CRUDE AT 1720 MON: 1\/1\/2011 to 7\/29\/2016<\/pre><\/div>\n<div><pre>INDEPENDNT   LAG1 HOUR   LAG2 HOUR       LO       HI     (TRADING DAYS)<\/pre><\/div>\n<div><pre>     CRUDE     2  1720     1  1720    -5000       -1<\/pre><\/div>\n<div><pre>     CRUDE     1  1720     0  1720    -5000       -1<\/pre><\/div>\n<div><pre><\/pre><\/div>\n<\/div>\n<\/div>\n",
            "lines": 38,
            "lines_more": 33,
            "preview_is_truncated": true,
            "channels": [
                "C1FJVD12T"
            ],
            "groups": [],
            "ims": [],
            "comments_count": 1
        },
        "comment": {
            "id": "Fc2623HSAV",
            "created": 1472488930,
            "timestamp": 1472488930,
            "user": "U1FKCRD8D",
            "is_intro": false,
            "comment": "The monday down patt in general has been kind of random since 2013",
            "channel": ""
        },
        "is_intro": false,
        "ts": "1472488930.000003"
    },
    {
        "type": "message",
        "subtype": "file_share",
        "text": "<@U1FKCRD8D|hernanavella> uploaded a file: <https:\/\/tradingfutures.slack.com\/files\/hernanavella\/F263QQ6BC\/-.txt|Untitled>",
        "file": {
            "id": "F263QQ6BC",
            "created": 1472495702,
            "timestamp": 1472495702,
            "name": "-.txt",
            "title": "Untitled",
            "mimetype": "text\/plain",
            "filetype": "text",
            "pretty_type": "Plain Text",
            "user": "U1FKCRD8D",
            "editable": true,
            "size": 2544,
            "mode": "snippet",
            "is_external": false,
            "external_type": "",
            "is_public": true,
            "public_url_shared": false,
            "display_as_bot": false,
            "username": "",
            "url_private": "https:\/\/files.slack.com\/files-pri\/T1FJKLSJ2-F263QQ6BC\/-.txt?t=xoxe-49631706614-119786374643-119786374659-90264fc38b",
            "url_private_download": "https:\/\/files.slack.com\/files-pri\/T1FJKLSJ2-F263QQ6BC\/download\/-.txt?t=xoxe-49631706614-119786374643-119786374659-90264fc38b",
            "permalink": "https:\/\/tradingfutures.slack.com\/files\/hernanavella\/F263QQ6BC\/-.txt",
            "permalink_public": "https:\/\/slack-files.com\/T1FJKLSJ2-F263QQ6BC-3f7de77cd7",
            "edit_link": "https:\/\/tradingfutures.slack.com\/files\/hernanavella\/F263QQ6BC\/-.txt\/edit",
            "preview": "HERNAN-HP::Mon Aug 29 13:34:38 2016\r\nDEP VAR CRUDE AT 1720 ALL DAYS: 6\/1\/2013 to 7\/29\/2016\r\nINDEPENDNT   LAG1 HOUR   LAG2 HOUR       LO       HI     (TRADING DAYS)\r\n     TBOND     1  1700     0  1700      100     5000\r\n   NITE.SP     1  1620     0  1620        1     5000\r",
            "preview_highlight": "<div class=\"CodeMirror cm-s-default CodeMirrorServer\" oncopy=\"if(event.clipboardData){event.clipboardData.setData('text\/plain',window.getSelection().toString().replace(\/\\u200b\/g,''));event.preventDefault();event.stopPropagation();}\">\n<div class=\"CodeMirror-code\">\n<div><pre>HERNAN-HP::Mon Aug 29 13:34:38 2016<\/pre><\/div>\n<div><pre>DEP VAR CRUDE AT 1720 ALL DAYS: 6\/1\/2013 to 7\/29\/2016<\/pre><\/div>\n<div><pre>INDEPENDNT   LAG1 HOUR   LAG2 HOUR       LO       HI     (TRADING DAYS)<\/pre><\/div>\n<div><pre>     TBOND     1  1700     0  1700      100     5000<\/pre><\/div>\n<div><pre>   NITE.SP     1  1620     0  1620        1     5000<\/pre><\/div>\n<div><pre><\/pre><\/div>\n<\/div>\n<\/div>\n",
            "lines": 38,
            "lines_more": 33,
            "preview_is_truncated": true,
            "channels": [
                "C1FJVD12T"
            ],
            "groups": [],
            "ims": [],
            "comments_count": 0,
            "reactions": [
                {
                    "name": "eyes",
                    "users": [
                        "U1FHF07QT"
                    ],
                    "count": 1
                }
            ]
        },
        "user": "U1FKCRD8D",
        "upload": true,
        "display_as_bot": false,
        "username": "<@U1FKCRD8D|hernanavella>",
        "bot_id": null,
        "ts": "1472495703.000004"
    }
]