[
    {
        "type": "message",
        "subtype": "file_share",
        "text": "<@U1FHF07QT|jkh> uploaded a file: <https:\/\/tradingfutures.slack.com\/files\/jkh\/F1Z6Q9YRJ\/-.txt|Untitled>",
        "file": {
            "id": "F1Z6Q9YRJ",
            "created": 1470660812,
            "timestamp": 1470660812,
            "name": "-.txt",
            "title": "Untitled",
            "mimetype": "text\/plain",
            "filetype": "text",
            "pretty_type": "Plain Text",
            "user": "U1FHF07QT",
            "editable": true,
            "size": 1207,
            "mode": "snippet",
            "is_external": false,
            "external_type": "",
            "is_public": true,
            "public_url_shared": false,
            "display_as_bot": false,
            "username": "",
            "url_private": "https:\/\/files.slack.com\/files-pri\/T1FJKLSJ2-F1Z6Q9YRJ\/-.txt?t=xoxe-49631706614-119786374643-119786374659-90264fc38b",
            "url_private_download": "https:\/\/files.slack.com\/files-pri\/T1FJKLSJ2-F1Z6Q9YRJ\/download\/-.txt?t=xoxe-49631706614-119786374643-119786374659-90264fc38b",
            "permalink": "https:\/\/tradingfutures.slack.com\/files\/jkh\/F1Z6Q9YRJ\/-.txt",
            "permalink_public": "https:\/\/slack-files.com\/T1FJKLSJ2-F1Z6Q9YRJ-e43edacd5c",
            "edit_link": "https:\/\/tradingfutures.slack.com\/files\/jkh\/F1Z6Q9YRJ\/-.txt\/edit",
            "preview": "JKH::Mon 08 Aug 2016 08:52:31 AM EDT\r\nDEP VAR CRUDE AT 900 : 01\/01\/2007 TO 01\/01\/2020  US\/Eastern\r\n\r\nINDEPENDNT LAG1  HOUR LAG2  HOUR  LO    HI          TZ\r\n    crude    1  1430    0   900  50   150  US\/Eastern\r",
            "preview_highlight": "<div class=\"CodeMirror cm-s-default CodeMirrorServer\" oncopy=\"if(event.clipboardData){event.clipboardData.setData('text\/plain',window.getSelection().toString().replace(\/\\u200b\/g,''));event.preventDefault();event.stopPropagation();}\">\n<div class=\"CodeMirror-code\">\n<div><pre>JKH::Mon 08 Aug 2016 08:52:31 AM EDT<\/pre><\/div>\n<div><pre>DEP VAR CRUDE AT 900 : 01\/01\/2007 TO 01\/01\/2020  US\/Eastern<\/pre><\/div>\n<div><pre><\/pre><\/div>\n<div><pre>INDEPENDNT LAG1  HOUR LAG2  HOUR  LO    HI          TZ<\/pre><\/div>\n<div><pre>    crude    1  1430    0   900  50   150  US\/Eastern<\/pre><\/div>\n<div><pre><\/pre><\/div>\n<\/div>\n<\/div>\n",
            "lines": 28,
            "lines_more": 23,
            "preview_is_truncated": true,
            "channels": [
                "C1FJVD12T"
            ],
            "groups": [],
            "ims": [],
            "comments_count": 1,
            "reactions": [
                {
                    "name": "bear",
                    "users": [
                        "U1FKCRD8D"
                    ],
                    "count": 1
                }
            ]
        },
        "user": "U1FHF07QT",
        "upload": true,
        "display_as_bot": false,
        "username": "<@U1FHF07QT|jkh>",
        "bot_id": null,
        "ts": "1470660813.000002"
    },
    {
        "type": "message",
        "subtype": "file_comment",
        "text": "<@U1FKCRD8D|hernanavella> commented on <@U1FHF07QT|jkh>'s file <https:\/\/tradingfutures.slack.com\/files\/jkh\/F1Z6Q9YRJ\/-.txt|Untitled>: I think for these type of patterns could be useful if we had a: crude != 20dMax to isolate the real effect.",
        "file": {
            "id": "F1Z6Q9YRJ",
            "created": 1470660812,
            "timestamp": 1470660812,
            "name": "-.txt",
            "title": "Untitled",
            "mimetype": "text\/plain",
            "filetype": "text",
            "pretty_type": "Plain Text",
            "user": "U1FHF07QT",
            "editable": true,
            "size": 1207,
            "mode": "snippet",
            "is_external": false,
            "external_type": "",
            "is_public": true,
            "public_url_shared": false,
            "display_as_bot": false,
            "username": "",
            "url_private": "https:\/\/files.slack.com\/files-pri\/T1FJKLSJ2-F1Z6Q9YRJ\/-.txt?t=xoxe-49631706614-119786374643-119786374659-90264fc38b",
            "url_private_download": "https:\/\/files.slack.com\/files-pri\/T1FJKLSJ2-F1Z6Q9YRJ\/download\/-.txt?t=xoxe-49631706614-119786374643-119786374659-90264fc38b",
            "permalink": "https:\/\/tradingfutures.slack.com\/files\/jkh\/F1Z6Q9YRJ\/-.txt",
            "permalink_public": "https:\/\/slack-files.com\/T1FJKLSJ2-F1Z6Q9YRJ-e43edacd5c",
            "edit_link": "https:\/\/tradingfutures.slack.com\/files\/jkh\/F1Z6Q9YRJ\/-.txt\/edit",
            "preview": "JKH::Mon 08 Aug 2016 08:52:31 AM EDT\r\nDEP VAR CRUDE AT 900 : 01\/01\/2007 TO 01\/01\/2020  US\/Eastern\r\n\r\nINDEPENDNT LAG1  HOUR LAG2  HOUR  LO    HI          TZ\r\n    crude    1  1430    0   900  50   150  US\/Eastern\r",
            "preview_highlight": "<div class=\"CodeMirror cm-s-default CodeMirrorServer\" oncopy=\"if(event.clipboardData){event.clipboardData.setData('text\/plain',window.getSelection().toString().replace(\/\\u200b\/g,''));event.preventDefault();event.stopPropagation();}\">\n<div class=\"CodeMirror-code\">\n<div><pre>JKH::Mon 08 Aug 2016 08:52:31 AM EDT<\/pre><\/div>\n<div><pre>DEP VAR CRUDE AT 900 : 01\/01\/2007 TO 01\/01\/2020  US\/Eastern<\/pre><\/div>\n<div><pre><\/pre><\/div>\n<div><pre>INDEPENDNT LAG1  HOUR LAG2  HOUR  LO    HI          TZ<\/pre><\/div>\n<div><pre>    crude    1  1430    0   900  50   150  US\/Eastern<\/pre><\/div>\n<div><pre><\/pre><\/div>\n<\/div>\n<\/div>\n",
            "lines": 28,
            "lines_more": 23,
            "preview_is_truncated": true,
            "channels": [
                "C1FJVD12T"
            ],
            "groups": [],
            "ims": [],
            "comments_count": 1,
            "reactions": [
                {
                    "name": "bear",
                    "users": [
                        "U1FKCRD8D"
                    ],
                    "count": 1
                }
            ]
        },
        "comment": {
            "id": "Fc1Z6X6SGN",
            "created": 1470661808,
            "timestamp": 1470661808,
            "user": "U1FKCRD8D",
            "is_intro": false,
            "comment": "I think for these type of patterns could be useful if we had a: crude != 20dMax to isolate the real effect.",
            "channel": ""
        },
        "is_intro": false,
        "ts": "1470661808.000004"
    },
    {
        "type": "message",
        "user": "U1FHF07QT",
        "text": "You can do that on the PPR  by putting 20 in the second box",
        "ts": "1470661858.000005",
        "reactions": [
            {
                "name": "thinking_face",
                "users": [
                    "U1FHF07QT"
                ],
                "count": 1
            }
        ]
    },
    {
        "type": "message",
        "subtype": "file_share",
        "text": "<@U1FKCRD8D|hernanavella> uploaded a file: <https:\/\/tradingfutures.slack.com\/files\/hernanavella\/F1Z76KSPP\/2nd_version.txt|2nd Version>",
        "file": {
            "id": "F1Z76KSPP",
            "created": 1470662033,
            "timestamp": 1470662033,
            "name": "2nd_Version.txt",
            "title": "2nd Version",
            "mimetype": "text\/plain",
            "filetype": "text",
            "pretty_type": "Plain Text",
            "user": "U1FKCRD8D",
            "editable": true,
            "size": 2058,
            "mode": "snippet",
            "is_external": false,
            "external_type": "",
            "is_public": true,
            "public_url_shared": false,
            "display_as_bot": false,
            "username": "",
            "url_private": "https:\/\/files.slack.com\/files-pri\/T1FJKLSJ2-F1Z76KSPP\/2nd_version.txt?t=xoxe-49631706614-119786374643-119786374659-90264fc38b",
            "url_private_download": "https:\/\/files.slack.com\/files-pri\/T1FJKLSJ2-F1Z76KSPP\/download\/2nd_version.txt?t=xoxe-49631706614-119786374643-119786374659-90264fc38b",
            "permalink": "https:\/\/tradingfutures.slack.com\/files\/hernanavella\/F1Z76KSPP\/2nd_version.txt",
            "permalink_public": "https:\/\/slack-files.com\/T1FJKLSJ2-F1Z76KSPP-a67a7d5fb5",
            "edit_link": "https:\/\/tradingfutures.slack.com\/files\/hernanavella\/F1Z76KSPP\/2nd_version.txt\/edit",
            "preview": "HERNANAVELLA-WS::Mon Aug 08 08:12:30 2016\r\nDEP VAR CRUDE AT 900 ALL DAYS: 1\/1\/2007 to 7\/29\/2016\r\nAS OF 1 1620, NITE.SP AT 20 COMPARISON DAY HIGH \r\nAS OF 1 1720, CRUDE AT BETWEEN 0 AND 20 COMPARISON DAY HIGH \r\nINDEPENDNT   LAG1 HOUR   LAG2 HOUR       LO       HI     (TRADING DAYS)\r",
            "preview_highlight": "<div class=\"CodeMirror cm-s-default CodeMirrorServer\" oncopy=\"if(event.clipboardData){event.clipboardData.setData('text\/plain',window.getSelection().toString().replace(\/\\u200b\/g,''));event.preventDefault();event.stopPropagation();}\">\n<div class=\"CodeMirror-code\">\n<div><pre>HERNANAVELLA-WS::Mon Aug 08 08:12:30 2016<\/pre><\/div>\n<div><pre>DEP VAR CRUDE AT 900 ALL DAYS: 1\/1\/2007 to 7\/29\/2016<\/pre><\/div>\n<div><pre>AS OF 1 1620, NITE.SP AT 20 COMPARISON DAY HIGH <\/pre><\/div>\n<div><pre>AS OF 1 1720, CRUDE AT BETWEEN 0 AND 20 COMPARISON DAY HIGH <\/pre><\/div>\n<div><pre>INDEPENDNT   LAG1 HOUR   LAG2 HOUR       LO       HI     (TRADING DAYS)<\/pre><\/div>\n<div><pre><\/pre><\/div>\n<\/div>\n<\/div>\n",
            "lines": 31,
            "lines_more": 26,
            "preview_is_truncated": true,
            "channels": [
                "C1FJVD12T"
            ],
            "groups": [],
            "ims": [],
            "comments_count": 1,
            "reactions": [
                {
                    "name": "white_check_mark",
                    "users": [
                        "U1FHF07QT"
                    ],
                    "count": 1
                }
            ]
        },
        "user": "U1FKCRD8D",
        "upload": true,
        "display_as_bot": false,
        "username": "<@U1FKCRD8D|hernanavella>",
        "bot_id": null,
        "ts": "1470662034.000006"
    },
    {
        "type": "message",
        "subtype": "file_comment",
        "text": "<@U1FHF07QT|jkh> commented on <@U1FKCRD8D|hernanavella>'s file <https:\/\/tradingfutures.slack.com\/files\/hernanavella\/F1Z76KSPP\/2nd_version.txt|2nd Version>: indeed, definitely not as bearish.",
        "file": {
            "id": "F1Z76KSPP",
            "created": 1470662033,
            "timestamp": 1470662033,
            "name": "2nd_Version.txt",
            "title": "2nd Version",
            "mimetype": "text\/plain",
            "filetype": "text",
            "pretty_type": "Plain Text",
            "user": "U1FKCRD8D",
            "editable": true,
            "size": 2058,
            "mode": "snippet",
            "is_external": false,
            "external_type": "",
            "is_public": true,
            "public_url_shared": false,
            "display_as_bot": false,
            "username": "",
            "url_private": "https:\/\/files.slack.com\/files-pri\/T1FJKLSJ2-F1Z76KSPP\/2nd_version.txt?t=xoxe-49631706614-119786374643-119786374659-90264fc38b",
            "url_private_download": "https:\/\/files.slack.com\/files-pri\/T1FJKLSJ2-F1Z76KSPP\/download\/2nd_version.txt?t=xoxe-49631706614-119786374643-119786374659-90264fc38b",
            "permalink": "https:\/\/tradingfutures.slack.com\/files\/hernanavella\/F1Z76KSPP\/2nd_version.txt",
            "permalink_public": "https:\/\/slack-files.com\/T1FJKLSJ2-F1Z76KSPP-a67a7d5fb5",
            "edit_link": "https:\/\/tradingfutures.slack.com\/files\/hernanavella\/F1Z76KSPP\/2nd_version.txt\/edit",
            "preview": "HERNANAVELLA-WS::Mon Aug 08 08:12:30 2016\r\nDEP VAR CRUDE AT 900 ALL DAYS: 1\/1\/2007 to 7\/29\/2016\r\nAS OF 1 1620, NITE.SP AT 20 COMPARISON DAY HIGH \r\nAS OF 1 1720, CRUDE AT BETWEEN 0 AND 20 COMPARISON DAY HIGH \r\nINDEPENDNT   LAG1 HOUR   LAG2 HOUR       LO       HI     (TRADING DAYS)\r",
            "preview_highlight": "<div class=\"CodeMirror cm-s-default CodeMirrorServer\" oncopy=\"if(event.clipboardData){event.clipboardData.setData('text\/plain',window.getSelection().toString().replace(\/\\u200b\/g,''));event.preventDefault();event.stopPropagation();}\">\n<div class=\"CodeMirror-code\">\n<div><pre>HERNANAVELLA-WS::Mon Aug 08 08:12:30 2016<\/pre><\/div>\n<div><pre>DEP VAR CRUDE AT 900 ALL DAYS: 1\/1\/2007 to 7\/29\/2016<\/pre><\/div>\n<div><pre>AS OF 1 1620, NITE.SP AT 20 COMPARISON DAY HIGH <\/pre><\/div>\n<div><pre>AS OF 1 1720, CRUDE AT BETWEEN 0 AND 20 COMPARISON DAY HIGH <\/pre><\/div>\n<div><pre>INDEPENDNT   LAG1 HOUR   LAG2 HOUR       LO       HI     (TRADING DAYS)<\/pre><\/div>\n<div><pre><\/pre><\/div>\n<\/div>\n<\/div>\n",
            "lines": 31,
            "lines_more": 26,
            "preview_is_truncated": true,
            "channels": [
                "C1FJVD12T"
            ],
            "groups": [],
            "ims": [],
            "comments_count": 1,
            "reactions": [
                {
                    "name": "white_check_mark",
                    "users": [
                        "U1FHF07QT"
                    ],
                    "count": 1
                }
            ]
        },
        "comment": {
            "id": "Fc1Z6YQC30",
            "created": 1470662105,
            "timestamp": 1470662105,
            "user": "U1FHF07QT",
            "is_intro": false,
            "comment": "indeed, definitely not as bearish.",
            "channel": ""
        },
        "is_intro": false,
        "ts": "1470662105.000008"
    },
    {
        "type": "message",
        "subtype": "file_share",
        "text": "<@U1FKCRD8D|hernanavella> uploaded a file: <https:\/\/tradingfutures.slack.com\/files\/hernanavella\/F1Z9F30KT\/_close_if_pitclose___42_95.txt|@Close if pitclose &gt; 42.95>",
        "file": {
            "id": "F1Z9F30KT",
            "created": 1470672362,
            "timestamp": 1470672362,
            "name": "_Close_if_pitclose___42_95.txt",
            "title": "@Close if pitclose &gt; 42.95",
            "mimetype": "text\/plain",
            "filetype": "text",
            "pretty_type": "Plain Text",
            "user": "U1FKCRD8D",
            "editable": true,
            "size": 2544,
            "mode": "snippet",
            "is_external": false,
            "external_type": "",
            "is_public": true,
            "public_url_shared": false,
            "display_as_bot": false,
            "username": "",
            "url_private": "https:\/\/files.slack.com\/files-pri\/T1FJKLSJ2-F1Z9F30KT\/_close_if_pitclose___42_95.txt?t=xoxe-49631706614-119786374643-119786374659-90264fc38b",
            "url_private_download": "https:\/\/files.slack.com\/files-pri\/T1FJKLSJ2-F1Z9F30KT\/download\/_close_if_pitclose___42_95.txt?t=xoxe-49631706614-119786374643-119786374659-90264fc38b",
            "permalink": "https:\/\/tradingfutures.slack.com\/files\/hernanavella\/F1Z9F30KT\/_close_if_pitclose___42_95.txt",
            "permalink_public": "https:\/\/slack-files.com\/T1FJKLSJ2-F1Z9F30KT-d0f41ac639",
            "edit_link": "https:\/\/tradingfutures.slack.com\/files\/hernanavella\/F1Z9F30KT\/_close_if_pitclose___42_95.txt\/edit",
            "preview": "HERNANAVELLA-WS::Mon Aug 08 11:05:06 2016\r\nDEP VAR CRUDE AT 1720 ALL DAYS: 1\/1\/2007 to 7\/29\/2016\r\nAS OF 0 1430, CRUDE AT 10 COMPARISON DAY HIGH \r\nINDEPENDNT   LAG1 HOUR   LAG2 HOUR       LO       HI     (TRADING DAYS)\r\n     CRUDE    20  1720     0  1720    -5000     -200\r",
            "preview_highlight": "<div class=\"CodeMirror cm-s-default CodeMirrorServer\" oncopy=\"if(event.clipboardData){event.clipboardData.setData('text\/plain',window.getSelection().toString().replace(\/\\u200b\/g,''));event.preventDefault();event.stopPropagation();}\">\n<div class=\"CodeMirror-code\">\n<div><pre>HERNANAVELLA-WS::Mon Aug 08 11:05:06 2016<\/pre><\/div>\n<div><pre>DEP VAR CRUDE AT 1720 ALL DAYS: 1\/1\/2007 to 7\/29\/2016<\/pre><\/div>\n<div><pre>AS OF 0 1430, CRUDE AT 10 COMPARISON DAY HIGH <\/pre><\/div>\n<div><pre>INDEPENDNT   LAG1 HOUR   LAG2 HOUR       LO       HI     (TRADING DAYS)<\/pre><\/div>\n<div><pre>     CRUDE    20  1720     0  1720    -5000     -200<\/pre><\/div>\n<div><pre><\/pre><\/div>\n<\/div>\n<\/div>\n",
            "lines": 38,
            "lines_more": 33,
            "preview_is_truncated": true,
            "channels": [
                "C1FJVD12T"
            ],
            "groups": [],
            "ims": [],
            "comments_count": 0
        },
        "user": "U1FKCRD8D",
        "upload": true,
        "display_as_bot": false,
        "username": "<@U1FKCRD8D|hernanavella>",
        "bot_id": null,
        "ts": "1470672362.000009"
    },
    {
        "type": "message",
        "subtype": "file_share",
        "text": "<@U1FKCRD8D|hernanavella> uploaded a file: <https:\/\/tradingfutures.slack.com\/files\/hernanavella\/F1Z9ZL6U9\/-.txt|Untitled>",
        "file": {
            "id": "F1Z9ZL6U9",
            "created": 1470675048,
            "timestamp": 1470675048,
            "name": "-.txt",
            "title": "Untitled",
            "mimetype": "text\/plain",
            "filetype": "text",
            "pretty_type": "Plain Text",
            "user": "U1FKCRD8D",
            "editable": true,
            "size": 2926,
            "mode": "snippet",
            "is_external": false,
            "external_type": "",
            "is_public": true,
            "public_url_shared": false,
            "display_as_bot": false,
            "username": "",
            "url_private": "https:\/\/files.slack.com\/files-pri\/T1FJKLSJ2-F1Z9ZL6U9\/-.txt?t=xoxe-49631706614-119786374643-119786374659-90264fc38b",
            "url_private_download": "https:\/\/files.slack.com\/files-pri\/T1FJKLSJ2-F1Z9ZL6U9\/download\/-.txt?t=xoxe-49631706614-119786374643-119786374659-90264fc38b",
            "permalink": "https:\/\/tradingfutures.slack.com\/files\/hernanavella\/F1Z9ZL6U9\/-.txt",
            "permalink_public": "https:\/\/slack-files.com\/T1FJKLSJ2-F1Z9ZL6U9-43d765435d",
            "edit_link": "https:\/\/tradingfutures.slack.com\/files\/hernanavella\/F1Z9ZL6U9\/-.txt\/edit",
            "preview": "HERNANAVELLA-WS::Mon Aug 08 11:49:47 2016\r\nDEP VAR CRUDE AT 1720 ALL DAYS: 1\/1\/2014 to 7\/29\/2016\r\nINDEPENDNT   LAG1 HOUR   LAG2 HOUR       LO       HI     (TRADING DAYS)\r\n     CRUDE     1  1720     0  1720        1     5000\r\n     CRUDE     2  1720     1  1720        1     5000\r",
            "preview_highlight": "<div class=\"CodeMirror cm-s-default CodeMirrorServer\" oncopy=\"if(event.clipboardData){event.clipboardData.setData('text\/plain',window.getSelection().toString().replace(\/\\u200b\/g,''));event.preventDefault();event.stopPropagation();}\">\n<div class=\"CodeMirror-code\">\n<div><pre>HERNANAVELLA-WS::Mon Aug 08 11:49:47 2016<\/pre><\/div>\n<div><pre>DEP VAR CRUDE AT 1720 ALL DAYS: 1\/1\/2014 to 7\/29\/2016<\/pre><\/div>\n<div><pre>INDEPENDNT   LAG1 HOUR   LAG2 HOUR       LO       HI     (TRADING DAYS)<\/pre><\/div>\n<div><pre>     CRUDE     1  1720     0  1720        1     5000<\/pre><\/div>\n<div><pre>     CRUDE     2  1720     1  1720        1     5000<\/pre><\/div>\n<div><pre><\/pre><\/div>\n<\/div>\n<\/div>\n",
            "lines": 44,
            "lines_more": 39,
            "preview_is_truncated": true,
            "channels": [
                "C1FJVD12T"
            ],
            "groups": [],
            "ims": [],
            "comments_count": 0
        },
        "user": "U1FKCRD8D",
        "upload": true,
        "display_as_bot": false,
        "username": "<@U1FKCRD8D|hernanavella>",
        "bot_id": null,
        "ts": "1470675048.000010"
    },
    {
        "type": "message",
        "subtype": "file_share",
        "text": "<@U1FKCRD8D|hernanavella> uploaded a file: <https:\/\/tradingfutures.slack.com\/files\/hernanavella\/F1ZBAVAP3\/-.txt|Untitled>",
        "file": {
            "id": "F1ZBAVAP3",
            "created": 1470681634,
            "timestamp": 1470681634,
            "name": "-.txt",
            "title": "Untitled",
            "mimetype": "text\/plain",
            "filetype": "text",
            "pretty_type": "Plain Text",
            "user": "U1FKCRD8D",
            "editable": true,
            "size": 2554,
            "mode": "snippet",
            "is_external": false,
            "external_type": "",
            "is_public": true,
            "public_url_shared": false,
            "display_as_bot": false,
            "username": "",
            "url_private": "https:\/\/files.slack.com\/files-pri\/T1FJKLSJ2-F1ZBAVAP3\/-.txt?t=xoxe-49631706614-119786374643-119786374659-90264fc38b",
            "url_private_download": "https:\/\/files.slack.com\/files-pri\/T1FJKLSJ2-F1ZBAVAP3\/download\/-.txt?t=xoxe-49631706614-119786374643-119786374659-90264fc38b",
            "permalink": "https:\/\/tradingfutures.slack.com\/files\/hernanavella\/F1ZBAVAP3\/-.txt",
            "permalink_public": "https:\/\/slack-files.com\/T1FJKLSJ2-F1ZBAVAP3-03c4d3766c",
            "edit_link": "https:\/\/tradingfutures.slack.com\/files\/hernanavella\/F1ZBAVAP3\/-.txt\/edit",
            "preview": "HERNANAVELLA-WS::Mon Aug 08 13:39:59 2016\r\nDEP VAR CRUDE AT 1720 MON THRU THR: 1\/1\/2013 to 7\/29\/2016\r\nINDEPENDNT   LAG1 HOUR   LAG2 HOUR       LO       HI     (TRADING DAYS)\r\n     CRUDE     1  1430     0  1430      100     5000\r\n     CRUDE     0  1430     0  1720    -5000       -1\r",
            "preview_highlight": "<div class=\"CodeMirror cm-s-default CodeMirrorServer\" oncopy=\"if(event.clipboardData){event.clipboardData.setData('text\/plain',window.getSelection().toString().replace(\/\\u200b\/g,''));event.preventDefault();event.stopPropagation();}\">\n<div class=\"CodeMirror-code\">\n<div><pre>HERNANAVELLA-WS::Mon Aug 08 13:39:59 2016<\/pre><\/div>\n<div><pre>DEP VAR CRUDE AT 1720 MON THRU THR: 1\/1\/2013 to 7\/29\/2016<\/pre><\/div>\n<div><pre>INDEPENDNT   LAG1 HOUR   LAG2 HOUR       LO       HI     (TRADING DAYS)<\/pre><\/div>\n<div><pre>     CRUDE     1  1430     0  1430      100     5000<\/pre><\/div>\n<div><pre>     CRUDE     0  1430     0  1720    -5000       -1<\/pre><\/div>\n<div><pre><\/pre><\/div>\n<\/div>\n<\/div>\n",
            "lines": 38,
            "lines_more": 33,
            "preview_is_truncated": true,
            "channels": [
                "C1FJVD12T"
            ],
            "groups": [],
            "ims": [],
            "comments_count": 0,
            "reactions": [
                {
                    "name": "hushed",
                    "users": [
                        "U1FHF07QT"
                    ],
                    "count": 1
                }
            ]
        },
        "user": "U1FKCRD8D",
        "upload": true,
        "display_as_bot": false,
        "username": "<@U1FKCRD8D|hernanavella>",
        "bot_id": null,
        "ts": "1470681639.000011"
    }
]