[
    {
        "type": "message",
        "subtype": "file_share",
        "text": "<@U1FJYUKQ9|mkchuprin> uploaded a file: <https:\/\/tradingfutures.slack.com\/files\/mkchuprin\/F3DJSCEH4\/-.txt|Untitled>",
        "file": {
            "id": "F3DJSCEH4",
            "created": 1481307081,
            "timestamp": 1481307081,
            "name": "-.txt",
            "title": "Untitled",
            "mimetype": "text\/plain",
            "filetype": "text",
            "pretty_type": "Plain Text",
            "user": "U1FJYUKQ9",
            "editable": true,
            "size": 4500,
            "mode": "snippet",
            "is_external": false,
            "external_type": "",
            "is_public": true,
            "public_url_shared": false,
            "display_as_bot": false,
            "username": "",
            "url_private": "https:\/\/files.slack.com\/files-pri\/T1FJKLSJ2-F3DJSCEH4\/-.txt?t=xoxe-49631706614-119786374643-119786374659-90264fc38b",
            "url_private_download": "https:\/\/files.slack.com\/files-pri\/T1FJKLSJ2-F3DJSCEH4\/download\/-.txt?t=xoxe-49631706614-119786374643-119786374659-90264fc38b",
            "permalink": "https:\/\/tradingfutures.slack.com\/files\/mkchuprin\/F3DJSCEH4\/-.txt",
            "permalink_public": "https:\/\/slack-files.com\/T1FJKLSJ2-F3DJSCEH4-3b7b7bce43",
            "edit_link": "https:\/\/tradingfutures.slack.com\/files\/mkchuprin\/F3DJSCEH4\/-.txt\/edit",
            "preview": "TIMEZONE: US\/EASTERN\r\n\r\nMCNYCMC03::Fri Dec 09 13:11:08 2016\r\nDEP VAR CRUDE AT 1300 FRI: 01\/01\/2011 to 11\/29\/2016\r\nINDEPENDNT    LAG1  HOUR    LAG2  HOUR        LO        HI     (TRADING DAYS)\r",
            "preview_highlight": "<div class=\"CodeMirror cm-s-default CodeMirrorServer\" oncopy=\"if(event.clipboardData){event.clipboardData.setData('text\/plain',window.getSelection().toString().replace(\/\\u200b\/g,''));event.preventDefault();event.stopPropagation();}\">\n<div class=\"CodeMirror-code\">\n<div><pre>TIMEZONE: US\/EASTERN<\/pre><\/div>\n<div><pre><\/pre><\/div>\n<div><pre>MCNYCMC03::Fri Dec 09 13:11:08 2016<\/pre><\/div>\n<div><pre>DEP VAR CRUDE AT 1300 FRI: 01\/01\/2011 to 11\/29\/2016<\/pre><\/div>\n<div><pre>INDEPENDNT    LAG1  HOUR    LAG2  HOUR        LO        HI     (TRADING DAYS)<\/pre><\/div>\n<div><pre><\/pre><\/div>\n<\/div>\n<\/div>\n",
            "lines": 61,
            "lines_more": 56,
            "preview_is_truncated": true,
            "channels": [
                "C1FJVD12T"
            ],
            "groups": [],
            "ims": [],
            "comments_count": 0
        },
        "user": "U1FJYUKQ9",
        "upload": true,
        "display_as_bot": false,
        "username": "<@U1FJYUKQ9|mkchuprin>",
        "bot_id": null,
        "ts": "1481307082.000008"
    }
]