[
    {
        "type": "message",
        "subtype": "file_share",
        "text": "<@U1FJYUKQ9|mkchuprin> uploaded a file: <https:\/\/tradingfutures.slack.com\/files\/mkchuprin\/F1HFPKPH9\/pasted_image_at_2016_06_16_10_55_am.png|Pasted image at 2016-06-16, 10:55 AM>",
        "file": {
            "id": "F1HFPKPH9",
            "created": 1466088928,
            "timestamp": 1466088928,
            "name": "Pasted image at 2016_06_16 10_55 AM.png",
            "title": "Pasted image at 2016-06-16, 10:55 AM",
            "mimetype": "image\/png",
            "filetype": "png",
            "pretty_type": "PNG",
            "user": "U1FJYUKQ9",
            "editable": false,
            "size": 204638,
            "mode": "hosted",
            "is_external": false,
            "external_type": "",
            "is_public": true,
            "public_url_shared": false,
            "display_as_bot": false,
            "username": "",
            "url_private": "https:\/\/files.slack.com\/files-pri\/T1FJKLSJ2-F1HFPKPH9\/pasted_image_at_2016_06_16_10_55_am.png?t=xoxe-49631706614-119786374643-119786374659-90264fc38b",
            "url_private_download": "https:\/\/files.slack.com\/files-pri\/T1FJKLSJ2-F1HFPKPH9\/download\/pasted_image_at_2016_06_16_10_55_am.png?t=xoxe-49631706614-119786374643-119786374659-90264fc38b",
            "thumb_64": "https:\/\/files.slack.com\/files-tmb\/T1FJKLSJ2-F1HFPKPH9-6570334021\/pasted_image_at_2016_06_16_10_55_am_64.png?t=xoxe-49631706614-119786374643-119786374659-90264fc38b",
            "thumb_80": "https:\/\/files.slack.com\/files-tmb\/T1FJKLSJ2-F1HFPKPH9-6570334021\/pasted_image_at_2016_06_16_10_55_am_80.png?t=xoxe-49631706614-119786374643-119786374659-90264fc38b",
            "thumb_360": "https:\/\/files.slack.com\/files-tmb\/T1FJKLSJ2-F1HFPKPH9-6570334021\/pasted_image_at_2016_06_16_10_55_am_360.png?t=xoxe-49631706614-119786374643-119786374659-90264fc38b",
            "thumb_360_w": 360,
            "thumb_360_h": 233,
            "thumb_480": "https:\/\/files.slack.com\/files-tmb\/T1FJKLSJ2-F1HFPKPH9-6570334021\/pasted_image_at_2016_06_16_10_55_am_480.png?t=xoxe-49631706614-119786374643-119786374659-90264fc38b",
            "thumb_480_w": 480,
            "thumb_480_h": 311,
            "thumb_160": "https:\/\/files.slack.com\/files-tmb\/T1FJKLSJ2-F1HFPKPH9-6570334021\/pasted_image_at_2016_06_16_10_55_am_160.png?t=xoxe-49631706614-119786374643-119786374659-90264fc38b",
            "thumb_720": "https:\/\/files.slack.com\/files-tmb\/T1FJKLSJ2-F1HFPKPH9-6570334021\/pasted_image_at_2016_06_16_10_55_am_720.png?t=xoxe-49631706614-119786374643-119786374659-90264fc38b",
            "thumb_720_w": 720,
            "thumb_720_h": 467,
            "thumb_960": "https:\/\/files.slack.com\/files-tmb\/T1FJKLSJ2-F1HFPKPH9-6570334021\/pasted_image_at_2016_06_16_10_55_am_960.png?t=xoxe-49631706614-119786374643-119786374659-90264fc38b",
            "thumb_960_w": 960,
            "thumb_960_h": 622,
            "thumb_1024": "https:\/\/files.slack.com\/files-tmb\/T1FJKLSJ2-F1HFPKPH9-6570334021\/pasted_image_at_2016_06_16_10_55_am_1024.png?t=xoxe-49631706614-119786374643-119786374659-90264fc38b",
            "thumb_1024_w": 1024,
            "thumb_1024_h": 664,
            "image_exif_rotation": 1,
            "original_w": 1353,
            "original_h": 877,
            "permalink": "https:\/\/tradingfutures.slack.com\/files\/mkchuprin\/F1HFPKPH9\/pasted_image_at_2016_06_16_10_55_am.png",
            "permalink_public": "https:\/\/slack-files.com\/T1FJKLSJ2-F1HFPKPH9-6eac9de4e2",
            "channels": [
                "C1FJVD12T"
            ],
            "groups": [],
            "ims": [],
            "comments_count": 1
        },
        "user": "U1FJYUKQ9",
        "upload": true,
        "display_as_bot": false,
        "username": "<@U1FJYUKQ9|mkchuprin>",
        "bot_id": null,
        "ts": "1466088931.000007"
    },
    {
        "type": "message",
        "subtype": "file_comment",
        "text": "<@U1FHF07QT|jkh> commented on <@U1FJYUKQ9|mkchuprin>'s file <https:\/\/tradingfutures.slack.com\/files\/mkchuprin\/F1HFPKPH9\/pasted_image_at_2016_06_16_10_55_am.png|Pasted image at 2016-06-16, 10:55 AM>: strange pattern but quite a pl plot",
        "file": {
            "id": "F1HFPKPH9",
            "created": 1466088928,
            "timestamp": 1466088928,
            "name": "Pasted image at 2016_06_16 10_55 AM.png",
            "title": "Pasted image at 2016-06-16, 10:55 AM",
            "mimetype": "image\/png",
            "filetype": "png",
            "pretty_type": "PNG",
            "user": "U1FJYUKQ9",
            "editable": false,
            "size": 204638,
            "mode": "hosted",
            "is_external": false,
            "external_type": "",
            "is_public": true,
            "public_url_shared": false,
            "display_as_bot": false,
            "username": "",
            "url_private": "https:\/\/files.slack.com\/files-pri\/T1FJKLSJ2-F1HFPKPH9\/pasted_image_at_2016_06_16_10_55_am.png?t=xoxe-49631706614-119786374643-119786374659-90264fc38b",
            "url_private_download": "https:\/\/files.slack.com\/files-pri\/T1FJKLSJ2-F1HFPKPH9\/download\/pasted_image_at_2016_06_16_10_55_am.png?t=xoxe-49631706614-119786374643-119786374659-90264fc38b",
            "thumb_64": "https:\/\/files.slack.com\/files-tmb\/T1FJKLSJ2-F1HFPKPH9-6570334021\/pasted_image_at_2016_06_16_10_55_am_64.png?t=xoxe-49631706614-119786374643-119786374659-90264fc38b",
            "thumb_80": "https:\/\/files.slack.com\/files-tmb\/T1FJKLSJ2-F1HFPKPH9-6570334021\/pasted_image_at_2016_06_16_10_55_am_80.png?t=xoxe-49631706614-119786374643-119786374659-90264fc38b",
            "thumb_360": "https:\/\/files.slack.com\/files-tmb\/T1FJKLSJ2-F1HFPKPH9-6570334021\/pasted_image_at_2016_06_16_10_55_am_360.png?t=xoxe-49631706614-119786374643-119786374659-90264fc38b",
            "thumb_360_w": 360,
            "thumb_360_h": 233,
            "thumb_480": "https:\/\/files.slack.com\/files-tmb\/T1FJKLSJ2-F1HFPKPH9-6570334021\/pasted_image_at_2016_06_16_10_55_am_480.png?t=xoxe-49631706614-119786374643-119786374659-90264fc38b",
            "thumb_480_w": 480,
            "thumb_480_h": 311,
            "thumb_160": "https:\/\/files.slack.com\/files-tmb\/T1FJKLSJ2-F1HFPKPH9-6570334021\/pasted_image_at_2016_06_16_10_55_am_160.png?t=xoxe-49631706614-119786374643-119786374659-90264fc38b",
            "thumb_720": "https:\/\/files.slack.com\/files-tmb\/T1FJKLSJ2-F1HFPKPH9-6570334021\/pasted_image_at_2016_06_16_10_55_am_720.png?t=xoxe-49631706614-119786374643-119786374659-90264fc38b",
            "thumb_720_w": 720,
            "thumb_720_h": 467,
            "thumb_960": "https:\/\/files.slack.com\/files-tmb\/T1FJKLSJ2-F1HFPKPH9-6570334021\/pasted_image_at_2016_06_16_10_55_am_960.png?t=xoxe-49631706614-119786374643-119786374659-90264fc38b",
            "thumb_960_w": 960,
            "thumb_960_h": 622,
            "thumb_1024": "https:\/\/files.slack.com\/files-tmb\/T1FJKLSJ2-F1HFPKPH9-6570334021\/pasted_image_at_2016_06_16_10_55_am_1024.png?t=xoxe-49631706614-119786374643-119786374659-90264fc38b",
            "thumb_1024_w": 1024,
            "thumb_1024_h": 664,
            "image_exif_rotation": 1,
            "original_w": 1353,
            "original_h": 877,
            "permalink": "https:\/\/tradingfutures.slack.com\/files\/mkchuprin\/F1HFPKPH9\/pasted_image_at_2016_06_16_10_55_am.png",
            "permalink_public": "https:\/\/slack-files.com\/T1FJKLSJ2-F1HFPKPH9-6eac9de4e2",
            "channels": [
                "C1FJVD12T"
            ],
            "groups": [],
            "ims": [],
            "comments_count": 1
        },
        "comment": {
            "id": "Fc1HH4M5JB",
            "created": 1466089011,
            "timestamp": 1466089011,
            "user": "U1FHF07QT",
            "is_intro": false,
            "comment": "strange pattern but quite a pl plot",
            "channel": ""
        },
        "is_intro": false,
        "ts": "1466089011.000008"
    },
    {
        "type": "message",
        "user": "U1FKCRD8D",
        "text": "I like it. Thanks!!",
        "ts": "1466089034.000009"
    },
    {
        "type": "message",
        "user": "U1FJYUKQ9",
        "text": "now that i look at it, it might be a bit strange",
        "ts": "1466089045.000010"
    },
    {
        "type": "message",
        "user": "U1FJYUKQ9",
        "text": "the idea is just to move up the trade time",
        "ts": "1466089051.000011"
    }
]