[
    {
        "type": "message",
        "subtype": "file_share",
        "text": "<@U1FKCRD8D|hernanavella> uploaded a file: <https:\/\/tradingfutures.slack.com\/files\/hernanavella\/F2DL0UZ46\/-.txt|Untitled>",
        "file": {
            "id": "F2DL0UZ46",
            "created": 1474376305,
            "timestamp": 1474376305,
            "name": "-.txt",
            "title": "Untitled",
            "mimetype": "text\/plain",
            "filetype": "text",
            "pretty_type": "Plain Text",
            "user": "U1FKCRD8D",
            "editable": true,
            "size": 1799,
            "mode": "snippet",
            "is_external": false,
            "external_type": "",
            "is_public": true,
            "public_url_shared": false,
            "display_as_bot": false,
            "username": "",
            "url_private": "https:\/\/files.slack.com\/files-pri\/T1FJKLSJ2-F2DL0UZ46\/-.txt?t=xoxe-49631706614-119786374643-119786374659-90264fc38b",
            "url_private_download": "https:\/\/files.slack.com\/files-pri\/T1FJKLSJ2-F2DL0UZ46\/download\/-.txt?t=xoxe-49631706614-119786374643-119786374659-90264fc38b",
            "permalink": "https:\/\/tradingfutures.slack.com\/files\/hernanavella\/F2DL0UZ46\/-.txt",
            "permalink_public": "https:\/\/slack-files.com\/T1FJKLSJ2-F2DL0UZ46-ed019eb760",
            "edit_link": "https:\/\/tradingfutures.slack.com\/files\/hernanavella\/F2DL0UZ46\/-.txt\/edit",
            "preview": "HERNANAVELLA-WS::Tue Sep 20 07:58:04 2016\r\nDEP VAR CRUDE AT 900 ALL DAYS: 1\/1\/2013 to 9\/2\/2016\r\nINCLUDE FOMC ANNOUNCEMENT AT T(1)\r\n\r\n   Y  M  D  DW  PLAST 1000 1100 1200 1300 1400 1500 1600 1700 1720  100  200  300\r",
            "preview_highlight": "<div class=\"CodeMirror cm-s-default CodeMirrorServer\" oncopy=\"if(event.clipboardData){event.clipboardData.setData('text\/plain',window.getSelection().toString().replace(\/\\u200b\/g,''));event.preventDefault();event.stopPropagation();}\">\n<div class=\"CodeMirror-code\">\n<div><pre>HERNANAVELLA-WS::Tue Sep 20 07:58:04 2016<\/pre><\/div>\n<div><pre>DEP VAR CRUDE AT 900 ALL DAYS: 1\/1\/2013 to 9\/2\/2016<\/pre><\/div>\n<div><pre>INCLUDE FOMC ANNOUNCEMENT AT T(1)<\/pre><\/div>\n<div><pre><\/pre><\/div>\n<div><pre>   Y  M  D  DW  PLAST 1000 1100 1200 1300 1400 1500 1600 1700 1720  100  200  300<\/pre><\/div>\n<div><pre><\/pre><\/div>\n<\/div>\n<\/div>\n",
            "lines": 27,
            "lines_more": 22,
            "preview_is_truncated": true,
            "channels": [
                "C1FJVD12T"
            ],
            "groups": [],
            "ims": [],
            "comments_count": 0
        },
        "user": "U1FKCRD8D",
        "upload": true,
        "display_as_bot": false,
        "username": "<@U1FKCRD8D|hernanavella>",
        "bot_id": null,
        "ts": "1474376306.000047"
    },
    {
        "type": "message",
        "subtype": "file_share",
        "text": "<@U1FKCRD8D|hernanavella> uploaded a file: <https:\/\/tradingfutures.slack.com\/files\/hernanavella\/F2DJP65QB\/-.txt|Untitled>",
        "file": {
            "id": "F2DJP65QB",
            "created": 1474376754,
            "timestamp": 1474376754,
            "name": "-.txt",
            "title": "Untitled",
            "mimetype": "text\/plain",
            "filetype": "text",
            "pretty_type": "Plain Text",
            "user": "U1FKCRD8D",
            "editable": true,
            "size": 1999,
            "mode": "snippet",
            "is_external": false,
            "external_type": "",
            "is_public": true,
            "public_url_shared": false,
            "display_as_bot": false,
            "username": "",
            "url_private": "https:\/\/files.slack.com\/files-pri\/T1FJKLSJ2-F2DJP65QB\/-.txt?t=xoxe-49631706614-119786374643-119786374659-90264fc38b",
            "url_private_download": "https:\/\/files.slack.com\/files-pri\/T1FJKLSJ2-F2DJP65QB\/download\/-.txt?t=xoxe-49631706614-119786374643-119786374659-90264fc38b",
            "permalink": "https:\/\/tradingfutures.slack.com\/files\/hernanavella\/F2DJP65QB\/-.txt",
            "permalink_public": "https:\/\/slack-files.com\/T1FJKLSJ2-F2DJP65QB-bf8b9dd47b",
            "edit_link": "https:\/\/tradingfutures.slack.com\/files\/hernanavella\/F2DJP65QB\/-.txt\/edit",
            "preview": "HERNANAVELLA-WS::Tue Sep 20 08:04:57 2016\r\nDEP VAR CRUDE AT 900 ALL DAYS: 3\/1\/2015 to 9\/2\/2016\r\nINDEPENDNT   LAG1 HOUR   LAG2 HOUR       LO       HI     (TRADING DAYS)\r\n     CRUDE     1  1430     0   900    -5000       -1\r\n     CRUDE     2  1430     1   900        1     5000\r",
            "preview_highlight": "<div class=\"CodeMirror cm-s-default CodeMirrorServer\" oncopy=\"if(event.clipboardData){event.clipboardData.setData('text\/plain',window.getSelection().toString().replace(\/\\u200b\/g,''));event.preventDefault();event.stopPropagation();}\">\n<div class=\"CodeMirror-code\">\n<div><pre>HERNANAVELLA-WS::Tue Sep 20 08:04:57 2016<\/pre><\/div>\n<div><pre>DEP VAR CRUDE AT 900 ALL DAYS: 3\/1\/2015 to 9\/2\/2016<\/pre><\/div>\n<div><pre>INDEPENDNT   LAG1 HOUR   LAG2 HOUR       LO       HI     (TRADING DAYS)<\/pre><\/div>\n<div><pre>     CRUDE     1  1430     0   900    -5000       -1<\/pre><\/div>\n<div><pre>     CRUDE     2  1430     1   900        1     5000<\/pre><\/div>\n<div><pre><\/pre><\/div>\n<\/div>\n<\/div>\n",
            "lines": 30,
            "lines_more": 25,
            "preview_is_truncated": true,
            "channels": [
                "C1FJVD12T"
            ],
            "groups": [],
            "ims": [],
            "comments_count": 0,
            "reactions": [
                {
                    "name": "scream",
                    "users": [
                        "U1FHF07QT"
                    ],
                    "count": 1
                }
            ]
        },
        "user": "U1FKCRD8D",
        "upload": true,
        "display_as_bot": false,
        "username": "<@U1FKCRD8D|hernanavella>",
        "bot_id": null,
        "ts": "1474376754.000048"
    },
    {
        "type": "message",
        "subtype": "file_share",
        "text": "<@U1FJWQN1Z|bet4value> uploaded a file: <https:\/\/tradingfutures.slack.com\/files\/bet4value\/F2DLLLPHT\/-.txt|Untitled>",
        "file": {
            "id": "F2DLLLPHT",
            "created": 1474378076,
            "timestamp": 1474378076,
            "name": "-.txt",
            "title": "Untitled",
            "mimetype": "text\/plain",
            "filetype": "text",
            "pretty_type": "Plain Text",
            "user": "U1FJWQN1Z",
            "editable": true,
            "size": 3941,
            "mode": "snippet",
            "is_external": false,
            "external_type": "",
            "is_public": true,
            "public_url_shared": false,
            "display_as_bot": false,
            "username": "",
            "url_private": "https:\/\/files.slack.com\/files-pri\/T1FJKLSJ2-F2DLLLPHT\/-.txt?t=xoxe-49631706614-119786374643-119786374659-90264fc38b",
            "url_private_download": "https:\/\/files.slack.com\/files-pri\/T1FJKLSJ2-F2DLLLPHT\/download\/-.txt?t=xoxe-49631706614-119786374643-119786374659-90264fc38b",
            "permalink": "https:\/\/tradingfutures.slack.com\/files\/bet4value\/F2DLLLPHT\/-.txt",
            "permalink_public": "https:\/\/slack-files.com\/T1FJKLSJ2-F2DLLLPHT-c6658c32dd",
            "edit_link": "https:\/\/tradingfutures.slack.com\/files\/bet4value\/F2DLLLPHT\/-.txt\/edit",
            "preview": "PCMAC::Tue Sep 20 09:27:38 2016\r\nDEP VAR CRUDE AT 930 ALL DAYS: 1\/1\/2014 to 9\/2\/2016\r\nAS OF 2 1430, CRUDE AT 20 COMPARISON DAY LOW \r\nINDEPENDNT   LAG1 HOUR   LAG2 HOUR       LO       HI     (TRADING DAYS)\r\n     CRUDE     1  1430     0   930    -5000       -1\r",
            "preview_highlight": "<div class=\"CodeMirror cm-s-default CodeMirrorServer\" oncopy=\"if(event.clipboardData){event.clipboardData.setData('text\/plain',window.getSelection().toString().replace(\/\\u200b\/g,''));event.preventDefault();event.stopPropagation();}\">\n<div class=\"CodeMirror-code\">\n<div><pre>PCMAC::Tue Sep 20 09:27:38 2016<\/pre><\/div>\n<div><pre>DEP VAR CRUDE AT 930 ALL DAYS: 1\/1\/2014 to 9\/2\/2016<\/pre><\/div>\n<div><pre>AS OF 2 1430, CRUDE AT 20 COMPARISON DAY LOW <\/pre><\/div>\n<div><pre>INDEPENDNT   LAG1 HOUR   LAG2 HOUR       LO       HI     (TRADING DAYS)<\/pre><\/div>\n<div><pre>     CRUDE     1  1430     0   930    -5000       -1<\/pre><\/div>\n<div><pre><\/pre><\/div>\n<\/div>\n<\/div>\n",
            "lines": 66,
            "lines_more": 61,
            "preview_is_truncated": true,
            "channels": [
                "C1FJVD12T"
            ],
            "groups": [],
            "ims": [],
            "comments_count": 0,
            "reactions": [
                {
                    "name": "white_check_mark",
                    "users": [
                        "U1FHF07QT"
                    ],
                    "count": 1
                }
            ]
        },
        "user": "U1FJWQN1Z",
        "upload": true,
        "display_as_bot": false,
        "username": "<@U1FJWQN1Z|bet4value>",
        "bot_id": null,
        "ts": "1474378076.000050"
    },
    {
        "type": "message",
        "subtype": "file_share",
        "text": "<@U1FJWQN1Z|bet4value> uploaded a file: <https:\/\/tradingfutures.slack.com\/files\/bet4value\/F2DLBTNAG\/-.txt|Untitled> and commented: more generalized version",
        "file": {
            "id": "F2DLBTNAG",
            "created": 1474378166,
            "timestamp": 1474378166,
            "name": "-.txt",
            "title": "Untitled",
            "mimetype": "text\/plain",
            "filetype": "text",
            "pretty_type": "Plain Text",
            "user": "U1FJWQN1Z",
            "editable": true,
            "size": 3949,
            "mode": "snippet",
            "is_external": false,
            "external_type": "",
            "is_public": true,
            "public_url_shared": false,
            "display_as_bot": false,
            "username": "",
            "url_private": "https:\/\/files.slack.com\/files-pri\/T1FJKLSJ2-F2DLBTNAG\/-.txt?t=xoxe-49631706614-119786374643-119786374659-90264fc38b",
            "url_private_download": "https:\/\/files.slack.com\/files-pri\/T1FJKLSJ2-F2DLBTNAG\/download\/-.txt?t=xoxe-49631706614-119786374643-119786374659-90264fc38b",
            "permalink": "https:\/\/tradingfutures.slack.com\/files\/bet4value\/F2DLBTNAG\/-.txt",
            "permalink_public": "https:\/\/slack-files.com\/T1FJKLSJ2-F2DLBTNAG-2b99317909",
            "edit_link": "https:\/\/tradingfutures.slack.com\/files\/bet4value\/F2DLBTNAG\/-.txt\/edit",
            "preview": "PCMAC::Tue Sep 20 09:29:06 2016\r\nDEP VAR CRUDE AT 930 ALL DAYS: 1\/1\/2013 to 9\/2\/2016\r\nAS OF 2 1430, CRUDE AT 20 COMPARISON DAY LOW \r\nINDEPENDNT   LAG1 HOUR   LAG2 HOUR       LO       HI     (TRADING DAYS)\r\n     CRUDE     1  1430     0   930    -5000       -1\r",
            "preview_highlight": "<div class=\"CodeMirror cm-s-default CodeMirrorServer\" oncopy=\"if(event.clipboardData){event.clipboardData.setData('text\/plain',window.getSelection().toString().replace(\/\\u200b\/g,''));event.preventDefault();event.stopPropagation();}\">\n<div class=\"CodeMirror-code\">\n<div><pre>PCMAC::Tue Sep 20 09:29:06 2016<\/pre><\/div>\n<div><pre>DEP VAR CRUDE AT 930 ALL DAYS: 1\/1\/2013 to 9\/2\/2016<\/pre><\/div>\n<div><pre>AS OF 2 1430, CRUDE AT 20 COMPARISON DAY LOW <\/pre><\/div>\n<div><pre>INDEPENDNT   LAG1 HOUR   LAG2 HOUR       LO       HI     (TRADING DAYS)<\/pre><\/div>\n<div><pre>     CRUDE     1  1430     0   930    -5000       -1<\/pre><\/div>\n<div><pre><\/pre><\/div>\n<\/div>\n<\/div>\n",
            "lines": 66,
            "lines_more": 61,
            "preview_is_truncated": true,
            "channels": [
                "C1FJVD12T"
            ],
            "groups": [],
            "ims": [],
            "comments_count": 1,
            "initial_comment": {
                "id": "Fc2DLEJNS2",
                "created": 1474378166,
                "timestamp": 1474378166,
                "user": "U1FJWQN1Z",
                "is_intro": true,
                "comment": "more generalized version",
                "channel": ""
            }
        },
        "user": "U1FJWQN1Z",
        "upload": true,
        "display_as_bot": false,
        "username": "<@U1FJWQN1Z|bet4value>",
        "bot_id": null,
        "ts": "1474378167.000052"
    },
    {
        "type": "message",
        "subtype": "file_share",
        "text": "<@U1FKCRD8D|hernanavella> uploaded a file: <https:\/\/tradingfutures.slack.com\/files\/hernanavella\/F2DV5BQR2\/-.txt|Untitled>",
        "file": {
            "id": "F2DV5BQR2",
            "created": 1474415471,
            "timestamp": 1474415471,
            "name": "-.txt",
            "title": "Untitled",
            "mimetype": "text\/plain",
            "filetype": "text",
            "pretty_type": "Plain Text",
            "user": "U1FKCRD8D",
            "editable": true,
            "size": 1886,
            "mode": "snippet",
            "is_external": false,
            "external_type": "",
            "is_public": true,
            "public_url_shared": false,
            "display_as_bot": false,
            "username": "",
            "url_private": "https:\/\/files.slack.com\/files-pri\/T1FJKLSJ2-F2DV5BQR2\/-.txt?t=xoxe-49631706614-119786374643-119786374659-90264fc38b",
            "url_private_download": "https:\/\/files.slack.com\/files-pri\/T1FJKLSJ2-F2DV5BQR2\/download\/-.txt?t=xoxe-49631706614-119786374643-119786374659-90264fc38b",
            "permalink": "https:\/\/tradingfutures.slack.com\/files\/hernanavella\/F2DV5BQR2\/-.txt",
            "permalink_public": "https:\/\/slack-files.com\/T1FJKLSJ2-F2DV5BQR2-8f18c880ff",
            "edit_link": "https:\/\/tradingfutures.slack.com\/files\/hernanavella\/F2DV5BQR2\/-.txt\/edit",
            "preview": "HERNANAVELLA-WS::Tue Sep 20 18:50:44 2016\r\nDEP VAR CRUDE AT 900 WED: 1\/1\/2016 to 9\/2\/2016\r\nINDEPENDNT   LAG1 HOUR   LAG2 HOUR       LO       HI     (TRADING DAYS)\r\n     CRUDE     5   900     5  1430    -5000       -1\r\n\r",
            "preview_highlight": "<div class=\"CodeMirror cm-s-default CodeMirrorServer\" oncopy=\"if(event.clipboardData){event.clipboardData.setData('text\/plain',window.getSelection().toString().replace(\/\\u200b\/g,''));event.preventDefault();event.stopPropagation();}\">\n<div class=\"CodeMirror-code\">\n<div><pre>HERNANAVELLA-WS::Tue Sep 20 18:50:44 2016<\/pre><\/div>\n<div><pre>DEP VAR CRUDE AT 900 WED: 1\/1\/2016 to 9\/2\/2016<\/pre><\/div>\n<div><pre>INDEPENDNT   LAG1 HOUR   LAG2 HOUR       LO       HI     (TRADING DAYS)<\/pre><\/div>\n<div><pre>     CRUDE     5   900     5  1430    -5000       -1<\/pre><\/div>\n<div><pre><\/pre><\/div>\n<div><pre><\/pre><\/div>\n<\/div>\n<\/div>\n",
            "lines": 28,
            "lines_more": 23,
            "preview_is_truncated": true,
            "channels": [
                "C1FJVD12T"
            ],
            "groups": [],
            "ims": [],
            "comments_count": 0
        },
        "user": "U1FKCRD8D",
        "upload": true,
        "display_as_bot": false,
        "username": "<@U1FKCRD8D|hernanavella>",
        "bot_id": null,
        "ts": "1474415472.000053"
    }
]