[
    {
        "type": "message",
        "subtype": "file_share",
        "text": "<@U1FHF07QT|jkh> uploaded a file: <https:\/\/tradingfutures.slack.com\/files\/jkh\/F1RN7V4JV\/_1030.txt|@1030>",
        "file": {
            "id": "F1RN7V4JV",
            "created": 1468500843,
            "timestamp": 1468500843,
            "name": "_1030.txt",
            "title": "@1030",
            "mimetype": "text\/plain",
            "filetype": "text",
            "pretty_type": "Plain Text",
            "user": "U1FHF07QT",
            "editable": true,
            "size": 1049,
            "mode": "snippet",
            "is_external": false,
            "external_type": "",
            "is_public": true,
            "public_url_shared": false,
            "display_as_bot": false,
            "username": "",
            "url_private": "https:\/\/files.slack.com\/files-pri\/T1FJKLSJ2-F1RN7V4JV\/_1030.txt?t=xoxe-49631706614-119786374643-119786374659-90264fc38b",
            "url_private_download": "https:\/\/files.slack.com\/files-pri\/T1FJKLSJ2-F1RN7V4JV\/download\/_1030.txt?t=xoxe-49631706614-119786374643-119786374659-90264fc38b",
            "permalink": "https:\/\/tradingfutures.slack.com\/files\/jkh\/F1RN7V4JV\/_1030.txt",
            "permalink_public": "https:\/\/slack-files.com\/T1FJKLSJ2-F1RN7V4JV-12e929c48e",
            "edit_link": "https:\/\/tradingfutures.slack.com\/files\/jkh\/F1RN7V4JV\/_1030.txt\/edit",
            "preview": "JKH::Thu 14 Jul 2016 08:53:07 AM EDT\r\nDEP VAR CRUDE AT 1030 : 01\/01\/2009 TO 01\/01\/2020  US\/Eastern\r\n\r\nINDEPENDNT LAG1  HOUR LAG2  HOUR    LO     HI          TZ\r\n    crude    1  1430    0   900    50    150  US\/Eastern\r",
            "preview_highlight": "<div class=\"CodeMirror cm-s-default CodeMirrorServer\" oncopy=\"if(event.clipboardData){event.clipboardData.setData('text\/plain',window.getSelection().toString().replace(\/\\u200b\/g,''));event.preventDefault();event.stopPropagation();}\">\n<div class=\"CodeMirror-code\">\n<div><pre>JKH::Thu 14 Jul 2016 08:53:07 AM EDT<\/pre><\/div>\n<div><pre>DEP VAR CRUDE AT 1030 : 01\/01\/2009 TO 01\/01\/2020  US\/Eastern<\/pre><\/div>\n<div><pre><\/pre><\/div>\n<div><pre>INDEPENDNT LAG1  HOUR LAG2  HOUR    LO     HI          TZ<\/pre><\/div>\n<div><pre>    crude    1  1430    0   900    50    150  US\/Eastern<\/pre><\/div>\n<div><pre><\/pre><\/div>\n<\/div>\n<\/div>\n",
            "lines": 25,
            "lines_more": 20,
            "preview_is_truncated": true,
            "channels": [
                "C1FJVD12T"
            ],
            "groups": [],
            "ims": [],
            "comments_count": 0,
            "reactions": [
                {
                    "name": "cow",
                    "users": [
                        "U1FKCRD8D"
                    ],
                    "count": 1
                }
            ]
        },
        "user": "U1FHF07QT",
        "upload": true,
        "display_as_bot": false,
        "username": "<@U1FHF07QT|jkh>",
        "bot_id": null,
        "ts": "1468500843.000019"
    },
    {
        "type": "message",
        "subtype": "file_share",
        "text": "<@U1FHF07QT|jkh> uploaded a file: <https:\/\/tradingfutures.slack.com\/files\/jkh\/F1RMT06S0\/tbond_on_crude.txt|tbond on crude>",
        "file": {
            "id": "F1RMT06S0",
            "created": 1468501211,
            "timestamp": 1468501211,
            "name": "tbond_on_crude.txt",
            "title": "tbond on crude",
            "mimetype": "text\/plain",
            "filetype": "text",
            "pretty_type": "Plain Text",
            "user": "U1FHF07QT",
            "editable": true,
            "size": 1141,
            "mode": "snippet",
            "is_external": false,
            "external_type": "",
            "is_public": true,
            "public_url_shared": false,
            "display_as_bot": false,
            "username": "",
            "url_private": "https:\/\/files.slack.com\/files-pri\/T1FJKLSJ2-F1RMT06S0\/tbond_on_crude.txt?t=xoxe-49631706614-119786374643-119786374659-90264fc38b",
            "url_private_download": "https:\/\/files.slack.com\/files-pri\/T1FJKLSJ2-F1RMT06S0\/download\/tbond_on_crude.txt?t=xoxe-49631706614-119786374643-119786374659-90264fc38b",
            "permalink": "https:\/\/tradingfutures.slack.com\/files\/jkh\/F1RMT06S0\/tbond_on_crude.txt",
            "permalink_public": "https:\/\/slack-files.com\/T1FJKLSJ2-F1RMT06S0-316a249cb8",
            "edit_link": "https:\/\/tradingfutures.slack.com\/files\/jkh\/F1RMT06S0\/tbond_on_crude.txt\/edit",
            "preview": "JKH::Thu 14 Jul 2016 08:59:37 AM EDT\r\nDEP VAR CRUDE AT 900 : 01\/01\/2013 TO 01\/01\/2020  US\/Eastern\r\n\r\nINDEPENDNT LAG1  HOUR LAG2  HOUR   LO     HI          TZ\r\n    tbond    1  1715    0   900  -50  -5000  US\/Eastern\r",
            "preview_highlight": "<div class=\"CodeMirror cm-s-default CodeMirrorServer\" oncopy=\"if(event.clipboardData){event.clipboardData.setData('text\/plain',window.getSelection().toString().replace(\/\\u200b\/g,''));event.preventDefault();event.stopPropagation();}\">\n<div class=\"CodeMirror-code\">\n<div><pre>JKH::Thu 14 Jul 2016 08:59:37 AM EDT<\/pre><\/div>\n<div><pre>DEP VAR CRUDE AT 900 : 01\/01\/2013 TO 01\/01\/2020  US\/Eastern<\/pre><\/div>\n<div><pre><\/pre><\/div>\n<div><pre>INDEPENDNT LAG1  HOUR LAG2  HOUR   LO     HI          TZ<\/pre><\/div>\n<div><pre>    tbond    1  1715    0   900  -50  -5000  US\/Eastern<\/pre><\/div>\n<div><pre><\/pre><\/div>\n<\/div>\n<\/div>\n",
            "lines": 27,
            "lines_more": 22,
            "preview_is_truncated": true,
            "channels": [
                "C1FJVD12T"
            ],
            "groups": [],
            "ims": [],
            "comments_count": 1
        },
        "user": "U1FHF07QT",
        "upload": true,
        "display_as_bot": false,
        "username": "<@U1FHF07QT|jkh>",
        "bot_id": null,
        "ts": "1468501211.000021"
    },
    {
        "type": "message",
        "subtype": "file_comment",
        "text": "<@U1FHF07QT|jkh> commented on <@U1FHF07QT|jkh>'s file <https:\/\/tradingfutures.slack.com\/files\/jkh\/F1RMT06S0\/tbond_on_crude.txt|tbond on crude>: bull for spu, bear for tbond as well.",
        "file": {
            "id": "F1RMT06S0",
            "created": 1468501211,
            "timestamp": 1468501211,
            "name": "tbond_on_crude.txt",
            "title": "tbond on crude",
            "mimetype": "text\/plain",
            "filetype": "text",
            "pretty_type": "Plain Text",
            "user": "U1FHF07QT",
            "editable": true,
            "size": 1141,
            "mode": "snippet",
            "is_external": false,
            "external_type": "",
            "is_public": true,
            "public_url_shared": false,
            "display_as_bot": false,
            "username": "",
            "url_private": "https:\/\/files.slack.com\/files-pri\/T1FJKLSJ2-F1RMT06S0\/tbond_on_crude.txt?t=xoxe-49631706614-119786374643-119786374659-90264fc38b",
            "url_private_download": "https:\/\/files.slack.com\/files-pri\/T1FJKLSJ2-F1RMT06S0\/download\/tbond_on_crude.txt?t=xoxe-49631706614-119786374643-119786374659-90264fc38b",
            "permalink": "https:\/\/tradingfutures.slack.com\/files\/jkh\/F1RMT06S0\/tbond_on_crude.txt",
            "permalink_public": "https:\/\/slack-files.com\/T1FJKLSJ2-F1RMT06S0-316a249cb8",
            "edit_link": "https:\/\/tradingfutures.slack.com\/files\/jkh\/F1RMT06S0\/tbond_on_crude.txt\/edit",
            "preview": "JKH::Thu 14 Jul 2016 08:59:37 AM EDT\r\nDEP VAR CRUDE AT 900 : 01\/01\/2013 TO 01\/01\/2020  US\/Eastern\r\n\r\nINDEPENDNT LAG1  HOUR LAG2  HOUR   LO     HI          TZ\r\n    tbond    1  1715    0   900  -50  -5000  US\/Eastern\r",
            "preview_highlight": "<div class=\"CodeMirror cm-s-default CodeMirrorServer\" oncopy=\"if(event.clipboardData){event.clipboardData.setData('text\/plain',window.getSelection().toString().replace(\/\\u200b\/g,''));event.preventDefault();event.stopPropagation();}\">\n<div class=\"CodeMirror-code\">\n<div><pre>JKH::Thu 14 Jul 2016 08:59:37 AM EDT<\/pre><\/div>\n<div><pre>DEP VAR CRUDE AT 900 : 01\/01\/2013 TO 01\/01\/2020  US\/Eastern<\/pre><\/div>\n<div><pre><\/pre><\/div>\n<div><pre>INDEPENDNT LAG1  HOUR LAG2  HOUR   LO     HI          TZ<\/pre><\/div>\n<div><pre>    tbond    1  1715    0   900  -50  -5000  US\/Eastern<\/pre><\/div>\n<div><pre><\/pre><\/div>\n<\/div>\n<\/div>\n",
            "lines": 27,
            "lines_more": 22,
            "preview_is_truncated": true,
            "channels": [
                "C1FJVD12T"
            ],
            "groups": [],
            "ims": [],
            "comments_count": 1
        },
        "comment": {
            "id": "Fc1RMVDZ2S",
            "created": 1468501249,
            "timestamp": 1468501249,
            "user": "U1FHF07QT",
            "is_intro": false,
            "comment": "bull for spu, bear for tbond as well.",
            "channel": ""
        },
        "is_intro": false,
        "ts": "1468501249.000022"
    },
    {
        "type": "message",
        "subtype": "file_share",
        "text": "<@U1FJWQN1Z|bet4value> uploaded a file: <https:\/\/tradingfutures.slack.com\/files\/bet4value\/F1RNCM61M\/-.txt|Untitled> and commented: 3x threat",
        "file": {
            "id": "F1RNCM61M",
            "created": 1468502893,
            "timestamp": 1468502893,
            "name": "-.txt",
            "title": "Untitled",
            "mimetype": "text\/plain",
            "filetype": "text",
            "pretty_type": "Plain Text",
            "user": "U1FJWQN1Z",
            "editable": true,
            "size": 3886,
            "mode": "snippet",
            "is_external": false,
            "external_type": "",
            "is_public": true,
            "public_url_shared": false,
            "display_as_bot": false,
            "username": "",
            "url_private": "https:\/\/files.slack.com\/files-pri\/T1FJKLSJ2-F1RNCM61M\/-.txt?t=xoxe-49631706614-119786374643-119786374659-90264fc38b",
            "url_private_download": "https:\/\/files.slack.com\/files-pri\/T1FJKLSJ2-F1RNCM61M\/download\/-.txt?t=xoxe-49631706614-119786374643-119786374659-90264fc38b",
            "permalink": "https:\/\/tradingfutures.slack.com\/files\/bet4value\/F1RNCM61M\/-.txt",
            "permalink_public": "https:\/\/slack-files.com\/T1FJKLSJ2-F1RNCM61M-6feac87c22",
            "edit_link": "https:\/\/tradingfutures.slack.com\/files\/bet4value\/F1RNCM61M\/-.txt\/edit",
            "preview": "PCMAC::Thu Jul 14 09:27:52 2016\r\nDEP VAR CRUDE AT 900 ALL DAYS: 1\/1\/2009 to 6\/24\/2016\r\nINDEPENDNT   LAG1 HOUR   LAG2 HOUR       LO       HI     (TRADING DAYS)\r\n     CRUDE     1  1430     0   900        1     5000\r\n     CRUDE     1   900     1  1430    -5000       -1\r",
            "preview_highlight": "<div class=\"CodeMirror cm-s-default CodeMirrorServer\" oncopy=\"if(event.clipboardData){event.clipboardData.setData('text\/plain',window.getSelection().toString().replace(\/\\u200b\/g,''));event.preventDefault();event.stopPropagation();}\">\n<div class=\"CodeMirror-code\">\n<div><pre>PCMAC::Thu Jul 14 09:27:52 2016<\/pre><\/div>\n<div><pre>DEP VAR CRUDE AT 900 ALL DAYS: 1\/1\/2009 to 6\/24\/2016<\/pre><\/div>\n<div><pre>INDEPENDNT   LAG1 HOUR   LAG2 HOUR       LO       HI     (TRADING DAYS)<\/pre><\/div>\n<div><pre>     CRUDE     1  1430     0   900        1     5000<\/pre><\/div>\n<div><pre>     CRUDE     1   900     1  1430    -5000       -1<\/pre><\/div>\n<div><pre><\/pre><\/div>\n<\/div>\n<\/div>\n",
            "lines": 63,
            "lines_more": 58,
            "preview_is_truncated": true,
            "channels": [
                "C1FJVD12T"
            ],
            "groups": [],
            "ims": [],
            "comments_count": 1,
            "initial_comment": {
                "id": "Fc1RNCM8NT",
                "created": 1468502893,
                "timestamp": 1468502893,
                "user": "U1FJWQN1Z",
                "is_intro": true,
                "comment": "3x threat",
                "channel": ""
            },
            "reactions": [
                {
                    "name": "+1::skin-tone-5",
                    "users": [
                        "U1FKCRD8D"
                    ],
                    "count": 1
                }
            ]
        },
        "user": "U1FJWQN1Z",
        "upload": true,
        "display_as_bot": false,
        "username": "<@U1FJWQN1Z|bet4value>",
        "bot_id": null,
        "ts": "1468502893.000023"
    },
    {
        "type": "message",
        "subtype": "file_share",
        "text": "<@U1FJWQN1Z|bet4value> uploaded a file: <https:\/\/tradingfutures.slack.com\/files\/bet4value\/F1RN96SKD\/-.txt|Untitled> and commented: to add fuel to 3x threat....this is dino-mite!",
        "file": {
            "id": "F1RN96SKD",
            "created": 1468510391,
            "timestamp": 1468510391,
            "name": "-.txt",
            "title": "Untitled",
            "mimetype": "text\/plain",
            "filetype": "text",
            "pretty_type": "Plain Text",
            "user": "U1FJWQN1Z",
            "editable": true,
            "size": 3884,
            "mode": "snippet",
            "is_external": false,
            "external_type": "",
            "is_public": true,
            "public_url_shared": false,
            "display_as_bot": false,
            "username": "",
            "url_private": "https:\/\/files.slack.com\/files-pri\/T1FJKLSJ2-F1RN96SKD\/-.txt?t=xoxe-49631706614-119786374643-119786374659-90264fc38b",
            "url_private_download": "https:\/\/files.slack.com\/files-pri\/T1FJKLSJ2-F1RN96SKD\/download\/-.txt?t=xoxe-49631706614-119786374643-119786374659-90264fc38b",
            "permalink": "https:\/\/tradingfutures.slack.com\/files\/bet4value\/F1RN96SKD\/-.txt",
            "permalink_public": "https:\/\/slack-files.com\/T1FJKLSJ2-F1RN96SKD-0711585249",
            "edit_link": "https:\/\/tradingfutures.slack.com\/files\/bet4value\/F1RN96SKD\/-.txt\/edit",
            "preview": "PCMAC::Thu Jul 14 11:31:41 2016\r\nDEP VAR CRUDE AT 1130 ALL DAYS: 1\/1\/2009 to 6\/24\/2016\r\nAS OF 0 1130, YEN AT 20 COMPARISON DAY HIGH \r\nINDEPENDNT   LAG1 HOUR   LAG2 HOUR       LO       HI     (TRADING DAYS)\r\n     CRUDE     1  1720     0  1130        1     5000\r",
            "preview_highlight": "<div class=\"CodeMirror cm-s-default CodeMirrorServer\" oncopy=\"if(event.clipboardData){event.clipboardData.setData('text\/plain',window.getSelection().toString().replace(\/\\u200b\/g,''));event.preventDefault();event.stopPropagation();}\">\n<div class=\"CodeMirror-code\">\n<div><pre>PCMAC::Thu Jul 14 11:31:41 2016<\/pre><\/div>\n<div><pre>DEP VAR CRUDE AT 1130 ALL DAYS: 1\/1\/2009 to 6\/24\/2016<\/pre><\/div>\n<div><pre>AS OF 0 1130, YEN AT 20 COMPARISON DAY HIGH <\/pre><\/div>\n<div><pre>INDEPENDNT   LAG1 HOUR   LAG2 HOUR       LO       HI     (TRADING DAYS)<\/pre><\/div>\n<div><pre>     CRUDE     1  1720     0  1130        1     5000<\/pre><\/div>\n<div><pre><\/pre><\/div>\n<\/div>\n<\/div>\n",
            "lines": 63,
            "lines_more": 58,
            "preview_is_truncated": true,
            "channels": [
                "C1FJVD12T"
            ],
            "groups": [],
            "ims": [],
            "comments_count": 1,
            "initial_comment": {
                "id": "Fc1RPPRQ8Y",
                "created": 1468510391,
                "timestamp": 1468510391,
                "user": "U1FJWQN1Z",
                "is_intro": true,
                "comment": "to add fuel to 3x threat....this is dino-mite!",
                "channel": ""
            }
        },
        "user": "U1FJWQN1Z",
        "upload": true,
        "display_as_bot": false,
        "username": "<@U1FJWQN1Z|bet4value>",
        "bot_id": null,
        "ts": "1468510391.000025"
    },
    {
        "type": "message",
        "subtype": "file_share",
        "text": "<@U1FKCRD8D|hernanavella> uploaded a file: <https:\/\/tradingfutures.slack.com\/files\/hernanavella\/F1RU02ER2\/open_down_on_expirationday.txt|Open Down on ExpirationDay>",
        "file": {
            "id": "F1RU02ER2",
            "created": 1468534395,
            "timestamp": 1468534395,
            "name": "Open_Down_on_ExpirationDay.txt",
            "title": "Open Down on ExpirationDay",
            "mimetype": "text\/plain",
            "filetype": "text",
            "pretty_type": "Plain Text",
            "user": "U1FKCRD8D",
            "editable": true,
            "size": 4434,
            "mode": "snippet",
            "is_external": false,
            "external_type": "",
            "is_public": true,
            "public_url_shared": false,
            "display_as_bot": false,
            "username": "",
            "url_private": "https:\/\/files.slack.com\/files-pri\/T1FJKLSJ2-F1RU02ER2\/open_down_on_expirationday.txt?t=xoxe-49631706614-119786374643-119786374659-90264fc38b",
            "url_private_download": "https:\/\/files.slack.com\/files-pri\/T1FJKLSJ2-F1RU02ER2\/download\/open_down_on_expirationday.txt?t=xoxe-49631706614-119786374643-119786374659-90264fc38b",
            "permalink": "https:\/\/tradingfutures.slack.com\/files\/hernanavella\/F1RU02ER2\/open_down_on_expirationday.txt",
            "permalink_public": "https:\/\/slack-files.com\/T1FJKLSJ2-F1RU02ER2-1efaebf2d2",
            "edit_link": "https:\/\/tradingfutures.slack.com\/files\/hernanavella\/F1RU02ER2\/open_down_on_expirationday.txt\/edit",
            "preview": "HERNANAVELLA-WS::Thu Jul 14 17:12:12 2016\r\nDEP VAR CRUDE AT 900 ALL DAYS: 1\/1\/2012 to 6\/3\/2016\r\nINCLUDE EXPIRATION ANNOUNCEMENT AT T(0)\r\nINDEPENDNT   LAG1 HOUR   LAG2 HOUR       LO       HI     (TRADING DAYS)\r\n     CRUDE     1  1720     0   900    -5000       -1\r",
            "preview_highlight": "<div class=\"CodeMirror cm-s-default CodeMirrorServer\" oncopy=\"if(event.clipboardData){event.clipboardData.setData('text\/plain',window.getSelection().toString().replace(\/\\u200b\/g,''));event.preventDefault();event.stopPropagation();}\">\n<div class=\"CodeMirror-code\">\n<div><pre>HERNANAVELLA-WS::Thu Jul 14 17:12:12 2016<\/pre><\/div>\n<div><pre>DEP VAR CRUDE AT 900 ALL DAYS: 1\/1\/2012 to 6\/3\/2016<\/pre><\/div>\n<div><pre>INCLUDE EXPIRATION ANNOUNCEMENT AT T(0)<\/pre><\/div>\n<div><pre>INDEPENDNT   LAG1 HOUR   LAG2 HOUR       LO       HI     (TRADING DAYS)<\/pre><\/div>\n<div><pre>     CRUDE     1  1720     0   900    -5000       -1<\/pre><\/div>\n<div><pre><\/pre><\/div>\n<\/div>\n<\/div>\n",
            "lines": 70,
            "lines_more": 65,
            "preview_is_truncated": true,
            "channels": [
                "C1FJVD12T"
            ],
            "groups": [],
            "ims": [],
            "comments_count": 1
        },
        "user": "U1FKCRD8D",
        "upload": true,
        "display_as_bot": false,
        "username": "<@U1FKCRD8D|hernanavella>",
        "bot_id": null,
        "ts": "1468534396.000026"
    },
    {
        "type": "message",
        "subtype": "file_comment",
        "text": "<@U1FHF07QT|jkh> commented on <@U1FKCRD8D|hernanavella>'s file <https:\/\/tradingfutures.slack.com\/files\/hernanavella\/F1RU02ER2\/open_down_on_expirationday.txt|Open Down on ExpirationDay>: does this include Quarterly expiry as well?",
        "file": {
            "id": "F1RU02ER2",
            "created": 1468534395,
            "timestamp": 1468534395,
            "name": "Open_Down_on_ExpirationDay.txt",
            "title": "Open Down on ExpirationDay",
            "mimetype": "text\/plain",
            "filetype": "text",
            "pretty_type": "Plain Text",
            "user": "U1FKCRD8D",
            "editable": true,
            "size": 4434,
            "mode": "snippet",
            "is_external": false,
            "external_type": "",
            "is_public": true,
            "public_url_shared": false,
            "display_as_bot": false,
            "username": "",
            "url_private": "https:\/\/files.slack.com\/files-pri\/T1FJKLSJ2-F1RU02ER2\/open_down_on_expirationday.txt?t=xoxe-49631706614-119786374643-119786374659-90264fc38b",
            "url_private_download": "https:\/\/files.slack.com\/files-pri\/T1FJKLSJ2-F1RU02ER2\/download\/open_down_on_expirationday.txt?t=xoxe-49631706614-119786374643-119786374659-90264fc38b",
            "permalink": "https:\/\/tradingfutures.slack.com\/files\/hernanavella\/F1RU02ER2\/open_down_on_expirationday.txt",
            "permalink_public": "https:\/\/slack-files.com\/T1FJKLSJ2-F1RU02ER2-1efaebf2d2",
            "edit_link": "https:\/\/tradingfutures.slack.com\/files\/hernanavella\/F1RU02ER2\/open_down_on_expirationday.txt\/edit",
            "preview": "HERNANAVELLA-WS::Thu Jul 14 17:12:12 2016\r\nDEP VAR CRUDE AT 900 ALL DAYS: 1\/1\/2012 to 6\/3\/2016\r\nINCLUDE EXPIRATION ANNOUNCEMENT AT T(0)\r\nINDEPENDNT   LAG1 HOUR   LAG2 HOUR       LO       HI     (TRADING DAYS)\r\n     CRUDE     1  1720     0   900    -5000       -1\r",
            "preview_highlight": "<div class=\"CodeMirror cm-s-default CodeMirrorServer\" oncopy=\"if(event.clipboardData){event.clipboardData.setData('text\/plain',window.getSelection().toString().replace(\/\\u200b\/g,''));event.preventDefault();event.stopPropagation();}\">\n<div class=\"CodeMirror-code\">\n<div><pre>HERNANAVELLA-WS::Thu Jul 14 17:12:12 2016<\/pre><\/div>\n<div><pre>DEP VAR CRUDE AT 900 ALL DAYS: 1\/1\/2012 to 6\/3\/2016<\/pre><\/div>\n<div><pre>INCLUDE EXPIRATION ANNOUNCEMENT AT T(0)<\/pre><\/div>\n<div><pre>INDEPENDNT   LAG1 HOUR   LAG2 HOUR       LO       HI     (TRADING DAYS)<\/pre><\/div>\n<div><pre>     CRUDE     1  1720     0   900    -5000       -1<\/pre><\/div>\n<div><pre><\/pre><\/div>\n<\/div>\n<\/div>\n",
            "lines": 70,
            "lines_more": 65,
            "preview_is_truncated": true,
            "channels": [
                "C1FJVD12T"
            ],
            "groups": [],
            "ims": [],
            "comments_count": 1
        },
        "comment": {
            "id": "Fc1RUGUSMP",
            "created": 1468534447,
            "timestamp": 1468534447,
            "user": "U1FHF07QT",
            "is_intro": false,
            "comment": "does this include Quarterly expiry as well?",
            "channel": "",
            "reactions": [
                {
                    "name": "cow",
                    "users": [
                        "U1FKCRD8D"
                    ],
                    "count": 1
                }
            ]
        },
        "is_intro": false,
        "ts": "1468534446.000027"
    },
    {
        "type": "message",
        "subtype": "file_share",
        "text": "<@U1FKCRD8D|hernanavella> uploaded a file: <https:\/\/tradingfutures.slack.com\/files\/hernanavella\/F1RU0KR2Q\/still_bear_with_nonq_only.txt|Still Bear with NonQ only>",
        "file": {
            "id": "F1RU0KR2Q",
            "created": 1468534523,
            "timestamp": 1468534523,
            "name": "Still_Bear_with_NonQ_only.txt",
            "title": "Still Bear with NonQ only",
            "mimetype": "text\/plain",
            "filetype": "text",
            "pretty_type": "Plain Text",
            "user": "U1FKCRD8D",
            "editable": true,
            "size": 4448,
            "mode": "snippet",
            "is_external": false,
            "external_type": "",
            "is_public": true,
            "public_url_shared": false,
            "display_as_bot": false,
            "username": "",
            "url_private": "https:\/\/files.slack.com\/files-pri\/T1FJKLSJ2-F1RU0KR2Q\/still_bear_with_nonq_only.txt?t=xoxe-49631706614-119786374643-119786374659-90264fc38b",
            "url_private_download": "https:\/\/files.slack.com\/files-pri\/T1FJKLSJ2-F1RU0KR2Q\/download\/still_bear_with_nonq_only.txt?t=xoxe-49631706614-119786374643-119786374659-90264fc38b",
            "permalink": "https:\/\/tradingfutures.slack.com\/files\/hernanavella\/F1RU0KR2Q\/still_bear_with_nonq_only.txt",
            "permalink_public": "https:\/\/slack-files.com\/T1FJKLSJ2-F1RU0KR2Q-b48498262d",
            "edit_link": "https:\/\/tradingfutures.slack.com\/files\/hernanavella\/F1RU0KR2Q\/still_bear_with_nonq_only.txt\/edit",
            "preview": "HERNANAVELLA-WS::Thu Jul 14 17:14:36 2016\r\nDEP VAR CRUDE AT 900 ALL DAYS: 1\/1\/2012 to 6\/3\/2016\r\nINCLUDE NON.QUARTERLY.EXPIRATION ANNOUNCEMENT AT T(0)\r\nINDEPENDNT   LAG1 HOUR   LAG2 HOUR       LO       HI     (TRADING DAYS)\r\n     CRUDE     1  1720     0   900    -5000       -1\r",
            "preview_highlight": "<div class=\"CodeMirror cm-s-default CodeMirrorServer\" oncopy=\"if(event.clipboardData){event.clipboardData.setData('text\/plain',window.getSelection().toString().replace(\/\\u200b\/g,''));event.preventDefault();event.stopPropagation();}\">\n<div class=\"CodeMirror-code\">\n<div><pre>HERNANAVELLA-WS::Thu Jul 14 17:14:36 2016<\/pre><\/div>\n<div><pre>DEP VAR CRUDE AT 900 ALL DAYS: 1\/1\/2012 to 6\/3\/2016<\/pre><\/div>\n<div><pre>INCLUDE NON.QUARTERLY.EXPIRATION ANNOUNCEMENT AT T(0)<\/pre><\/div>\n<div><pre>INDEPENDNT   LAG1 HOUR   LAG2 HOUR       LO       HI     (TRADING DAYS)<\/pre><\/div>\n<div><pre>     CRUDE     1  1720     0   900    -5000       -1<\/pre><\/div>\n<div><pre><\/pre><\/div>\n<\/div>\n<\/div>\n",
            "lines": 70,
            "lines_more": 65,
            "preview_is_truncated": true,
            "channels": [
                "C1FJVD12T"
            ],
            "groups": [],
            "ims": [],
            "comments_count": 1
        },
        "user": "U1FKCRD8D",
        "upload": true,
        "display_as_bot": false,
        "username": "<@U1FKCRD8D|hernanavella>",
        "bot_id": null,
        "ts": "1468534523.000028"
    },
    {
        "type": "message",
        "subtype": "file_comment",
        "text": "<@U1FHF07QT|jkh> commented on <@U1FKCRD8D|hernanavella>'s file <https:\/\/tradingfutures.slack.com\/files\/hernanavella\/F1RU0KR2Q\/still_bear_with_nonq_only.txt|Still Bear with NonQ only>: thanks",
        "file": {
            "id": "F1RU0KR2Q",
            "created": 1468534523,
            "timestamp": 1468534523,
            "name": "Still_Bear_with_NonQ_only.txt",
            "title": "Still Bear with NonQ only",
            "mimetype": "text\/plain",
            "filetype": "text",
            "pretty_type": "Plain Text",
            "user": "U1FKCRD8D",
            "editable": true,
            "size": 4448,
            "mode": "snippet",
            "is_external": false,
            "external_type": "",
            "is_public": true,
            "public_url_shared": false,
            "display_as_bot": false,
            "username": "",
            "url_private": "https:\/\/files.slack.com\/files-pri\/T1FJKLSJ2-F1RU0KR2Q\/still_bear_with_nonq_only.txt?t=xoxe-49631706614-119786374643-119786374659-90264fc38b",
            "url_private_download": "https:\/\/files.slack.com\/files-pri\/T1FJKLSJ2-F1RU0KR2Q\/download\/still_bear_with_nonq_only.txt?t=xoxe-49631706614-119786374643-119786374659-90264fc38b",
            "permalink": "https:\/\/tradingfutures.slack.com\/files\/hernanavella\/F1RU0KR2Q\/still_bear_with_nonq_only.txt",
            "permalink_public": "https:\/\/slack-files.com\/T1FJKLSJ2-F1RU0KR2Q-b48498262d",
            "edit_link": "https:\/\/tradingfutures.slack.com\/files\/hernanavella\/F1RU0KR2Q\/still_bear_with_nonq_only.txt\/edit",
            "preview": "HERNANAVELLA-WS::Thu Jul 14 17:14:36 2016\r\nDEP VAR CRUDE AT 900 ALL DAYS: 1\/1\/2012 to 6\/3\/2016\r\nINCLUDE NON.QUARTERLY.EXPIRATION ANNOUNCEMENT AT T(0)\r\nINDEPENDNT   LAG1 HOUR   LAG2 HOUR       LO       HI     (TRADING DAYS)\r\n     CRUDE     1  1720     0   900    -5000       -1\r",
            "preview_highlight": "<div class=\"CodeMirror cm-s-default CodeMirrorServer\" oncopy=\"if(event.clipboardData){event.clipboardData.setData('text\/plain',window.getSelection().toString().replace(\/\\u200b\/g,''));event.preventDefault();event.stopPropagation();}\">\n<div class=\"CodeMirror-code\">\n<div><pre>HERNANAVELLA-WS::Thu Jul 14 17:14:36 2016<\/pre><\/div>\n<div><pre>DEP VAR CRUDE AT 900 ALL DAYS: 1\/1\/2012 to 6\/3\/2016<\/pre><\/div>\n<div><pre>INCLUDE NON.QUARTERLY.EXPIRATION ANNOUNCEMENT AT T(0)<\/pre><\/div>\n<div><pre>INDEPENDNT   LAG1 HOUR   LAG2 HOUR       LO       HI     (TRADING DAYS)<\/pre><\/div>\n<div><pre>     CRUDE     1  1720     0   900    -5000       -1<\/pre><\/div>\n<div><pre><\/pre><\/div>\n<\/div>\n<\/div>\n",
            "lines": 70,
            "lines_more": 65,
            "preview_is_truncated": true,
            "channels": [
                "C1FJVD12T"
            ],
            "groups": [],
            "ims": [],
            "comments_count": 1
        },
        "comment": {
            "id": "Fc1RUHEY7K",
            "created": 1468534559,
            "timestamp": 1468534559,
            "user": "U1FHF07QT",
            "is_intro": false,
            "comment": "thanks",
            "channel": ""
        },
        "is_intro": false,
        "ts": "1468534559.000029"
    }
]