[
    {
        "user": "U1FJYUKQ9",
        "type": "message",
        "subtype": "channel_join",
        "text": "<@U1FJYUKQ9|mkchuprin> has joined the channel",
        "ts": "1465503573.000002"
    },
    {
        "user": "U1FHF07QT",
        "type": "message",
        "subtype": "channel_join",
        "text": "<@U1FHF07QT|jkh> has joined the channel",
        "ts": "1465503958.000003"
    },
    {
        "user": "U1FJYUKQ9",
        "topic": "Crude Predictions",
        "text": "<@U1FJYUKQ9|mkchuprin> set the channel topic: Crude Predictions",
        "type": "message",
        "subtype": "channel_topic",
        "ts": "1465504248.000004"
    },
    {
        "user": "U1FKCRD8D",
        "type": "message",
        "subtype": "channel_join",
        "text": "<@U1FKCRD8D|hernanavella> has joined the channel",
        "ts": "1465507221.000005"
    }
]