[
    {
        "type": "message",
        "subtype": "file_share",
        "text": "<@U1FHF07QT|jkh> shared a file: <https:\/\/tradingfutures.slack.com\/files\/jkh\/F2B79NQSG\/-.txt|Untitled>",
        "file": {
            "id": "F2B79NQSG",
            "created": 1473787911,
            "timestamp": 1473787911,
            "name": "-.txt",
            "title": "Untitled",
            "mimetype": "text\/plain",
            "filetype": "text",
            "pretty_type": "Plain Text",
            "user": "U1FHF07QT",
            "editable": true,
            "size": 1100,
            "mode": "snippet",
            "is_external": false,
            "external_type": "",
            "is_public": true,
            "public_url_shared": false,
            "display_as_bot": false,
            "username": "",
            "url_private": "https:\/\/files.slack.com\/files-pri\/T1FJKLSJ2-F2B79NQSG\/-.txt?t=xoxe-49631706614-119786374643-119786374659-90264fc38b",
            "url_private_download": "https:\/\/files.slack.com\/files-pri\/T1FJKLSJ2-F2B79NQSG\/download\/-.txt?t=xoxe-49631706614-119786374643-119786374659-90264fc38b",
            "permalink": "https:\/\/tradingfutures.slack.com\/files\/jkh\/F2B79NQSG\/-.txt",
            "permalink_public": "https:\/\/slack-files.com\/T1FJKLSJ2-F2B79NQSG-6b8a7ed8c3",
            "edit_link": "https:\/\/tradingfutures.slack.com\/files\/jkh\/F2B79NQSG\/-.txt\/edit",
            "preview": "JKH::Tue 13 Sep 2016 01:31:21 PM EDT\r\nDEP VAR CRUDE AT 1715 : 01\/01\/2009 TO 01\/01\/2020  US\/Eastern\r\n\r\nINDEPENDNT LAG1  HOUR LAG2  HOUR  LO     HI          TZ\r\n    crude    1  1430    0  1430  -1  -5000  US\/Eastern\r",
            "preview_highlight": "<div class=\"CodeMirror cm-s-default CodeMirrorServer\" oncopy=\"if(event.clipboardData){event.clipboardData.setData('text\/plain',window.getSelection().toString().replace(\/\\u200b\/g,''));event.preventDefault();event.stopPropagation();}\">\n<div class=\"CodeMirror-code\">\n<div><pre>JKH::Tue 13 Sep 2016 01:31:21 PM EDT<\/pre><\/div>\n<div><pre>DEP VAR CRUDE AT 1715 : 01\/01\/2009 TO 01\/01\/2020  US\/Eastern<\/pre><\/div>\n<div><pre><\/pre><\/div>\n<div><pre>INDEPENDNT LAG1  HOUR LAG2  HOUR  LO     HI          TZ<\/pre><\/div>\n<div><pre>    crude    1  1430    0  1430  -1  -5000  US\/Eastern<\/pre><\/div>\n<div><pre><\/pre><\/div>\n<\/div>\n<\/div>\n",
            "lines": 26,
            "lines_more": 21,
            "preview_is_truncated": true,
            "channels": [
                "C1FJVD12T"
            ],
            "groups": [],
            "ims": [],
            "comments_count": 1,
            "reactions": [
                {
                    "name": "clap::skin-tone-5",
                    "users": [
                        "U1FKCRD8D"
                    ],
                    "count": 1
                },
                {
                    "name": "clap::skin-tone-6",
                    "users": [
                        "U1FJYUKQ9"
                    ],
                    "count": 1
                }
            ]
        },
        "user": "U1FHF07QT",
        "upload": false,
        "display_as_bot": false,
        "username": "<@U1FHF07QT|jkh>",
        "bot_id": null,
        "ts": "1473792156.000019"
    }
]