[
    {
        "type": "message",
        "user": "U1FKCRD8D",
        "text": "Very likely we get TripleT today :money_mouth_face:",
        "ts": "1473941937.000035"
    },
    {
        "type": "message",
        "user": "U1FJYUKQ9",
        "text": "Could be triple threat today",
        "ts": "1473941941.000036"
    },
    {
        "type": "message",
        "user": "U1FJYUKQ9",
        "text": "Jinx",
        "ts": "1473941945.000037"
    },
    {
        "type": "message",
        "user": "U1FJWQN1Z",
        "text": "do not frront-run!",
        "ts": "1473942340.000038"
    },
    {
        "type": "message",
        "subtype": "file_share",
        "text": "<@U1FHF07QT|jkh> uploaded a file: <https:\/\/tradingfutures.slack.com\/files\/jkh\/F2C13G9SA\/opt_expiry.txt|opt expiry>",
        "file": {
            "id": "F2C13G9SA",
            "created": 1473942844,
            "timestamp": 1473942844,
            "name": "opt_expiry.txt",
            "title": "opt expiry",
            "mimetype": "text\/plain",
            "filetype": "text",
            "pretty_type": "Plain Text",
            "user": "U1FHF07QT",
            "editable": true,
            "size": 1141,
            "mode": "snippet",
            "is_external": false,
            "external_type": "",
            "is_public": true,
            "public_url_shared": false,
            "display_as_bot": false,
            "username": "",
            "url_private": "https:\/\/files.slack.com\/files-pri\/T1FJKLSJ2-F2C13G9SA\/opt_expiry.txt?t=xoxe-49631706614-119786374643-119786374659-90264fc38b",
            "url_private_download": "https:\/\/files.slack.com\/files-pri\/T1FJKLSJ2-F2C13G9SA\/download\/opt_expiry.txt?t=xoxe-49631706614-119786374643-119786374659-90264fc38b",
            "permalink": "https:\/\/tradingfutures.slack.com\/files\/jkh\/F2C13G9SA\/opt_expiry.txt",
            "permalink_public": "https:\/\/slack-files.com\/T1FJKLSJ2-F2C13G9SA-e9b4b6d5ff",
            "edit_link": "https:\/\/tradingfutures.slack.com\/files\/jkh\/F2C13G9SA\/opt_expiry.txt\/edit",
            "preview": "JKH::Thu 15 Sep 2016 08:33:16 AM EDT\r\nDEP VAR CRUDE AT 900 : 01\/01\/2007 TO 01\/01\/2020  US\/Eastern\r\n\r\nINDEPENDNT LAG1  HOUR LAG2 HOUR LO    HI          TZ\r\n    crude    1  1430    0  900  1  5000  US\/Eastern\r",
            "preview_highlight": "<div class=\"CodeMirror cm-s-default CodeMirrorServer\" oncopy=\"if(event.clipboardData){event.clipboardData.setData('text\/plain',window.getSelection().toString().replace(\/\\u200b\/g,''));event.preventDefault();event.stopPropagation();}\">\n<div class=\"CodeMirror-code\">\n<div><pre>JKH::Thu 15 Sep 2016 08:33:16 AM EDT<\/pre><\/div>\n<div><pre>DEP VAR CRUDE AT 900 : 01\/01\/2007 TO 01\/01\/2020  US\/Eastern<\/pre><\/div>\n<div><pre><\/pre><\/div>\n<div><pre>INDEPENDNT LAG1  HOUR LAG2 HOUR LO    HI          TZ<\/pre><\/div>\n<div><pre>    crude    1  1430    0  900  1  5000  US\/Eastern<\/pre><\/div>\n<div><pre><\/pre><\/div>\n<\/div>\n<\/div>\n",
            "lines": 27,
            "lines_more": 22,
            "preview_is_truncated": true,
            "channels": [
                "C1FJVD12T"
            ],
            "groups": [],
            "ims": [],
            "comments_count": 0,
            "reactions": [
                {
                    "name": "see_no_evil",
                    "users": [
                        "U1FKCRD8D"
                    ],
                    "count": 1
                }
            ]
        },
        "user": "U1FHF07QT",
        "upload": true,
        "display_as_bot": false,
        "username": "<@U1FHF07QT|jkh>",
        "bot_id": null,
        "ts": "1473942845.000039"
    }
]