[
    {
        "type": "message",
        "subtype": "file_share",
        "text": "<@U1FKCRD8D|hernanavella> uploaded a file: <https:\/\/tradingfutures.slack.com\/files\/hernanavella\/F21D7LAP3\/pasted_image_at_2016_08_15_07_54_am.png|Pasted image at 2016-08-15, 7:54 AM>",
        "file": {
            "id": "F21D7LAP3",
            "created": 1471265652,
            "timestamp": 1471265652,
            "name": "Pasted image at 2016_08_15 07_54 AM.png",
            "title": "Pasted image at 2016-08-15, 7:54 AM",
            "mimetype": "image\/png",
            "filetype": "png",
            "pretty_type": "PNG",
            "user": "U1FKCRD8D",
            "editable": false,
            "size": 118691,
            "mode": "hosted",
            "is_external": false,
            "external_type": "",
            "is_public": true,
            "public_url_shared": false,
            "display_as_bot": false,
            "username": "",
            "url_private": "https:\/\/files.slack.com\/files-pri\/T1FJKLSJ2-F21D7LAP3\/pasted_image_at_2016_08_15_07_54_am.png?t=xoxe-49631706614-119786374643-119786374659-90264fc38b",
            "url_private_download": "https:\/\/files.slack.com\/files-pri\/T1FJKLSJ2-F21D7LAP3\/download\/pasted_image_at_2016_08_15_07_54_am.png?t=xoxe-49631706614-119786374643-119786374659-90264fc38b",
            "thumb_64": "https:\/\/files.slack.com\/files-tmb\/T1FJKLSJ2-F21D7LAP3-c90bafe8af\/pasted_image_at_2016_08_15_07_54_am_64.png?t=xoxe-49631706614-119786374643-119786374659-90264fc38b",
            "thumb_80": "https:\/\/files.slack.com\/files-tmb\/T1FJKLSJ2-F21D7LAP3-c90bafe8af\/pasted_image_at_2016_08_15_07_54_am_80.png?t=xoxe-49631706614-119786374643-119786374659-90264fc38b",
            "thumb_360": "https:\/\/files.slack.com\/files-tmb\/T1FJKLSJ2-F21D7LAP3-c90bafe8af\/pasted_image_at_2016_08_15_07_54_am_360.png?t=xoxe-49631706614-119786374643-119786374659-90264fc38b",
            "thumb_360_w": 278,
            "thumb_360_h": 360,
            "thumb_480": "https:\/\/files.slack.com\/files-tmb\/T1FJKLSJ2-F21D7LAP3-c90bafe8af\/pasted_image_at_2016_08_15_07_54_am_480.png?t=xoxe-49631706614-119786374643-119786374659-90264fc38b",
            "thumb_480_w": 371,
            "thumb_480_h": 480,
            "thumb_160": "https:\/\/files.slack.com\/files-tmb\/T1FJKLSJ2-F21D7LAP3-c90bafe8af\/pasted_image_at_2016_08_15_07_54_am_160.png?t=xoxe-49631706614-119786374643-119786374659-90264fc38b",
            "thumb_720": "https:\/\/files.slack.com\/files-tmb\/T1FJKLSJ2-F21D7LAP3-c90bafe8af\/pasted_image_at_2016_08_15_07_54_am_720.png?t=xoxe-49631706614-119786374643-119786374659-90264fc38b",
            "thumb_720_w": 556,
            "thumb_720_h": 720,
            "thumb_960": "https:\/\/files.slack.com\/files-tmb\/T1FJKLSJ2-F21D7LAP3-c90bafe8af\/pasted_image_at_2016_08_15_07_54_am_960.png?t=xoxe-49631706614-119786374643-119786374659-90264fc38b",
            "thumb_960_w": 742,
            "thumb_960_h": 960,
            "thumb_1024": "https:\/\/files.slack.com\/files-tmb\/T1FJKLSJ2-F21D7LAP3-c90bafe8af\/pasted_image_at_2016_08_15_07_54_am_1024.png?t=xoxe-49631706614-119786374643-119786374659-90264fc38b",
            "thumb_1024_w": 791,
            "thumb_1024_h": 1024,
            "image_exif_rotation": 1,
            "original_w": 816,
            "original_h": 1056,
            "permalink": "https:\/\/tradingfutures.slack.com\/files\/hernanavella\/F21D7LAP3\/pasted_image_at_2016_08_15_07_54_am.png",
            "permalink_public": "https:\/\/slack-files.com\/T1FJKLSJ2-F21D7LAP3-eb97e36b75",
            "channels": [
                "C1FJVD12T"
            ],
            "groups": [],
            "ims": [],
            "comments_count": 0,
            "reactions": [
                {
                    "name": "scream",
                    "users": [
                        "U1FHF07QT"
                    ],
                    "count": 1
                }
            ]
        },
        "user": "U1FKCRD8D",
        "upload": true,
        "display_as_bot": false,
        "username": "<@U1FKCRD8D|hernanavella>",
        "bot_id": null,
        "ts": "1471265655.000002"
    },
    {
        "type": "message",
        "subtype": "file_share",
        "text": "<@U1FJYUKQ9|mkchuprin> uploaded a file: <https:\/\/tradingfutures.slack.com\/files\/mkchuprin\/F21BTU0H1\/pasted_image_at_2016_08_15_09_33_am.png|on a monday>",
        "file": {
            "id": "F21BTU0H1",
            "created": 1471268022,
            "timestamp": 1471268022,
            "name": "Pasted image at 2016_08_15 09_33 AM.png",
            "title": "on a monday",
            "mimetype": "image\/png",
            "filetype": "png",
            "pretty_type": "PNG",
            "user": "U1FJYUKQ9",
            "editable": false,
            "size": 224104,
            "mode": "hosted",
            "is_external": false,
            "external_type": "",
            "is_public": true,
            "public_url_shared": false,
            "display_as_bot": false,
            "username": "",
            "url_private": "https:\/\/files.slack.com\/files-pri\/T1FJKLSJ2-F21BTU0H1\/pasted_image_at_2016_08_15_09_33_am.png?t=xoxe-49631706614-119786374643-119786374659-90264fc38b",
            "url_private_download": "https:\/\/files.slack.com\/files-pri\/T1FJKLSJ2-F21BTU0H1\/download\/pasted_image_at_2016_08_15_09_33_am.png?t=xoxe-49631706614-119786374643-119786374659-90264fc38b",
            "thumb_64": "https:\/\/files.slack.com\/files-tmb\/T1FJKLSJ2-F21BTU0H1-b4c83e984b\/pasted_image_at_2016_08_15_09_33_am_64.png?t=xoxe-49631706614-119786374643-119786374659-90264fc38b",
            "thumb_80": "https:\/\/files.slack.com\/files-tmb\/T1FJKLSJ2-F21BTU0H1-b4c83e984b\/pasted_image_at_2016_08_15_09_33_am_80.png?t=xoxe-49631706614-119786374643-119786374659-90264fc38b",
            "thumb_360": "https:\/\/files.slack.com\/files-tmb\/T1FJKLSJ2-F21BTU0H1-b4c83e984b\/pasted_image_at_2016_08_15_09_33_am_360.png?t=xoxe-49631706614-119786374643-119786374659-90264fc38b",
            "thumb_360_w": 360,
            "thumb_360_h": 233,
            "thumb_480": "https:\/\/files.slack.com\/files-tmb\/T1FJKLSJ2-F21BTU0H1-b4c83e984b\/pasted_image_at_2016_08_15_09_33_am_480.png?t=xoxe-49631706614-119786374643-119786374659-90264fc38b",
            "thumb_480_w": 480,
            "thumb_480_h": 311,
            "thumb_160": "https:\/\/files.slack.com\/files-tmb\/T1FJKLSJ2-F21BTU0H1-b4c83e984b\/pasted_image_at_2016_08_15_09_33_am_160.png?t=xoxe-49631706614-119786374643-119786374659-90264fc38b",
            "thumb_720": "https:\/\/files.slack.com\/files-tmb\/T1FJKLSJ2-F21BTU0H1-b4c83e984b\/pasted_image_at_2016_08_15_09_33_am_720.png?t=xoxe-49631706614-119786374643-119786374659-90264fc38b",
            "thumb_720_w": 720,
            "thumb_720_h": 467,
            "thumb_960": "https:\/\/files.slack.com\/files-tmb\/T1FJKLSJ2-F21BTU0H1-b4c83e984b\/pasted_image_at_2016_08_15_09_33_am_960.png?t=xoxe-49631706614-119786374643-119786374659-90264fc38b",
            "thumb_960_w": 960,
            "thumb_960_h": 622,
            "thumb_1024": "https:\/\/files.slack.com\/files-tmb\/T1FJKLSJ2-F21BTU0H1-b4c83e984b\/pasted_image_at_2016_08_15_09_33_am_1024.png?t=xoxe-49631706614-119786374643-119786374659-90264fc38b",
            "thumb_1024_w": 1024,
            "thumb_1024_h": 664,
            "image_exif_rotation": 1,
            "original_w": 1353,
            "original_h": 877,
            "permalink": "https:\/\/tradingfutures.slack.com\/files\/mkchuprin\/F21BTU0H1\/pasted_image_at_2016_08_15_09_33_am.png",
            "permalink_public": "https:\/\/slack-files.com\/T1FJKLSJ2-F21BTU0H1-ed8650d65b",
            "channels": [
                "C1FJVD12T"
            ],
            "groups": [],
            "ims": [],
            "comments_count": 0
        },
        "user": "U1FJYUKQ9",
        "upload": true,
        "display_as_bot": false,
        "username": "<@U1FJYUKQ9|mkchuprin>",
        "bot_id": null,
        "ts": "1471268026.000004"
    }
]