[
    {
        "type": "message",
        "subtype": "file_share",
        "text": "<@U1FJWQN1Z|bet4value> uploaded a file: <https:\/\/tradingfutures.slack.com\/files\/bet4value\/F231J82DP\/-.txt|Untitled>",
        "file": {
            "id": "F231J82DP",
            "created": 1471615009,
            "timestamp": 1471615009,
            "name": "-.txt",
            "title": "Untitled",
            "mimetype": "text\/plain",
            "filetype": "text",
            "pretty_type": "Plain Text",
            "user": "U1FJWQN1Z",
            "editable": true,
            "size": 3889,
            "mode": "snippet",
            "is_external": false,
            "external_type": "",
            "is_public": true,
            "public_url_shared": false,
            "display_as_bot": false,
            "username": "",
            "url_private": "https:\/\/files.slack.com\/files-pri\/T1FJKLSJ2-F231J82DP\/-.txt?t=xoxe-49631706614-119786374643-119786374659-90264fc38b",
            "url_private_download": "https:\/\/files.slack.com\/files-pri\/T1FJKLSJ2-F231J82DP\/download\/-.txt?t=xoxe-49631706614-119786374643-119786374659-90264fc38b",
            "permalink": "https:\/\/tradingfutures.slack.com\/files\/bet4value\/F231J82DP\/-.txt",
            "permalink_public": "https:\/\/slack-files.com\/T1FJKLSJ2-F231J82DP-39ea8b229d",
            "edit_link": "https:\/\/tradingfutures.slack.com\/files\/bet4value\/F231J82DP\/-.txt\/edit",
            "preview": "PCMAC::Fri Aug 19 09:53:56 2016\r\nDEP VAR CRUDE AT 1000 FRI: 1\/1\/2009 to 8\/12\/2016\r\nAS OF 1 1430, CRUDE AT 20 COMPARISON DAY HIGH \r\nINDEPENDNT   LAG1 HOUR   LAG2 HOUR       LO       HI     (TRADING DAYS)\r\n     CRUDE     1  1430     0  1000    -5000       -1\r",
            "preview_highlight": "<div class=\"CodeMirror cm-s-default CodeMirrorServer\" oncopy=\"if(event.clipboardData){event.clipboardData.setData('text\/plain',window.getSelection().toString().replace(\/\\u200b\/g,''));event.preventDefault();event.stopPropagation();}\">\n<div class=\"CodeMirror-code\">\n<div><pre>PCMAC::Fri Aug 19 09:53:56 2016<\/pre><\/div>\n<div><pre>DEP VAR CRUDE AT 1000 FRI: 1\/1\/2009 to 8\/12\/2016<\/pre><\/div>\n<div><pre>AS OF 1 1430, CRUDE AT 20 COMPARISON DAY HIGH <\/pre><\/div>\n<div><pre>INDEPENDNT   LAG1 HOUR   LAG2 HOUR       LO       HI     (TRADING DAYS)<\/pre><\/div>\n<div><pre>     CRUDE     1  1430     0  1000    -5000       -1<\/pre><\/div>\n<div><pre><\/pre><\/div>\n<\/div>\n<\/div>\n",
            "lines": 63,
            "lines_more": 58,
            "preview_is_truncated": true,
            "channels": [
                "C1FJVD12T"
            ],
            "groups": [],
            "ims": [],
            "comments_count": 0,
            "reactions": [
                {
                    "name": "white_check_mark",
                    "users": [
                        "U1FHF07QT"
                    ],
                    "count": 1
                }
            ]
        },
        "user": "U1FJWQN1Z",
        "upload": true,
        "display_as_bot": false,
        "username": "<@U1FJWQN1Z|bet4value>",
        "bot_id": null,
        "ts": "1471615010.000028"
    }
]