[
    {
        "type": "message",
        "subtype": "file_share",
        "text": "<@U1FJYUKQ9|mkchuprin> uploaded a file: <https:\/\/tradingfutures.slack.com\/files\/mkchuprin\/F1P1HSV6C\/pasted_image_at_2016_07_05_04_00_pm.png|Pasted image at 2016-07-05, 4:00 PM>",
        "file": {
            "id": "F1P1HSV6C",
            "created": 1467748858,
            "timestamp": 1467748858,
            "name": "Pasted image at 2016_07_05 04_00 PM.png",
            "title": "Pasted image at 2016-07-05, 4:00 PM",
            "mimetype": "image\/png",
            "filetype": "png",
            "pretty_type": "PNG",
            "user": "U1FJYUKQ9",
            "editable": false,
            "size": 207312,
            "mode": "hosted",
            "is_external": false,
            "external_type": "",
            "is_public": true,
            "public_url_shared": false,
            "display_as_bot": false,
            "username": "",
            "url_private": "https:\/\/files.slack.com\/files-pri\/T1FJKLSJ2-F1P1HSV6C\/pasted_image_at_2016_07_05_04_00_pm.png?t=xoxe-49631706614-119786374643-119786374659-90264fc38b",
            "url_private_download": "https:\/\/files.slack.com\/files-pri\/T1FJKLSJ2-F1P1HSV6C\/download\/pasted_image_at_2016_07_05_04_00_pm.png?t=xoxe-49631706614-119786374643-119786374659-90264fc38b",
            "thumb_64": "https:\/\/files.slack.com\/files-tmb\/T1FJKLSJ2-F1P1HSV6C-e323faed7d\/pasted_image_at_2016_07_05_04_00_pm_64.png?t=xoxe-49631706614-119786374643-119786374659-90264fc38b",
            "thumb_80": "https:\/\/files.slack.com\/files-tmb\/T1FJKLSJ2-F1P1HSV6C-e323faed7d\/pasted_image_at_2016_07_05_04_00_pm_80.png?t=xoxe-49631706614-119786374643-119786374659-90264fc38b",
            "thumb_360": "https:\/\/files.slack.com\/files-tmb\/T1FJKLSJ2-F1P1HSV6C-e323faed7d\/pasted_image_at_2016_07_05_04_00_pm_360.png?t=xoxe-49631706614-119786374643-119786374659-90264fc38b",
            "thumb_360_w": 360,
            "thumb_360_h": 233,
            "thumb_480": "https:\/\/files.slack.com\/files-tmb\/T1FJKLSJ2-F1P1HSV6C-e323faed7d\/pasted_image_at_2016_07_05_04_00_pm_480.png?t=xoxe-49631706614-119786374643-119786374659-90264fc38b",
            "thumb_480_w": 480,
            "thumb_480_h": 311,
            "thumb_160": "https:\/\/files.slack.com\/files-tmb\/T1FJKLSJ2-F1P1HSV6C-e323faed7d\/pasted_image_at_2016_07_05_04_00_pm_160.png?t=xoxe-49631706614-119786374643-119786374659-90264fc38b",
            "thumb_720": "https:\/\/files.slack.com\/files-tmb\/T1FJKLSJ2-F1P1HSV6C-e323faed7d\/pasted_image_at_2016_07_05_04_00_pm_720.png?t=xoxe-49631706614-119786374643-119786374659-90264fc38b",
            "thumb_720_w": 720,
            "thumb_720_h": 467,
            "thumb_960": "https:\/\/files.slack.com\/files-tmb\/T1FJKLSJ2-F1P1HSV6C-e323faed7d\/pasted_image_at_2016_07_05_04_00_pm_960.png?t=xoxe-49631706614-119786374643-119786374659-90264fc38b",
            "thumb_960_w": 960,
            "thumb_960_h": 622,
            "thumb_1024": "https:\/\/files.slack.com\/files-tmb\/T1FJKLSJ2-F1P1HSV6C-e323faed7d\/pasted_image_at_2016_07_05_04_00_pm_1024.png?t=xoxe-49631706614-119786374643-119786374659-90264fc38b",
            "thumb_1024_w": 1024,
            "thumb_1024_h": 664,
            "image_exif_rotation": 1,
            "original_w": 1353,
            "original_h": 877,
            "permalink": "https:\/\/tradingfutures.slack.com\/files\/mkchuprin\/F1P1HSV6C\/pasted_image_at_2016_07_05_04_00_pm.png",
            "permalink_public": "https:\/\/slack-files.com\/T1FJKLSJ2-F1P1HSV6C-5065d6841d",
            "channels": [
                "C1FJVD12T"
            ],
            "groups": [],
            "ims": [],
            "comments_count": 1,
            "reactions": [
                {
                    "name": "metal",
                    "users": [
                        "U1FHF07QT"
                    ],
                    "count": 1
                },
                {
                    "name": "cow",
                    "users": [
                        "U1FKCRD8D"
                    ],
                    "count": 1
                }
            ]
        },
        "user": "U1FJYUKQ9",
        "upload": true,
        "display_as_bot": false,
        "username": "<@U1FJYUKQ9|mkchuprin>",
        "bot_id": null,
        "ts": "1467748861.000033"
    },
    {
        "type": "message",
        "subtype": "file_comment",
        "text": "<@U1FKCRD8D|hernanavella> commented on <@U1FJYUKQ9|mkchuprin>'s file <https:\/\/tradingfutures.slack.com\/files\/mkchuprin\/F1P1HSV6C\/pasted_image_at_2016_07_05_04_00_pm.png|Pasted image at 2016-07-05, 4:00 PM>: The problem with this patt is that it's mostly about Wed Oil number, however, this week the # is on Thursday.",
        "file": {
            "id": "F1P1HSV6C",
            "created": 1467748858,
            "timestamp": 1467748858,
            "name": "Pasted image at 2016_07_05 04_00 PM.png",
            "title": "Pasted image at 2016-07-05, 4:00 PM",
            "mimetype": "image\/png",
            "filetype": "png",
            "pretty_type": "PNG",
            "user": "U1FJYUKQ9",
            "editable": false,
            "size": 207312,
            "mode": "hosted",
            "is_external": false,
            "external_type": "",
            "is_public": true,
            "public_url_shared": false,
            "display_as_bot": false,
            "username": "",
            "url_private": "https:\/\/files.slack.com\/files-pri\/T1FJKLSJ2-F1P1HSV6C\/pasted_image_at_2016_07_05_04_00_pm.png?t=xoxe-49631706614-119786374643-119786374659-90264fc38b",
            "url_private_download": "https:\/\/files.slack.com\/files-pri\/T1FJKLSJ2-F1P1HSV6C\/download\/pasted_image_at_2016_07_05_04_00_pm.png?t=xoxe-49631706614-119786374643-119786374659-90264fc38b",
            "thumb_64": "https:\/\/files.slack.com\/files-tmb\/T1FJKLSJ2-F1P1HSV6C-e323faed7d\/pasted_image_at_2016_07_05_04_00_pm_64.png?t=xoxe-49631706614-119786374643-119786374659-90264fc38b",
            "thumb_80": "https:\/\/files.slack.com\/files-tmb\/T1FJKLSJ2-F1P1HSV6C-e323faed7d\/pasted_image_at_2016_07_05_04_00_pm_80.png?t=xoxe-49631706614-119786374643-119786374659-90264fc38b",
            "thumb_360": "https:\/\/files.slack.com\/files-tmb\/T1FJKLSJ2-F1P1HSV6C-e323faed7d\/pasted_image_at_2016_07_05_04_00_pm_360.png?t=xoxe-49631706614-119786374643-119786374659-90264fc38b",
            "thumb_360_w": 360,
            "thumb_360_h": 233,
            "thumb_480": "https:\/\/files.slack.com\/files-tmb\/T1FJKLSJ2-F1P1HSV6C-e323faed7d\/pasted_image_at_2016_07_05_04_00_pm_480.png?t=xoxe-49631706614-119786374643-119786374659-90264fc38b",
            "thumb_480_w": 480,
            "thumb_480_h": 311,
            "thumb_160": "https:\/\/files.slack.com\/files-tmb\/T1FJKLSJ2-F1P1HSV6C-e323faed7d\/pasted_image_at_2016_07_05_04_00_pm_160.png?t=xoxe-49631706614-119786374643-119786374659-90264fc38b",
            "thumb_720": "https:\/\/files.slack.com\/files-tmb\/T1FJKLSJ2-F1P1HSV6C-e323faed7d\/pasted_image_at_2016_07_05_04_00_pm_720.png?t=xoxe-49631706614-119786374643-119786374659-90264fc38b",
            "thumb_720_w": 720,
            "thumb_720_h": 467,
            "thumb_960": "https:\/\/files.slack.com\/files-tmb\/T1FJKLSJ2-F1P1HSV6C-e323faed7d\/pasted_image_at_2016_07_05_04_00_pm_960.png?t=xoxe-49631706614-119786374643-119786374659-90264fc38b",
            "thumb_960_w": 960,
            "thumb_960_h": 622,
            "thumb_1024": "https:\/\/files.slack.com\/files-tmb\/T1FJKLSJ2-F1P1HSV6C-e323faed7d\/pasted_image_at_2016_07_05_04_00_pm_1024.png?t=xoxe-49631706614-119786374643-119786374659-90264fc38b",
            "thumb_1024_w": 1024,
            "thumb_1024_h": 664,
            "image_exif_rotation": 1,
            "original_w": 1353,
            "original_h": 877,
            "permalink": "https:\/\/tradingfutures.slack.com\/files\/mkchuprin\/F1P1HSV6C\/pasted_image_at_2016_07_05_04_00_pm.png",
            "permalink_public": "https:\/\/slack-files.com\/T1FJKLSJ2-F1P1HSV6C-5065d6841d",
            "channels": [
                "C1FJVD12T"
            ],
            "groups": [],
            "ims": [],
            "comments_count": 1,
            "reactions": [
                {
                    "name": "metal",
                    "users": [
                        "U1FHF07QT"
                    ],
                    "count": 1
                },
                {
                    "name": "cow",
                    "users": [
                        "U1FKCRD8D"
                    ],
                    "count": 1
                }
            ]
        },
        "comment": {
            "id": "Fc1P3Q4ZEY",
            "created": 1467769959,
            "timestamp": 1467769959,
            "user": "U1FKCRD8D",
            "is_intro": false,
            "comment": "The problem with this patt is that it's mostly about Wed Oil number, however, this week the # is on Thursday.",
            "channel": ""
        },
        "is_intro": false,
        "ts": "1467769959.000036"
    }
]