[
    {
        "type": "message",
        "subtype": "file_share",
        "text": "<@U1FHF07QT|jkh> uploaded a file: <https:\/\/tradingfutures.slack.com\/files\/jkh\/F2L45U1LN\/-.txt|Untitled>",
        "file": {
            "id": "F2L45U1LN",
            "created": 1475753084,
            "timestamp": 1475753084,
            "name": "-.txt",
            "title": "Untitled",
            "mimetype": "text\/plain",
            "filetype": "text",
            "pretty_type": "Plain Text",
            "user": "U1FHF07QT",
            "editable": true,
            "size": 1163,
            "mode": "snippet",
            "is_external": false,
            "external_type": "",
            "is_public": true,
            "public_url_shared": false,
            "display_as_bot": false,
            "username": "",
            "url_private": "https:\/\/files.slack.com\/files-pri\/T1FJKLSJ2-F2L45U1LN\/-.txt?t=xoxe-49631706614-119786374643-119786374659-90264fc38b",
            "url_private_download": "https:\/\/files.slack.com\/files-pri\/T1FJKLSJ2-F2L45U1LN\/download\/-.txt?t=xoxe-49631706614-119786374643-119786374659-90264fc38b",
            "permalink": "https:\/\/tradingfutures.slack.com\/files\/jkh\/F2L45U1LN\/-.txt",
            "permalink_public": "https:\/\/slack-files.com\/T1FJKLSJ2-F2L45U1LN-f8a444fc52",
            "edit_link": "https:\/\/tradingfutures.slack.com\/files\/jkh\/F2L45U1LN\/-.txt\/edit",
            "preview": "JKH::Thu 06 Oct 2016 07:24:24 AM EDT\r\nDEP VAR CRUDE AT 800 : 01\/01\/2015 TO 01\/01\/2020  US\/Eastern\r\n\r\nINDEPENDNT LAG1  HOUR LAG2  HOUR  LO     HI          TZ\r\n    tbond    2  1715    1  1715  -1  -5000  US\/Eastern\r",
            "preview_highlight": "<div class=\"CodeMirror cm-s-default CodeMirrorServer\" oncopy=\"if(event.clipboardData){event.clipboardData.setData('text\/plain',window.getSelection().toString().replace(\/\\u200b\/g,''));event.preventDefault();event.stopPropagation();}\">\n<div class=\"CodeMirror-code\">\n<div><pre>JKH::Thu 06 Oct 2016 07:24:24 AM EDT<\/pre><\/div>\n<div><pre>DEP VAR CRUDE AT 800 : 01\/01\/2015 TO 01\/01\/2020  US\/Eastern<\/pre><\/div>\n<div><pre><\/pre><\/div>\n<div><pre>INDEPENDNT LAG1  HOUR LAG2  HOUR  LO     HI          TZ<\/pre><\/div>\n<div><pre>    tbond    2  1715    1  1715  -1  -5000  US\/Eastern<\/pre><\/div>\n<div><pre><\/pre><\/div>\n<\/div>\n<\/div>\n",
            "lines": 27,
            "lines_more": 22,
            "preview_is_truncated": true,
            "channels": [
                "C1FJVD12T"
            ],
            "groups": [],
            "ims": [],
            "comments_count": 0,
            "reactions": [
                {
                    "name": "godmode",
                    "users": [
                        "U1FKCRD8D"
                    ],
                    "count": 1
                }
            ]
        },
        "user": "U1FHF07QT",
        "upload": true,
        "display_as_bot": false,
        "username": "<@U1FHF07QT|jkh>",
        "bot_id": null,
        "ts": "1475753085.000089"
    },
    {
        "type": "message",
        "subtype": "file_share",
        "text": "<@U1FKCRD8D|hernanavella> shared a file: <https:\/\/tradingfutures.slack.com\/files\/hernanavella\/F2L4H5MUY\/-.txt|Untitled>",
        "file": {
            "id": "F2L4H5MUY",
            "created": 1475755366,
            "timestamp": 1475755366,
            "name": "-.txt",
            "title": "Untitled",
            "mimetype": "text\/plain",
            "filetype": "text",
            "pretty_type": "Plain Text",
            "user": "U1FKCRD8D",
            "editable": true,
            "size": 2261,
            "mode": "snippet",
            "is_external": false,
            "external_type": "",
            "is_public": true,
            "public_url_shared": false,
            "display_as_bot": false,
            "username": "",
            "url_private": "https:\/\/files.slack.com\/files-pri\/T1FJKLSJ2-F2L4H5MUY\/-.txt?t=xoxe-49631706614-119786374643-119786374659-90264fc38b",
            "url_private_download": "https:\/\/files.slack.com\/files-pri\/T1FJKLSJ2-F2L4H5MUY\/download\/-.txt?t=xoxe-49631706614-119786374643-119786374659-90264fc38b",
            "permalink": "https:\/\/tradingfutures.slack.com\/files\/hernanavella\/F2L4H5MUY\/-.txt",
            "permalink_public": "https:\/\/slack-files.com\/T1FJKLSJ2-F2L4H5MUY-1a8b33b3ca",
            "edit_link": "https:\/\/tradingfutures.slack.com\/files\/hernanavella\/F2L4H5MUY\/-.txt\/edit",
            "preview": "HERNANAVELLA-WS::Thu Oct 06 07:02:23 2016\r\nDEP VAR CRUDE AT 800 ALL DAYS: 1\/1\/2010 to 9\/2\/2016\r\nAS OF 2 1720, CRUDE AT 20 COMPARISON DAY HIGH \r\nINDEPENDNT   LAG1 HOUR   LAG2 HOUR       LO       HI     (TRADING DAYS)\r\n     CRUDE     1  1720     0   800        1       25\r",
            "preview_highlight": "<div class=\"CodeMirror cm-s-default CodeMirrorServer\" oncopy=\"if(event.clipboardData){event.clipboardData.setData('text\/plain',window.getSelection().toString().replace(\/\\u200b\/g,''));event.preventDefault();event.stopPropagation();}\">\n<div class=\"CodeMirror-code\">\n<div><pre>HERNANAVELLA-WS::Thu Oct 06 07:02:23 2016<\/pre><\/div>\n<div><pre>DEP VAR CRUDE AT 800 ALL DAYS: 1\/1\/2010 to 9\/2\/2016<\/pre><\/div>\n<div><pre>AS OF 2 1720, CRUDE AT 20 COMPARISON DAY HIGH <\/pre><\/div>\n<div><pre>INDEPENDNT   LAG1 HOUR   LAG2 HOUR       LO       HI     (TRADING DAYS)<\/pre><\/div>\n<div><pre>     CRUDE     1  1720     0   800        1       25<\/pre><\/div>\n<div><pre><\/pre><\/div>\n<\/div>\n<\/div>\n",
            "lines": 34,
            "lines_more": 29,
            "preview_is_truncated": true,
            "channels": [
                "C1FJVD12T"
            ],
            "groups": [],
            "ims": [],
            "comments_count": 0,
            "reactions": [
                {
                    "name": "scream",
                    "users": [
                        "U1FHF07QT"
                    ],
                    "count": 1
                }
            ]
        },
        "user": "U1FKCRD8D",
        "upload": false,
        "display_as_bot": false,
        "username": "<@U1FKCRD8D|hernanavella>",
        "bot_id": null,
        "ts": "1475755444.000091"
    },
    {
        "type": "message",
        "subtype": "file_share",
        "text": "<@U1FKCRD8D|hernanavella> uploaded a file: <https:\/\/tradingfutures.slack.com\/files\/hernanavella\/F2L65PF55\/-.txt|Untitled>",
        "file": {
            "id": "F2L65PF55",
            "created": 1475761994,
            "timestamp": 1475761994,
            "name": "-.txt",
            "title": "Untitled",
            "mimetype": "text\/plain",
            "filetype": "text",
            "pretty_type": "Plain Text",
            "user": "U1FKCRD8D",
            "editable": true,
            "size": 2134,
            "mode": "snippet",
            "is_external": false,
            "external_type": "",
            "is_public": true,
            "public_url_shared": false,
            "display_as_bot": false,
            "username": "",
            "url_private": "https:\/\/files.slack.com\/files-pri\/T1FJKLSJ2-F2L65PF55\/-.txt?t=xoxe-49631706614-119786374643-119786374659-90264fc38b",
            "url_private_download": "https:\/\/files.slack.com\/files-pri\/T1FJKLSJ2-F2L65PF55\/download\/-.txt?t=xoxe-49631706614-119786374643-119786374659-90264fc38b",
            "permalink": "https:\/\/tradingfutures.slack.com\/files\/hernanavella\/F2L65PF55\/-.txt",
            "permalink_public": "https:\/\/slack-files.com\/T1FJKLSJ2-F2L65PF55-4f698de836",
            "edit_link": "https:\/\/tradingfutures.slack.com\/files\/hernanavella\/F2L65PF55\/-.txt\/edit",
            "preview": "HERNANAVELLA-WS::Thu Oct 06 08:52:33 2016\r\nDEP VAR CRUDE AT 1000 ALL DAYS: 1\/1\/2014 to 9\/2\/2016\r\nINDEPENDNT   LAG1 HOUR   LAG2 HOUR       LO       HI     (TRADING DAYS)\r\n     CRUDE     1  1720     0  1000        1     5000\r\n   NITE.SP     1  1620     0  1000    -5000       -1\r",
            "preview_highlight": "<div class=\"CodeMirror cm-s-default CodeMirrorServer\" oncopy=\"if(event.clipboardData){event.clipboardData.setData('text\/plain',window.getSelection().toString().replace(\/\\u200b\/g,''));event.preventDefault();event.stopPropagation();}\">\n<div class=\"CodeMirror-code\">\n<div><pre>HERNANAVELLA-WS::Thu Oct 06 08:52:33 2016<\/pre><\/div>\n<div><pre>DEP VAR CRUDE AT 1000 ALL DAYS: 1\/1\/2014 to 9\/2\/2016<\/pre><\/div>\n<div><pre>INDEPENDNT   LAG1 HOUR   LAG2 HOUR       LO       HI     (TRADING DAYS)<\/pre><\/div>\n<div><pre>     CRUDE     1  1720     0  1000        1     5000<\/pre><\/div>\n<div><pre>   NITE.SP     1  1620     0  1000    -5000       -1<\/pre><\/div>\n<div><pre><\/pre><\/div>\n<\/div>\n<\/div>\n",
            "lines": 32,
            "lines_more": 27,
            "preview_is_truncated": true,
            "channels": [
                "C1FJVD12T"
            ],
            "groups": [],
            "ims": [],
            "comments_count": 0,
            "reactions": [
                {
                    "name": "cry",
                    "users": [
                        "U1FHF07QT"
                    ],
                    "count": 1
                }
            ]
        },
        "user": "U1FKCRD8D",
        "upload": true,
        "display_as_bot": false,
        "username": "<@U1FKCRD8D|hernanavella>",
        "bot_id": null,
        "ts": "1475761994.000092"
    },
    {
        "type": "message",
        "subtype": "file_share",
        "text": "<@U1FKCRD8D|hernanavella> uploaded a file: <https:\/\/tradingfutures.slack.com\/files\/hernanavella\/F2LAFN7QS\/-.txt|Untitled>",
        "file": {
            "id": "F2LAFN7QS",
            "created": 1475776765,
            "timestamp": 1475776765,
            "name": "-.txt",
            "title": "Untitled",
            "mimetype": "text\/plain",
            "filetype": "text",
            "pretty_type": "Plain Text",
            "user": "U1FKCRD8D",
            "editable": true,
            "size": 2672,
            "mode": "snippet",
            "is_external": false,
            "external_type": "",
            "is_public": true,
            "public_url_shared": false,
            "display_as_bot": false,
            "username": "",
            "url_private": "https:\/\/files.slack.com\/files-pri\/T1FJKLSJ2-F2LAFN7QS\/-.txt?t=xoxe-49631706614-119786374643-119786374659-90264fc38b",
            "url_private_download": "https:\/\/files.slack.com\/files-pri\/T1FJKLSJ2-F2LAFN7QS\/download\/-.txt?t=xoxe-49631706614-119786374643-119786374659-90264fc38b",
            "permalink": "https:\/\/tradingfutures.slack.com\/files\/hernanavella\/F2LAFN7QS\/-.txt",
            "permalink_public": "https:\/\/slack-files.com\/T1FJKLSJ2-F2LAFN7QS-dc165dda4b",
            "edit_link": "https:\/\/tradingfutures.slack.com\/files\/hernanavella\/F2LAFN7QS\/-.txt\/edit",
            "preview": "HERNANAVELLA-WS::Thu Oct 06 12:58:40 2016\r\nDEP VAR CRUDE AT 1720 ALL DAYS: 1\/1\/2013 to 9\/2\/2016\r\nINCLUDE UNEMPLOYMENT ANNOUNCEMENT AT T(1)\r\nINDEPENDNT   LAG1 HOUR   LAG2 HOUR       LO       HI     (TRADING DAYS)\r\n     CRUDE     4  1720     0  1720        1     5000\r",
            "preview_highlight": "<div class=\"CodeMirror cm-s-default CodeMirrorServer\" oncopy=\"if(event.clipboardData){event.clipboardData.setData('text\/plain',window.getSelection().toString().replace(\/\\u200b\/g,''));event.preventDefault();event.stopPropagation();}\">\n<div class=\"CodeMirror-code\">\n<div><pre>HERNANAVELLA-WS::Thu Oct 06 12:58:40 2016<\/pre><\/div>\n<div><pre>DEP VAR CRUDE AT 1720 ALL DAYS: 1\/1\/2013 to 9\/2\/2016<\/pre><\/div>\n<div><pre>INCLUDE UNEMPLOYMENT ANNOUNCEMENT AT T(1)<\/pre><\/div>\n<div><pre>INDEPENDNT   LAG1 HOUR   LAG2 HOUR       LO       HI     (TRADING DAYS)<\/pre><\/div>\n<div><pre>     CRUDE     4  1720     0  1720        1     5000<\/pre><\/div>\n<div><pre><\/pre><\/div>\n<\/div>\n<\/div>\n",
            "lines": 40,
            "lines_more": 35,
            "preview_is_truncated": true,
            "channels": [
                "C1FJVD12T"
            ],
            "groups": [],
            "ims": [],
            "comments_count": 0,
            "reactions": [
                {
                    "name": "tired_face",
                    "users": [
                        "U1FHF07QT"
                    ],
                    "count": 1
                }
            ]
        },
        "user": "U1FKCRD8D",
        "upload": true,
        "display_as_bot": false,
        "username": "<@U1FKCRD8D|hernanavella>",
        "bot_id": null,
        "ts": "1475776765.000094"
    },
    {
        "type": "message",
        "subtype": "file_share",
        "text": "<@U1FKCRD8D|hernanavella> uploaded a file: <https:\/\/tradingfutures.slack.com\/files\/hernanavella\/F2LAQL4R0\/-.txt|Untitled>",
        "file": {
            "id": "F2LAQL4R0",
            "created": 1475777729,
            "timestamp": 1475777729,
            "name": "-.txt",
            "title": "Untitled",
            "mimetype": "text\/plain",
            "filetype": "text",
            "pretty_type": "Plain Text",
            "user": "U1FKCRD8D",
            "editable": true,
            "size": 2731,
            "mode": "snippet",
            "is_external": false,
            "external_type": "",
            "is_public": true,
            "public_url_shared": false,
            "display_as_bot": false,
            "username": "",
            "url_private": "https:\/\/files.slack.com\/files-pri\/T1FJKLSJ2-F2LAQL4R0\/-.txt?t=xoxe-49631706614-119786374643-119786374659-90264fc38b",
            "url_private_download": "https:\/\/files.slack.com\/files-pri\/T1FJKLSJ2-F2LAQL4R0\/download\/-.txt?t=xoxe-49631706614-119786374643-119786374659-90264fc38b",
            "permalink": "https:\/\/tradingfutures.slack.com\/files\/hernanavella\/F2LAQL4R0\/-.txt",
            "permalink_public": "https:\/\/slack-files.com\/T1FJKLSJ2-F2LAQL4R0-251f45c3c9",
            "edit_link": "https:\/\/tradingfutures.slack.com\/files\/hernanavella\/F2LAQL4R0\/-.txt\/edit",
            "preview": "HERNANAVELLA-WS::Thu Oct 06 13:15:03 2016\r\nDEP VAR CRUDE AT 1720 ALL DAYS: 1\/1\/2013 to 9\/2\/2016\r\nAS OF 2 1430, CRUDE AT 20 COMPARISON DAY HIGH \r\nINDEPENDNT   LAG1 HOUR   LAG2 HOUR       LO       HI     (TRADING DAYS)\r\n     CRUDE     1  1430     0  1430        1     5000\r",
            "preview_highlight": "<div class=\"CodeMirror cm-s-default CodeMirrorServer\" oncopy=\"if(event.clipboardData){event.clipboardData.setData('text\/plain',window.getSelection().toString().replace(\/\\u200b\/g,''));event.preventDefault();event.stopPropagation();}\">\n<div class=\"CodeMirror-code\">\n<div><pre>HERNANAVELLA-WS::Thu Oct 06 13:15:03 2016<\/pre><\/div>\n<div><pre>DEP VAR CRUDE AT 1720 ALL DAYS: 1\/1\/2013 to 9\/2\/2016<\/pre><\/div>\n<div><pre>AS OF 2 1430, CRUDE AT 20 COMPARISON DAY HIGH <\/pre><\/div>\n<div><pre>INDEPENDNT   LAG1 HOUR   LAG2 HOUR       LO       HI     (TRADING DAYS)<\/pre><\/div>\n<div><pre>     CRUDE     1  1430     0  1430        1     5000<\/pre><\/div>\n<div><pre><\/pre><\/div>\n<\/div>\n<\/div>\n",
            "lines": 41,
            "lines_more": 36,
            "preview_is_truncated": true,
            "channels": [
                "C1FJVD12T"
            ],
            "groups": [],
            "ims": [],
            "comments_count": 0
        },
        "user": "U1FKCRD8D",
        "upload": true,
        "display_as_bot": false,
        "username": "<@U1FKCRD8D|hernanavella>",
        "bot_id": null,
        "ts": "1475777730.000096"
    },
    {
        "type": "message",
        "subtype": "file_share",
        "text": "<@U1FKCRD8D|hernanavella> uploaded a file: <https:\/\/tradingfutures.slack.com\/files\/hernanavella\/F2LAP1YG5\/-.txt|Untitled>",
        "file": {
            "id": "F2LAP1YG5",
            "created": 1475778780,
            "timestamp": 1475778780,
            "name": "-.txt",
            "title": "Untitled",
            "mimetype": "text\/plain",
            "filetype": "text",
            "pretty_type": "Plain Text",
            "user": "U1FKCRD8D",
            "editable": true,
            "size": 2597,
            "mode": "snippet",
            "is_external": false,
            "external_type": "",
            "is_public": true,
            "public_url_shared": false,
            "display_as_bot": false,
            "username": "",
            "url_private": "https:\/\/files.slack.com\/files-pri\/T1FJKLSJ2-F2LAP1YG5\/-.txt?t=xoxe-49631706614-119786374643-119786374659-90264fc38b",
            "url_private_download": "https:\/\/files.slack.com\/files-pri\/T1FJKLSJ2-F2LAP1YG5\/download\/-.txt?t=xoxe-49631706614-119786374643-119786374659-90264fc38b",
            "permalink": "https:\/\/tradingfutures.slack.com\/files\/hernanavella\/F2LAP1YG5\/-.txt",
            "permalink_public": "https:\/\/slack-files.com\/T1FJKLSJ2-F2LAP1YG5-6c0bcbed9f",
            "edit_link": "https:\/\/tradingfutures.slack.com\/files\/hernanavella\/F2LAP1YG5\/-.txt\/edit",
            "preview": "HERNANAVELLA-WS::Thu Oct 06 13:32:35 2016\r\nDEP VAR CRUDE AT 1720 ALL DAYS: 1\/1\/2013 to 9\/2\/2016\r\nAS OF 0 1500, TBOND AT 20 COMPARISON DAY LOW \r\nAS OF 0 1430, CRUDE AT 20 COMPARISON DAY HIGH \r\n\r",
            "preview_highlight": "<div class=\"CodeMirror cm-s-default CodeMirrorServer\" oncopy=\"if(event.clipboardData){event.clipboardData.setData('text\/plain',window.getSelection().toString().replace(\/\\u200b\/g,''));event.preventDefault();event.stopPropagation();}\">\n<div class=\"CodeMirror-code\">\n<div><pre>HERNANAVELLA-WS::Thu Oct 06 13:32:35 2016<\/pre><\/div>\n<div><pre>DEP VAR CRUDE AT 1720 ALL DAYS: 1\/1\/2013 to 9\/2\/2016<\/pre><\/div>\n<div><pre>AS OF 0 1500, TBOND AT 20 COMPARISON DAY LOW <\/pre><\/div>\n<div><pre>AS OF 0 1430, CRUDE AT 20 COMPARISON DAY HIGH <\/pre><\/div>\n<div><pre><\/pre><\/div>\n<div><pre><\/pre><\/div>\n<\/div>\n<\/div>\n",
            "lines": 39,
            "lines_more": 34,
            "preview_is_truncated": true,
            "channels": [
                "C1FJVD12T"
            ],
            "groups": [],
            "ims": [],
            "comments_count": 0
        },
        "user": "U1FKCRD8D",
        "upload": true,
        "display_as_bot": false,
        "username": "<@U1FKCRD8D|hernanavella>",
        "bot_id": null,
        "ts": "1475778781.000097"
    }
]