[
    {
        "type": "message",
        "subtype": "file_share",
        "text": "<@U1FKCRD8D|hernanavella> uploaded a file: <https:\/\/tradingfutures.slack.com\/files\/hernanavella\/F2F62UYUQ\/-.txt|Untitled>",
        "file": {
            "id": "F2F62UYUQ",
            "created": 1474634826,
            "timestamp": 1474634826,
            "name": "-.txt",
            "title": "Untitled",
            "mimetype": "text\/plain",
            "filetype": "text",
            "pretty_type": "Plain Text",
            "user": "U1FKCRD8D",
            "editable": true,
            "size": 1950,
            "mode": "snippet",
            "is_external": false,
            "external_type": "",
            "is_public": true,
            "public_url_shared": false,
            "display_as_bot": false,
            "username": "",
            "url_private": "https:\/\/files.slack.com\/files-pri\/T1FJKLSJ2-F2F62UYUQ\/-.txt?t=xoxe-49631706614-119786374643-119786374659-90264fc38b",
            "url_private_download": "https:\/\/files.slack.com\/files-pri\/T1FJKLSJ2-F2F62UYUQ\/download\/-.txt?t=xoxe-49631706614-119786374643-119786374659-90264fc38b",
            "permalink": "https:\/\/tradingfutures.slack.com\/files\/hernanavella\/F2F62UYUQ\/-.txt",
            "permalink_public": "https:\/\/slack-files.com\/T1FJKLSJ2-F2F62UYUQ-8b12e903f0",
            "edit_link": "https:\/\/tradingfutures.slack.com\/files\/hernanavella\/F2F62UYUQ\/-.txt\/edit",
            "preview": "HERNANAVELLA-WS::Fri Sep 23 07:46:10 2016\r\nDEP VAR CRUDE AT 900 EXCLUDING MON: 1\/1\/2013 to 9\/2\/2016\r\nINDEPENDNT   LAG1 HOUR   LAG2 HOUR       LO       HI     (TRADING DAYS)\r\n     CRUDE     2  1720     1  1720       75     5000\r\n     CRUDE     3  1720     2  1720       75     5000\r",
            "preview_highlight": "<div class=\"CodeMirror cm-s-default CodeMirrorServer\" oncopy=\"if(event.clipboardData){event.clipboardData.setData('text\/plain',window.getSelection().toString().replace(\/\\u200b\/g,''));event.preventDefault();event.stopPropagation();}\">\n<div class=\"CodeMirror-code\">\n<div><pre>HERNANAVELLA-WS::Fri Sep 23 07:46:10 2016<\/pre><\/div>\n<div><pre>DEP VAR CRUDE AT 900 EXCLUDING MON: 1\/1\/2013 to 9\/2\/2016<\/pre><\/div>\n<div><pre>INDEPENDNT   LAG1 HOUR   LAG2 HOUR       LO       HI     (TRADING DAYS)<\/pre><\/div>\n<div><pre>     CRUDE     2  1720     1  1720       75     5000<\/pre><\/div>\n<div><pre>     CRUDE     3  1720     2  1720       75     5000<\/pre><\/div>\n<div><pre><\/pre><\/div>\n<\/div>\n<\/div>\n",
            "lines": 29,
            "lines_more": 24,
            "preview_is_truncated": true,
            "channels": [
                "C1FJVD12T"
            ],
            "groups": [],
            "ims": [],
            "comments_count": 0
        },
        "user": "U1FKCRD8D",
        "upload": true,
        "display_as_bot": false,
        "username": "<@U1FKCRD8D|hernanavella>",
        "bot_id": null,
        "ts": "1474634826.000058"
    },
    {
        "type": "message",
        "subtype": "file_share",
        "text": "<@U1FHF07QT|jkh> uploaded a file: <https:\/\/tradingfutures.slack.com\/files\/jkh\/F2F6FN52M\/-.txt|Untitled> and commented: crude wasn't quite up 75 1700 to 1700 yesterday but something similar.",
        "file": {
            "id": "F2F6FN52M",
            "created": 1474635163,
            "timestamp": 1474635163,
            "name": "-.txt",
            "title": "Untitled",
            "mimetype": "text\/plain",
            "filetype": "text",
            "pretty_type": "Plain Text",
            "user": "U1FHF07QT",
            "editable": true,
            "size": 1110,
            "mode": "snippet",
            "is_external": false,
            "external_type": "",
            "is_public": true,
            "public_url_shared": false,
            "display_as_bot": false,
            "username": "",
            "url_private": "https:\/\/files.slack.com\/files-pri\/T1FJKLSJ2-F2F6FN52M\/-.txt?t=xoxe-49631706614-119786374643-119786374659-90264fc38b",
            "url_private_download": "https:\/\/files.slack.com\/files-pri\/T1FJKLSJ2-F2F6FN52M\/download\/-.txt?t=xoxe-49631706614-119786374643-119786374659-90264fc38b",
            "permalink": "https:\/\/tradingfutures.slack.com\/files\/jkh\/F2F6FN52M\/-.txt",
            "permalink_public": "https:\/\/slack-files.com\/T1FJKLSJ2-F2F6FN52M-af8ee2a735",
            "edit_link": "https:\/\/tradingfutures.slack.com\/files\/jkh\/F2F6FN52M\/-.txt\/edit",
            "preview": "JKH::Fri 23 Sep 2016 08:51:48 AM EDT\r\nDEP VAR CRUDE AT 900 FRI: 01\/01\/2013 TO 01\/01\/2020  US\/Eastern\r\n\r\nINDEPENDNT LAG1  HOUR LAG2  HOUR   LO    HI          TZ\r\n    crude    2  1715    1  1715    1  5000  US\/Eastern\r",
            "preview_highlight": "<div class=\"CodeMirror cm-s-default CodeMirrorServer\" oncopy=\"if(event.clipboardData){event.clipboardData.setData('text\/plain',window.getSelection().toString().replace(\/\\u200b\/g,''));event.preventDefault();event.stopPropagation();}\">\n<div class=\"CodeMirror-code\">\n<div><pre>JKH::Fri 23 Sep 2016 08:51:48 AM EDT<\/pre><\/div>\n<div><pre>DEP VAR CRUDE AT 900 FRI: 01\/01\/2013 TO 01\/01\/2020  US\/Eastern<\/pre><\/div>\n<div><pre><\/pre><\/div>\n<div><pre>INDEPENDNT LAG1  HOUR LAG2  HOUR   LO    HI          TZ<\/pre><\/div>\n<div><pre>    crude    2  1715    1  1715    1  5000  US\/Eastern<\/pre><\/div>\n<div><pre><\/pre><\/div>\n<\/div>\n<\/div>\n",
            "lines": 26,
            "lines_more": 21,
            "preview_is_truncated": true,
            "channels": [
                "C1FJVD12T"
            ],
            "groups": [],
            "ims": [],
            "comments_count": 1,
            "initial_comment": {
                "id": "Fc2F6B1E4D",
                "created": 1474635163,
                "timestamp": 1474635163,
                "user": "U1FHF07QT",
                "is_intro": true,
                "comment": "crude wasn't quite up 75 1700 to 1700 yesterday but something similar.",
                "channel": ""
            },
            "reactions": [
                {
                    "name": "white_check_mark",
                    "users": [
                        "U1FKCRD8D"
                    ],
                    "count": 1
                }
            ]
        },
        "user": "U1FHF07QT",
        "upload": true,
        "display_as_bot": false,
        "username": "<@U1FHF07QT|jkh>",
        "bot_id": null,
        "ts": "1474635163.000059"
    }
]