[
    {
        "type": "message",
        "subtype": "file_share",
        "text": "<@U1FHF07QT|jkh> uploaded a file: <https:\/\/tradingfutures.slack.com\/files\/jkh\/F324LS5MW\/tbond__close.txt|tbond @close> and commented: is this true today?",
        "file": {
            "id": "F324LS5MW",
            "created": 1479226774,
            "timestamp": 1479226774,
            "name": "tbond__close.txt",
            "title": "tbond @close",
            "mimetype": "text\/plain",
            "filetype": "text",
            "pretty_type": "Plain Text",
            "user": "U1FHF07QT",
            "editable": true,
            "size": 909,
            "mode": "snippet",
            "is_external": false,
            "external_type": "",
            "is_public": true,
            "public_url_shared": false,
            "display_as_bot": false,
            "username": "",
            "url_private": "https:\/\/files.slack.com\/files-pri\/T1FJKLSJ2-F324LS5MW\/tbond__close.txt?t=xoxe-49631706614-119786374643-119786374659-90264fc38b",
            "url_private_download": "https:\/\/files.slack.com\/files-pri\/T1FJKLSJ2-F324LS5MW\/download\/tbond__close.txt?t=xoxe-49631706614-119786374643-119786374659-90264fc38b",
            "permalink": "https:\/\/tradingfutures.slack.com\/files\/jkh\/F324LS5MW\/tbond__close.txt",
            "permalink_public": "https:\/\/slack-files.com\/T1FJKLSJ2-F324LS5MW-6f7078cd09",
            "edit_link": "https:\/\/tradingfutures.slack.com\/files\/jkh\/F324LS5MW\/tbond__close.txt\/edit",
            "preview": "JKH::Tue 15 Nov 2016 11:18:40 AM EST\r\nDEP VAR TBOND AT 1715 : 01\/01\/2013 TO 01\/01\/2020  US\/Eastern\r\n\r\nINCLUDE PPI ANNOUNCEMENT AT T(-1)\r\n\r",
            "preview_highlight": "<div class=\"CodeMirror cm-s-default CodeMirrorServer\" oncopy=\"if(event.clipboardData){event.clipboardData.setData('text\/plain',window.getSelection().toString().replace(\/\\u200b\/g,''));event.preventDefault();event.stopPropagation();}\">\n<div class=\"CodeMirror-code\">\n<div><pre>JKH::Tue 15 Nov 2016 11:18:40 AM EST<\/pre><\/div>\n<div><pre>DEP VAR TBOND AT 1715 : 01\/01\/2013 TO 01\/01\/2020  US\/Eastern<\/pre><\/div>\n<div><pre><\/pre><\/div>\n<div><pre>INCLUDE PPI ANNOUNCEMENT AT T(-1)<\/pre><\/div>\n<div><pre><\/pre><\/div>\n<div><pre><\/pre><\/div>\n<\/div>\n<\/div>\n",
            "lines": 23,
            "lines_more": 18,
            "preview_is_truncated": false,
            "channels": [
                "C1FJVPA1K",
                "C24S46TKM"
            ],
            "groups": [],
            "ims": [],
            "comments_count": 1,
            "initial_comment": {
                "id": "Fc325J0ARF",
                "created": 1479226774,
                "timestamp": 1479226774,
                "user": "U1FHF07QT",
                "is_intro": true,
                "comment": "is this true today?",
                "channel": ""
            },
            "reactions": [
                {
                    "name": "money_mouth_face",
                    "users": [
                        "U1FKCRD8D"
                    ],
                    "count": 1
                }
            ]
        },
        "user": "U1FHF07QT",
        "upload": true,
        "display_as_bot": false,
        "username": "<@U1FHF07QT|jkh>",
        "bot_id": null,
        "ts": "1479226774.000154"
    },
    {
        "type": "message",
        "user": "U1FKCRD8D",
        "text": "yes",
        "ts": "1479226812.000155",
        "reactions": [
            {
                "name": "metal",
                "users": [
                    "U1FHF07QT"
                ],
                "count": 1
            }
        ]
    }
]