[
    {
        "type": "message",
        "subtype": "file_share",
        "text": "<@U1FKCRD8D|hernanavella> uploaded a file: <https:\/\/tradingfutures.slack.com\/files\/hernanavella\/F2WEHTCUE\/-.txt|Untitled> and commented: Unfortunately, we only have 1\/2 of the conditions this time around.",
        "file": {
            "id": "F2WEHTCUE",
            "created": 1477939668,
            "timestamp": 1477939668,
            "name": "-.txt",
            "title": "Untitled",
            "mimetype": "text\/plain",
            "filetype": "text",
            "pretty_type": "Plain Text",
            "user": "U1FKCRD8D",
            "editable": true,
            "size": 2240,
            "mode": "snippet",
            "is_external": false,
            "external_type": "",
            "is_public": true,
            "public_url_shared": false,
            "display_as_bot": false,
            "username": "",
            "url_private": "https:\/\/files.slack.com\/files-pri\/T1FJKLSJ2-F2WEHTCUE\/-.txt?t=xoxe-49631706614-119786374643-119786374659-90264fc38b",
            "url_private_download": "https:\/\/files.slack.com\/files-pri\/T1FJKLSJ2-F2WEHTCUE\/download\/-.txt?t=xoxe-49631706614-119786374643-119786374659-90264fc38b",
            "permalink": "https:\/\/tradingfutures.slack.com\/files\/hernanavella\/F2WEHTCUE\/-.txt",
            "permalink_public": "https:\/\/slack-files.com\/T1FJKLSJ2-F2WEHTCUE-c837e59704",
            "edit_link": "https:\/\/tradingfutures.slack.com\/files\/hernanavella\/F2WEHTCUE\/-.txt\/edit",
            "preview": "HERNANAVELLA-WS::Mon Oct 31 13:46:47 2016\r\nDEP VAR NITE.SP AT 1620 ALL DAYS: 1\/1\/2007 to 10\/7\/2016\r\nLOOKING AT DAY 1 FROM END OF MONTH\r\nINDEPENDNT   LAG1 HOUR   LAG2 HOUR       LO       HI     (TRADING DAYS)\r\n     TBOND    20  1700     0  1620    -5000       -1\r",
            "preview_highlight": "<div class=\"CodeMirror cm-s-default CodeMirrorServer\" oncopy=\"if(event.clipboardData){event.clipboardData.setData('text\/plain',window.getSelection().toString().replace(\/\\u200b\/g,''));event.preventDefault();event.stopPropagation();}\">\n<div class=\"CodeMirror-code\">\n<div><pre>HERNANAVELLA-WS::Mon Oct 31 13:46:47 2016<\/pre><\/div>\n<div><pre>DEP VAR NITE.SP AT 1620 ALL DAYS: 1\/1\/2007 to 10\/7\/2016<\/pre><\/div>\n<div><pre>LOOKING AT DAY 1 FROM END OF MONTH<\/pre><\/div>\n<div><pre>INDEPENDNT   LAG1 HOUR   LAG2 HOUR       LO       HI     (TRADING DAYS)<\/pre><\/div>\n<div><pre>     TBOND    20  1700     0  1620    -5000       -1<\/pre><\/div>\n<div><pre><\/pre><\/div>\n<\/div>\n<\/div>\n",
            "lines": 35,
            "lines_more": 30,
            "preview_is_truncated": true,
            "channels": [
                "C24S46TKM"
            ],
            "groups": [],
            "ims": [],
            "comments_count": 2,
            "initial_comment": {
                "id": "Fc2WEDLJMA",
                "created": 1477939668,
                "timestamp": 1477939668,
                "user": "U1FKCRD8D",
                "is_intro": true,
                "comment": "Unfortunately, we only have 1\/2 of the conditions this time around.",
                "channel": ""
            }
        },
        "user": "U1FKCRD8D",
        "upload": true,
        "display_as_bot": false,
        "username": "<@U1FKCRD8D|hernanavella>",
        "bot_id": null,
        "ts": "1477939669.000121"
    },
    {
        "type": "message",
        "subtype": "file_share",
        "text": "<@U1FHF07QT|jkh> shared a file: <https:\/\/tradingfutures.slack.com\/files\/hernanavella\/F2WEHTCUE\/-.txt|Untitled> and commented: Unfortunately, we only have 1\/2 of the conditions this time around.",
        "file": {
            "id": "F2WEHTCUE",
            "created": 1477939668,
            "timestamp": 1477939668,
            "name": "-.txt",
            "title": "Untitled",
            "mimetype": "text\/plain",
            "filetype": "text",
            "pretty_type": "Plain Text",
            "user": "U1FKCRD8D",
            "editable": true,
            "size": 2240,
            "mode": "snippet",
            "is_external": false,
            "external_type": "",
            "is_public": true,
            "public_url_shared": false,
            "display_as_bot": false,
            "username": "",
            "url_private": "https:\/\/files.slack.com\/files-pri\/T1FJKLSJ2-F2WEHTCUE\/-.txt?t=xoxe-49631706614-119786374643-119786374659-90264fc38b",
            "url_private_download": "https:\/\/files.slack.com\/files-pri\/T1FJKLSJ2-F2WEHTCUE\/download\/-.txt?t=xoxe-49631706614-119786374643-119786374659-90264fc38b",
            "permalink": "https:\/\/tradingfutures.slack.com\/files\/hernanavella\/F2WEHTCUE\/-.txt",
            "permalink_public": "https:\/\/slack-files.com\/T1FJKLSJ2-F2WEHTCUE-c837e59704",
            "edit_link": "https:\/\/tradingfutures.slack.com\/files\/hernanavella\/F2WEHTCUE\/-.txt\/edit",
            "preview": "HERNANAVELLA-WS::Mon Oct 31 13:46:47 2016\r\nDEP VAR NITE.SP AT 1620 ALL DAYS: 1\/1\/2007 to 10\/7\/2016\r\nLOOKING AT DAY 1 FROM END OF MONTH\r\nINDEPENDNT   LAG1 HOUR   LAG2 HOUR       LO       HI     (TRADING DAYS)\r\n     TBOND    20  1700     0  1620    -5000       -1\r",
            "preview_highlight": "<div class=\"CodeMirror cm-s-default CodeMirrorServer\" oncopy=\"if(event.clipboardData){event.clipboardData.setData('text\/plain',window.getSelection().toString().replace(\/\\u200b\/g,''));event.preventDefault();event.stopPropagation();}\">\n<div class=\"CodeMirror-code\">\n<div><pre>HERNANAVELLA-WS::Mon Oct 31 13:46:47 2016<\/pre><\/div>\n<div><pre>DEP VAR NITE.SP AT 1620 ALL DAYS: 1\/1\/2007 to 10\/7\/2016<\/pre><\/div>\n<div><pre>LOOKING AT DAY 1 FROM END OF MONTH<\/pre><\/div>\n<div><pre>INDEPENDNT   LAG1 HOUR   LAG2 HOUR       LO       HI     (TRADING DAYS)<\/pre><\/div>\n<div><pre>     TBOND    20  1700     0  1620    -5000       -1<\/pre><\/div>\n<div><pre><\/pre><\/div>\n<\/div>\n<\/div>\n",
            "lines": 35,
            "lines_more": 30,
            "preview_is_truncated": true,
            "channels": [
                "C24S46TKM"
            ],
            "groups": [],
            "ims": [],
            "comments_count": 2,
            "initial_comment": {
                "id": "Fc2WEDLJMA",
                "created": 1477939668,
                "timestamp": 1477939668,
                "user": "U1FKCRD8D",
                "is_intro": true,
                "comment": "Unfortunately, we only have 1\/2 of the conditions this time around.",
                "channel": ""
            }
        },
        "user": "U1FHF07QT",
        "upload": false,
        "display_as_bot": false,
        "username": "<@U1FHF07QT|jkh>",
        "bot_id": null,
        "ts": "1477939728.000122"
    },
    {
        "type": "message",
        "subtype": "file_comment",
        "text": "<@U1FHF07QT|jkh> commented on <@U1FKCRD8D|hernanavella>'s file <https:\/\/tradingfutures.slack.com\/files\/hernanavella\/F2WEHTCUE\/-.txt|Untitled>: huh, quite interesting.",
        "file": {
            "id": "F2WEHTCUE",
            "created": 1477939668,
            "timestamp": 1477939668,
            "name": "-.txt",
            "title": "Untitled",
            "mimetype": "text\/plain",
            "filetype": "text",
            "pretty_type": "Plain Text",
            "user": "U1FKCRD8D",
            "editable": true,
            "size": 2240,
            "mode": "snippet",
            "is_external": false,
            "external_type": "",
            "is_public": true,
            "public_url_shared": false,
            "display_as_bot": false,
            "username": "",
            "url_private": "https:\/\/files.slack.com\/files-pri\/T1FJKLSJ2-F2WEHTCUE\/-.txt?t=xoxe-49631706614-119786374643-119786374659-90264fc38b",
            "url_private_download": "https:\/\/files.slack.com\/files-pri\/T1FJKLSJ2-F2WEHTCUE\/download\/-.txt?t=xoxe-49631706614-119786374643-119786374659-90264fc38b",
            "permalink": "https:\/\/tradingfutures.slack.com\/files\/hernanavella\/F2WEHTCUE\/-.txt",
            "permalink_public": "https:\/\/slack-files.com\/T1FJKLSJ2-F2WEHTCUE-c837e59704",
            "edit_link": "https:\/\/tradingfutures.slack.com\/files\/hernanavella\/F2WEHTCUE\/-.txt\/edit",
            "preview": "HERNANAVELLA-WS::Mon Oct 31 13:46:47 2016\r\nDEP VAR NITE.SP AT 1620 ALL DAYS: 1\/1\/2007 to 10\/7\/2016\r\nLOOKING AT DAY 1 FROM END OF MONTH\r\nINDEPENDNT   LAG1 HOUR   LAG2 HOUR       LO       HI     (TRADING DAYS)\r\n     TBOND    20  1700     0  1620    -5000       -1\r",
            "preview_highlight": "<div class=\"CodeMirror cm-s-default CodeMirrorServer\" oncopy=\"if(event.clipboardData){event.clipboardData.setData('text\/plain',window.getSelection().toString().replace(\/\\u200b\/g,''));event.preventDefault();event.stopPropagation();}\">\n<div class=\"CodeMirror-code\">\n<div><pre>HERNANAVELLA-WS::Mon Oct 31 13:46:47 2016<\/pre><\/div>\n<div><pre>DEP VAR NITE.SP AT 1620 ALL DAYS: 1\/1\/2007 to 10\/7\/2016<\/pre><\/div>\n<div><pre>LOOKING AT DAY 1 FROM END OF MONTH<\/pre><\/div>\n<div><pre>INDEPENDNT   LAG1 HOUR   LAG2 HOUR       LO       HI     (TRADING DAYS)<\/pre><\/div>\n<div><pre>     TBOND    20  1700     0  1620    -5000       -1<\/pre><\/div>\n<div><pre><\/pre><\/div>\n<\/div>\n<\/div>\n",
            "lines": 35,
            "lines_more": 30,
            "preview_is_truncated": true,
            "channels": [
                "C24S46TKM"
            ],
            "groups": [],
            "ims": [],
            "comments_count": 2,
            "initial_comment": {
                "id": "Fc2WEDLJMA",
                "created": 1477939668,
                "timestamp": 1477939668,
                "user": "U1FKCRD8D",
                "is_intro": true,
                "comment": "Unfortunately, we only have 1\/2 of the conditions this time around.",
                "channel": ""
            }
        },
        "comment": {
            "id": "Fc2WEW52JD",
            "created": 1477939728,
            "timestamp": 1477939728,
            "user": "U1FHF07QT",
            "is_intro": false,
            "comment": "huh, quite interesting.",
            "channel": ""
        },
        "is_intro": false,
        "ts": "1477939728.000123"
    },
    {
        "type": "message",
        "subtype": "file_share",
        "text": "<@U1J0N0DPZ|duncan> uploaded a file: <https:\/\/tradingfutures.slack.com\/files\/duncan\/F2WDMUYP5\/close_below__2123_25.txt|close below  2123.25> and commented: monday min holding up",
        "file": {
            "id": "F2WDMUYP5",
            "created": 1477942016,
            "timestamp": 1477942016,
            "name": "close_below__2123_25.txt",
            "title": "close below  2123.25",
            "mimetype": "text\/plain",
            "filetype": "text",
            "pretty_type": "Plain Text",
            "user": "U1J0N0DPZ",
            "editable": true,
            "size": 2062,
            "mode": "snippet",
            "is_external": false,
            "external_type": "",
            "is_public": true,
            "public_url_shared": false,
            "display_as_bot": false,
            "username": "",
            "url_private": "https:\/\/files.slack.com\/files-pri\/T1FJKLSJ2-F2WDMUYP5\/close_below__2123_25.txt?t=xoxe-49631706614-119786374643-119786374659-90264fc38b",
            "url_private_download": "https:\/\/files.slack.com\/files-pri\/T1FJKLSJ2-F2WDMUYP5\/download\/close_below__2123_25.txt?t=xoxe-49631706614-119786374643-119786374659-90264fc38b",
            "permalink": "https:\/\/tradingfutures.slack.com\/files\/duncan\/F2WDMUYP5\/close_below__2123_25.txt",
            "permalink_public": "https:\/\/slack-files.com\/T1FJKLSJ2-F2WDMUYP5-8392736a35",
            "edit_link": "https:\/\/tradingfutures.slack.com\/files\/duncan\/F2WDMUYP5\/close_below__2123_25.txt\/edit",
            "preview": "Ran at 10\/31\/2016 15:25\r\nCalculation results for ES from 01\/07\/2010 00:00 to 10\/17\/2016 00:00\r\nReference time at 16:15\r\n\r\nEntry Conditions:\r",
            "preview_highlight": "<div class=\"CodeMirror cm-s-default CodeMirrorServer\" oncopy=\"if(event.clipboardData){event.clipboardData.setData('text\/plain',window.getSelection().toString().replace(\/\\u200b\/g,''));event.preventDefault();event.stopPropagation();}\">\n<div class=\"CodeMirror-code\">\n<div><pre>Ran at 10\/31\/2016 15:25<\/pre><\/div>\n<div><pre>Calculation results for ES from 01\/07\/2010 00:00 to 10\/17\/2016 00:00<\/pre><\/div>\n<div><pre>Reference time at 16:15<\/pre><\/div>\n<div><pre><\/pre><\/div>\n<div><pre>Entry Conditions:<\/pre><\/div>\n<div><pre><\/pre><\/div>\n<\/div>\n<\/div>\n",
            "lines": 32,
            "lines_more": 27,
            "preview_is_truncated": true,
            "channels": [
                "C24S46TKM"
            ],
            "groups": [],
            "ims": [],
            "comments_count": 2,
            "initial_comment": {
                "id": "Fc2WF4NT88",
                "created": 1477942016,
                "timestamp": 1477942016,
                "user": "U1J0N0DPZ",
                "is_intro": true,
                "comment": "monday min holding up",
                "channel": ""
            }
        },
        "user": "U1J0N0DPZ",
        "upload": true,
        "display_as_bot": false,
        "username": "<@U1J0N0DPZ|duncan>",
        "bot_id": null,
        "ts": "1477942016.000124"
    },
    {
        "type": "message",
        "subtype": "file_comment",
        "text": "<@U1FKCRD8D|hernanavella> commented on <@U1J0N0DPZ|duncan>'s file <https:\/\/tradingfutures.slack.com\/files\/duncan\/F2WDMUYP5\/close_below__2123_25.txt|close below  2123.25>: what's the best rule for 1 tick things....ignore?",
        "file": {
            "id": "F2WDMUYP5",
            "created": 1477942016,
            "timestamp": 1477942016,
            "name": "close_below__2123_25.txt",
            "title": "close below  2123.25",
            "mimetype": "text\/plain",
            "filetype": "text",
            "pretty_type": "Plain Text",
            "user": "U1J0N0DPZ",
            "editable": true,
            "size": 2062,
            "mode": "snippet",
            "is_external": false,
            "external_type": "",
            "is_public": true,
            "public_url_shared": false,
            "display_as_bot": false,
            "username": "",
            "url_private": "https:\/\/files.slack.com\/files-pri\/T1FJKLSJ2-F2WDMUYP5\/close_below__2123_25.txt?t=xoxe-49631706614-119786374643-119786374659-90264fc38b",
            "url_private_download": "https:\/\/files.slack.com\/files-pri\/T1FJKLSJ2-F2WDMUYP5\/download\/close_below__2123_25.txt?t=xoxe-49631706614-119786374643-119786374659-90264fc38b",
            "permalink": "https:\/\/tradingfutures.slack.com\/files\/duncan\/F2WDMUYP5\/close_below__2123_25.txt",
            "permalink_public": "https:\/\/slack-files.com\/T1FJKLSJ2-F2WDMUYP5-8392736a35",
            "edit_link": "https:\/\/tradingfutures.slack.com\/files\/duncan\/F2WDMUYP5\/close_below__2123_25.txt\/edit",
            "preview": "Ran at 10\/31\/2016 15:25\r\nCalculation results for ES from 01\/07\/2010 00:00 to 10\/17\/2016 00:00\r\nReference time at 16:15\r\n\r\nEntry Conditions:\r",
            "preview_highlight": "<div class=\"CodeMirror cm-s-default CodeMirrorServer\" oncopy=\"if(event.clipboardData){event.clipboardData.setData('text\/plain',window.getSelection().toString().replace(\/\\u200b\/g,''));event.preventDefault();event.stopPropagation();}\">\n<div class=\"CodeMirror-code\">\n<div><pre>Ran at 10\/31\/2016 15:25<\/pre><\/div>\n<div><pre>Calculation results for ES from 01\/07\/2010 00:00 to 10\/17\/2016 00:00<\/pre><\/div>\n<div><pre>Reference time at 16:15<\/pre><\/div>\n<div><pre><\/pre><\/div>\n<div><pre>Entry Conditions:<\/pre><\/div>\n<div><pre><\/pre><\/div>\n<\/div>\n<\/div>\n",
            "lines": 32,
            "lines_more": 27,
            "preview_is_truncated": true,
            "channels": [
                "C24S46TKM"
            ],
            "groups": [],
            "ims": [],
            "comments_count": 2,
            "initial_comment": {
                "id": "Fc2WF4NT88",
                "created": 1477942016,
                "timestamp": 1477942016,
                "user": "U1J0N0DPZ",
                "is_intro": true,
                "comment": "monday min holding up",
                "channel": ""
            }
        },
        "comment": {
            "id": "Fc2WG4UWQ5",
            "created": 1477945171,
            "timestamp": 1477945171,
            "user": "U1FKCRD8D",
            "is_intro": false,
            "comment": "what's the best rule for 1 tick things....ignore?",
            "channel": ""
        },
        "is_intro": false,
        "ts": "1477945171.000125"
    },
    {
        "type": "message",
        "user": "U1J0N0DPZ",
        "text": "yeah I'd ignore this pattern,  barely even a down day, but might be other bullish stuff",
        "ts": "1477945328.000126"
    },
    {
        "type": "message",
        "subtype": "file_share",
        "text": "<@U1FHF07QT|jkh> shared a file: <https:\/\/tradingfutures.slack.com\/files\/jkh\/F2WEH747P\/boj.txt|BOJ>",
        "file": {
            "id": "F2WEH747P",
            "created": 1477938917,
            "timestamp": 1477938917,
            "name": "BOJ.txt",
            "title": "BOJ",
            "mimetype": "text\/plain",
            "filetype": "text",
            "pretty_type": "Plain Text",
            "user": "U1FHF07QT",
            "editable": true,
            "size": 761,
            "mode": "snippet",
            "is_external": false,
            "external_type": "",
            "is_public": true,
            "public_url_shared": false,
            "display_as_bot": false,
            "username": "",
            "url_private": "https:\/\/files.slack.com\/files-pri\/T1FJKLSJ2-F2WEH747P\/boj.txt?t=xoxe-49631706614-119786374643-119786374659-90264fc38b",
            "url_private_download": "https:\/\/files.slack.com\/files-pri\/T1FJKLSJ2-F2WEH747P\/download\/boj.txt?t=xoxe-49631706614-119786374643-119786374659-90264fc38b",
            "permalink": "https:\/\/tradingfutures.slack.com\/files\/jkh\/F2WEH747P\/boj.txt",
            "permalink_public": "https:\/\/slack-files.com\/T1FJKLSJ2-F2WEH747P-c290b9450a",
            "edit_link": "https:\/\/tradingfutures.slack.com\/files\/jkh\/F2WEH747P\/boj.txt\/edit",
            "preview": "JKH::Mon 31 Oct 2016 02:34:46 PM EDT\r\nDEP VAR SP AT 1715 : 01\/01\/2015 TO 01\/01\/2020  US\/Eastern\r\n\r\nINCLUDE BOJ ANNOUNCEMENT AT T(1)\r\n\r",
            "preview_highlight": "<div class=\"CodeMirror cm-s-default CodeMirrorServer\" oncopy=\"if(event.clipboardData){event.clipboardData.setData('text\/plain',window.getSelection().toString().replace(\/\\u200b\/g,''));event.preventDefault();event.stopPropagation();}\">\n<div class=\"CodeMirror-code\">\n<div><pre>JKH::Mon 31 Oct 2016 02:34:46 PM EDT<\/pre><\/div>\n<div><pre>DEP VAR SP AT 1715 : 01\/01\/2015 TO 01\/01\/2020  US\/Eastern<\/pre><\/div>\n<div><pre><\/pre><\/div>\n<div><pre>INCLUDE BOJ ANNOUNCEMENT AT T(1)<\/pre><\/div>\n<div><pre><\/pre><\/div>\n<div><pre><\/pre><\/div>\n<\/div>\n<\/div>\n",
            "lines": 20,
            "lines_more": 15,
            "preview_is_truncated": false,
            "channels": [
                "C1FK0RL2V",
                "C24S46TKM"
            ],
            "groups": [],
            "ims": [],
            "comments_count": 1,
            "reactions": [
                {
                    "name": "cow",
                    "users": [
                        "U1FKCRD8D",
                        "U1J0N0DPZ"
                    ],
                    "count": 2
                }
            ]
        },
        "user": "U1FHF07QT",
        "upload": false,
        "display_as_bot": false,
        "username": "<@U1FHF07QT|jkh>",
        "bot_id": null,
        "ts": "1477966367.000127"
    },
    {
        "type": "message",
        "subtype": "file_comment",
        "text": "<@U1FHF07QT|jkh> commented on <@U1FHF07QT|jkh>'s file <https:\/\/tradingfutures.slack.com\/files\/jkh\/F2WEH747P\/boj.txt|BOJ>: Upon reflection I think that these patts are true tomorrow at the close, not tonight.",
        "file": {
            "id": "F2WEH747P",
            "created": 1477938917,
            "timestamp": 1477938917,
            "name": "BOJ.txt",
            "title": "BOJ",
            "mimetype": "text\/plain",
            "filetype": "text",
            "pretty_type": "Plain Text",
            "user": "U1FHF07QT",
            "editable": true,
            "size": 761,
            "mode": "snippet",
            "is_external": false,
            "external_type": "",
            "is_public": true,
            "public_url_shared": false,
            "display_as_bot": false,
            "username": "",
            "url_private": "https:\/\/files.slack.com\/files-pri\/T1FJKLSJ2-F2WEH747P\/boj.txt?t=xoxe-49631706614-119786374643-119786374659-90264fc38b",
            "url_private_download": "https:\/\/files.slack.com\/files-pri\/T1FJKLSJ2-F2WEH747P\/download\/boj.txt?t=xoxe-49631706614-119786374643-119786374659-90264fc38b",
            "permalink": "https:\/\/tradingfutures.slack.com\/files\/jkh\/F2WEH747P\/boj.txt",
            "permalink_public": "https:\/\/slack-files.com\/T1FJKLSJ2-F2WEH747P-c290b9450a",
            "edit_link": "https:\/\/tradingfutures.slack.com\/files\/jkh\/F2WEH747P\/boj.txt\/edit",
            "preview": "JKH::Mon 31 Oct 2016 02:34:46 PM EDT\r\nDEP VAR SP AT 1715 : 01\/01\/2015 TO 01\/01\/2020  US\/Eastern\r\n\r\nINCLUDE BOJ ANNOUNCEMENT AT T(1)\r\n\r",
            "preview_highlight": "<div class=\"CodeMirror cm-s-default CodeMirrorServer\" oncopy=\"if(event.clipboardData){event.clipboardData.setData('text\/plain',window.getSelection().toString().replace(\/\\u200b\/g,''));event.preventDefault();event.stopPropagation();}\">\n<div class=\"CodeMirror-code\">\n<div><pre>JKH::Mon 31 Oct 2016 02:34:46 PM EDT<\/pre><\/div>\n<div><pre>DEP VAR SP AT 1715 : 01\/01\/2015 TO 01\/01\/2020  US\/Eastern<\/pre><\/div>\n<div><pre><\/pre><\/div>\n<div><pre>INCLUDE BOJ ANNOUNCEMENT AT T(1)<\/pre><\/div>\n<div><pre><\/pre><\/div>\n<div><pre><\/pre><\/div>\n<\/div>\n<\/div>\n",
            "lines": 20,
            "lines_more": 15,
            "preview_is_truncated": false,
            "channels": [
                "C1FK0RL2V",
                "C24S46TKM"
            ],
            "groups": [],
            "ims": [],
            "comments_count": 1,
            "reactions": [
                {
                    "name": "cow",
                    "users": [
                        "U1FKCRD8D",
                        "U1J0N0DPZ"
                    ],
                    "count": 2
                }
            ]
        },
        "comment": {
            "id": "Fc2WL1CALF",
            "created": 1477966368,
            "timestamp": 1477966368,
            "user": "U1FHF07QT",
            "is_intro": false,
            "comment": "Upon reflection I think that these patts are true tomorrow at the close, not tonight.",
            "channel": ""
        },
        "is_intro": false,
        "ts": "1477966368.000128"
    },
    {
        "type": "message",
        "subtype": "file_share",
        "text": "<@U1FHF07QT|jkh> shared a file: <https:\/\/tradingfutures.slack.com\/files\/jkh\/F2WEAJ6JC\/boj.txt|BOJ>",
        "file": {
            "id": "F2WEAJ6JC",
            "created": 1477938940,
            "timestamp": 1477938940,
            "name": "BOJ.txt",
            "title": "BOJ",
            "mimetype": "text\/plain",
            "filetype": "text",
            "pretty_type": "Plain Text",
            "user": "U1FHF07QT",
            "editable": true,
            "size": 777,
            "mode": "snippet",
            "is_external": false,
            "external_type": "",
            "is_public": true,
            "public_url_shared": false,
            "display_as_bot": false,
            "username": "",
            "url_private": "https:\/\/files.slack.com\/files-pri\/T1FJKLSJ2-F2WEAJ6JC\/boj.txt?t=xoxe-49631706614-119786374643-119786374659-90264fc38b",
            "url_private_download": "https:\/\/files.slack.com\/files-pri\/T1FJKLSJ2-F2WEAJ6JC\/download\/boj.txt?t=xoxe-49631706614-119786374643-119786374659-90264fc38b",
            "permalink": "https:\/\/tradingfutures.slack.com\/files\/jkh\/F2WEAJ6JC\/boj.txt",
            "permalink_public": "https:\/\/slack-files.com\/T1FJKLSJ2-F2WEAJ6JC-4e36703b6f",
            "edit_link": "https:\/\/tradingfutures.slack.com\/files\/jkh\/F2WEAJ6JC\/boj.txt\/edit",
            "preview": "JKH::Mon 31 Oct 2016 02:35:13 PM EDT\r\nDEP VAR TBOND AT 1715 : 01\/01\/2015 TO 01\/01\/2020  US\/Eastern\r\n\r\nINCLUDE BOJ ANNOUNCEMENT AT T(1)\r\n\r",
            "preview_highlight": "<div class=\"CodeMirror cm-s-default CodeMirrorServer\" oncopy=\"if(event.clipboardData){event.clipboardData.setData('text\/plain',window.getSelection().toString().replace(\/\\u200b\/g,''));event.preventDefault();event.stopPropagation();}\">\n<div class=\"CodeMirror-code\">\n<div><pre>JKH::Mon 31 Oct 2016 02:35:13 PM EDT<\/pre><\/div>\n<div><pre>DEP VAR TBOND AT 1715 : 01\/01\/2015 TO 01\/01\/2020  US\/Eastern<\/pre><\/div>\n<div><pre><\/pre><\/div>\n<div><pre>INCLUDE BOJ ANNOUNCEMENT AT T(1)<\/pre><\/div>\n<div><pre><\/pre><\/div>\n<div><pre><\/pre><\/div>\n<\/div>\n<\/div>\n",
            "lines": 20,
            "lines_more": 15,
            "preview_is_truncated": false,
            "channels": [
                "C1FJVPA1K",
                "C24S46TKM"
            ],
            "groups": [],
            "ims": [],
            "comments_count": 0,
            "reactions": [
                {
                    "name": "bear",
                    "users": [
                        "U1FKCRD8D"
                    ],
                    "count": 1
                }
            ]
        },
        "user": "U1FHF07QT",
        "upload": false,
        "display_as_bot": false,
        "username": "<@U1FHF07QT|jkh>",
        "bot_id": null,
        "ts": "1477966381.000129"
    }
]