[
    {
        "type": "message",
        "subtype": "file_share",
        "text": "<@U1FKCRD8D|hernanavella> uploaded a file: <https:\/\/tradingfutures.slack.com\/files\/hernanavella\/F3FTVLP1A\/-.txt|Untitled>",
        "file": {
            "id": "F3FTVLP1A",
            "created": 1481906251,
            "timestamp": 1481906251,
            "name": "-.txt",
            "title": "Untitled",
            "mimetype": "text\/plain",
            "filetype": "text",
            "pretty_type": "Plain Text",
            "user": "U1FKCRD8D",
            "editable": true,
            "size": 1426,
            "mode": "snippet",
            "is_external": false,
            "external_type": "",
            "is_public": true,
            "public_url_shared": false,
            "display_as_bot": false,
            "username": "",
            "url_private": "https:\/\/files.slack.com\/files-pri\/T1FJKLSJ2-F3FTVLP1A\/-.txt?t=xoxe-49631706614-119786374643-119786374659-90264fc38b",
            "url_private_download": "https:\/\/files.slack.com\/files-pri\/T1FJKLSJ2-F3FTVLP1A\/download\/-.txt?t=xoxe-49631706614-119786374643-119786374659-90264fc38b",
            "permalink": "https:\/\/tradingfutures.slack.com\/files\/hernanavella\/F3FTVLP1A\/-.txt",
            "permalink_public": "https:\/\/slack-files.com\/T1FJKLSJ2-F3FTVLP1A-9cf89e9939",
            "edit_link": "https:\/\/tradingfutures.slack.com\/files\/hernanavella\/F3FTVLP1A\/-.txt\/edit",
            "preview": "HERNANAVELLA-WS::Fri Dec 16 10:35:42 2016\r\nDEP VAR TBOND AT 1200 ALL DAYS: 1\/1\/2016 to 12\/2\/2016\r\nINDEPENDNT   LAG1 HOUR   LAG2 HOUR       LO       HI     (TRADING DAYS)\r\n      GOLD     1  1720     0  1200      100     5000\r\n     TBOND     1  1700     0  1200    -5000       -1\r",
            "preview_highlight": "<div class=\"CodeMirror cm-s-default CodeMirrorServer\" oncopy=\"if(event.clipboardData){event.clipboardData.setData('text\/plain',window.getSelection().toString().replace(\/\\u200b\/g,''));event.preventDefault();event.stopPropagation();}\">\n<div class=\"CodeMirror-code\">\n<div><pre>HERNANAVELLA-WS::Fri Dec 16 10:35:42 2016<\/pre><\/div>\n<div><pre>DEP VAR TBOND AT 1200 ALL DAYS: 1\/1\/2016 to 12\/2\/2016<\/pre><\/div>\n<div><pre>INDEPENDNT   LAG1 HOUR   LAG2 HOUR       LO       HI     (TRADING DAYS)<\/pre><\/div>\n<div><pre>      GOLD     1  1720     0  1200      100     5000<\/pre><\/div>\n<div><pre>     TBOND     1  1700     0  1200    -5000       -1<\/pre><\/div>\n<div><pre><\/pre><\/div>\n<\/div>\n<\/div>\n",
            "lines": 20,
            "lines_more": 15,
            "preview_is_truncated": true,
            "channels": [
                "C24S46TKM"
            ],
            "groups": [],
            "ims": [],
            "comments_count": 0
        },
        "user": "U1FKCRD8D",
        "upload": true,
        "display_as_bot": false,
        "username": "<@U1FKCRD8D|hernanavella>",
        "bot_id": null,
        "ts": "1481906251.000077"
    },
    {
        "type": "message",
        "subtype": "file_share",
        "text": "<@U1FHF07QT|jkh> uploaded a file: <https:\/\/tradingfutures.slack.com\/files\/jkh\/F3GHRRNA3\/possible_at_the_close.txt|possible at the close>",
        "file": {
            "id": "F3GHRRNA3",
            "created": 1481911211,
            "timestamp": 1481911211,
            "name": "possible_at_the_close.txt",
            "title": "possible at the close",
            "mimetype": "text\/plain",
            "filetype": "text",
            "pretty_type": "Plain Text",
            "user": "U1FHF07QT",
            "editable": true,
            "size": 1318,
            "mode": "snippet",
            "is_external": false,
            "external_type": "",
            "is_public": true,
            "public_url_shared": false,
            "display_as_bot": false,
            "username": "",
            "url_private": "https:\/\/files.slack.com\/files-pri\/T1FJKLSJ2-F3GHRRNA3\/possible_at_the_close.txt?t=xoxe-49631706614-119786374643-119786374659-90264fc38b",
            "url_private_download": "https:\/\/files.slack.com\/files-pri\/T1FJKLSJ2-F3GHRRNA3\/download\/possible_at_the_close.txt?t=xoxe-49631706614-119786374643-119786374659-90264fc38b",
            "permalink": "https:\/\/tradingfutures.slack.com\/files\/jkh\/F3GHRRNA3\/possible_at_the_close.txt",
            "permalink_public": "https:\/\/slack-files.com\/T1FJKLSJ2-F3GHRRNA3-3b66950ca0",
            "edit_link": "https:\/\/tradingfutures.slack.com\/files\/jkh\/F3GHRRNA3\/possible_at_the_close.txt\/edit",
            "preview": "JKH::Fri 16 Dec 2016 12:59:38 PM EST\r\nDEP VAR TBOND AT 1715 FRI: 01\/01\/2013 TO 01\/01\/2020  US\/Eastern\r\n\r\nINDEPENDNT LAG1  HOUR LAG2  HOUR LO    HI          TZ\r\n    tbond    1  1715    0  1715  1  5000  US\/Eastern\r",
            "preview_highlight": "<div class=\"CodeMirror cm-s-default CodeMirrorServer\" oncopy=\"if(event.clipboardData){event.clipboardData.setData('text\/plain',window.getSelection().toString().replace(\/\\u200b\/g,''));event.preventDefault();event.stopPropagation();}\">\n<div class=\"CodeMirror-code\">\n<div><pre>JKH::Fri 16 Dec 2016 12:59:38 PM EST<\/pre><\/div>\n<div><pre>DEP VAR TBOND AT 1715 FRI: 01\/01\/2013 TO 01\/01\/2020  US\/Eastern<\/pre><\/div>\n<div><pre><\/pre><\/div>\n<div><pre>INDEPENDNT LAG1  HOUR LAG2  HOUR LO    HI          TZ<\/pre><\/div>\n<div><pre>    tbond    1  1715    0  1715  1  5000  US\/Eastern<\/pre><\/div>\n<div><pre><\/pre><\/div>\n<\/div>\n<\/div>\n",
            "lines": 30,
            "lines_more": 25,
            "preview_is_truncated": true,
            "channels": [
                "C24S46TKM"
            ],
            "groups": [],
            "ims": [],
            "comments_count": 0,
            "reactions": [
                {
                    "name": "white_check_mark",
                    "users": [
                        "U1FKCRD8D"
                    ],
                    "count": 1
                }
            ]
        },
        "user": "U1FHF07QT",
        "upload": true,
        "display_as_bot": false,
        "username": "<@U1FHF07QT|jkh>",
        "bot_id": null,
        "ts": "1481911212.000078"
    }
]