[
    {
        "type": "message",
        "user": "U1FHF07QT",
        "text": "that's crazy lol",
        "ts": "1465988958.000300"
    },
    {
        "type": "message",
        "user": "U1FJWQN1Z",
        "text": "well done o\/n double up'ers",
        "ts": "1465994558.000301"
    },
    {
        "type": "message",
        "user": "U1FJWQN1Z",
        "text": "i see 65-63 as the buy spot in morning",
        "ts": "1465994594.000302"
    },
    {
        "type": "message",
        "user": "U1FJWQN1Z",
        "text": "74 res continues to hold",
        "ts": "1465994653.000303"
    },
    {
        "type": "message",
        "user": "U1FKCRD8D",
        "text": "quick question to the Pandilla....how bad is to do slices 100 5000. Should it be abolished?",
        "ts": "1465994653.000304"
    },
    {
        "type": "message",
        "user": "U1FJWQN1Z",
        "text": "perhaps there is a tipping point at 10pts or perhaps you just want to say really big",
        "ts": "1465994690.000305"
    },
    {
        "type": "message",
        "user": "U1FHF07QT",
        "text": "i love doing slices at 100, and 200 as well",
        "ts": "1465994721.000306"
    },
    {
        "type": "message",
        "user": "U1FHF07QT",
        "text": "i think they are better than the closed slices sometimes",
        "ts": "1465994737.000307"
    },
    {
        "type": "message",
        "user": "U1FJWQN1Z",
        "text": "i think this is ok and you don't always have to use a) +\/- split or b) middle of actual range",
        "ts": "1465994741.000308"
    },
    {
        "type": "message",
        "user": "U1FJWQN1Z",
        "text": "you can data mine the effect...but yes, big vs. little is a good split",
        "ts": "1465994790.000309"
    },
    {
        "type": "message",
        "user": "U1FKCRD8D",
        "text": "thanks :ok_hand::skin-tone-5:",
        "ts": "1465995039.000310"
    },
    {
        "type": "message",
        "user": "U1FJYUKQ9",
        "text": "i think the last email by vic to the spec list is really good",
        "ts": "1465995125.000311"
    },
    {
        "type": "message",
        "user": "U1FJYUKQ9",
        "text": "and finally explains alot of his ideas",
        "ts": "1465995134.000312"
    },
    {
        "type": "message",
        "user": "U1FJYUKQ9",
        "text": "to me",
        "ts": "1465995135.000313"
    },
    {
        "type": "message",
        "user": "U1FJYUKQ9",
        "text": "cattle trader...sorosian",
        "ts": "1465995144.000314"
    },
    {
        "type": "message",
        "user": "U1FJWQN1Z",
        "text": "euro session lows around here...-4 from highs, declines so far -8.25, -6, -5.5",
        "ts": "1465995290.000315"
    },
    {
        "type": "message",
        "user": "U1FJWQN1Z",
        "text": "wondering if we hold here...any pattern reason to expect it?",
        "ts": "1465995315.000316"
    },
    {
        "type": "message",
        "user": "U1FJYUKQ9",
        "text": "\"The Central bankers must really believe that it is appropirate for them to plan the economy of their country and the world. Indeed, its in ther mandate to stabilize inflation and employmnent. It s natural for them to try to help along those who share this view which is in the main the party in power now. So we could only believe that what I have suggested for many months now is that they will do whatever is nevessary to help the cattle trader along to win, including making sure they don't raise rates rite before the election, they will do out of benign purposes to prevent what they see as a Sorosian collapse of civiliaztion from speculators and other evil people who act in their own interests. vic\"",
        "ts": "1465995549.000317",
        "reactions": [
            {
                "name": "alien",
                "users": [
                    "U1FKCRD8D"
                ],
                "count": 1
            },
            {
                "name": "crown",
                "users": [
                    "U1FHF07QT"
                ],
                "count": 1
            }
        ]
    },
    {
        "type": "message",
        "user": "U1FJWQN1Z",
        "text": "62+(73-62)*.33 = 65.63",
        "ts": "1465996925.000318"
    },
    {
        "type": "message",
        "user": "U1FJWQN1Z",
        "text": "best i can do with good r\/r in spu",
        "ts": "1465996934.000319"
    },
    {
        "type": "message",
        "user": "U1FJWQN1Z",
        "text": "im at 65.75",
        "ts": "1465996962.000320"
    },
    {
        "type": "message",
        "user": "U1FKCRD8D",
        "text": "what's that magic formula?",
        "ts": "1465997049.000321"
    },
    {
        "type": "message",
        "user": "U1FJWQN1Z",
        "text": "try to make 2x what you risk",
        "ts": "1465997078.000322"
    },
    {
        "type": "message",
        "user": "U1FJWQN1Z",
        "text": "frequently i'm not actually stopping out there",
        "ts": "1465997091.000323"
    },
    {
        "type": "message",
        "user": "U1FJWQN1Z",
        "text": "good for me to have target and levels to lean against",
        "ts": "1465997124.000324"
    },
    {
        "type": "message",
        "user": "U1FJWQN1Z",
        "text": "i also count the size of all sequences from high to low with min swing size of 4pts",
        "ts": "1465997219.000325"
    },
    {
        "type": "message",
        "user": "U1FJWQN1Z",
        "text": "sometimes there are consistent patterns",
        "ts": "1465997226.000326"
    },
    {
        "type": "message",
        "user": "U1FJWQN1Z",
        "text": "and gives an idea for how much energy in mkt and whether it expanding or contracting",
        "ts": "1465997244.000327"
    },
    {
        "type": "message",
        "user": "U1FJWQN1Z",
        "text": "-5.75 decline to test of resistance...no fill [pissed off]",
        "ts": "1465998230.000328"
    },
    {
        "type": "message",
        "user": "U1FJWQN1Z",
        "text": "declines -8.25, -6, -5.5, -5.75",
        "ts": "1465998259.000329"
    },
    {
        "type": "message",
        "user": "U1FJWQN1Z",
        "text": "rallies +7.75, +6.25, +10, ??",
        "ts": "1465998280.000330"
    },
    {
        "type": "message",
        "user": "U1FJWQN1Z",
        "text": "for the adventuresome...a short 73",
        "ts": "1465998543.000331"
    },
    {
        "type": "message",
        "user": "U1FJWQN1Z",
        "text": "with scale up to 77",
        "ts": "1465998548.000332"
    },
    {
        "type": "message",
        "user": "U1FJWQN1Z",
        "text": "doubt we go full trend pre-fomc",
        "ts": "1465998557.000333"
    },
    {
        "type": "message",
        "user": "U1FJWQN1Z",
        "text": "avg rally 8",
        "ts": "1465998845.000334"
    },
    {
        "type": "message",
        "user": "U1FJWQN1Z",
        "text": "so scale 73, 75.5, 77",
        "ts": "1465998852.000335"
    },
    {
        "type": "message",
        "user": "U1FJWQN1Z",
        "text": "target 70.25, 68.5",
        "ts": "1465999015.000336"
    },
    {
        "type": "message",
        "user": "U1FJWQN1Z",
        "text": "i can't say fed patterns on my side",
        "ts": "1466000207.000337"
    },
    {
        "type": "message",
        "user": "U1FJWQN1Z",
        "text": "72.5 1st tgt",
        "ts": "1466000344.000338"
    },
    {
        "type": "message",
        "user": "U1FJWQN1Z",
        "text": "70.25 flat",
        "ts": "1466000396.000339"
    },
    {
        "type": "message",
        "user": "U1FKCRD8D",
        "text": "everybody flat?",
        "ts": "1466000504.000340"
    },
    {
        "type": "message",
        "user": "U1FJWQN1Z",
        "text": "y, i am paper trading now",
        "ts": "1466000591.000341"
    },
    {
        "type": "message",
        "user": "U1FJWQN1Z",
        "text": "unfortunate bc winnin",
        "ts": "1466000619.000342"
    },
    {
        "type": "message",
        "user": "U1FJWQN1Z",
        "text": "g",
        "ts": "1466000620.000343"
    },
    {
        "type": "message",
        "user": "U1FHF07QT",
        "text": "long spu",
        "ts": "1466000634.000344"
    },
    {
        "type": "message",
        "user": "U1FHF07QT",
        "text": "gave up my morning bond short",
        "ts": "1466000695.000345"
    },
    {
        "type": "message",
        "user": "U1FJWQN1Z",
        "text": "ding 72.5 paper",
        "ts": "1466000743.000346"
    },
    {
        "type": "message",
        "user": "U1FHF07QT",
        "text": "so neither you nor mkchuprin are trading cash any more?",
        "ts": "1466000995.000347"
    },
    {
        "type": "message",
        "user": "U1FJWQN1Z",
        "text": "just paper short",
        "ts": "1466001037.000348"
    },
    {
        "type": "message",
        "user": "U1FJWQN1Z",
        "text": "ha",
        "ts": "1466001042.000349"
    },
    {
        "type": "message",
        "user": "U1FHF07QT",
        "text": "crude: like whoa",
        "ts": "1466001043.000350"
    },
    {
        "type": "message",
        "user": "U1FJWQN1Z",
        "text": "flat 73.5",
        "ts": "1466001054.000351"
    },
    {
        "type": "message",
        "user": "U1FKCRD8D",
        "text": "want to short ultras so bad",
        "ts": "1466001097.000352"
    },
    {
        "type": "message",
        "user": "U1FKCRD8D",
        "text": "not so good patterns",
        "ts": "1466001102.000353"
    },
    {
        "type": "message",
        "user": "U1FHF07QT",
        "text": "agreed",
        "ts": "1466001157.000354"
    },
    {
        "type": "message",
        "user": "U1FHF07QT",
        "text": "lol so apparently DOE was opposite API?",
        "ts": "1466001252.000355"
    },
    {
        "type": "message",
        "user": "U1FKCRD8D",
        "text": "in theory the oil rip is a short",
        "ts": "1466001462.000356"
    },
    {
        "type": "message",
        "user": "U1FKCRD8D",
        "text": "on wed open down",
        "ts": "1466001477.000357"
    },
    {
        "type": "message",
        "user": "U1FJYUKQ9",
        "text": "can we see patt?",
        "ts": "1466001542.000358"
    },
    {
        "type": "message",
        "user": "U1FHF07QT",
        "text": "\"don't fight the fed\"",
        "ts": "1466001563.000359"
    },
    {
        "type": "message",
        "user": "U1FKCRD8D",
        "text": "we should start a wiki",
        "ts": "1466002112.000360"
    },
    {
        "type": "message",
        "user": "U1FHF07QT",
        "text": "that 75 round is obstinate",
        "ts": "1466002115.000361"
    },
    {
        "type": "message",
        "user": "U1FHF07QT",
        "text": "a wiki?",
        "ts": "1466002117.000362"
    },
    {
        "type": "message",
        "user": "U1FHF07QT",
        "text": "why?",
        "ts": "1466002118.000363"
    },
    {
        "type": "message",
        "user": "U1FKCRD8D",
        "text": "of the shit that is not discretionary",
        "ts": "1466002128.000364"
    },
    {
        "type": "message",
        "user": "U1FKCRD8D",
        "text": "private one",
        "ts": "1466002143.000365"
    },
    {
        "type": "message",
        "user": "U1FHF07QT",
        "text": "what about pinning to the top?",
        "ts": "1466002154.000366",
        "reactions": [
            {
                "name": "+1::skin-tone-5",
                "users": [
                    "U1FKCRD8D"
                ],
                "count": 1
            }
        ]
    },
    {
        "type": "message",
        "user": "U1FJWQN1Z",
        "text": "ok...would you prefer i stop the ta stuff?",
        "ts": "1466002208.000367"
    },
    {
        "type": "message",
        "user": "U1FJWQN1Z",
        "text": "just do patterns",
        "ts": "1466002212.000368"
    },
    {
        "type": "message",
        "user": "U1FKCRD8D",
        "text": "What I meant is that there seems to be a set of 'good practices' when running patterns, that are not negociable....Or I'm mistaken and all the ways are appropriate??",
        "ts": "1466002365.000369"
    },
    {
        "type": "message",
        "user": "U1FKCRD8D",
        "text": "<@U1FJWQN1Z> My point is unrelated",
        "ts": "1466002411.000370"
    },
    {
        "type": "message",
        "user": "U1FJWQN1Z",
        "text": "robust: small number of variables, statistically significant, stable across time",
        "ts": "1466002508.000371"
    },
    {
        "type": "message",
        "user": "U1FJWQN1Z",
        "text": "perhaps hypothesis that makes sense as to effect",
        "ts": "1466002539.000372"
    },
    {
        "type": "message",
        "user": "U1FJWQN1Z",
        "text": "n &gt; 6",
        "ts": "1466002609.000373"
    },
    {
        "type": "message",
        "user": "U1FKCRD8D",
        "text": "Small, tight short Ultras here at yesterday's open.",
        "ts": "1466002660.000374"
    },
    {
        "type": "message",
        "user": "U1FHF07QT",
        "text": "patt selection is what separates the men from the boys.",
        "ts": "1466002703.000375"
    },
    {
        "type": "message",
        "user": "U1FJWQN1Z",
        "text": "<@U1FHF07QT>: very well put....that kora reddy fellow lots of patterns, not sure how good any are",
        "ts": "1466002795.000376"
    },
    {
        "type": "message",
        "user": "U1FHF07QT",
        "text": "indeed",
        "ts": "1466002803.000377"
    },
    {
        "type": "message",
        "user": "U1FKCRD8D",
        "text": "translation: that is the sauce and it's discertionary.",
        "ts": "1466002808.000378"
    },
    {
        "type": "message",
        "user": "U1FHF07QT",
        "text": "i'm going to have to award tbond the 'honey badger' award for it's actions today and the preceding week.",
        "ts": "1466003166.000379"
    },
    {
        "type": "message",
        "user": "U1FJWQN1Z",
        "text": "still bullish spu?",
        "ts": "1466003685.000381"
    },
    {
        "type": "message",
        "user": "U1FJWQN1Z",
        "text": "thinking of actually shorting into break of 75.5",
        "ts": "1466003823.000382"
    },
    {
        "type": "message",
        "user": "U1FJWQN1Z",
        "text": "posted 2 patterns...looks like softness coming",
        "ts": "1466003921.000383"
    },
    {
        "type": "message",
        "user": "U1FHF07QT",
        "text": "i'm flat",
        "ts": "1466006331.000384"
    },
    {
        "type": "message",
        "user": "U1FKCRD8D",
        "text": "oil short :sob:",
        "ts": "1466008064.000385"
    },
    {
        "type": "message",
        "user": "U1FHF07QT",
        "text": "would somebody post the hi\/low for spu at 1400 on fomc, no other qualifiers?",
        "ts": "1466010274.000387"
    },
    {
        "type": "message",
        "subtype": "file_share",
        "text": "<@U1FKCRD8D|hernanavella> uploaded a file: <https:\/\/tradingfutures.slack.com\/files\/hernanavella\/F1H7N0B25\/-.txt|Untitled>",
        "file": {
            "id": "F1H7N0B25",
            "created": 1466010498,
            "timestamp": 1466010498,
            "name": "-.txt",
            "title": "Untitled",
            "mimetype": "text\/plain",
            "filetype": "text",
            "pretty_type": "Plain Text",
            "user": "U1FKCRD8D",
            "editable": true,
            "size": 1486,
            "mode": "snippet",
            "is_external": false,
            "external_type": "",
            "is_public": true,
            "public_url_shared": false,
            "display_as_bot": false,
            "username": "",
            "url_private": "https:\/\/files.slack.com\/files-pri\/T1FJKLSJ2-F1H7N0B25\/-.txt?t=xoxe-49631706614-119786374643-119786374659-90264fc38b",
            "url_private_download": "https:\/\/files.slack.com\/files-pri\/T1FJKLSJ2-F1H7N0B25\/download\/-.txt?t=xoxe-49631706614-119786374643-119786374659-90264fc38b",
            "permalink": "https:\/\/tradingfutures.slack.com\/files\/hernanavella\/F1H7N0B25\/-.txt",
            "permalink_public": "https:\/\/slack-files.com\/T1FJKLSJ2-F1H7N0B25-8c6e090e9e",
            "edit_link": "https:\/\/tradingfutures.slack.com\/files\/hernanavella\/F1H7N0B25\/-.txt\/edit",
            "preview": "----------------------HI.LO THRU  0 1620--------------------\r\nSCENARIO:                         N     MU   PPOS  SDEV   T \r\n------------------------------------------------------------\r\nENTER    1 BELO OPEN TO CLOSE:    40     8    55   122    43\r\nENTER    5 BELO OPEN TO CLOSE:    39     7    56   123    35\r",
            "preview_highlight": "<div class=\"CodeMirror cm-s-default CodeMirrorServer\" oncopy=\"if(event.clipboardData){event.clipboardData.setData('text\/plain',window.getSelection().toString().replace(\/\\u200b\/g,''));event.preventDefault();event.stopPropagation();}\">\n<div class=\"CodeMirror-code\">\n<div><pre>----------------------HI.LO THRU  0 1620--------------------<\/pre><\/div>\n<div><pre>SCENARIO:                         N     MU   PPOS  SDEV   T <\/pre><\/div>\n<div><pre>------------------------------------------------------------<\/pre><\/div>\n<div><pre>ENTER    1 BELO OPEN TO CLOSE:    40     8    55   122    43<\/pre><\/div>\n<div><pre>ENTER    5 BELO OPEN TO CLOSE:    39     7    56   123    35<\/pre><\/div>\n<div><pre><\/pre><\/div>\n<\/div>\n<\/div>\n",
            "lines": 24,
            "lines_more": 19,
            "preview_is_truncated": true,
            "channels": [
                "C1FK4DHNW"
            ],
            "groups": [],
            "ims": [],
            "comments_count": 0
        },
        "user": "U1FKCRD8D",
        "upload": true,
        "display_as_bot": false,
        "username": "<@U1FKCRD8D|hernanavella>",
        "bot_id": null,
        "ts": "1466010498.000388"
    },
    {
        "type": "message",
        "user": "U1FHF07QT",
        "text": "sorry sorry i meant the +\/-",
        "ts": "1466010541.000389"
    },
    {
        "type": "message",
        "user": "U1FHF07QT",
        "text": ":heart:",
        "ts": "1466010546.000390"
    },
    {
        "type": "message",
        "user": "U1FHF07QT",
        "text": "thank you!",
        "ts": "1466010648.000391"
    },
    {
        "type": "message",
        "user": "U1FKCRD8D",
        "text": "mmmm. never tried that........how does it work?",
        "ts": "1466010674.000392"
    },
    {
        "type": "message",
        "user": "U1FHF07QT",
        "text": "click the +\/-",
        "ts": "1466010683.000393"
    },
    {
        "type": "message",
        "user": "U1FHF07QT",
        "text": "it lets you see what a pattern looks like if it failed last time",
        "ts": "1466010693.000394"
    },
    {
        "type": "message",
        "user": "U1FHF07QT",
        "text": "good for things which have a lot of correlation",
        "ts": "1466010700.000395"
    },
    {
        "type": "message",
        "user": "U1FHF07QT",
        "text": "like the fomc",
        "ts": "1466010703.000396"
    },
    {
        "type": "message",
        "user": "U1FHF07QT",
        "text": "lol @tbonds, 45 degree lines all day",
        "ts": "1466011217.000397"
    },
    {
        "type": "message",
        "user": "U1FHF07QT",
        "text": "i may go long bonds for fomc",
        "ts": "1466011457.000398"
    },
    {
        "type": "message",
        "user": "U1FHF07QT",
        "text": "although a loss on both sides would be quite shameful",
        "ts": "1466011470.000399"
    },
    {
        "type": "message",
        "user": "U1FHF07QT",
        "text": "i'll just play the bench i guess",
        "ts": "1466012102.000400"
    },
    {
        "type": "message",
        "user": "U1FHF07QT",
        "text": "this will be me staring at spu:",
        "ts": "1466012185.000401"
    },
    {
        "type": "message",
        "user": "U1FHF07QT",
        "text": "<http:\/\/graphics8.nytimes.com\/images\/2010\/12\/07\/sports\/basketball\/07roy\/07roy-blog480.jpg>",
        "attachments": [
            {
                "fallback": "480x321px image",
                "image_url": "http:\/\/graphics8.nytimes.com\/images\/2010\/12\/07\/sports\/basketball\/07roy\/07roy-blog480.jpg",
                "image_width": 480,
                "image_height": 321,
                "image_bytes": 60750,
                "from_url": "http:\/\/graphics8.nytimes.com\/images\/2010\/12\/07\/sports\/basketball\/07roy\/07roy-blog480.jpg",
                "id": 1
            }
        ],
        "ts": "1466012186.000402"
    },
    {
        "type": "message",
        "user": "U1FKCRD8D",
        "text": "there will be at least 2 trades in spu",
        "ts": "1466012224.000403"
    },
    {
        "type": "message",
        "user": "U1FHF07QT",
        "text": "you still long?",
        "ts": "1466012257.000404"
    },
    {
        "type": "message",
        "user": "U1FKCRD8D",
        "text": "no...im flat all around.",
        "ts": "1466012295.000405"
    },
    {
        "type": "message",
        "user": "U1FJWQN1Z",
        "text": "i am flat spu....looks to be above open",
        "ts": "1466012310.000406"
    },
    {
        "type": "message",
        "user": "U1FJWQN1Z",
        "text": "but i am bidding 62.5",
        "ts": "1466012317.000407"
    },
    {
        "type": "message",
        "user": "U1FJWQN1Z",
        "text": "yesterday's vwap",
        "ts": "1466012323.000408"
    },
    {
        "type": "message",
        "user": "U1FKCRD8D",
        "text": "dont move it :wink:",
        "ts": "1466012360.000409"
    },
    {
        "type": "message",
        "user": "U1FJWQN1Z",
        "text": "will grit teeth and buy 54.75 too",
        "ts": "1466012479.000411"
    },
    {
        "type": "message",
        "user": "U1FHF07QT",
        "text": "<https:\/\/media.giphy.com\/media\/GjYjLvGErsggg\/giphy.gif>",
        "attachments": [
            {
                "fallback": "200x136px image",
                "image_url": "https:\/\/media.giphy.com\/media\/GjYjLvGErsggg\/giphy.gif",
                "image_width": 200,
                "image_height": 136,
                "image_bytes": 581332,
                "is_animated": true,
                "from_url": "https:\/\/media.giphy.com\/media\/GjYjLvGErsggg\/giphy.gif",
                "id": 1
            }
        ],
        "ts": "1466012505.000412"
    },
    {
        "type": "message",
        "user": "U1FJWQN1Z",
        "text": "will live at hernan's place in co if it keeps going down",
        "ts": "1466012529.000413",
        "reactions": [
            {
                "name": "bowtie",
                "users": [
                    "U1FKCRD8D"
                ],
                "count": 1
            }
        ]
    },
    {
        "type": "message",
        "user": "U1FJWQN1Z",
        "text": "can you expound on 2 trades idea\/",
        "ts": "1466013410.000415"
    },
    {
        "type": "message",
        "user": "U1FJWQN1Z",
        "text": "ok...1st move up",
        "ts": "1466013712.000416"
    },
    {
        "type": "message",
        "user": "U1FHF07QT",
        "text": "#ZN",
        "ts": "1466013881.000417",
        "reactions": [
            {
                "name": "rocket",
                "users": [
                    "U1FHF07QT"
                ],
                "count": 1
            }
        ]
    },
    {
        "type": "message",
        "user": "U1FJWQN1Z",
        "text": "not much retrace...this is looking like it could be strong finish",
        "ts": "1466013946.000418"
    },
    {
        "type": "message",
        "user": "U1FJWQN1Z",
        "text": "moves outside rth range pre-2pm reversed",
        "ts": "1466015567.000419"
    },
    {
        "type": "message",
        "user": "U1FKCRD8D",
        "text": "J.Yellen is such a lovely grandma",
        "ts": "1466016187.000420"
    },
    {
        "type": "message",
        "user": "U1FKCRD8D",
        "text": ":hugging_face:",
        "ts": "1466016197.000421"
    },
    {
        "type": "message",
        "user": "U1FHF07QT",
        "text": "back in #yolo",
        "ts": "1466016393.000422",
        "reactions": [
            {
                "name": "muscle::skin-tone-5",
                "users": [
                    "U1FKCRD8D"
                ],
                "count": 1
            }
        ]
    },
    {
        "type": "message",
        "user": "U1FJWQN1Z",
        "text": "one sneeze from yellen and we bust thru 75s",
        "ts": "1466016624.000423"
    },
    {
        "type": "message",
        "user": "U1FJWQN1Z",
        "text": "ah, ah..choo \"i'm never raising rates\"",
        "ts": "1466016675.000424"
    },
    {
        "type": "message",
        "user": "U1FJWQN1Z",
        "text": "can spu disassociate from crude?",
        "ts": "1466017396.000425"
    },
    {
        "type": "message",
        "user": "U1FJWQN1Z",
        "text": "75s on a buy stop",
        "ts": "1466018142.000426"
    },
    {
        "type": "message",
        "user": "U1FJWQN1Z",
        "text": "have touched the level about 5 times since the initial breakout",
        "ts": "1466018182.000427"
    },
    {
        "type": "message",
        "user": "U1FHF07QT",
        "text": "what does \"buy stop\" mean?",
        "ts": "1466018346.000428"
    },
    {
        "type": "message",
        "user": "U1FJWQN1Z",
        "text": "go long if we touch 75",
        "ts": "1466018436.000429"
    },
    {
        "type": "message",
        "user": "U1FJWQN1Z",
        "text": "touched but no fireworks",
        "ts": "1466018685.000430"
    },
    {
        "type": "message",
        "user": "U1FJWQN1Z",
        "text": "no go",
        "ts": "1466018687.000431"
    },
    {
        "type": "message",
        "user": "U1FJWQN1Z",
        "text": "this sort of thing must work nearly immediately or you've just bot top tick in a range market",
        "ts": "1466019432.000432"
    },
    {
        "type": "message",
        "user": "U1FJWQN1Z",
        "text": "more of an experimental trade for me",
        "ts": "1466019498.000433"
    },
    {
        "type": "message",
        "user": "U1FKCRD8D",
        "text": "600 iceberg* absorbed all buys",
        "ts": "1466019580.000434"
    },
    {
        "type": "message",
        "user": "U1FKCRD8D",
        "text": "at 75's",
        "ts": "1466019612.000435"
    },
    {
        "type": "message",
        "user": "U1FKCRD8D",
        "text": "can we buy down on day close?",
        "ts": "1466019646.000436"
    },
    {
        "type": "message",
        "user": "U1FJWQN1Z",
        "text": "small n but posted bull to sp",
        "ts": "1466019839.000437"
    },
    {
        "type": "message",
        "user": "U1FKCRD8D",
        "text": "thanks...so good for europe open",
        "ts": "1466019878.000438"
    },
    {
        "type": "message",
        "user": "U1FKCRD8D",
        "text": "bet4value going to get filled :bowtie:",
        "ts": "1466019919.000439"
    },
    {
        "type": "message",
        "user": "U1FJWQN1Z",
        "text": "waiting for close",
        "ts": "1466020031.000440"
    },
    {
        "type": "message",
        "user": "U1FJWQN1Z",
        "text": "wanted this at 14:0x, not now",
        "ts": "1466020056.000441"
    },
    {
        "type": "message",
        "user": "U1FJWQN1Z",
        "text": "which guarantees this being lod here!",
        "ts": "1466020251.000442"
    },
    {
        "type": "message",
        "user": "U1FKCRD8D",
        "text": "yeah...patterns flipped",
        "ts": "1466020501.000443"
    },
    {
        "type": "message",
        "user": "U1FKCRD8D",
        "text": "you have the streak of 5 down pattern..........",
        "ts": "1466020513.000444"
    },
    {
        "type": "message",
        "user": "U1FKCRD8D",
        "text": "inclined to buy the close again......",
        "ts": "1466020738.000445"
    },
    {
        "type": "message",
        "user": "U1FKCRD8D",
        "text": "any good reason not to ?",
        "ts": "1466020814.000446"
    },
    {
        "type": "message",
        "user": "U1FJWQN1Z",
        "text": "no",
        "ts": "1466020863.000447"
    },
    {
        "type": "message",
        "user": "U1FJWQN1Z",
        "text": "this one's scary",
        "ts": "1466021084.000448"
    },
    {
        "type": "message",
        "user": "U1FJWQN1Z",
        "text": "but probably in a good way",
        "ts": "1466021092.000449"
    },
    {
        "type": "message",
        "user": "U1FKCRD8D",
        "text": "most things related to today's FOMC down and down in PM are bearish",
        "ts": "1466021485.000450"
    },
    {
        "type": "message",
        "user": "U1FKCRD8D",
        "text": "ok. bot a little just to be in.......not very convinced",
        "ts": "1466021734.000451"
    },
    {
        "type": "message",
        "user": "U1FHF07QT",
        "text": "fomc seems to last for two days",
        "ts": "1466023184.000452"
    },
    {
        "type": "message",
        "user": "U1FHF07QT",
        "text": "the move",
        "ts": "1466023188.000453"
    },
    {
        "type": "message",
        "user": "U1FHF07QT",
        "text": "down today down tomorrow and vice versa",
        "ts": "1466023202.000454"
    },
    {
        "type": "message",
        "user": "U1FHF07QT",
        "text": "this has been a brutal week, can't seem to get a green day",
        "ts": "1466023950.000455"
    },
    {
        "type": "message",
        "user": "U1FKCRD8D",
        "text": "#greendaysmatter",
        "ts": "1466024040.000456"
    },
    {
        "type": "message",
        "user": "U1FHF07QT",
        "text": "haha",
        "ts": "1466024235.000457"
    },
    {
        "type": "message",
        "user": "U1FKCRD8D",
        "text": "uber bearish pattern coming",
        "ts": "1466024358.000458"
    },
    {
        "type": "message",
        "user": "U1FKCRD8D",
        "text": ":fire:",
        "ts": "1466024371.000459"
    },
    {
        "type": "message",
        "user": "U1FKCRD8D",
        "text": "Today is Japan rate decision",
        "ts": "1466034650.000460"
    },
    {
        "type": "message",
        "user": "U1FKCRD8D",
        "text": "for the custom PPR guys....is that a factor?",
        "ts": "1466034666.000461"
    },
    {
        "type": "message",
        "user": "U1FHF07QT",
        "text": "i don't have the dates",
        "ts": "1466034865.000462"
    },
    {
        "type": "message",
        "user": "U1FHF07QT",
        "text": "but japan is pretty bullish in general",
        "ts": "1466034895.000463"
    },
    {
        "type": "message",
        "user": "U1FHF07QT",
        "text": "Wow, jpy ",
        "ts": "1466045218.000464"
    },
    {
        "type": "message",
        "user": "U1FKCRD8D",
        "text": "<http:\/\/gph.is\/YzSQ9B>",
        "attachments": [
            {
                "service_name": "Giphy",
                "service_url": "http:\/\/giphy.com\/",
                "image_url": "http:\/\/media4.giphy.com\/media\/ToMjGpjpXMFPshSYGLm\/giphy.gif",
                "image_width": 390,
                "image_height": 219,
                "image_bytes": 5131008,
                "fallback": "giphy: http:\/\/giphy.com\/gifs\/editingandlayout-anchorman-that-escalated-quickly-ToMjGpjpXMFPshSYGLm",
                "service_icon": "https:\/\/a.slack-edge.com\/2089\/img\/unfurl_icons\/giphy.png",
                "id": 1
            }
        ],
        "ts": "1466045612.000465",
        "reactions": [
            {
                "name": "crown",
                "users": [
                    "U1FHF07QT"
                ],
                "count": 1
            }
        ]
    },
    {
        "type": "message",
        "user": "U1FJYUKQ9",
        "text": "Dam son ",
        "ts": "1466045868.000467"
    },
    {
        "type": "message",
        "user": "U1FKCRD8D",
        "text": "the bear pattern saved me....however I'm itching to get bak in",
        "ts": "1466046133.000468"
    },
    {
        "type": "message",
        "user": "U1FJYUKQ9",
        "text": " I dont have anything bull need on nikkei",
        "ts": "1466046391.000469"
    },
    {
        "type": "message",
        "user": "U1FJYUKQ9",
        "text": "I have the cme nikkei though,  not the real one ",
        "ts": "1466046407.000470"
    },
    {
        "type": "message",
        "user": "U1FKCRD8D",
        "text": "how old is the history of that cme nikkei?",
        "ts": "1466046439.000471"
    },
    {
        "type": "message",
        "user": "U1FJYUKQ9",
        "text": "At least 5 years ",
        "ts": "1466046518.000472"
    },
    {
        "type": "message",
        "user": "U1FHF07QT",
        "text": "it's the same thing",
        "ts": "1466046971.000473"
    },
    {
        "type": "message",
        "user": "U1FHF07QT",
        "text": "you just have to adjust for timezone",
        "ts": "1466046981.000474"
    }
]