[
    {
        "type": "message",
        "user": "U1FKCRD8D",
        "text": "what just happened to bond, any news?",
        "ts": "1475595922.000176"
    },
    {
        "type": "message",
        "user": "U1FHF07QT",
        "text": "supposedly this: <http:\/\/www.bloomberg.com\/news\/articles\/2016-10-04\/ecb-said-to-build-tapering-consensus-as-qe-decision-time-nears-itvni14p>",
        "attachments": [
            {
                "service_name": "Bloomberg.com",
                "title": "ECB Said to Build Tapering Consensus as QE Decision Time Nears",
                "title_link": "http:\/\/www.bloomberg.com\/news\/articles\/2016-10-04\/ecb-said-to-build-tapering-consensus-as-qe-decision-time-nears-itvni14p",
                "text": "The European Central Bank will probably gradually wind down bond purchases before the conclusion of quantitative easing, and may do so in steps of 10 billion euros ($11.2 billion) a month, according to euro-zone central-bank officials.",
                "fallback": "Bloomberg.com: ECB Said to Build Tapering Consensus as QE Decision Time Nears",
                "thumb_url": "https:\/\/assets.bwbx.io\/business\/public\/images\/social_fallbacks\/bloomberg_markets_default-3d32d2f713.jpg",
                "from_url": "http:\/\/www.bloomberg.com\/news\/articles\/2016-10-04\/ecb-said-to-build-tapering-consensus-as-qe-decision-time-nears-itvni14p",
                "thumb_width": 1200,
                "thumb_height": 630,
                "service_icon": "https:\/\/assets.bwbx.io\/business\/public\/images\/favicons\/apple-touch-icon-57x57-b572ef8093.png",
                "id": 1
            }
        ],
        "ts": "1475596860.000177"
    },
    {
        "type": "message",
        "user": "U1FKCRD8D",
        "text": "thanks",
        "ts": "1475608932.000179"
    }
]