[
    {
        "type": "message",
        "user": "U1FKCRD8D",
        "text": "Can't keep bonds down",
        "ts": "1467906217.000352"
    },
    {
        "type": "message",
        "user": "U1FKCRD8D",
        "text": "sharp V",
        "ts": "1467906222.000353"
    },
    {
        "type": "message",
        "user": "U1FHF07QT",
        "text": "i've lost a small fortune shorting them",
        "ts": "1467906782.000354"
    },
    {
        "type": "message",
        "user": "U1FJWQN1Z",
        "text": "exceeding vwap-10 right now",
        "ts": "1467915098.000355"
    },
    {
        "type": "message",
        "user": "U1FJWQN1Z",
        "text": "no juice there",
        "ts": "1467918489.000356"
    },
    {
        "type": "message",
        "user": "U1FJWQN1Z",
        "text": "vwap-10 holding",
        "ts": "1467918494.000357"
    },
    {
        "type": "message",
        "user": "U1FJWQN1Z",
        "text": "at 82 we had vwap-11 and a -8 seq (same as down move into 110pm)",
        "ts": "1467918518.000358"
    },
    {
        "type": "message",
        "user": "U1FJWQN1Z",
        "text": "+4-5 tgt1",
        "ts": "1467918535.000359"
    },
    {
        "type": "message",
        "user": "U1FJWQN1Z",
        "text": "yolo gang looking for vwap",
        "ts": "1467918558.000360"
    },
    {
        "type": "message",
        "user": "U1FJWQN1Z",
        "text": "there's +5",
        "ts": "1467918947.000361"
    },
    {
        "type": "message",
        "user": "U1FJWQN1Z",
        "text": "stop b\/e rest, hold for yolo vwap\/unch 92.25\/93.75",
        "ts": "1467918974.000362"
    }
]