[
    {
        "type": "message",
        "user": "U1FHF07QT",
        "text": "this is supposedly DB inspired stuff?",
        "ts": "1475172542.000156"
    },
    {
        "type": "message",
        "user": "U1FJWQN1Z",
        "text": "y",
        "ts": "1475172552.000157"
    },
    {
        "type": "message",
        "user": "U1FJWQN1Z",
        "text": "millenium, capula, and rokos are withdrawing money",
        "ts": "1475172578.000158"
    },
    {
        "type": "message",
        "user": "U1FHF07QT",
        "text": "what do you mean?",
        "ts": "1475172599.000159"
    },
    {
        "type": "message",
        "user": "U1FHF07QT",
        "text": "those are funds?",
        "ts": "1475172604.000160"
    },
    {
        "type": "message",
        "user": "U1FJWQN1Z",
        "text": "hf's withdrawing money from their accounts",
        "ts": "1475172719.000161"
    },
    {
        "type": "message",
        "user": "U1FJWQN1Z",
        "text": "if db goes bust",
        "ts": "1475172731.000162"
    },
    {
        "type": "message",
        "user": "U1FJWQN1Z",
        "text": "the money in acct may be unavailable or potentially lost",
        "ts": "1475172749.000163"
    },
    {
        "type": "message",
        "user": "U1FJWQN1Z",
        "text": "so it's sort of a run on the bank scenario",
        "ts": "1475172760.000164"
    },
    {
        "type": "message",
        "user": "U1FJWQN1Z",
        "text": "db large with lots of exposures",
        "ts": "1475172785.000165"
    },
    {
        "type": "message",
        "user": "U1FJWQN1Z",
        "text": "there are concerns about its leverage",
        "ts": "1475172798.000166"
    },
    {
        "type": "message",
        "user": "U1FJWQN1Z",
        "text": "and suggestions it needs to raise money",
        "ts": "1475172807.000167"
    },
    {
        "type": "message",
        "user": "U1FJWQN1Z",
        "text": "but that's above my pay grade",
        "ts": "1475172818.000168"
    },
    {
        "type": "message",
        "user": "U1FHF07QT",
        "text": "crazy, thanks.",
        "ts": "1475174696.000169"
    }
]