[
    {
        "type": "message",
        "user": "U1FKCRD8D",
        "text": "Is there a 'fundamental' reason to the eur-bond relationship? What is the mechanism?",
        "ts": "1481725190.000053"
    },
    {
        "type": "message",
        "user": "U1FHF07QT",
        "text": "my first guess would be it's just the GBL, ZN differential",
        "ts": "1481725735.000054"
    },
    {
        "type": "message",
        "user": "U1FJYUKQ9",
        "text": "trading half size today",
        "ts": "1481725936.000055",
        "reactions": [
            {
                "name": "dark_sunglasses",
                "users": [
                    "U1FHF07QT"
                ],
                "count": 1
            }
        ]
    },
    {
        "type": "message",
        "user": "U1FJYUKQ9",
        "text": "I can run minute studies if you guys request",
        "ts": "1481739324.000056"
    },
    {
        "type": "message",
        "user": "U1FHF07QT",
        "text": "would you do it for tbond at 1400?",
        "ts": "1481739377.000057"
    },
    {
        "type": "message",
        "user": "U1FHF07QT",
        "text": "FOMC",
        "ts": "1481739382.000058"
    },
    {
        "type": "message",
        "user": "U1FJYUKQ9",
        "text": "ok",
        "ts": "1481739422.000059"
    },
    {
        "type": "message",
        "user": "U1FJYUKQ9",
        "text": "crude really getting killed",
        "ts": "1481743134.000065"
    },
    {
        "type": "message",
        "user": "U1FHF07QT",
        "text": "Euro",
        "ts": "1481743318.000066"
    },
    {
        "type": "message",
        "user": "U1FKCRD8D",
        "text": "euro almost bak to Monday low levels, bond hanging.........",
        "ts": "1481746512.000067"
    },
    {
        "type": "message",
        "user": "U1FHF07QT",
        "text": "What was so dramatic in the FOMC today?",
        "ts": "1481748942.000068"
    },
    {
        "type": "message",
        "user": "U1FJYUKQ9",
        "text": "interest rates finally up",
        "ts": "1481749048.000069"
    },
    {
        "type": "message",
        "user": "U1FKCRD8D",
        "text": "key thing is short term rates are going up a lot more",
        "ts": "1481749129.000070"
    },
    {
        "type": "message",
        "user": "U1FHF07QT",
        "text": "But 85% chance going into it",
        "ts": "1481749654.000071"
    },
    {
        "type": "message",
        "user": "U1FHF07QT",
        "text": "95",
        "ts": "1481749658.000072"
    },
    {
        "type": "message",
        "user": "U1FHF07QT",
        "text": "What was unexpected?",
        "ts": "1481750126.000073"
    },
    {
        "type": "message",
        "user": "U1FKCRD8D",
        "text": "probably nothing. I wonder if ppl just wanted the event to be out of the way",
        "ts": "1481750499.000074"
    },
    {
        "type": "message",
        "user": "U1FKCRD8D",
        "text": "regarding EUR.......so ppl are buying dollars to buy bonds against bunds?",
        "ts": "1481750537.000075"
    },
    {
        "type": "message",
        "subtype": "file_share",
        "text": "<@U1FKCRD8D|hernanavella> uploaded a file: <https:\/\/tradingfutures.slack.com\/files\/hernanavella\/F3E799UM6\/pasted_image_at_2016_12_14_03_25_pm.png|Pasted image at 2016-12-14, 3:25 PM>",
        "file": {
            "id": "F3E799UM6",
            "created": 1481750751,
            "timestamp": 1481750751,
            "name": "Pasted image at 2016_12_14 03_25 PM.png",
            "title": "Pasted image at 2016-12-14, 3:25 PM",
            "mimetype": "image\/png",
            "filetype": "png",
            "pretty_type": "PNG",
            "user": "U1FKCRD8D",
            "editable": false,
            "size": 68663,
            "mode": "hosted",
            "is_external": false,
            "external_type": "",
            "is_public": true,
            "public_url_shared": false,
            "display_as_bot": false,
            "username": "",
            "url_private": "https:\/\/files.slack.com\/files-pri\/T1FJKLSJ2-F3E799UM6\/pasted_image_at_2016_12_14_03_25_pm.png?t=xoxe-49631706614-119786374643-119786374659-90264fc38b",
            "url_private_download": "https:\/\/files.slack.com\/files-pri\/T1FJKLSJ2-F3E799UM6\/download\/pasted_image_at_2016_12_14_03_25_pm.png?t=xoxe-49631706614-119786374643-119786374659-90264fc38b",
            "thumb_64": "https:\/\/files.slack.com\/files-tmb\/T1FJKLSJ2-F3E799UM6-6434c2eef6\/pasted_image_at_2016_12_14_03_25_pm_64.png?t=xoxe-49631706614-119786374643-119786374659-90264fc38b",
            "thumb_80": "https:\/\/files.slack.com\/files-tmb\/T1FJKLSJ2-F3E799UM6-6434c2eef6\/pasted_image_at_2016_12_14_03_25_pm_80.png?t=xoxe-49631706614-119786374643-119786374659-90264fc38b",
            "thumb_360": "https:\/\/files.slack.com\/files-tmb\/T1FJKLSJ2-F3E799UM6-6434c2eef6\/pasted_image_at_2016_12_14_03_25_pm_360.png?t=xoxe-49631706614-119786374643-119786374659-90264fc38b",
            "thumb_360_w": 360,
            "thumb_360_h": 305,
            "thumb_480": "https:\/\/files.slack.com\/files-tmb\/T1FJKLSJ2-F3E799UM6-6434c2eef6\/pasted_image_at_2016_12_14_03_25_pm_480.png?t=xoxe-49631706614-119786374643-119786374659-90264fc38b",
            "thumb_480_w": 480,
            "thumb_480_h": 407,
            "thumb_160": "https:\/\/files.slack.com\/files-tmb\/T1FJKLSJ2-F3E799UM6-6434c2eef6\/pasted_image_at_2016_12_14_03_25_pm_160.png?t=xoxe-49631706614-119786374643-119786374659-90264fc38b",
            "image_exif_rotation": 1,
            "original_w": 497,
            "original_h": 421,
            "permalink": "https:\/\/tradingfutures.slack.com\/files\/hernanavella\/F3E799UM6\/pasted_image_at_2016_12_14_03_25_pm.png",
            "permalink_public": "https:\/\/slack-files.com\/T1FJKLSJ2-F3E799UM6-147cca04ab",
            "channels": [
                "C1FK4DHNW"
            ],
            "groups": [],
            "ims": [],
            "comments_count": 0
        },
        "user": "U1FKCRD8D",
        "upload": true,
        "display_as_bot": false,
        "username": "<@U1FKCRD8D|hernanavella>",
        "bot_id": null,
        "ts": "1481750758.000076"
    },
    {
        "type": "message",
        "user": "U1FKCRD8D",
        "text": "this lead relationship is getting ridiculous",
        "ts": "1481750771.000077"
    }
]