[
    {
        "type": "message",
        "user": "U1FJYUKQ9",
        "text": "heads up, 2yr auction tomorrow",
        "ts": "1469189984.000070"
    },
    {
        "type": "message",
        "user": "U1FJYUKQ9",
        "text": "<http:\/\/www.bloomberg.com\/markets\/economic-calendar>",
        "attachments": [
            {
                "service_name": "Bloomberg.com",
                "title": "Economic Calendar",
                "title_link": "http:\/\/www.bloomberg.com\/markets\/economic-calendar",
                "text": "Check out the latest economic calendar, a glimpse into upcoming economic development. Stay up to date with breaking economic news and reports on U.S. economic activity.",
                "fallback": "Bloomberg.com: Economic Calendar",
                "thumb_url": "http:\/\/assets.bwbx.io\/markets\/public\/images\/marketdata-quoteshare-image.31c2f976.png",
                "from_url": "http:\/\/www.bloomberg.com\/markets\/economic-calendar",
                "thumb_width": 180,
                "thumb_height": 180,
                "service_icon": "http:\/\/www.bloomberg.com\/favicon.ico",
                "id": 1
            }
        ],
        "ts": "1469189988.000071"
    },
    {
        "type": "message",
        "user": "U1FJWQN1Z",
        "text": "<http:\/\/www.financial-math.org\/blog\/2014\/04\/faqs-on-backtest-overfitting\/>",
        "attachments": [
            {
                "service_name": "The Mathematical Investor",
                "title": "FAQs on Backtest Overfitting \u2013 \u00ab The Mathematical Investor",
                "title_link": "http:\/\/www.financial-math.org\/blog\/2014\/04\/faqs-on-backtest-overfitting\/",
                "text": "Our recent papers [1,2] on backtest overfitting have attracted significant interest, including several press releases [American Mathematical Society, Science Daily, University of Newcastle] and news articles [Financial Times, Wall Street Journal, Bloomberg, Barron's, Pacific Standard...",
                "fallback": "The Mathematical Investor: FAQs on Backtest Overfitting \u2013 \u00ab The Mathematical Investor",
                "ts": 1397421889,
                "from_url": "http:\/\/www.financial-math.org\/blog\/2014\/04\/faqs-on-backtest-overfitting\/",
                "service_icon": "http:\/\/www.financial-math.org\/favicon.ico",
                "id": 1
            }
        ],
        "ts": "1469191212.000073"
    },
    {
        "type": "message",
        "user": "U1FJWQN1Z",
        "text": "<http:\/\/papers.ssrn.com\/sol3\/papers.cfm?abstract_id=2547325>",
        "attachments": [
            {
                "title": "Quantitative Meta-Strategies by Marcos  Lopez de Prado :: SSRN",
                "title_link": "http:\/\/papers.ssrn.com\/sol3\/papers.cfm?abstract_id=2547325",
                "text": "Quantitative Meta-Strategies (QMS) are quantitative strategies designed to manage investment strategies. As a field, QMS can be defined as the mathematical stud",
                "fallback": "Quantitative Meta-Strategies by Marcos  Lopez de Prado :: SSRN",
                "from_url": "http:\/\/papers.ssrn.com\/sol3\/papers.cfm?abstract_id=2547325",
                "service_icon": "http:\/\/papers.ssrn.com\/favicon.ico",
                "service_name": "papers.ssrn.com",
                "id": 1
            }
        ],
        "ts": "1469191224.000075"
    },
    {
        "type": "message",
        "user": "U1FJWQN1Z",
        "text": "<https:\/\/en.wikipedia.org\/wiki\/Experimental_mathematics>",
        "ts": "1469191232.000077"
    },
    {
        "type": "message",
        "user": "U1FJWQN1Z",
        "text": "<http:\/\/www.quantresearch.info\/>",
        "ts": "1469191240.000078"
    },
    {
        "type": "message",
        "user": "U1FJWQN1Z",
        "text": "collection of stuff from world's smartest man",
        "ts": "1469191251.000079",
        "reactions": [
            {
                "name": "grin",
                "users": [
                    "U1FHF07QT"
                ],
                "count": 1
            }
        ]
    },
    {
        "type": "message",
        "user": "U1J0N0DPZ",
        "text": "seems like a bullish case for stocks and bond today. Is that what they call a Texas hedge",
        "ts": "1469192943.000080"
    },
    {
        "type": "message",
        "user": "U1FJWQN1Z",
        "text": "gotta have crude to reference texas",
        "ts": "1469192963.000081"
    },
    {
        "type": "message",
        "user": "U1FHF07QT",
        "text": "florida hedge",
        "ts": "1469192984.000082"
    },
    {
        "type": "message",
        "user": "U1FKCRD8D",
        "text": ":joy: yeah, retirement",
        "ts": "1469193005.000083"
    },
    {
        "type": "message",
        "user": "U1FJWQN1Z",
        "text": "rook may switch horses to crude so that's when rally will begin",
        "ts": "1469193372.000084"
    },
    {
        "type": "message",
        "user": "U1FJWQN1Z",
        "text": "sarsparilla on me boys...i'm long crude",
        "ts": "1469194359.000085"
    },
    {
        "type": "message",
        "user": "U1FKCRD8D",
        "text": "Euro 20dmin",
        "ts": "1469200953.000086"
    },
    {
        "type": "message",
        "user": "U1FJWQN1Z",
        "text": "crude vwap 23",
        "ts": "1469210902.000087"
    },
    {
        "type": "message",
        "user": "U1FJWQN1Z",
        "text": "we've failed 2x there today",
        "ts": "1469210907.000088"
    },
    {
        "type": "message",
        "user": "U1FJWQN1Z",
        "text": "3rd time the charm",
        "ts": "1469210913.000089"
    },
    {
        "type": "message",
        "user": "U1FJWQN1Z",
        "text": "if not a gloomy weekend",
        "ts": "1469210939.000090"
    },
    {
        "type": "message",
        "user": "U1FJWQN1Z",
        "text": "vamos vamos chicos y muchachos",
        "ts": "1469211385.000091"
    },
    {
        "type": "message",
        "user": "U1FKCRD8D",
        "text": "mucha suerte !!",
        "ts": "1469211832.000092"
    },
    {
        "type": "message",
        "user": "U1FJWQN1Z",
        "text": "busto a traves VWAP",
        "ts": "1469211833.000093"
    },
    {
        "type": "message",
        "user": "U1FJWQN1Z",
        "text": "dos minutos para cerrar",
        "ts": "1469212072.000094"
    },
    {
        "type": "message",
        "user": "U1FJWQN1Z",
        "text": "comercio cero",
        "ts": "1469212537.000095"
    },
    {
        "type": "message",
        "user": "U1FJWQN1Z",
        "text": "hecho unos pocos centavos, para mi problema",
        "ts": "1469212588.000096"
    },
    {
        "type": "message",
        "user": "U1FJWQN1Z",
        "text": "usted sabe que es alcista1",
        "ts": "1469216698.000097"
    },
    {
        "type": "message",
        "user": "U1FJWQN1Z",
        "text": "!",
        "ts": "1469216702.000098"
    },
    {
        "type": "message",
        "user": "U1FJWQN1Z",
        "text": "pero va sin mi",
        "ts": "1469216817.000099"
    },
    {
        "type": "message",
        "user": "U1FJWQN1Z",
        "text": "ah caramba",
        "ts": "1469216829.000100"
    },
    {
        "type": "message",
        "user": "U1FJWQN1Z",
        "text": "estoy adentro",
        "ts": "1469217376.000101"
    },
    {
        "type": "message",
        "user": "U1FJWQN1Z",
        "text": "todo es culpa de la torre",
        "ts": "1469217671.000102"
    },
    {
        "type": "message",
        "user": "U1FJWQN1Z",
        "text": "pero la sensibilidad al precio paga y me hizo el dinero",
        "ts": "1469217735.000103"
    },
    {
        "type": "message",
        "user": "U1FJWQN1Z",
        "text": "que tengas un buen fin de semana",
        "ts": "1469217916.000104"
    },
    {
        "type": "message",
        "user": "U1FJWQN1Z",
        "text": "adios",
        "ts": "1469217919.000105"
    }
]