[
    {
        "type": "message",
        "user": "U1FKCRD8D",
        "text": "Notice the tight 15 day range in EuroStoxx.....3000 -3060",
        "ts": "1480591552.000962"
    },
    {
        "type": "message",
        "user": "U1FKCRD8D",
        "text": "Bond is becoming the new 2014-2015 oil",
        "ts": "1480609001.000963"
    },
    {
        "type": "message",
        "user": "U1FHF07QT",
        "text": "since Trump; 30Y -9% in price",
        "ts": "1480612000.000964"
    },
    {
        "type": "message",
        "user": "U1FKCRD8D",
        "text": "UB down 3 handles today...........down 20 handles from Trump night high.......~178 to 158",
        "ts": "1480612943.000965"
    },
    {
        "type": "message",
        "user": "U1FKCRD8D",
        "text": "Spu holding amid Nq down 70, bonds down 2",
        "ts": "1480613058.000966"
    }
]