[
    {
        "type": "message",
        "user": "U1FHF07QT",
        "text": "seems like it's time to switch over tbond: <http:\/\/www.cmegroup.com\/trading\/interest-rates\/us-treasury\/30-year-us-treasury-bond.html>",
        "attachments": [
            {
                "title": " U.S. Treasury Bond Futures Quotes - CME Group ",
                "title_link": "http:\/\/www.cmegroup.com\/trading\/interest-rates\/us-treasury\/30-year-us-treasury-bond.html",
                "text": "Find information for U.S. Treasury Bond Futures provided by CME Group. View Quotes",
                "fallback": " U.S. Treasury Bond Futures Quotes - CME Group ",
                "from_url": "http:\/\/www.cmegroup.com\/trading\/interest-rates\/us-treasury\/30-year-us-treasury-bond.html",
                "service_icon": "http:\/\/www.cmegroup.com\/etc\/clientlibs\/cmegroup\/cmegroupClientLibs\/images\/cme-icon-144x144.png",
                "service_name": "cmegroup.com",
                "id": 1
            }
        ],
        "ts": "1472211182.000110"
    },
    {
        "type": "message",
        "user": "U1FJYUKQ9",
        "text": "What a tight range ",
        "ts": "1472214179.000112"
    },
    {
        "type": "message",
        "user": "U1FHF07QT",
        "text": "yea",
        "ts": "1472214191.000113"
    },
    {
        "type": "message",
        "user": "U1FHF07QT",
        "text": "i was looking at the weekly charts last night and tbond\/bund have been having a compression this last month as well.",
        "ts": "1472214271.000114"
    },
    {
        "type": "message",
        "user": "U1FJWQN1Z",
        "text": "yellen at 10am",
        "ts": "1472215137.000115",
        "reactions": [
            {
                "name": "white_check_mark",
                "users": [
                    "U1FHF07QT"
                ],
                "count": 1
            }
        ]
    },
    {
        "type": "message",
        "user": "U1FJWQN1Z",
        "text": "<http:\/\/www.investing.com\/economic-calendar\/fed-chair-yellen-speaks-1069>",
        "attachments": [
            {
                "service_name": "investing.com",
                "title": "United States Federal Reserve Chair Yellen Speaks",
                "title_link": "http:\/\/www.investing.com\/economic-calendar\/fed-chair-yellen-speaks-1069",
                "text": "Get the Fed Chair Yellen Speaks results in real time as they're announced and see the immediate global market impact.",
                "fallback": "investing.com: United States Federal Reserve Chair Yellen Speaks",
                "thumb_url": "http:\/\/glocdn.investing.com\/investing_300X300.png",
                "from_url": "http:\/\/www.investing.com\/economic-calendar\/fed-chair-yellen-speaks-1069",
                "thumb_width": 300,
                "thumb_height": 300,
                "service_icon": "http:\/\/glocdn.investing.com\/logos\/favicon.ico",
                "id": 1
            }
        ],
        "ts": "1472215155.000116"
    },
    {
        "type": "message",
        "user": "U1FHF07QT",
        "text": "wow",
        "ts": "1472220212.000118"
    },
    {
        "type": "message",
        "user": "U1FHF07QT",
        "text": "lol, more vol than an actual FOMC",
        "ts": "1472226741.000119"
    },
    {
        "type": "message",
        "user": "U1FHF07QT",
        "text": "Let do a full Lobogola!",
        "ts": "1472240568.000120"
    }
]