[
    {
        "type": "message",
        "user": "U1J0N0DPZ",
        "text": "T.T. = ?",
        "ts": "1472645695.000013"
    },
    {
        "type": "message",
        "user": "U1FHF07QT",
        "text": "i think it stands for \"Triple Threat\" the tongue in check name we've given to mikes discovery of :",
        "ts": "1472647369.000014"
    },
    {
        "type": "message",
        "subtype": "file_share",
        "text": "<@U1FHF07QT|jkh> uploaded a file: <https:\/\/tradingfutures.slack.com\/files\/jkh\/F26QUE6LV\/-.txt|Untitled>",
        "file": {
            "id": "F26QUE6LV",
            "created": 1472647409,
            "timestamp": 1472647409,
            "name": "-.txt",
            "title": "Untitled",
            "mimetype": "text\/plain",
            "filetype": "text",
            "pretty_type": "Plain Text",
            "user": "U1FHF07QT",
            "editable": true,
            "size": 1261,
            "mode": "snippet",
            "is_external": false,
            "external_type": "",
            "is_public": true,
            "public_url_shared": false,
            "display_as_bot": false,
            "username": "",
            "url_private": "https:\/\/files.slack.com\/files-pri\/T1FJKLSJ2-F26QUE6LV\/-.txt?t=xoxe-49631706614-119786374643-119786374659-90264fc38b",
            "url_private_download": "https:\/\/files.slack.com\/files-pri\/T1FJKLSJ2-F26QUE6LV\/download\/-.txt?t=xoxe-49631706614-119786374643-119786374659-90264fc38b",
            "permalink": "https:\/\/tradingfutures.slack.com\/files\/jkh\/F26QUE6LV\/-.txt",
            "permalink_public": "https:\/\/slack-files.com\/T1FJKLSJ2-F26QUE6LV-c1155d78cf",
            "edit_link": "https:\/\/tradingfutures.slack.com\/files\/jkh\/F26QUE6LV\/-.txt\/edit",
            "preview": "JKH::Wed 31 Aug 2016 08:43:13 AM EDT\r\nDEP VAR CRUDE AT 900 : 01\/01\/2013 TO 01\/01\/2020  US\/Eastern\r\n\r\nINDEPENDNT LAG1  HOUR LAG2  HOUR  LO     HI          TZ\r\n    crude    1  1430    0   900   1   5000  US\/Eastern\r",
            "preview_highlight": "<div class=\"CodeMirror cm-s-default CodeMirrorServer\" oncopy=\"if(event.clipboardData){event.clipboardData.setData('text\/plain',window.getSelection().toString().replace(\/\\u200b\/g,''));event.preventDefault();event.stopPropagation();}\">\n<div class=\"CodeMirror-code\">\n<div><pre>JKH::Wed 31 Aug 2016 08:43:13 AM EDT<\/pre><\/div>\n<div><pre>DEP VAR CRUDE AT 900 : 01\/01\/2013 TO 01\/01\/2020  US\/Eastern<\/pre><\/div>\n<div><pre><\/pre><\/div>\n<div><pre>INDEPENDNT LAG1  HOUR LAG2  HOUR  LO     HI          TZ<\/pre><\/div>\n<div><pre>    crude    1  1430    0   900   1   5000  US\/Eastern<\/pre><\/div>\n<div><pre><\/pre><\/div>\n<\/div>\n<\/div>\n",
            "lines": 29,
            "lines_more": 24,
            "preview_is_truncated": true,
            "channels": [
                "C1FK4DHNW"
            ],
            "groups": [],
            "ims": [],
            "comments_count": 2
        },
        "user": "U1FHF07QT",
        "upload": true,
        "display_as_bot": false,
        "username": "<@U1FHF07QT|jkh>",
        "bot_id": null,
        "ts": "1472647409.000015"
    },
    {
        "type": "message",
        "subtype": "file_comment",
        "text": "<@U1J0N0DPZ|duncan> commented on <@U1FHF07QT|jkh>'s file <https:\/\/tradingfutures.slack.com\/files\/jkh\/F26QUE6LV\/-.txt|Untitled>: nice, thanks",
        "file": {
            "id": "F26QUE6LV",
            "created": 1472647409,
            "timestamp": 1472647409,
            "name": "-.txt",
            "title": "Untitled",
            "mimetype": "text\/plain",
            "filetype": "text",
            "pretty_type": "Plain Text",
            "user": "U1FHF07QT",
            "editable": true,
            "size": 1261,
            "mode": "snippet",
            "is_external": false,
            "external_type": "",
            "is_public": true,
            "public_url_shared": false,
            "display_as_bot": false,
            "username": "",
            "url_private": "https:\/\/files.slack.com\/files-pri\/T1FJKLSJ2-F26QUE6LV\/-.txt?t=xoxe-49631706614-119786374643-119786374659-90264fc38b",
            "url_private_download": "https:\/\/files.slack.com\/files-pri\/T1FJKLSJ2-F26QUE6LV\/download\/-.txt?t=xoxe-49631706614-119786374643-119786374659-90264fc38b",
            "permalink": "https:\/\/tradingfutures.slack.com\/files\/jkh\/F26QUE6LV\/-.txt",
            "permalink_public": "https:\/\/slack-files.com\/T1FJKLSJ2-F26QUE6LV-c1155d78cf",
            "edit_link": "https:\/\/tradingfutures.slack.com\/files\/jkh\/F26QUE6LV\/-.txt\/edit",
            "preview": "JKH::Wed 31 Aug 2016 08:43:13 AM EDT\r\nDEP VAR CRUDE AT 900 : 01\/01\/2013 TO 01\/01\/2020  US\/Eastern\r\n\r\nINDEPENDNT LAG1  HOUR LAG2  HOUR  LO     HI          TZ\r\n    crude    1  1430    0   900   1   5000  US\/Eastern\r",
            "preview_highlight": "<div class=\"CodeMirror cm-s-default CodeMirrorServer\" oncopy=\"if(event.clipboardData){event.clipboardData.setData('text\/plain',window.getSelection().toString().replace(\/\\u200b\/g,''));event.preventDefault();event.stopPropagation();}\">\n<div class=\"CodeMirror-code\">\n<div><pre>JKH::Wed 31 Aug 2016 08:43:13 AM EDT<\/pre><\/div>\n<div><pre>DEP VAR CRUDE AT 900 : 01\/01\/2013 TO 01\/01\/2020  US\/Eastern<\/pre><\/div>\n<div><pre><\/pre><\/div>\n<div><pre>INDEPENDNT LAG1  HOUR LAG2  HOUR  LO     HI          TZ<\/pre><\/div>\n<div><pre>    crude    1  1430    0   900   1   5000  US\/Eastern<\/pre><\/div>\n<div><pre><\/pre><\/div>\n<\/div>\n<\/div>\n",
            "lines": 29,
            "lines_more": 24,
            "preview_is_truncated": true,
            "channels": [
                "C1FK4DHNW"
            ],
            "groups": [],
            "ims": [],
            "comments_count": 2
        },
        "comment": {
            "id": "Fc26P7UY2X",
            "created": 1472647645,
            "timestamp": 1472647645,
            "user": "U1J0N0DPZ",
            "is_intro": false,
            "comment": "nice, thanks",
            "channel": ""
        },
        "is_intro": false,
        "ts": "1472647645.000016"
    },
    {
        "type": "message",
        "user": "U1FJYUKQ9",
        "text": "Interesting phenomena : <https:\/\/en.wikipedia.org\/wiki\/Law_of_triviality>",
        "ts": "1472651646.000017"
    },
    {
        "type": "message",
        "user": "U1FHF07QT",
        "text": "i like the 'duck' solution. ^_^",
        "ts": "1472652058.000018",
        "reactions": [
            {
                "name": "joy",
                "users": [
                    "U1FJYUKQ9"
                ],
                "count": 1
            }
        ]
    },
    {
        "type": "message",
        "subtype": "file_comment",
        "text": "<@U1J0N0DPZ|duncan> commented on <@U1FHF07QT|jkh>'s file <https:\/\/tradingfutures.slack.com\/files\/jkh\/F26QUE6LV\/-.txt|Untitled>: also quite bullish for SP as you would expect with high correlation",
        "file": {
            "id": "F26QUE6LV",
            "created": 1472647409,
            "timestamp": 1472647409,
            "name": "-.txt",
            "title": "Untitled",
            "mimetype": "text\/plain",
            "filetype": "text",
            "pretty_type": "Plain Text",
            "user": "U1FHF07QT",
            "editable": true,
            "size": 1261,
            "mode": "snippet",
            "is_external": false,
            "external_type": "",
            "is_public": true,
            "public_url_shared": false,
            "display_as_bot": false,
            "username": "",
            "url_private": "https:\/\/files.slack.com\/files-pri\/T1FJKLSJ2-F26QUE6LV\/-.txt?t=xoxe-49631706614-119786374643-119786374659-90264fc38b",
            "url_private_download": "https:\/\/files.slack.com\/files-pri\/T1FJKLSJ2-F26QUE6LV\/download\/-.txt?t=xoxe-49631706614-119786374643-119786374659-90264fc38b",
            "permalink": "https:\/\/tradingfutures.slack.com\/files\/jkh\/F26QUE6LV\/-.txt",
            "permalink_public": "https:\/\/slack-files.com\/T1FJKLSJ2-F26QUE6LV-c1155d78cf",
            "edit_link": "https:\/\/tradingfutures.slack.com\/files\/jkh\/F26QUE6LV\/-.txt\/edit",
            "preview": "JKH::Wed 31 Aug 2016 08:43:13 AM EDT\r\nDEP VAR CRUDE AT 900 : 01\/01\/2013 TO 01\/01\/2020  US\/Eastern\r\n\r\nINDEPENDNT LAG1  HOUR LAG2  HOUR  LO     HI          TZ\r\n    crude    1  1430    0   900   1   5000  US\/Eastern\r",
            "preview_highlight": "<div class=\"CodeMirror cm-s-default CodeMirrorServer\" oncopy=\"if(event.clipboardData){event.clipboardData.setData('text\/plain',window.getSelection().toString().replace(\/\\u200b\/g,''));event.preventDefault();event.stopPropagation();}\">\n<div class=\"CodeMirror-code\">\n<div><pre>JKH::Wed 31 Aug 2016 08:43:13 AM EDT<\/pre><\/div>\n<div><pre>DEP VAR CRUDE AT 900 : 01\/01\/2013 TO 01\/01\/2020  US\/Eastern<\/pre><\/div>\n<div><pre><\/pre><\/div>\n<div><pre>INDEPENDNT LAG1  HOUR LAG2  HOUR  LO     HI          TZ<\/pre><\/div>\n<div><pre>    crude    1  1430    0   900   1   5000  US\/Eastern<\/pre><\/div>\n<div><pre><\/pre><\/div>\n<\/div>\n<\/div>\n",
            "lines": 29,
            "lines_more": 24,
            "preview_is_truncated": true,
            "channels": [
                "C1FK4DHNW"
            ],
            "groups": [],
            "ims": [],
            "comments_count": 2
        },
        "comment": {
            "id": "Fc26S5P49Y",
            "created": 1472652740,
            "timestamp": 1472652740,
            "user": "U1J0N0DPZ",
            "is_intro": false,
            "comment": "also quite bullish for SP as you would expect with high correlation",
            "channel": ""
        },
        "is_intro": false,
        "ts": "1472652740.000019"
    },
    {
        "type": "message",
        "subtype": "file_share",
        "text": "<@U1FHF07QT|jkh> uploaded a file: <https:\/\/tradingfutures.slack.com\/files\/jkh\/F270290CS\/a_dark_anniversary.txt|A Dark Anniversary>",
        "file": {
            "id": "F270290CS",
            "created": 1472666935,
            "timestamp": 1472666935,
            "name": "A_Dark_Anniversary.txt",
            "title": "A Dark Anniversary",
            "mimetype": "text\/plain",
            "filetype": "text",
            "pretty_type": "Plain Text",
            "user": "U1FHF07QT",
            "editable": true,
            "size": 760,
            "mode": "snippet",
            "is_external": false,
            "external_type": "",
            "is_public": true,
            "public_url_shared": false,
            "display_as_bot": false,
            "username": "",
            "url_private": "https:\/\/files.slack.com\/files-pri\/T1FJKLSJ2-F270290CS\/a_dark_anniversary.txt?t=xoxe-49631706614-119786374643-119786374659-90264fc38b",
            "url_private_download": "https:\/\/files.slack.com\/files-pri\/T1FJKLSJ2-F270290CS\/download\/a_dark_anniversary.txt?t=xoxe-49631706614-119786374643-119786374659-90264fc38b",
            "permalink": "https:\/\/tradingfutures.slack.com\/files\/jkh\/F270290CS\/a_dark_anniversary.txt",
            "permalink_public": "https:\/\/slack-files.com\/T1FJKLSJ2-F270290CS-bd079b9e8e",
            "edit_link": "https:\/\/tradingfutures.slack.com\/files\/jkh\/F270290CS\/a_dark_anniversary.txt\/edit",
            "preview": "LAG                     0                                                        1                                           \r\n                     1405 1410 1415 1420 1425 1430 1500 1600 1615 1700 1715    300    400    930   1130   1600   1615   1715 \r\nY      M    D    WD                                                                                                                                                                                                                                                                                                                                                                        \r\n2015   8.0  31.0 1.0   -5  -22  -48  -60  -25  -28  -78  -58 -105  -82  -82 -348.0 -480.0 -508.0 -420.0 -662.0 -580.0 -610.0 ",
            "preview_highlight": "<div class=\"CodeMirror cm-s-default CodeMirrorServer\" oncopy=\"if(event.clipboardData){event.clipboardData.setData('text\/plain',window.getSelection().toString().replace(\/\\u200b\/g,''));event.preventDefault();event.stopPropagation();}\">\n<div class=\"CodeMirror-code\">\n<div><pre>LAG                     0                                                        1                                           <\/pre><\/div>\n<div><pre>                     1405 1410 1415 1420 1425 1430 1500 1600 1615 1700 1715    300    400    930   1130   1600   1615   1715 <\/pre><\/div>\n<div><pre>Y      M    D    WD                                                                                                                                                                                                                                                                                                                                                                        <\/pre><\/div>\n<div><pre>2015   8.0  31.0 1.0   -5  -22  -48  -60  -25  -28  -78  -58 -105  -82  -82 -348.0 -480.0 -508.0 -420.0 -662.0 -580.0 -610.0 <\/pre><\/div>\n<\/div>\n<\/div>\n",
            "lines": 4,
            "lines_more": 0,
            "preview_is_truncated": false,
            "channels": [
                "C1FK4DHNW"
            ],
            "groups": [],
            "ims": [],
            "comments_count": 0
        },
        "user": "U1FHF07QT",
        "upload": true,
        "display_as_bot": false,
        "username": "<@U1FHF07QT|jkh>",
        "bot_id": null,
        "ts": "1472666935.000020"
    }
]