[
    {
        "type": "message",
        "user": "U1FJYUKQ9",
        "text": "Interesting post I saw ",
        "ts": "1473627773.000025"
    },
    {
        "type": "message",
        "subtype": "file_share",
        "text": "<@U1FJYUKQ9|mkchuprin> uploaded a file: <https:\/\/tradingfutures.slack.com\/files\/mkchuprin\/F2AEPB85B\/screenshot_20160911-170140.png|Slack for Android Upload>",
        "file": {
            "id": "F2AEPB85B",
            "created": 1473627841,
            "timestamp": 1473627841,
            "name": "Screenshot_20160911-170140.png",
            "title": "Slack for Android Upload",
            "mimetype": "image\/png",
            "filetype": "png",
            "pretty_type": "PNG",
            "user": "U1FJYUKQ9",
            "editable": false,
            "size": 595576,
            "mode": "hosted",
            "is_external": false,
            "external_type": "",
            "is_public": true,
            "public_url_shared": false,
            "display_as_bot": false,
            "username": "",
            "url_private": "https:\/\/files.slack.com\/files-pri\/T1FJKLSJ2-F2AEPB85B\/screenshot_20160911-170140.png?t=xoxe-49631706614-119786374643-119786374659-90264fc38b",
            "url_private_download": "https:\/\/files.slack.com\/files-pri\/T1FJKLSJ2-F2AEPB85B\/download\/screenshot_20160911-170140.png?t=xoxe-49631706614-119786374643-119786374659-90264fc38b",
            "thumb_64": "https:\/\/files.slack.com\/files-tmb\/T1FJKLSJ2-F2AEPB85B-67289f2c9b\/screenshot_20160911-170140_64.png?t=xoxe-49631706614-119786374643-119786374659-90264fc38b",
            "thumb_80": "https:\/\/files.slack.com\/files-tmb\/T1FJKLSJ2-F2AEPB85B-67289f2c9b\/screenshot_20160911-170140_80.png?t=xoxe-49631706614-119786374643-119786374659-90264fc38b",
            "thumb_360": "https:\/\/files.slack.com\/files-tmb\/T1FJKLSJ2-F2AEPB85B-67289f2c9b\/screenshot_20160911-170140_360.png?t=xoxe-49631706614-119786374643-119786374659-90264fc38b",
            "thumb_360_w": 203,
            "thumb_360_h": 360,
            "thumb_480": "https:\/\/files.slack.com\/files-tmb\/T1FJKLSJ2-F2AEPB85B-67289f2c9b\/screenshot_20160911-170140_480.png?t=xoxe-49631706614-119786374643-119786374659-90264fc38b",
            "thumb_480_w": 270,
            "thumb_480_h": 480,
            "thumb_160": "https:\/\/files.slack.com\/files-tmb\/T1FJKLSJ2-F2AEPB85B-67289f2c9b\/screenshot_20160911-170140_160.png?t=xoxe-49631706614-119786374643-119786374659-90264fc38b",
            "thumb_720": "https:\/\/files.slack.com\/files-tmb\/T1FJKLSJ2-F2AEPB85B-67289f2c9b\/screenshot_20160911-170140_720.png?t=xoxe-49631706614-119786374643-119786374659-90264fc38b",
            "thumb_720_w": 405,
            "thumb_720_h": 720,
            "thumb_960": "https:\/\/files.slack.com\/files-tmb\/T1FJKLSJ2-F2AEPB85B-67289f2c9b\/screenshot_20160911-170140_960.png?t=xoxe-49631706614-119786374643-119786374659-90264fc38b",
            "thumb_960_w": 540,
            "thumb_960_h": 960,
            "thumb_1024": "https:\/\/files.slack.com\/files-tmb\/T1FJKLSJ2-F2AEPB85B-67289f2c9b\/screenshot_20160911-170140_1024.png?t=xoxe-49631706614-119786374643-119786374659-90264fc38b",
            "thumb_1024_w": 576,
            "thumb_1024_h": 1024,
            "image_exif_rotation": 1,
            "original_w": 1440,
            "original_h": 2560,
            "permalink": "https:\/\/tradingfutures.slack.com\/files\/mkchuprin\/F2AEPB85B\/screenshot_20160911-170140.png",
            "permalink_public": "https:\/\/slack-files.com\/T1FJKLSJ2-F2AEPB85B-f1c84cda74",
            "channels": [
                "C1FK4DHNW"
            ],
            "groups": [],
            "ims": [],
            "comments_count": 0
        },
        "user": "U1FJYUKQ9",
        "upload": true,
        "display_as_bot": false,
        "username": "<@U1FJYUKQ9|mkchuprin>",
        "bot_id": null,
        "ts": "1473627846.000026"
    },
    {
        "type": "message",
        "user": "U1FHF07QT",
        "text": "interesting story, but old and nytimes hates traders and banks.",
        "ts": "1473628532.000027"
    },
    {
        "type": "message",
        "subtype": "file_share",
        "text": "<@U1J0N0DPZ|duncan> uploaded a file: <https:\/\/tradingfutures.slack.com\/files\/duncan\/F2AGCLKCM\/patt_jj_asked_about.txt|patt JJ asked about> and commented: 20 day vol pre cl&lt;10, then c+20&lt;c1",
        "file": {
            "id": "F2AGCLKCM",
            "created": 1473655684,
            "timestamp": 1473655684,
            "name": "patt_JJ_asked_about.txt",
            "title": "patt JJ asked about",
            "mimetype": "text\/plain",
            "filetype": "text",
            "pretty_type": "Plain Text",
            "user": "U1J0N0DPZ",
            "editable": true,
            "size": 4919,
            "mode": "snippet",
            "is_external": false,
            "external_type": "",
            "is_public": true,
            "public_url_shared": false,
            "display_as_bot": false,
            "username": "",
            "url_private": "https:\/\/files.slack.com\/files-pri\/T1FJKLSJ2-F2AGCLKCM\/patt_jj_asked_about.txt?t=xoxe-49631706614-119786374643-119786374659-90264fc38b",
            "url_private_download": "https:\/\/files.slack.com\/files-pri\/T1FJKLSJ2-F2AGCLKCM\/download\/patt_jj_asked_about.txt?t=xoxe-49631706614-119786374643-119786374659-90264fc38b",
            "permalink": "https:\/\/tradingfutures.slack.com\/files\/duncan\/F2AGCLKCM\/patt_jj_asked_about.txt",
            "permalink_public": "https:\/\/slack-files.com\/T1FJKLSJ2-F2AGCLKCM-51ba86db79",
            "edit_link": "https:\/\/tradingfutures.slack.com\/files\/duncan\/F2AGCLKCM\/patt_jj_asked_about.txt\/edit",
            "preview": "Ran at 09\/12\/2016 00:46\r\nCalculation results for ES from 01\/06\/2003 00:00 to 08\/31\/2016 00:00\r\nReference time at 16:15\r\n\r\nEntry Conditions:\r",
            "preview_highlight": "<div class=\"CodeMirror cm-s-default CodeMirrorServer\" oncopy=\"if(event.clipboardData){event.clipboardData.setData('text\/plain',window.getSelection().toString().replace(\/\\u200b\/g,''));event.preventDefault();event.stopPropagation();}\">\n<div class=\"CodeMirror-code\">\n<div><pre>Ran at 09\/12\/2016 00:46<\/pre><\/div>\n<div><pre>Calculation results for ES from 01\/06\/2003 00:00 to 08\/31\/2016 00:00<\/pre><\/div>\n<div><pre>Reference time at 16:15<\/pre><\/div>\n<div><pre><\/pre><\/div>\n<div><pre>Entry Conditions:<\/pre><\/div>\n<div><pre><\/pre><\/div>\n<\/div>\n<\/div>\n",
            "lines": 45,
            "lines_more": 40,
            "preview_is_truncated": true,
            "channels": [
                "C1FK4DHNW"
            ],
            "groups": [],
            "ims": [],
            "comments_count": 2,
            "initial_comment": {
                "id": "Fc2AGFN84F",
                "created": 1473655684,
                "timestamp": 1473655684,
                "user": "U1J0N0DPZ",
                "is_intro": true,
                "comment": "20 day vol pre cl&lt;10, then c+20&lt;c1",
                "channel": ""
            },
            "reactions": [
                {
                    "name": "clap::skin-tone-6",
                    "users": [
                        "U1FHF07QT"
                    ],
                    "count": 1
                }
            ]
        },
        "user": "U1J0N0DPZ",
        "upload": true,
        "display_as_bot": false,
        "username": "<@U1J0N0DPZ|duncan>",
        "bot_id": null,
        "ts": "1473655684.000028"
    }
]