[
    {
        "type": "message",
        "user": "U1FJWQN1Z",
        "text": "i did 10 at 93.5 and 10 at 4.5",
        "ts": "1467117613.000242"
    },
    {
        "type": "message",
        "user": "U1FJWQN1Z",
        "text": "18\/7 = 2.5",
        "ts": "1467117638.000243"
    },
    {
        "type": "message",
        "user": "U1FJWQN1Z",
        "text": "about 1\/2 of what i really need to do",
        "ts": "1467117669.000244"
    },
    {
        "type": "message",
        "user": "U1FJWQN1Z",
        "text": "you are ahead of schedule!",
        "ts": "1467117734.000245"
    },
    {
        "type": "message",
        "user": "U1FHF07QT",
        "text": "spu crashing up",
        "ts": "1467121186.000246"
    },
    {
        "type": "message",
        "user": "U1FJYUKQ9",
        "text": "sounds like newspeak",
        "ts": "1467121282.000247"
    },
    {
        "type": "message",
        "user": "U1FHF07QT",
        "text": "term I used to like to describe bitcoin's price movements",
        "ts": "1467121818.000248"
    }
]