[
    {
        "user": "U1FKCRD8D",
        "text": "<@U1FKCRD8D|hernanavella> has joined the channel",
        "type": "message",
        "subtype": "channel_join",
        "ts": "1476540869.000002"
    },
    {
        "user": "U1FKCRD8D",
        "text": "<@U1FKCRD8D|hernanavella> has left the channel",
        "type": "message",
        "subtype": "channel_leave",
        "ts": "1476540887.000003"
    }
]