[
    {
        "type": "message",
        "user": "U1FKCRD8D",
        "text": "HERNANAVELLA-WS::Fri Jun 10 06:06:31 2016\nDEP VAR NITE.SP AT 930 ALL DAYS: 1\/1\/2015 to 6\/3\/2016\nAS OF 2 1620, NITE.SP AT 20 COMPARISON DAY HIGH \nINDEPENDNT   LAG1 HOUR   LAG2 HOUR       LO       HI     (TRADING DAYS)\n   NITE.SP     2  1620     1  1620    -5000       -1\n   NITE.SP     1  1620     0   930    -5000       -1\n\n   Y  M  D  DW  PLAST  940  950 1000 1100 1200 1300 1400 1500 1600 1620  100  200\n---------------------------------------------------------------------------------\n2016  3 24 THR  20148    7   -6   24   50   34   22   57   82  120  137  187  200\n2016  4  1 FRI  20388  -16   17   17  154  147  147  200  222  257  267  277  284\n2016  4  5 TUE  20420   -2  -38   -8  -22  -10  -35  -10   28  -45  -30   50   38\n2016  4 18 MON  20668   27   62   67  152  157  180  187  200  217  200  200  220\n2016  4 22 FRI  20812   48   50   60  -50   -7  -42   18   48   48   50    6   30\n\nD HOUR     N   MAX   MIN    MU   MUD  PPOS  SDEV     T  TDRF  SER\n0  940    15    48   -74     1     1    53    29    13    13   21\n0  950    15    62   -84     0     3    60    41     1    26    2\n0 1000    15    68   -83     4     7    60    47    35    59   17\n0 1100    15   154   -82    19    21    60    69   108   115  -11\n0 1200    15   157   -47    34    35    73    57   233   240  -34\n0 1300    15   180   -57    28    29    67    63   170   176  -55\n0 1400    15   200   -67    43    44    73    72   233   237  -21\n0 1500    15   222  -173    55    53    80    93   229   223   -0\n0 1600    15   260  -150    71    67    80   107   256   243  -10\n0 1620    15   304  -117    80    74    80   108   289   267**-12\n-----------------------------------------------------------------\n1  100    15   320  -105    90    85    80   110   316   298** 14\n1  200    15   284   -90    93    88    80   101   357   339** 17\n1  300    15   254   -75    91    82    87    97   362   324** 12\n1  400    15   292   -93    88    79    73   119   286   258**  8\n1  500    15   297   -95    91    82    73   123   288   260** 11\n1  600    15   310   -87   103    95    80   122   328   302** 14\n1  700    15   334   -87    99    91    73   123   310   284** -1\n1  800    15   314   -75    93    86    87   119   304   279** -3\n1  900    15   322   -70    74    71    67   123   233   223   -7\n1 1000    15   290  -117    63    64    67   123   199   202    0\n1 1100    15   294  -183    68    67    73   124   213   210   15\n1 1200    15   320  -185    68    67    67   129   204   200   37\n1 1300    15   300  -205    66    64    67   133   192   188   35\n1 1620    15   504  -160   122   113    80   158   298   277** 39",
        "ts": "1465556987.000006"
    },
    {
        "type": "message",
        "user": "U1FHF07QT",
        "text": "nice",
        "ts": "1465563337.000002"
    },
    {
        "type": "message",
        "user": "U1FHF07QT",
        "text": "JKH::Fri 10 Jun 2016 08:54:49 AM EDT\nDEP VAR SP AT 900 : 01\/01\/2013 TO 01\/01\/2020  US\/Eastern\n\nINDEPENDNT LAG1  HOUR LAG2  HOUR    LO     HI          TZ\n       sp    1  1615    0   900  -100  -5000  US\/Eastern\n       sp    5  1615    1  1615     1   5000  US\/Eastern\n       sp    2  1615    1  1615    -1  -5000  US\/Eastern\n\n\n\nLAG  time   MU    T  TRDF    STD  PPOS  COR   N\n  0   905    0   -3   12      13    52  -44  17\n  0   910   -1  -29  -48      20    47  -34  17\n  0   915    1   12  -17      25    52  -45  17\n  0   920   -3  -39  -96      31    41  -50  17\n  0   925   -3  -46  -81      28    47  -56  17\n  0   930    1   14  -50      31    47  -31  17\n  0  1000   19  140   12      55    52  -40  17\n  0  1100   45  323  274      57    82  -38  17\n  0  1130   65  550  361*     48    94  -42  17\n  0  1200   70  621  364*     46    94  -59  17\n  0  1300   56  433  365*     53    82  -54  17\n  0  1400   56  329  281      70    82  -50  17\n  0  1500   49  261  248      77    76  -33  17\n  0  1600   43  181  127      97    64  -13  17\n  0  1615   54  244  181      91    76  -25  17\n  0  1700   58  251  206      94    76  -15  17\n  0  1715   60  265  220      92    76  -17  17",
        "ts": "1465563339.000003"
    },
    {
        "user": "U1FJWQN1Z",
        "type": "message",
        "subtype": "channel_join",
        "text": "<@U1FJWQN1Z|bet4value> has joined the channel",
        "ts": "1465563503.000004"
    },
    {
        "type": "message",
        "user": "U1FJWQN1Z",
        "text": "PCMAC::Fri Jun 10 08:48:56 2016\nDEP VAR NITE.SP AT 900 ALL DAYS: 1\/1\/2009 to 6\/3\/2016\nAS OF 2 1620, NITE.SP AT 20 COMPARISON DAY HIGH \nINDEPENDNT   LAG1 HOUR   LAG2 HOUR       LO       HI     (TRADING DAYS)\n   NITE.SP     2  1620     1  1620      -99       -1\n   NITE.SP     1  1620     0   900     -200      -80\n\n   Y  M  D  DW  PLAST  910  920  930 1000 1100 1200 1300 1400 1500 1600 1620  100\n---------------------------------------------------------------------------------\n2011  2 10 THR  11682   -2   10    6    0   33   66   50   46   46   83   76   13\n2011 10 31 MON  11385   -3    3    7  -25  -13  -20  -45    0  -23 -175 -193 -260\n2013  3 18 MON  14502  -14  -22  -17   30   43   78   93   70   78   46   66   76\n2013 11 13 WED  16778   10   10    0   60   77   82  137  170  150  227  230  280\n2014 11 20 THR  19872   -2   -4    3   63  120  130  126  130  116  140  150  166\n2014 12  1 MON  20080   10   25    5  -60  -80  -70  -20  -12  -45  -50  -70  -50\n2015  7 22 WED  20768    2   -8   -6   62   54   27   17   24   47   34   44   92\n2016  3 15 TUE  19980   12    2    0  -12   10    8   10   55   40   85   80   95\n2016  4  1 FRI  20390  -15   -5   -2   15  152  145  145  198  220  255  265  275\n2016  4  5 TUE  20412    0   -4    8    0  -14   -2  -27   -2   36  -37  -22   58\n\nD HOUR     N   MAX   MIN    MU   MUD  PPOS  SDEV     T  TDRF  SER\n0  910    15    12   -15    -0    -0    40     9   -18    -3  -38\n0  920    15    25   -28     0     0    53    13     4     5  -38\n0  930    15    12   -17    -1    -1    40     8   -53   -53    3\n0 1000    15    63   -60    14    13    53    42   126   123  -36\n0 1100    15   152  -100    20    19    60    73   104   101   -3\n0 1200    15   145  -116    23    22    53    75   119   115   -3\n0 1300    15   145  -150    24    22    60    84   111   101   18\n0 1400    15   198  -136    36    33    53    88   158   147   18\n0 1500    15   220  -148    42    38    67    88   184   169    5\n0 1600    15   255  -175    42    38    67   118   137   124   -9\n0 1620    15   265  -193    44    39    67   125   137   122   -7\n-----------------------------------------------------------------\n1  100    15   280  -260    45    41    73   149   117   106    5\n1 1620    15   320  -417    75    63    80   185   156   131    4\n-----------------------------------------------------------------\n2  100    15   340  -387    76    65    67   176   166   142    7\n\n\n----------------------HI.LO THRU  0 1620--------------------\nSCENARIO:                         N     MU   PPOS  SDEV   T \n------------------------------------------------------------\nENTER    1 BELO OPEN TO CLOSE:    13    33    62   119   100\nENTER    5 BELO OPEN TO CLOSE:    12    27    67   118    80\nENTER   10 BELO OPEN TO CLOSE:    11    33    64   118    93\nENTER   20 BELO OPEN TO CLOSE:    10    14    60    97    44\nENTER   50 BELO OPEN TO CLOSE:     7     3    57    92     9\nENTER   75 BELO OPEN TO CLOSE:     4   -10    50   104   -19\nENTER  100 BELO OPEN TO CLOSE:     2   -82     0     7 -1674\nENTER   AT YEST  LOW TO CLOSE:     1    72   100     0     1\nENTER   AT INTRDY LO TO CLOSE:    12    36    67   122   101\n------------------------------------------------------------\nENTER   1 ABOVE OPEN TO CLOSE:    14    52    71   113   170\nENTER   5 ABOVE OPEN TO CLOSE:    14    48    71   113   160\nENTER  10 ABOVE OPEN TO CLOSE:    14    43    71   116   137\nENTER  20 ABOVE OPEN TO CLOSE:    13    46    77    90   183\nENTER  50 ABOVE OPEN TO CLOSE:    10    50    70    79   198\nENTER  75 ABOVE OPEN TO CLOSE:     7    59    71    73   215\nENTER 100 ABOVE OPEN TO CLOSE:     5    54    80    66   181\nENTER  AT  YEST CLOS TO CLOSE:     5    57    80    49   260\nENTER  AT  YEST HIGH TO CLOSE:     3    44   100    26   299\nENTER  AT  INTRDY HI TO CLOSE:     8    60   100    53   324",
        "ts": "1465563554.000005"
    },
    {
        "type": "message",
        "user": "U1FHF07QT",
        "text": "bought 98.75, #yolo",
        "ts": "1465563563.000006"
    },
    {
        "type": "message",
        "subtype": "file_share",
        "text": "<@U1FHF07QT|jkh> uploaded a file: <https:\/\/tradingfutures.slack.com\/files\/jkh\/F1FQQ46QN\/-.txt|Untitled> and commented: testing plain text snippet.",
        "file": {
            "id": "F1FQQ46QN",
            "created": 1465565225,
            "timestamp": 1465565225,
            "name": "-.txt",
            "title": "Untitled",
            "mimetype": "text\/plain",
            "filetype": "text",
            "pretty_type": "Plain Text",
            "user": "U1FHF07QT",
            "editable": true,
            "size": 1217,
            "mode": "snippet",
            "is_external": false,
            "external_type": "",
            "is_public": true,
            "public_url_shared": false,
            "display_as_bot": false,
            "username": "",
            "url_private": "https:\/\/files.slack.com\/files-pri\/T1FJKLSJ2-F1FQQ46QN\/-.txt?t=xoxe-49631706614-119786374643-119786374659-90264fc38b",
            "url_private_download": "https:\/\/files.slack.com\/files-pri\/T1FJKLSJ2-F1FQQ46QN\/download\/-.txt?t=xoxe-49631706614-119786374643-119786374659-90264fc38b",
            "permalink": "https:\/\/tradingfutures.slack.com\/files\/jkh\/F1FQQ46QN\/-.txt",
            "permalink_public": "https:\/\/slack-files.com\/T1FJKLSJ2-F1FQQ46QN-3dd4cbc298",
            "edit_link": "https:\/\/tradingfutures.slack.com\/files\/jkh\/F1FQQ46QN\/-.txt\/edit",
            "preview": "JKH::Fri 10 Jun 2016 08:54:49 AM EDT\r\nDEP VAR SP AT 900 : 01\/01\/2013 TO 01\/01\/2020  US\/Eastern\r\n\r\nINDEPENDNT LAG1  HOUR LAG2  HOUR    LO     HI          TZ\r\n       sp    1  1615    0   900  -100  -5000  US\/Eastern\r",
            "preview_highlight": "<div class=\"CodeMirror cm-s-default CodeMirrorServer\" oncopy=\"if(event.clipboardData){event.clipboardData.setData('text\/plain',window.getSelection().toString().replace(\/\\u200b\/g,''));event.preventDefault();event.stopPropagation();}\">\n<div class=\"CodeMirror-code\">\n<div><pre>JKH::Fri 10 Jun 2016 08:54:49 AM EDT<\/pre><\/div>\n<div><pre>DEP VAR SP AT 900 : 01\/01\/2013 TO 01\/01\/2020  US\/Eastern<\/pre><\/div>\n<div><pre><\/pre><\/div>\n<div><pre>INDEPENDNT LAG1  HOUR LAG2  HOUR    LO     HI          TZ<\/pre><\/div>\n<div><pre>       sp    1  1615    0   900  -100  -5000  US\/Eastern<\/pre><\/div>\n<div><pre><\/pre><\/div>\n<\/div>\n<\/div>\n",
            "lines": 28,
            "lines_more": 23,
            "preview_is_truncated": true,
            "channels": [
                "C1FK0RL2V"
            ],
            "groups": [],
            "ims": [],
            "comments_count": 1,
            "initial_comment": {
                "id": "Fc1FQXUK2B",
                "created": 1465565225,
                "timestamp": 1465565225,
                "user": "U1FHF07QT",
                "is_intro": true,
                "comment": "testing plain text snippet.",
                "channel": ""
            }
        },
        "user": "U1FHF07QT",
        "upload": true,
        "display_as_bot": false,
        "username": "<@U1FHF07QT|jkh>",
        "bot_id": null,
        "ts": "1465565226.000007"
    },
    {
        "type": "message",
        "user": "U1FKCRD8D",
        "text": "nice. im in too",
        "ts": "1465565496.000008",
        "reactions": [
            {
                "name": "metal",
                "users": [
                    "U1FHF07QT"
                ],
                "count": 1
            }
        ]
    },
    {
        "type": "message",
        "user": "U1FKCRD8D",
        "text": "HERNANAVELLA-WS::Fri Jun 10 08:36:40 2016\nDEP VAR SP AT 930 ALL DAYS: 1\/1\/2013 to 6\/3\/2016\nINDEPENDNT   LAG1 HOUR   LAG2 HOUR       LO       HI     (TRADING DAYS)\n     TBOND     1  1700     0   930      100     5000\n        SP     2  1620     1  1620    -5000       -1\n\n   Y  M  D  DW  PLAST  940  950 1000 1100 1200 1300 1400 1500 1600 1620  930 1000\n---------------------------------------------------------------------------------\n2015  9 24 THR  18972   -5  -85  -68 -123  -58  -70  -25  135   95   65  265  255\n2016  1  4 MON  19912  -22  -70  -27 -128 -110  -77  -50  -97   35   95   90   47\n2016  1 20 WED  18352  -28   30  -82 -255 -255 -250  -75  -28   85  105  130   58\n2016  2 11 THR  18087   20   40  145  -10  -15   -5  -45  135   55   70  265  197\n2016  4  5 TUE  20420    5  -40  -25  -25  -10  -40    0   30  -50  -30  -40  -35\n\nD HOUR     N   MAX   MIN    MU   MUD  PPOS  SDEV     T  TDRF  SER\n0  940    19   130  -180     0    -1    58    65     2    -7   -8\n0  950    19    95  -135    10    11    63    67    68    70   -6\n0 1000    19   190  -160    18    17    58    86    90    86   -9\n0 1100    19   400  -255    32    31    53   152    92    89    8\n0 1200    19   620  -255    64    62    63   185   151   147    8\n0 1300    19   635  -250    66    64    58   181   159   154    7\n0 1400    19   395   -75    56    53    53   129   188   179    5\n0 1500    19   310   -97    69    65    84    93   323   302**  6\n0 1600    19   295   -70    72    68    79    89   353   333**-30\n0 1620    19   257   -80    69    65    79    84   361   337**-27",
        "ts": "1465565851.000009"
    },
    {
        "type": "message",
        "user": "U1FHF07QT",
        "text": "<@U1FKCRD8D>:  click the  \"+\" button on the left side of the message bar and paste the pattern into a \"snippet\"",
        "ts": "1465566029.000010"
    },
    {
        "type": "message",
        "subtype": "file_share",
        "text": "<@U1FHF07QT|jkh> uploaded a file: <https:\/\/tradingfutures.slack.com\/files\/jkh\/F1FQYJMKJ\/-.txt|Untitled>",
        "file": {
            "id": "F1FQYJMKJ",
            "created": 1465566043,
            "timestamp": 1465566043,
            "name": "-.txt",
            "title": "Untitled",
            "mimetype": "text\/plain",
            "filetype": "text",
            "pretty_type": "Plain Text",
            "user": "U1FHF07QT",
            "editable": true,
            "size": 1591,
            "mode": "snippet",
            "is_external": false,
            "external_type": "",
            "is_public": true,
            "public_url_shared": false,
            "display_as_bot": false,
            "username": "",
            "url_private": "https:\/\/files.slack.com\/files-pri\/T1FJKLSJ2-F1FQYJMKJ\/-.txt?t=xoxe-49631706614-119786374643-119786374659-90264fc38b",
            "url_private_download": "https:\/\/files.slack.com\/files-pri\/T1FJKLSJ2-F1FQYJMKJ\/download\/-.txt?t=xoxe-49631706614-119786374643-119786374659-90264fc38b",
            "permalink": "https:\/\/tradingfutures.slack.com\/files\/jkh\/F1FQYJMKJ\/-.txt",
            "permalink_public": "https:\/\/slack-files.com\/T1FJKLSJ2-F1FQYJMKJ-771cd09410",
            "edit_link": "https:\/\/tradingfutures.slack.com\/files\/jkh\/F1FQYJMKJ\/-.txt\/edit",
            "preview": "HERNANAVELLA-WS::Fri Jun 10 08:36:40 2016\r\nDEP VAR SP AT 930 ALL DAYS: 1\/1\/2013 to 6\/3\/2016\r\nINDEPENDNT   LAG1 HOUR   LAG2 HOUR       LO       HI     (TRADING DAYS)\r\n    TBOND     1  1700     0   930      100     5000\r\n       SP     2  1620     1  1620    -5000       -1\r",
            "preview_highlight": "<div class=\"CodeMirror cm-s-default CodeMirrorServer\" oncopy=\"if(event.clipboardData){event.clipboardData.setData('text\/plain',window.getSelection().toString().replace(\/\\u200b\/g,''));event.preventDefault();event.stopPropagation();}\">\n<div class=\"CodeMirror-code\">\n<div><pre>HERNANAVELLA-WS::Fri Jun 10 08:36:40 2016<\/pre><\/div>\n<div><pre>DEP VAR SP AT 930 ALL DAYS: 1\/1\/2013 to 6\/3\/2016<\/pre><\/div>\n<div><pre>INDEPENDNT   LAG1 HOUR   LAG2 HOUR       LO       HI     (TRADING DAYS)<\/pre><\/div>\n<div><pre>    TBOND     1  1700     0   930      100     5000<\/pre><\/div>\n<div><pre>       SP     2  1620     1  1620    -5000       -1<\/pre><\/div>\n<div><pre><\/pre><\/div>\n<\/div>\n<\/div>\n",
            "lines": 25,
            "lines_more": 20,
            "preview_is_truncated": true,
            "channels": [
                "C1FK0RL2V"
            ],
            "groups": [],
            "ims": [],
            "comments_count": 1
        },
        "user": "U1FHF07QT",
        "upload": true,
        "display_as_bot": false,
        "username": "<@U1FHF07QT|jkh>",
        "bot_id": null,
        "ts": "1465566043.000011"
    },
    {
        "type": "message",
        "subtype": "file_comment",
        "text": "<@U1FHF07QT|jkh> commented on <@U1FHF07QT|jkh>'s file <https:\/\/tradingfutures.slack.com\/files\/jkh\/F1FQYJMKJ\/-.txt|Untitled>: <@U1FKCRD8D>:  see how much more readable?",
        "file": {
            "id": "F1FQYJMKJ",
            "created": 1465566043,
            "timestamp": 1465566043,
            "name": "-.txt",
            "title": "Untitled",
            "mimetype": "text\/plain",
            "filetype": "text",
            "pretty_type": "Plain Text",
            "user": "U1FHF07QT",
            "editable": true,
            "size": 1591,
            "mode": "snippet",
            "is_external": false,
            "external_type": "",
            "is_public": true,
            "public_url_shared": false,
            "display_as_bot": false,
            "username": "",
            "url_private": "https:\/\/files.slack.com\/files-pri\/T1FJKLSJ2-F1FQYJMKJ\/-.txt?t=xoxe-49631706614-119786374643-119786374659-90264fc38b",
            "url_private_download": "https:\/\/files.slack.com\/files-pri\/T1FJKLSJ2-F1FQYJMKJ\/download\/-.txt?t=xoxe-49631706614-119786374643-119786374659-90264fc38b",
            "permalink": "https:\/\/tradingfutures.slack.com\/files\/jkh\/F1FQYJMKJ\/-.txt",
            "permalink_public": "https:\/\/slack-files.com\/T1FJKLSJ2-F1FQYJMKJ-771cd09410",
            "edit_link": "https:\/\/tradingfutures.slack.com\/files\/jkh\/F1FQYJMKJ\/-.txt\/edit",
            "preview": "HERNANAVELLA-WS::Fri Jun 10 08:36:40 2016\r\nDEP VAR SP AT 930 ALL DAYS: 1\/1\/2013 to 6\/3\/2016\r\nINDEPENDNT   LAG1 HOUR   LAG2 HOUR       LO       HI     (TRADING DAYS)\r\n    TBOND     1  1700     0   930      100     5000\r\n       SP     2  1620     1  1620    -5000       -1\r",
            "preview_highlight": "<div class=\"CodeMirror cm-s-default CodeMirrorServer\" oncopy=\"if(event.clipboardData){event.clipboardData.setData('text\/plain',window.getSelection().toString().replace(\/\\u200b\/g,''));event.preventDefault();event.stopPropagation();}\">\n<div class=\"CodeMirror-code\">\n<div><pre>HERNANAVELLA-WS::Fri Jun 10 08:36:40 2016<\/pre><\/div>\n<div><pre>DEP VAR SP AT 930 ALL DAYS: 1\/1\/2013 to 6\/3\/2016<\/pre><\/div>\n<div><pre>INDEPENDNT   LAG1 HOUR   LAG2 HOUR       LO       HI     (TRADING DAYS)<\/pre><\/div>\n<div><pre>    TBOND     1  1700     0   930      100     5000<\/pre><\/div>\n<div><pre>       SP     2  1620     1  1620    -5000       -1<\/pre><\/div>\n<div><pre><\/pre><\/div>\n<\/div>\n<\/div>\n",
            "lines": 25,
            "lines_more": 20,
            "preview_is_truncated": true,
            "channels": [
                "C1FK0RL2V"
            ],
            "groups": [],
            "ims": [],
            "comments_count": 1
        },
        "comment": {
            "id": "Fc1FR2N9KP",
            "created": 1465566069,
            "timestamp": 1465566069,
            "user": "U1FHF07QT",
            "is_intro": false,
            "comment": "<@U1FKCRD8D>:  see how much more readable?",
            "channel": ""
        },
        "is_intro": false,
        "ts": "1465566069.000012"
    },
    {
        "type": "message",
        "user": "U1FKCRD8D",
        "text": "y",
        "ts": "1465566097.000013"
    },
    {
        "type": "message",
        "subtype": "file_share",
        "text": "<@U1FHF07QT|jkh> uploaded a file: <https:\/\/tradingfutures.slack.com\/files\/jkh\/F1FSJGYGJ\/don_t_see_much_after_german_close.txt|Don't see much after german close>",
        "file": {
            "id": "F1FSJGYGJ",
            "created": 1465572326,
            "timestamp": 1465572326,
            "name": "Don_t_see_much_after_german_close.txt",
            "title": "Don't see much after german close",
            "mimetype": "text\/plain",
            "filetype": "text",
            "pretty_type": "Plain Text",
            "user": "U1FHF07QT",
            "editable": true,
            "size": 1022,
            "mode": "snippet",
            "is_external": false,
            "external_type": "",
            "is_public": true,
            "public_url_shared": false,
            "display_as_bot": false,
            "username": "",
            "url_private": "https:\/\/files.slack.com\/files-pri\/T1FJKLSJ2-F1FSJGYGJ\/don_t_see_much_after_german_close.txt?t=xoxe-49631706614-119786374643-119786374659-90264fc38b",
            "url_private_download": "https:\/\/files.slack.com\/files-pri\/T1FJKLSJ2-F1FSJGYGJ\/download\/don_t_see_much_after_german_close.txt?t=xoxe-49631706614-119786374643-119786374659-90264fc38b",
            "permalink": "https:\/\/tradingfutures.slack.com\/files\/jkh\/F1FSJGYGJ\/don_t_see_much_after_german_close.txt",
            "permalink_public": "https:\/\/slack-files.com\/T1FJKLSJ2-F1FSJGYGJ-5c52d2b6ba",
            "edit_link": "https:\/\/tradingfutures.slack.com\/files\/jkh\/F1FSJGYGJ\/don_t_see_much_after_german_close.txt\/edit",
            "preview": "JKH::Fri 10 Jun 2016 11:23:42 AM EDT\r\nDEP VAR SP AT 1130 : 01\/01\/2013 TO 01\/01\/2020  US\/Eastern\r\n\r\nINDEPENDNT LAG1  HOUR LAG2  HOUR    LO     HI          TZ\r\n       sp    1  1615    0   930  -100  -5000  US\/Eastern\r",
            "preview_highlight": "<div class=\"CodeMirror cm-s-default CodeMirrorServer\" oncopy=\"if(event.clipboardData){event.clipboardData.setData('text\/plain',window.getSelection().toString().replace(\/\\u200b\/g,''));event.preventDefault();event.stopPropagation();}\">\n<div class=\"CodeMirror-code\">\n<div><pre>JKH::Fri 10 Jun 2016 11:23:42 AM EDT<\/pre><\/div>\n<div><pre>DEP VAR SP AT 1130 : 01\/01\/2013 TO 01\/01\/2020  US\/Eastern<\/pre><\/div>\n<div><pre><\/pre><\/div>\n<div><pre>INDEPENDNT LAG1  HOUR LAG2  HOUR    LO     HI          TZ<\/pre><\/div>\n<div><pre>       sp    1  1615    0   930  -100  -5000  US\/Eastern<\/pre><\/div>\n<div><pre><\/pre><\/div>\n<\/div>\n<\/div>\n",
            "lines": 24,
            "lines_more": 19,
            "preview_is_truncated": false,
            "channels": [
                "C1FK0RL2V"
            ],
            "groups": [],
            "ims": [],
            "comments_count": 0
        },
        "user": "U1FHF07QT",
        "upload": true,
        "display_as_bot": false,
        "username": "<@U1FHF07QT|jkh>",
        "bot_id": null,
        "ts": "1465572327.000014"
    },
    {
        "type": "message",
        "subtype": "file_share",
        "text": "<@U1FJYUKQ9|mkchuprin> uploaded a file: <https:\/\/tradingfutures.slack.com\/files\/mkchuprin\/F1FSK201Y\/pasted_image_at_2016_06_10_11_26_am.png|sp bullish>",
        "file": {
            "id": "F1FSK201Y",
            "created": 1465572395,
            "timestamp": 1465572395,
            "name": "Pasted image at 2016_06_10 11_26 AM.png",
            "title": "sp bullish",
            "mimetype": "image\/png",
            "filetype": "png",
            "pretty_type": "PNG",
            "user": "U1FJYUKQ9",
            "editable": false,
            "size": 197152,
            "mode": "hosted",
            "is_external": false,
            "external_type": "",
            "is_public": true,
            "public_url_shared": false,
            "display_as_bot": false,
            "username": "",
            "url_private": "https:\/\/files.slack.com\/files-pri\/T1FJKLSJ2-F1FSK201Y\/pasted_image_at_2016_06_10_11_26_am.png?t=xoxe-49631706614-119786374643-119786374659-90264fc38b",
            "url_private_download": "https:\/\/files.slack.com\/files-pri\/T1FJKLSJ2-F1FSK201Y\/download\/pasted_image_at_2016_06_10_11_26_am.png?t=xoxe-49631706614-119786374643-119786374659-90264fc38b",
            "thumb_64": "https:\/\/files.slack.com\/files-tmb\/T1FJKLSJ2-F1FSK201Y-73e5aa9918\/pasted_image_at_2016_06_10_11_26_am_64.png?t=xoxe-49631706614-119786374643-119786374659-90264fc38b",
            "thumb_80": "https:\/\/files.slack.com\/files-tmb\/T1FJKLSJ2-F1FSK201Y-73e5aa9918\/pasted_image_at_2016_06_10_11_26_am_80.png?t=xoxe-49631706614-119786374643-119786374659-90264fc38b",
            "thumb_360": "https:\/\/files.slack.com\/files-tmb\/T1FJKLSJ2-F1FSK201Y-73e5aa9918\/pasted_image_at_2016_06_10_11_26_am_360.png?t=xoxe-49631706614-119786374643-119786374659-90264fc38b",
            "thumb_360_w": 360,
            "thumb_360_h": 233,
            "thumb_480": "https:\/\/files.slack.com\/files-tmb\/T1FJKLSJ2-F1FSK201Y-73e5aa9918\/pasted_image_at_2016_06_10_11_26_am_480.png?t=xoxe-49631706614-119786374643-119786374659-90264fc38b",
            "thumb_480_w": 480,
            "thumb_480_h": 311,
            "thumb_160": "https:\/\/files.slack.com\/files-tmb\/T1FJKLSJ2-F1FSK201Y-73e5aa9918\/pasted_image_at_2016_06_10_11_26_am_160.png?t=xoxe-49631706614-119786374643-119786374659-90264fc38b",
            "thumb_720": "https:\/\/files.slack.com\/files-tmb\/T1FJKLSJ2-F1FSK201Y-73e5aa9918\/pasted_image_at_2016_06_10_11_26_am_720.png?t=xoxe-49631706614-119786374643-119786374659-90264fc38b",
            "thumb_720_w": 720,
            "thumb_720_h": 467,
            "thumb_960": "https:\/\/files.slack.com\/files-tmb\/T1FJKLSJ2-F1FSK201Y-73e5aa9918\/pasted_image_at_2016_06_10_11_26_am_960.png?t=xoxe-49631706614-119786374643-119786374659-90264fc38b",
            "thumb_960_w": 960,
            "thumb_960_h": 622,
            "thumb_1024": "https:\/\/files.slack.com\/files-tmb\/T1FJKLSJ2-F1FSK201Y-73e5aa9918\/pasted_image_at_2016_06_10_11_26_am_1024.png?t=xoxe-49631706614-119786374643-119786374659-90264fc38b",
            "thumb_1024_w": 1024,
            "thumb_1024_h": 664,
            "image_exif_rotation": 1,
            "original_w": 1353,
            "original_h": 877,
            "permalink": "https:\/\/tradingfutures.slack.com\/files\/mkchuprin\/F1FSK201Y\/pasted_image_at_2016_06_10_11_26_am.png",
            "permalink_public": "https:\/\/slack-files.com\/T1FJKLSJ2-F1FSK201Y-72705a0e07",
            "channels": [
                "C1FK0RL2V"
            ],
            "groups": [],
            "ims": [],
            "comments_count": 0
        },
        "user": "U1FJYUKQ9",
        "upload": true,
        "display_as_bot": false,
        "username": "<@U1FJYUKQ9|mkchuprin>",
        "bot_id": null,
        "ts": "1465572398.000015"
    },
    {
        "type": "message",
        "user": "U1FJYUKQ9",
        "text": "i ran it on a fri",
        "ts": "1465572399.000016"
    },
    {
        "type": "message",
        "subtype": "file_share",
        "text": "<@U1FJWQN1Z|bet4value> uploaded a file: <https:\/\/tradingfutures.slack.com\/files\/bet4value\/F1FSSGXTL\/-.txt|Untitled>",
        "file": {
            "id": "F1FSSGXTL",
            "created": 1465573558,
            "timestamp": 1465573558,
            "name": "-.txt",
            "title": "Untitled",
            "mimetype": "text\/plain",
            "filetype": "text",
            "pretty_type": "Plain Text",
            "user": "U1FJWQN1Z",
            "editable": true,
            "size": 3529,
            "mode": "snippet",
            "is_external": false,
            "external_type": "",
            "is_public": true,
            "public_url_shared": false,
            "display_as_bot": false,
            "username": "",
            "url_private": "https:\/\/files.slack.com\/files-pri\/T1FJKLSJ2-F1FSSGXTL\/-.txt?t=xoxe-49631706614-119786374643-119786374659-90264fc38b",
            "url_private_download": "https:\/\/files.slack.com\/files-pri\/T1FJKLSJ2-F1FSSGXTL\/download\/-.txt?t=xoxe-49631706614-119786374643-119786374659-90264fc38b",
            "permalink": "https:\/\/tradingfutures.slack.com\/files\/bet4value\/F1FSSGXTL\/-.txt",
            "permalink_public": "https:\/\/slack-files.com\/T1FJKLSJ2-F1FSSGXTL-426dffdad2",
            "edit_link": "https:\/\/tradingfutures.slack.com\/files\/bet4value\/F1FSSGXTL\/-.txt\/edit",
            "preview": "PCMAC::Fri Jun 10 11:45:25 2016\r\nDEP VAR NITE.SP AT 1230 ALL DAYS: 1\/1\/2009 to 6\/3\/2016\r\nAS OF 2 1620, NITE.SP AT 20 COMPARISON DAY HIGH \r\nINDEPENDNT   LAG1 HOUR   LAG2 HOUR       LO       HI     (TRADING DAYS)\r\n   NITE.SP     2  1620     1  1620      -99       -1\r",
            "preview_highlight": "<div class=\"CodeMirror cm-s-default CodeMirrorServer\" oncopy=\"if(event.clipboardData){event.clipboardData.setData('text\/plain',window.getSelection().toString().replace(\/\\u200b\/g,''));event.preventDefault();event.stopPropagation();}\">\n<div class=\"CodeMirror-code\">\n<div><pre>PCMAC::Fri Jun 10 11:45:25 2016<\/pre><\/div>\n<div><pre>DEP VAR NITE.SP AT 1230 ALL DAYS: 1\/1\/2009 to 6\/3\/2016<\/pre><\/div>\n<div><pre>AS OF 2 1620, NITE.SP AT 20 COMPARISON DAY HIGH <\/pre><\/div>\n<div><pre>INDEPENDNT   LAG1 HOUR   LAG2 HOUR       LO       HI     (TRADING DAYS)<\/pre><\/div>\n<div><pre>   NITE.SP     2  1620     1  1620      -99       -1<\/pre><\/div>\n<div><pre><\/pre><\/div>\n<\/div>\n<\/div>\n",
            "lines": 58,
            "lines_more": 53,
            "preview_is_truncated": true,
            "channels": [
                "C1FK0RL2V"
            ],
            "groups": [],
            "ims": [],
            "comments_count": 0
        },
        "user": "U1FJWQN1Z",
        "upload": true,
        "display_as_bot": false,
        "username": "<@U1FJWQN1Z|bet4value>",
        "bot_id": null,
        "ts": "1465573559.000017"
    },
    {
        "type": "message",
        "subtype": "file_share",
        "text": "<@U1FKCRD8D|hernanavella> uploaded a file: <https:\/\/tradingfutures.slack.com\/files\/hernanavella\/F1FSXTK6K\/10d_min_after_20dmax_2_days_ago_.txt|10d Min after 20dMax 2 days ago.> and commented: Perhaps at the close.",
        "file": {
            "id": "F1FSXTK6K",
            "created": 1465576127,
            "timestamp": 1465576127,
            "name": "10d_Min_after_20dMax_2_days_ago_.txt",
            "title": "10d Min after 20dMax 2 days ago.",
            "mimetype": "text\/plain",
            "filetype": "text",
            "pretty_type": "Plain Text",
            "user": "U1FKCRD8D",
            "editable": true,
            "size": 4163,
            "mode": "snippet",
            "is_external": false,
            "external_type": "",
            "is_public": true,
            "public_url_shared": false,
            "display_as_bot": false,
            "username": "",
            "url_private": "https:\/\/files.slack.com\/files-pri\/T1FJKLSJ2-F1FSXTK6K\/10d_min_after_20dmax_2_days_ago_.txt?t=xoxe-49631706614-119786374643-119786374659-90264fc38b",
            "url_private_download": "https:\/\/files.slack.com\/files-pri\/T1FJKLSJ2-F1FSXTK6K\/download\/10d_min_after_20dmax_2_days_ago_.txt?t=xoxe-49631706614-119786374643-119786374659-90264fc38b",
            "permalink": "https:\/\/tradingfutures.slack.com\/files\/hernanavella\/F1FSXTK6K\/10d_min_after_20dmax_2_days_ago_.txt",
            "permalink_public": "https:\/\/slack-files.com\/T1FJKLSJ2-F1FSXTK6K-256be28f9d",
            "edit_link": "https:\/\/tradingfutures.slack.com\/files\/hernanavella\/F1FSXTK6K\/10d_min_after_20dmax_2_days_ago_.txt\/edit",
            "preview": "HERNANAVELLA-WS::Fri Jun 10 11:27:01 2016\r\nDEP VAR NITE.SP AT 1620 ALL DAYS: 1\/1\/2010 to 6\/3\/2016\r\nAS OF 0 1620, NITE.SP AT 10 COMPARISON DAY LOW \r\nAS OF 2 1620, NITE.SP AT 20 COMPARISON DAY HIGH \r\n\r",
            "preview_highlight": "<div class=\"CodeMirror cm-s-default CodeMirrorServer\" oncopy=\"if(event.clipboardData){event.clipboardData.setData('text\/plain',window.getSelection().toString().replace(\/\\u200b\/g,''));event.preventDefault();event.stopPropagation();}\">\n<div class=\"CodeMirror-code\">\n<div><pre>HERNANAVELLA-WS::Fri Jun 10 11:27:01 2016<\/pre><\/div>\n<div><pre>DEP VAR NITE.SP AT 1620 ALL DAYS: 1\/1\/2010 to 6\/3\/2016<\/pre><\/div>\n<div><pre>AS OF 0 1620, NITE.SP AT 10 COMPARISON DAY LOW <\/pre><\/div>\n<div><pre>AS OF 2 1620, NITE.SP AT 20 COMPARISON DAY HIGH <\/pre><\/div>\n<div><pre><\/pre><\/div>\n<div><pre><\/pre><\/div>\n<\/div>\n<\/div>\n",
            "lines": 67,
            "lines_more": 62,
            "preview_is_truncated": true,
            "channels": [
                "C1FK0RL2V"
            ],
            "groups": [],
            "ims": [],
            "comments_count": 2,
            "initial_comment": {
                "id": "Fc1FRHMH0T",
                "created": 1465576127,
                "timestamp": 1465576127,
                "user": "U1FKCRD8D",
                "is_intro": true,
                "comment": "Perhaps at the close.",
                "channel": ""
            }
        },
        "user": "U1FKCRD8D",
        "upload": true,
        "display_as_bot": false,
        "username": "<@U1FKCRD8D|hernanavella>",
        "bot_id": null,
        "ts": "1465576127.000018"
    },
    {
        "type": "message",
        "subtype": "file_comment",
        "text": "<@U1FHF07QT|jkh> commented on <@U1FKCRD8D|hernanavella>'s file <https:\/\/tradingfutures.slack.com\/files\/hernanavella\/F1FSXTK6K\/10d_min_after_20dmax_2_days_ago_.txt|10d Min after 20dMax 2 days ago.>: Nice, you can get the hi\/lo till 400 if you set plot box to 400 instead of 1620",
        "file": {
            "id": "F1FSXTK6K",
            "created": 1465576127,
            "timestamp": 1465576127,
            "name": "10d_Min_after_20dMax_2_days_ago_.txt",
            "title": "10d Min after 20dMax 2 days ago.",
            "mimetype": "text\/plain",
            "filetype": "text",
            "pretty_type": "Plain Text",
            "user": "U1FKCRD8D",
            "editable": true,
            "size": 4163,
            "mode": "snippet",
            "is_external": false,
            "external_type": "",
            "is_public": true,
            "public_url_shared": false,
            "display_as_bot": false,
            "username": "",
            "url_private": "https:\/\/files.slack.com\/files-pri\/T1FJKLSJ2-F1FSXTK6K\/10d_min_after_20dmax_2_days_ago_.txt?t=xoxe-49631706614-119786374643-119786374659-90264fc38b",
            "url_private_download": "https:\/\/files.slack.com\/files-pri\/T1FJKLSJ2-F1FSXTK6K\/download\/10d_min_after_20dmax_2_days_ago_.txt?t=xoxe-49631706614-119786374643-119786374659-90264fc38b",
            "permalink": "https:\/\/tradingfutures.slack.com\/files\/hernanavella\/F1FSXTK6K\/10d_min_after_20dmax_2_days_ago_.txt",
            "permalink_public": "https:\/\/slack-files.com\/T1FJKLSJ2-F1FSXTK6K-256be28f9d",
            "edit_link": "https:\/\/tradingfutures.slack.com\/files\/hernanavella\/F1FSXTK6K\/10d_min_after_20dmax_2_days_ago_.txt\/edit",
            "preview": "HERNANAVELLA-WS::Fri Jun 10 11:27:01 2016\r\nDEP VAR NITE.SP AT 1620 ALL DAYS: 1\/1\/2010 to 6\/3\/2016\r\nAS OF 0 1620, NITE.SP AT 10 COMPARISON DAY LOW \r\nAS OF 2 1620, NITE.SP AT 20 COMPARISON DAY HIGH \r\n\r",
            "preview_highlight": "<div class=\"CodeMirror cm-s-default CodeMirrorServer\" oncopy=\"if(event.clipboardData){event.clipboardData.setData('text\/plain',window.getSelection().toString().replace(\/\\u200b\/g,''));event.preventDefault();event.stopPropagation();}\">\n<div class=\"CodeMirror-code\">\n<div><pre>HERNANAVELLA-WS::Fri Jun 10 11:27:01 2016<\/pre><\/div>\n<div><pre>DEP VAR NITE.SP AT 1620 ALL DAYS: 1\/1\/2010 to 6\/3\/2016<\/pre><\/div>\n<div><pre>AS OF 0 1620, NITE.SP AT 10 COMPARISON DAY LOW <\/pre><\/div>\n<div><pre>AS OF 2 1620, NITE.SP AT 20 COMPARISON DAY HIGH <\/pre><\/div>\n<div><pre><\/pre><\/div>\n<div><pre><\/pre><\/div>\n<\/div>\n<\/div>\n",
            "lines": 67,
            "lines_more": 62,
            "preview_is_truncated": true,
            "channels": [
                "C1FK0RL2V"
            ],
            "groups": [],
            "ims": [],
            "comments_count": 2,
            "initial_comment": {
                "id": "Fc1FRHMH0T",
                "created": 1465576127,
                "timestamp": 1465576127,
                "user": "U1FKCRD8D",
                "is_intro": true,
                "comment": "Perhaps at the close.",
                "channel": ""
            }
        },
        "comment": {
            "id": "Fc1FSYT6N9",
            "created": 1465576265,
            "timestamp": 1465576265,
            "user": "U1FHF07QT",
            "is_intro": false,
            "comment": "Nice, you can get the hi\/lo till 400 if you set plot box to 400 instead of 1620",
            "channel": ""
        },
        "is_intro": false,
        "ts": "1465576265.000019"
    },
    {
        "type": "message",
        "subtype": "file_share",
        "text": "<@U1FKCRD8D|hernanavella> uploaded a file: <https:\/\/tradingfutures.slack.com\/files\/hernanavella\/F1FSP6JTE\/hi_lo_thru__1__400.txt|HI.LO THRU  1  400>",
        "file": {
            "id": "F1FSP6JTE",
            "created": 1465576363,
            "timestamp": 1465576363,
            "name": "HI_LO_THRU__1__400.txt",
            "title": "HI.LO THRU  1  400",
            "mimetype": "text\/plain",
            "filetype": "text",
            "pretty_type": "Plain Text",
            "user": "U1FKCRD8D",
            "editable": true,
            "size": 990,
            "mode": "snippet",
            "is_external": false,
            "external_type": "",
            "is_public": true,
            "public_url_shared": false,
            "display_as_bot": false,
            "username": "",
            "url_private": "https:\/\/files.slack.com\/files-pri\/T1FJKLSJ2-F1FSP6JTE\/hi_lo_thru__1__400.txt?t=xoxe-49631706614-119786374643-119786374659-90264fc38b",
            "url_private_download": "https:\/\/files.slack.com\/files-pri\/T1FJKLSJ2-F1FSP6JTE\/download\/hi_lo_thru__1__400.txt?t=xoxe-49631706614-119786374643-119786374659-90264fc38b",
            "permalink": "https:\/\/tradingfutures.slack.com\/files\/hernanavella\/F1FSP6JTE\/hi_lo_thru__1__400.txt",
            "permalink_public": "https:\/\/slack-files.com\/T1FJKLSJ2-F1FSP6JTE-3985eee0b2",
            "edit_link": "https:\/\/tradingfutures.slack.com\/files\/hernanavella\/F1FSP6JTE\/hi_lo_thru__1__400.txt\/edit",
            "preview": "----------------------HI.LO THRU  1  400--------------------\r\nSCENARIO:                         N     MU   PPOS  SDEV   T \r\n------------------------------------------------------------\r\nENTER    1 BELO OPEN TO CLOSE:     3    32    67    25   225\r\nENTER    5 BELO OPEN TO CLOSE:     3    32    67    25   225\r",
            "preview_highlight": "<div class=\"CodeMirror cm-s-default CodeMirrorServer\" oncopy=\"if(event.clipboardData){event.clipboardData.setData('text\/plain',window.getSelection().toString().replace(\/\\u200b\/g,''));event.preventDefault();event.stopPropagation();}\">\n<div class=\"CodeMirror-code\">\n<div><pre>----------------------HI.LO THRU  1  400--------------------<\/pre><\/div>\n<div><pre>SCENARIO:                         N     MU   PPOS  SDEV   T <\/pre><\/div>\n<div><pre>------------------------------------------------------------<\/pre><\/div>\n<div><pre>ENTER    1 BELO OPEN TO CLOSE:     3    32    67    25   225<\/pre><\/div>\n<div><pre>ENTER    5 BELO OPEN TO CLOSE:     3    32    67    25   225<\/pre><\/div>\n<div><pre><\/pre><\/div>\n<\/div>\n<\/div>\n",
            "lines": 16,
            "lines_more": 11,
            "preview_is_truncated": false,
            "channels": [
                "C1FK0RL2V"
            ],
            "groups": [],
            "ims": [],
            "comments_count": 0,
            "reactions": [
                {
                    "name": "money_mouth_face",
                    "users": [
                        "U1FHF07QT"
                    ],
                    "count": 1
                }
            ]
        },
        "user": "U1FKCRD8D",
        "upload": true,
        "display_as_bot": false,
        "username": "<@U1FKCRD8D|hernanavella>",
        "bot_id": null,
        "ts": "1465576363.000020"
    },
    {
        "type": "message",
        "subtype": "file_share",
        "text": "<@U1FJYUKQ9|mkchuprin> uploaded a file: <https:\/\/tradingfutures.slack.com\/files\/mkchuprin\/F1FUQEK3P\/pasted_image_at_2016_06_10_03_40_pm.png|oh shit>",
        "file": {
            "id": "F1FUQEK3P",
            "created": 1465587621,
            "timestamp": 1465587621,
            "name": "Pasted image at 2016_06_10 03_40 PM.png",
            "title": "oh shit",
            "mimetype": "image\/png",
            "filetype": "png",
            "pretty_type": "PNG",
            "user": "U1FJYUKQ9",
            "editable": false,
            "size": 199890,
            "mode": "hosted",
            "is_external": false,
            "external_type": "",
            "is_public": true,
            "public_url_shared": false,
            "display_as_bot": false,
            "username": "",
            "url_private": "https:\/\/files.slack.com\/files-pri\/T1FJKLSJ2-F1FUQEK3P\/pasted_image_at_2016_06_10_03_40_pm.png?t=xoxe-49631706614-119786374643-119786374659-90264fc38b",
            "url_private_download": "https:\/\/files.slack.com\/files-pri\/T1FJKLSJ2-F1FUQEK3P\/download\/pasted_image_at_2016_06_10_03_40_pm.png?t=xoxe-49631706614-119786374643-119786374659-90264fc38b",
            "thumb_64": "https:\/\/files.slack.com\/files-tmb\/T1FJKLSJ2-F1FUQEK3P-c4bf9f75fa\/pasted_image_at_2016_06_10_03_40_pm_64.png?t=xoxe-49631706614-119786374643-119786374659-90264fc38b",
            "thumb_80": "https:\/\/files.slack.com\/files-tmb\/T1FJKLSJ2-F1FUQEK3P-c4bf9f75fa\/pasted_image_at_2016_06_10_03_40_pm_80.png?t=xoxe-49631706614-119786374643-119786374659-90264fc38b",
            "thumb_360": "https:\/\/files.slack.com\/files-tmb\/T1FJKLSJ2-F1FUQEK3P-c4bf9f75fa\/pasted_image_at_2016_06_10_03_40_pm_360.png?t=xoxe-49631706614-119786374643-119786374659-90264fc38b",
            "thumb_360_w": 360,
            "thumb_360_h": 233,
            "thumb_480": "https:\/\/files.slack.com\/files-tmb\/T1FJKLSJ2-F1FUQEK3P-c4bf9f75fa\/pasted_image_at_2016_06_10_03_40_pm_480.png?t=xoxe-49631706614-119786374643-119786374659-90264fc38b",
            "thumb_480_w": 480,
            "thumb_480_h": 311,
            "thumb_160": "https:\/\/files.slack.com\/files-tmb\/T1FJKLSJ2-F1FUQEK3P-c4bf9f75fa\/pasted_image_at_2016_06_10_03_40_pm_160.png?t=xoxe-49631706614-119786374643-119786374659-90264fc38b",
            "thumb_720": "https:\/\/files.slack.com\/files-tmb\/T1FJKLSJ2-F1FUQEK3P-c4bf9f75fa\/pasted_image_at_2016_06_10_03_40_pm_720.png?t=xoxe-49631706614-119786374643-119786374659-90264fc38b",
            "thumb_720_w": 720,
            "thumb_720_h": 467,
            "thumb_960": "https:\/\/files.slack.com\/files-tmb\/T1FJKLSJ2-F1FUQEK3P-c4bf9f75fa\/pasted_image_at_2016_06_10_03_40_pm_960.png?t=xoxe-49631706614-119786374643-119786374659-90264fc38b",
            "thumb_960_w": 960,
            "thumb_960_h": 622,
            "thumb_1024": "https:\/\/files.slack.com\/files-tmb\/T1FJKLSJ2-F1FUQEK3P-c4bf9f75fa\/pasted_image_at_2016_06_10_03_40_pm_1024.png?t=xoxe-49631706614-119786374643-119786374659-90264fc38b",
            "thumb_1024_w": 1024,
            "thumb_1024_h": 664,
            "image_exif_rotation": 1,
            "original_w": 1353,
            "original_h": 877,
            "permalink": "https:\/\/tradingfutures.slack.com\/files\/mkchuprin\/F1FUQEK3P\/pasted_image_at_2016_06_10_03_40_pm.png",
            "permalink_public": "https:\/\/slack-files.com\/T1FJKLSJ2-F1FUQEK3P-f6e45ab4b4",
            "channels": [
                "C1FK0RL2V"
            ],
            "groups": [],
            "ims": [],
            "comments_count": 0,
            "reactions": [
                {
                    "name": "scream",
                    "users": [
                        "U1FHF07QT"
                    ],
                    "count": 1
                }
            ]
        },
        "user": "U1FJYUKQ9",
        "upload": true,
        "display_as_bot": false,
        "username": "<@U1FJYUKQ9|mkchuprin>",
        "bot_id": null,
        "ts": "1465587639.000022"
    },
    {
        "type": "message",
        "user": "U1FJYUKQ9",
        "text": "flat",
        "ts": "1465587664.000023",
        "reactions": [
            {
                "name": "+1",
                "users": [
                    "U1FKCRD8D"
                ],
                "count": 1
            }
        ]
    },
    {
        "type": "message",
        "user": "U1FJYUKQ9",
        "text": "nnnnnnnnnoooooooooooooooooooooooooooooooooooooooooooooooooooooooooo",
        "ts": "1465587969.000025"
    },
    {
        "type": "message",
        "user": "U1FHF07QT",
        "text": "jaja",
        "ts": "1465588162.000026"
    },
    {
        "type": "message",
        "user": "U1FJYUKQ9",
        "text": "theres still hope",
        "ts": "1465588200.000027"
    },
    {
        "type": "message",
        "user": "U1FJYUKQ9",
        "text": "it crashes to 2000 level",
        "ts": "1465588210.000028"
    }
]