[
    {
        "type": "message",
        "subtype": "file_share",
        "text": "<@U1FKCRD8D|hernanavella> uploaded a file: <https:\/\/tradingfutures.slack.com\/files\/hernanavella\/F1TSAUH3K\/-.txt|Untitled>",
        "file": {
            "id": "F1TSAUH3K",
            "created": 1469108920,
            "timestamp": 1469108920,
            "name": "-.txt",
            "title": "Untitled",
            "mimetype": "text\/plain",
            "filetype": "text",
            "pretty_type": "Plain Text",
            "user": "U1FKCRD8D",
            "editable": true,
            "size": 1827,
            "mode": "snippet",
            "is_external": false,
            "external_type": "",
            "is_public": true,
            "public_url_shared": false,
            "display_as_bot": false,
            "username": "",
            "url_private": "https:\/\/files.slack.com\/files-pri\/T1FJKLSJ2-F1TSAUH3K\/-.txt?t=xoxe-49631706614-119786374643-119786374659-90264fc38b",
            "url_private_download": "https:\/\/files.slack.com\/files-pri\/T1FJKLSJ2-F1TSAUH3K\/download\/-.txt?t=xoxe-49631706614-119786374643-119786374659-90264fc38b",
            "permalink": "https:\/\/tradingfutures.slack.com\/files\/hernanavella\/F1TSAUH3K\/-.txt",
            "permalink_public": "https:\/\/slack-files.com\/T1FJKLSJ2-F1TSAUH3K-e510a23d7a",
            "edit_link": "https:\/\/tradingfutures.slack.com\/files\/hernanavella\/F1TSAUH3K\/-.txt\/edit",
            "preview": "HERNANAVELLA-WS::Thu Jul 21 08:48:13 2016\r\nDEP VAR NITE.SP AT 930 ALL DAYS: 1\/1\/2015 to 7\/15\/2016\r\nINDEPENDNT   LAG1 HOUR   LAG2 HOUR       LO       HI     (TRADING DAYS)\r\n     TBOND     1  1700     0   930    -5000     -100\r\n\r",
            "preview_highlight": "<div class=\"CodeMirror cm-s-default CodeMirrorServer\" oncopy=\"if(event.clipboardData){event.clipboardData.setData('text\/plain',window.getSelection().toString().replace(\/\\u200b\/g,''));event.preventDefault();event.stopPropagation();}\">\n<div class=\"CodeMirror-code\">\n<div><pre>HERNANAVELLA-WS::Thu Jul 21 08:48:13 2016<\/pre><\/div>\n<div><pre>DEP VAR NITE.SP AT 930 ALL DAYS: 1\/1\/2015 to 7\/15\/2016<\/pre><\/div>\n<div><pre>INDEPENDNT   LAG1 HOUR   LAG2 HOUR       LO       HI     (TRADING DAYS)<\/pre><\/div>\n<div><pre>     TBOND     1  1700     0   930    -5000     -100<\/pre><\/div>\n<div><pre><\/pre><\/div>\n<div><pre><\/pre><\/div>\n<\/div>\n<\/div>\n",
            "lines": 27,
            "lines_more": 22,
            "preview_is_truncated": true,
            "channels": [
                "C1FK0RL2V"
            ],
            "groups": [],
            "ims": [],
            "comments_count": 0,
            "reactions": [
                {
                    "name": "bear",
                    "users": [
                        "U1FHF07QT"
                    ],
                    "count": 1
                }
            ]
        },
        "user": "U1FKCRD8D",
        "upload": true,
        "display_as_bot": false,
        "username": "<@U1FKCRD8D|hernanavella>",
        "bot_id": null,
        "ts": "1469108920.000035"
    },
    {
        "type": "message",
        "subtype": "file_share",
        "text": "<@U1FKCRD8D|hernanavella> uploaded a file: <https:\/\/tradingfutures.slack.com\/files\/hernanavella\/F1TTR58Q6\/-.txt|Untitled>",
        "file": {
            "id": "F1TTR58Q6",
            "created": 1469117687,
            "timestamp": 1469117687,
            "name": "-.txt",
            "title": "Untitled",
            "mimetype": "text\/plain",
            "filetype": "text",
            "pretty_type": "Plain Text",
            "user": "U1FKCRD8D",
            "editable": true,
            "size": 1681,
            "mode": "snippet",
            "is_external": false,
            "external_type": "",
            "is_public": true,
            "public_url_shared": false,
            "display_as_bot": false,
            "username": "",
            "url_private": "https:\/\/files.slack.com\/files-pri\/T1FJKLSJ2-F1TTR58Q6\/-.txt?t=xoxe-49631706614-119786374643-119786374659-90264fc38b",
            "url_private_download": "https:\/\/files.slack.com\/files-pri\/T1FJKLSJ2-F1TTR58Q6\/download\/-.txt?t=xoxe-49631706614-119786374643-119786374659-90264fc38b",
            "permalink": "https:\/\/tradingfutures.slack.com\/files\/hernanavella\/F1TTR58Q6\/-.txt",
            "permalink_public": "https:\/\/slack-files.com\/T1FJKLSJ2-F1TTR58Q6-467c3272e1",
            "edit_link": "https:\/\/tradingfutures.slack.com\/files\/hernanavella\/F1TTR58Q6\/-.txt\/edit",
            "preview": "HERNANAVELLA-WS::Thu Jul 21 11:14:11 2016\r\nDEP VAR NITE.SP AT 1200 ALL DAYS: 1\/1\/2013 to 7\/15\/2016\r\nINDEPENDNT   LAG1 HOUR   LAG2 HOUR       LO       HI     (TRADING DAYS)\r\n   NITE.SP     0  1100     0  1200    -5000      -50\r\n   NITE.SP     1  1620     0   930    -5000       -1\r",
            "preview_highlight": "<div class=\"CodeMirror cm-s-default CodeMirrorServer\" oncopy=\"if(event.clipboardData){event.clipboardData.setData('text\/plain',window.getSelection().toString().replace(\/\\u200b\/g,''));event.preventDefault();event.stopPropagation();}\">\n<div class=\"CodeMirror-code\">\n<div><pre>HERNANAVELLA-WS::Thu Jul 21 11:14:11 2016<\/pre><\/div>\n<div><pre>DEP VAR NITE.SP AT 1200 ALL DAYS: 1\/1\/2013 to 7\/15\/2016<\/pre><\/div>\n<div><pre>INDEPENDNT   LAG1 HOUR   LAG2 HOUR       LO       HI     (TRADING DAYS)<\/pre><\/div>\n<div><pre>   NITE.SP     0  1100     0  1200    -5000      -50<\/pre><\/div>\n<div><pre>   NITE.SP     1  1620     0   930    -5000       -1<\/pre><\/div>\n<div><pre><\/pre><\/div>\n<\/div>\n<\/div>\n",
            "lines": 25,
            "lines_more": 20,
            "preview_is_truncated": true,
            "channels": [
                "C1FK0RL2V"
            ],
            "groups": [],
            "ims": [],
            "comments_count": 0
        },
        "user": "U1FKCRD8D",
        "upload": true,
        "display_as_bot": false,
        "username": "<@U1FKCRD8D|hernanavella>",
        "bot_id": null,
        "ts": "1469117688.000037"
    },
    {
        "type": "message",
        "subtype": "file_share",
        "text": "<@U1FKCRD8D|hernanavella> uploaded a file: <https:\/\/tradingfutures.slack.com\/files\/hernanavella\/F1TUV82GN\/-.txt|Untitled> and commented: I don't see anything bull to buy stocks at close...anyone?",
        "file": {
            "id": "F1TUV82GN",
            "created": 1469123326,
            "timestamp": 1469123326,
            "name": "-.txt",
            "title": "Untitled",
            "mimetype": "text\/plain",
            "filetype": "text",
            "pretty_type": "Plain Text",
            "user": "U1FKCRD8D",
            "editable": true,
            "size": 2535,
            "mode": "snippet",
            "is_external": false,
            "external_type": "",
            "is_public": true,
            "public_url_shared": false,
            "display_as_bot": false,
            "username": "",
            "url_private": "https:\/\/files.slack.com\/files-pri\/T1FJKLSJ2-F1TUV82GN\/-.txt?t=xoxe-49631706614-119786374643-119786374659-90264fc38b",
            "url_private_download": "https:\/\/files.slack.com\/files-pri\/T1FJKLSJ2-F1TUV82GN\/download\/-.txt?t=xoxe-49631706614-119786374643-119786374659-90264fc38b",
            "permalink": "https:\/\/tradingfutures.slack.com\/files\/hernanavella\/F1TUV82GN\/-.txt",
            "permalink_public": "https:\/\/slack-files.com\/T1FJKLSJ2-F1TUV82GN-871cda54e7",
            "edit_link": "https:\/\/tradingfutures.slack.com\/files\/hernanavella\/F1TUV82GN\/-.txt\/edit",
            "preview": "HERNANAVELLA-WS::Thu Jul 21 12:48:04 2016\r\nDEP VAR NITE.SP AT 1620 ALL DAYS: 1\/1\/2011 to 7\/15\/2016\r\nAS OF 1 1620, NITE.SP AT 20 COMPARISON DAY HIGH \r\nINDEPENDNT   LAG1 HOUR   LAG2 HOUR       LO       HI     (TRADING DAYS)\r\n   NITE.SP     1  1620     0   930     -100       -1\r",
            "preview_highlight": "<div class=\"CodeMirror cm-s-default CodeMirrorServer\" oncopy=\"if(event.clipboardData){event.clipboardData.setData('text\/plain',window.getSelection().toString().replace(\/\\u200b\/g,''));event.preventDefault();event.stopPropagation();}\">\n<div class=\"CodeMirror-code\">\n<div><pre>HERNANAVELLA-WS::Thu Jul 21 12:48:04 2016<\/pre><\/div>\n<div><pre>DEP VAR NITE.SP AT 1620 ALL DAYS: 1\/1\/2011 to 7\/15\/2016<\/pre><\/div>\n<div><pre>AS OF 1 1620, NITE.SP AT 20 COMPARISON DAY HIGH <\/pre><\/div>\n<div><pre>INDEPENDNT   LAG1 HOUR   LAG2 HOUR       LO       HI     (TRADING DAYS)<\/pre><\/div>\n<div><pre>   NITE.SP     1  1620     0   930     -100       -1<\/pre><\/div>\n<div><pre><\/pre><\/div>\n<\/div>\n<\/div>\n",
            "lines": 38,
            "lines_more": 33,
            "preview_is_truncated": true,
            "channels": [
                "C1FK0RL2V"
            ],
            "groups": [],
            "ims": [],
            "comments_count": 1,
            "initial_comment": {
                "id": "Fc1U00518A",
                "created": 1469123326,
                "timestamp": 1469123326,
                "user": "U1FKCRD8D",
                "is_intro": true,
                "comment": "I don't see anything bull to buy stocks at close...anyone?",
                "channel": ""
            }
        },
        "user": "U1FKCRD8D",
        "upload": true,
        "display_as_bot": false,
        "username": "<@U1FKCRD8D|hernanavella>",
        "bot_id": null,
        "ts": "1469123326.000038"
    },
    {
        "type": "message",
        "subtype": "file_share",
        "text": "<@U1FKCRD8D|hernanavella> uploaded a file: <https:\/\/tradingfutures.slack.com\/files\/hernanavella\/F1U0B7LSZ\/-.txt|Untitled> and commented: Two last obs are big up days.....",
        "file": {
            "id": "F1U0B7LSZ",
            "created": 1469126535,
            "timestamp": 1469126535,
            "name": "-.txt",
            "title": "Untitled",
            "mimetype": "text\/plain",
            "filetype": "text",
            "pretty_type": "Plain Text",
            "user": "U1FKCRD8D",
            "editable": true,
            "size": 2351,
            "mode": "snippet",
            "is_external": false,
            "external_type": "",
            "is_public": true,
            "public_url_shared": false,
            "display_as_bot": false,
            "username": "",
            "url_private": "https:\/\/files.slack.com\/files-pri\/T1FJKLSJ2-F1U0B7LSZ\/-.txt?t=xoxe-49631706614-119786374643-119786374659-90264fc38b",
            "url_private_download": "https:\/\/files.slack.com\/files-pri\/T1FJKLSJ2-F1U0B7LSZ\/download\/-.txt?t=xoxe-49631706614-119786374643-119786374659-90264fc38b",
            "permalink": "https:\/\/tradingfutures.slack.com\/files\/hernanavella\/F1U0B7LSZ\/-.txt",
            "permalink_public": "https:\/\/slack-files.com\/T1FJKLSJ2-F1U0B7LSZ-f96b07bb9b",
            "edit_link": "https:\/\/tradingfutures.slack.com\/files\/hernanavella\/F1U0B7LSZ\/-.txt\/edit",
            "preview": "HERNANAVELLA-WS::Thu Jul 21 13:40:58 2016\r\nDEP VAR NITE.SP AT 1620 ALL DAYS: 6\/1\/2015 to 7\/15\/2016\r\nAS OF 0 1430, CRUDE AT 20 COMPARISON DAY LOW \r\n\r\n   Y  M  D  DW  PLAST  100  200  300  400  500  600  700  800  900 1000 1100 1200\r",
            "preview_highlight": "<div class=\"CodeMirror cm-s-default CodeMirrorServer\" oncopy=\"if(event.clipboardData){event.clipboardData.setData('text\/plain',window.getSelection().toString().replace(\/\\u200b\/g,''));event.preventDefault();event.stopPropagation();}\">\n<div class=\"CodeMirror-code\">\n<div><pre>HERNANAVELLA-WS::Thu Jul 21 13:40:58 2016<\/pre><\/div>\n<div><pre>DEP VAR NITE.SP AT 1620 ALL DAYS: 6\/1\/2015 to 7\/15\/2016<\/pre><\/div>\n<div><pre>AS OF 0 1430, CRUDE AT 20 COMPARISON DAY LOW <\/pre><\/div>\n<div><pre><\/pre><\/div>\n<div><pre>   Y  M  D  DW  PLAST  100  200  300  400  500  600  700  800  900 1000 1100 1200<\/pre><\/div>\n<div><pre><\/pre><\/div>\n<\/div>\n<\/div>\n",
            "lines": 35,
            "lines_more": 30,
            "preview_is_truncated": true,
            "channels": [
                "C1FK0RL2V"
            ],
            "groups": [],
            "ims": [],
            "comments_count": 1,
            "initial_comment": {
                "id": "Fc1U0H2AGH",
                "created": 1469126535,
                "timestamp": 1469126535,
                "user": "U1FKCRD8D",
                "is_intro": true,
                "comment": "Two last obs are big up days.....",
                "channel": ""
            }
        },
        "user": "U1FKCRD8D",
        "upload": true,
        "display_as_bot": false,
        "username": "<@U1FKCRD8D|hernanavella>",
        "bot_id": null,
        "ts": "1469126536.000039"
    },
    {
        "type": "message",
        "subtype": "file_share",
        "text": "<@U1FHF07QT|jkh> uploaded a file: <https:\/\/tradingfutures.slack.com\/files\/jkh\/F1U0ZJQ3H\/_930_tomorrow__friday_.txt|@930 tomorrow (Friday)>",
        "file": {
            "id": "F1U0ZJQ3H",
            "created": 1469130065,
            "timestamp": 1469130065,
            "name": "_930_tomorrow__Friday_.txt",
            "title": "@930 tomorrow (Friday)",
            "mimetype": "text\/plain",
            "filetype": "text",
            "pretty_type": "Plain Text",
            "user": "U1FHF07QT",
            "editable": true,
            "size": 995,
            "mode": "snippet",
            "is_external": false,
            "external_type": "",
            "is_public": true,
            "public_url_shared": false,
            "display_as_bot": false,
            "username": "",
            "url_private": "https:\/\/files.slack.com\/files-pri\/T1FJKLSJ2-F1U0ZJQ3H\/_930_tomorrow__friday_.txt?t=xoxe-49631706614-119786374643-119786374659-90264fc38b",
            "url_private_download": "https:\/\/files.slack.com\/files-pri\/T1FJKLSJ2-F1U0ZJQ3H\/download\/_930_tomorrow__friday_.txt?t=xoxe-49631706614-119786374643-119786374659-90264fc38b",
            "permalink": "https:\/\/tradingfutures.slack.com\/files\/jkh\/F1U0ZJQ3H\/_930_tomorrow__friday_.txt",
            "permalink_public": "https:\/\/slack-files.com\/T1FJKLSJ2-F1U0ZJQ3H-c230486a9f",
            "edit_link": "https:\/\/tradingfutures.slack.com\/files\/jkh\/F1U0ZJQ3H\/_930_tomorrow__friday_.txt\/edit",
            "preview": "JKH::Thu 21 Jul 2016 03:40:23 PM EDT\r\nDEP VAR SP AT 930 FRI: 01\/01\/2013 TO 01\/01\/2020  US\/Eastern\r\n\r\nAS OF 1 1430 US\/EASTERN, CRUDE AT 20 COMPARISON DAY MIN\r\n\r",
            "preview_highlight": "<div class=\"CodeMirror cm-s-default CodeMirrorServer\" oncopy=\"if(event.clipboardData){event.clipboardData.setData('text\/plain',window.getSelection().toString().replace(\/\\u200b\/g,''));event.preventDefault();event.stopPropagation();}\">\n<div class=\"CodeMirror-code\">\n<div><pre>JKH::Thu 21 Jul 2016 03:40:23 PM EDT<\/pre><\/div>\n<div><pre>DEP VAR SP AT 930 FRI: 01\/01\/2013 TO 01\/01\/2020  US\/Eastern<\/pre><\/div>\n<div><pre><\/pre><\/div>\n<div><pre>AS OF 1 1430 US\/EASTERN, CRUDE AT 20 COMPARISON DAY MIN<\/pre><\/div>\n<div><pre><\/pre><\/div>\n<div><pre><\/pre><\/div>\n<\/div>\n<\/div>\n",
            "lines": 24,
            "lines_more": 19,
            "preview_is_truncated": false,
            "channels": [
                "C1FK0RL2V"
            ],
            "groups": [],
            "ims": [],
            "comments_count": 1
        },
        "user": "U1FHF07QT",
        "upload": true,
        "display_as_bot": false,
        "username": "<@U1FHF07QT|jkh>",
        "bot_id": null,
        "ts": "1469130065.000040"
    },
    {
        "type": "message",
        "subtype": "file_comment",
        "text": "<@U1FHF07QT|jkh> commented on <@U1FHF07QT|jkh>'s file <https:\/\/tradingfutures.slack.com\/files\/jkh\/F1U0ZJQ3H\/_930_tomorrow__friday_.txt|@930 tomorrow (Friday)>: lol ok i just reposted hernan's patts in two different channels now.",
        "file": {
            "id": "F1U0ZJQ3H",
            "created": 1469130065,
            "timestamp": 1469130065,
            "name": "_930_tomorrow__Friday_.txt",
            "title": "@930 tomorrow (Friday)",
            "mimetype": "text\/plain",
            "filetype": "text",
            "pretty_type": "Plain Text",
            "user": "U1FHF07QT",
            "editable": true,
            "size": 995,
            "mode": "snippet",
            "is_external": false,
            "external_type": "",
            "is_public": true,
            "public_url_shared": false,
            "display_as_bot": false,
            "username": "",
            "url_private": "https:\/\/files.slack.com\/files-pri\/T1FJKLSJ2-F1U0ZJQ3H\/_930_tomorrow__friday_.txt?t=xoxe-49631706614-119786374643-119786374659-90264fc38b",
            "url_private_download": "https:\/\/files.slack.com\/files-pri\/T1FJKLSJ2-F1U0ZJQ3H\/download\/_930_tomorrow__friday_.txt?t=xoxe-49631706614-119786374643-119786374659-90264fc38b",
            "permalink": "https:\/\/tradingfutures.slack.com\/files\/jkh\/F1U0ZJQ3H\/_930_tomorrow__friday_.txt",
            "permalink_public": "https:\/\/slack-files.com\/T1FJKLSJ2-F1U0ZJQ3H-c230486a9f",
            "edit_link": "https:\/\/tradingfutures.slack.com\/files\/jkh\/F1U0ZJQ3H\/_930_tomorrow__friday_.txt\/edit",
            "preview": "JKH::Thu 21 Jul 2016 03:40:23 PM EDT\r\nDEP VAR SP AT 930 FRI: 01\/01\/2013 TO 01\/01\/2020  US\/Eastern\r\n\r\nAS OF 1 1430 US\/EASTERN, CRUDE AT 20 COMPARISON DAY MIN\r\n\r",
            "preview_highlight": "<div class=\"CodeMirror cm-s-default CodeMirrorServer\" oncopy=\"if(event.clipboardData){event.clipboardData.setData('text\/plain',window.getSelection().toString().replace(\/\\u200b\/g,''));event.preventDefault();event.stopPropagation();}\">\n<div class=\"CodeMirror-code\">\n<div><pre>JKH::Thu 21 Jul 2016 03:40:23 PM EDT<\/pre><\/div>\n<div><pre>DEP VAR SP AT 930 FRI: 01\/01\/2013 TO 01\/01\/2020  US\/Eastern<\/pre><\/div>\n<div><pre><\/pre><\/div>\n<div><pre>AS OF 1 1430 US\/EASTERN, CRUDE AT 20 COMPARISON DAY MIN<\/pre><\/div>\n<div><pre><\/pre><\/div>\n<div><pre><\/pre><\/div>\n<\/div>\n<\/div>\n",
            "lines": 24,
            "lines_more": 19,
            "preview_is_truncated": false,
            "channels": [
                "C1FK0RL2V"
            ],
            "groups": [],
            "ims": [],
            "comments_count": 1
        },
        "comment": {
            "id": "Fc1TUTC7TM",
            "created": 1469130102,
            "timestamp": 1469130102,
            "user": "U1FHF07QT",
            "is_intro": false,
            "comment": "lol ok i just reposted hernan's patts in two different channels now.",
            "channel": ""
        },
        "is_intro": false,
        "ts": "1469130101.000041"
    },
    {
        "type": "message",
        "user": "U1FKCRD8D",
        "text": ":joy_cat:",
        "ts": "1469130168.000042"
    }
]