[
    {
        "type": "message",
        "subtype": "file_share",
        "text": "<@U1FHF07QT|jkh> uploaded a file: <https:\/\/tradingfutures.slack.com\/files\/jkh\/F3BA9AN5D\/-.txt|Untitled>",
        "file": {
            "id": "F3BA9AN5D",
            "created": 1480942524,
            "timestamp": 1480942524,
            "name": "-.txt",
            "title": "Untitled",
            "mimetype": "text\/plain",
            "filetype": "text",
            "pretty_type": "Plain Text",
            "user": "U1FHF07QT",
            "editable": true,
            "size": 1142,
            "mode": "snippet",
            "is_external": false,
            "external_type": "",
            "is_public": true,
            "public_url_shared": false,
            "display_as_bot": false,
            "username": "",
            "url_private": "https:\/\/files.slack.com\/files-pri\/T1FJKLSJ2-F3BA9AN5D\/-.txt?t=xoxe-49631706614-119786374643-119786374659-90264fc38b",
            "url_private_download": "https:\/\/files.slack.com\/files-pri\/T1FJKLSJ2-F3BA9AN5D\/download\/-.txt?t=xoxe-49631706614-119786374643-119786374659-90264fc38b",
            "permalink": "https:\/\/tradingfutures.slack.com\/files\/jkh\/F3BA9AN5D\/-.txt",
            "permalink_public": "https:\/\/slack-files.com\/T1FJKLSJ2-F3BA9AN5D-99637d97c9",
            "edit_link": "https:\/\/tradingfutures.slack.com\/files\/jkh\/F3BA9AN5D\/-.txt\/edit",
            "preview": "JKH::Mon 05 Dec 2016 07:55:02 AM EST\r\nDEP VAR SP AT 800 : 01\/01\/2009 TO 01\/01\/2020  US\/Eastern\r\n\r\nINDEPENDNT LAG1 HOUR LAG2 HOUR   LO    HI          TZ\r\n       sp    0  200    0  800  100  5000  US\/Eastern\r",
            "preview_highlight": "<div class=\"CodeMirror cm-s-default CodeMirrorServer\" oncopy=\"if(event.clipboardData){event.clipboardData.setData('text\/plain',window.getSelection().toString().replace(\/\\u200b\/g,''));event.preventDefault();event.stopPropagation();}\">\n<div class=\"CodeMirror-code\">\n<div><pre>JKH::Mon 05 Dec 2016 07:55:02 AM EST<\/pre><\/div>\n<div><pre>DEP VAR SP AT 800 : 01\/01\/2009 TO 01\/01\/2020  US\/Eastern<\/pre><\/div>\n<div><pre><\/pre><\/div>\n<div><pre>INDEPENDNT LAG1 HOUR LAG2 HOUR   LO    HI          TZ<\/pre><\/div>\n<div><pre>       sp    0  200    0  800  100  5000  US\/Eastern<\/pre><\/div>\n<div><pre><\/pre><\/div>\n<\/div>\n<\/div>\n",
            "lines": 27,
            "lines_more": 22,
            "preview_is_truncated": true,
            "channels": [
                "C1FK0RL2V"
            ],
            "groups": [],
            "ims": [],
            "comments_count": 0,
            "reactions": [
                {
                    "name": "+1",
                    "users": [
                        "U1J0N0DPZ",
                        "U1FKCRD8D"
                    ],
                    "count": 2
                }
            ]
        },
        "user": "U1FHF07QT",
        "upload": true,
        "display_as_bot": false,
        "username": "<@U1FHF07QT|jkh>",
        "bot_id": null,
        "ts": "1480942524.000011"
    },
    {
        "type": "message",
        "subtype": "file_share",
        "text": "<@U1FHF07QT|jkh> uploaded a file: <https:\/\/tradingfutures.slack.com\/files\/jkh\/F3BA769DL\/_mkchuprin_patt.txt|@mkchuprin patt>",
        "file": {
            "id": "F3BA769DL",
            "created": 1480944180,
            "timestamp": 1480944180,
            "name": "_mkchuprin_patt.txt",
            "title": "@mkchuprin patt",
            "mimetype": "text\/plain",
            "filetype": "text",
            "pretty_type": "Plain Text",
            "user": "U1FHF07QT",
            "editable": true,
            "size": 1248,
            "mode": "snippet",
            "is_external": false,
            "external_type": "",
            "is_public": true,
            "public_url_shared": false,
            "display_as_bot": false,
            "username": "",
            "url_private": "https:\/\/files.slack.com\/files-pri\/T1FJKLSJ2-F3BA769DL\/_mkchuprin_patt.txt?t=xoxe-49631706614-119786374643-119786374659-90264fc38b",
            "url_private_download": "https:\/\/files.slack.com\/files-pri\/T1FJKLSJ2-F3BA769DL\/download\/_mkchuprin_patt.txt?t=xoxe-49631706614-119786374643-119786374659-90264fc38b",
            "permalink": "https:\/\/tradingfutures.slack.com\/files\/jkh\/F3BA769DL\/_mkchuprin_patt.txt",
            "permalink_public": "https:\/\/slack-files.com\/T1FJKLSJ2-F3BA769DL-0d0dd79762",
            "edit_link": "https:\/\/tradingfutures.slack.com\/files\/jkh\/F3BA769DL\/_mkchuprin_patt.txt\/edit",
            "preview": "JKH::Mon 05 Dec 2016 08:22:33 AM EST\r\nDEP VAR SP AT 800 : 01\/01\/2013 TO 01\/01\/2020  US\/Eastern\r\n\r\nINDEPENDNT LAG1  HOUR LAG2  HOUR   LO   HI          TZ\r\n       sp    2  1615    1   930   -1  -50  US\/Eastern\r",
            "preview_highlight": "<div class=\"CodeMirror cm-s-default CodeMirrorServer\" oncopy=\"if(event.clipboardData){event.clipboardData.setData('text\/plain',window.getSelection().toString().replace(\/\\u200b\/g,''));event.preventDefault();event.stopPropagation();}\">\n<div class=\"CodeMirror-code\">\n<div><pre>JKH::Mon 05 Dec 2016 08:22:33 AM EST<\/pre><\/div>\n<div><pre>DEP VAR SP AT 800 : 01\/01\/2013 TO 01\/01\/2020  US\/Eastern<\/pre><\/div>\n<div><pre><\/pre><\/div>\n<div><pre>INDEPENDNT LAG1  HOUR LAG2  HOUR   LO   HI          TZ<\/pre><\/div>\n<div><pre>       sp    2  1615    1   930   -1  -50  US\/Eastern<\/pre><\/div>\n<div><pre><\/pre><\/div>\n<\/div>\n<\/div>\n",
            "lines": 29,
            "lines_more": 24,
            "preview_is_truncated": true,
            "channels": [
                "C1FK0RL2V"
            ],
            "groups": [],
            "ims": [],
            "comments_count": 0,
            "reactions": [
                {
                    "name": "open_mouth",
                    "users": [
                        "U1FKCRD8D"
                    ],
                    "count": 1
                }
            ]
        },
        "user": "U1FHF07QT",
        "upload": true,
        "display_as_bot": false,
        "username": "<@U1FHF07QT|jkh>",
        "bot_id": null,
        "ts": "1480944180.000013"
    },
    {
        "type": "message",
        "subtype": "file_share",
        "text": "<@U1FKCRD8D|hernanavella> uploaded a file: <https:\/\/tradingfutures.slack.com\/files\/hernanavella\/F3AHUQHEX\/pasted_image_at_2016_12_05_07_30_am.png|Pasted image at 2016 12 05 07 30 AM>",
        "file": {
            "id": "F3AHUQHEX",
            "created": 1480944619,
            "timestamp": 1480944619,
            "name": "Pasted image at 2016_12_05 07_30 AM.png",
            "title": "Pasted image at 2016 12 05 07 30 AM",
            "mimetype": "image\/png",
            "filetype": "png",
            "pretty_type": "PNG",
            "user": "U1FKCRD8D",
            "editable": false,
            "size": 115142,
            "mode": "hosted",
            "is_external": false,
            "external_type": "",
            "is_public": true,
            "public_url_shared": false,
            "display_as_bot": false,
            "username": "",
            "url_private": "https:\/\/files.slack.com\/files-pri\/T1FJKLSJ2-F3AHUQHEX\/pasted_image_at_2016_12_05_07_30_am.png?t=xoxe-49631706614-119786374643-119786374659-90264fc38b",
            "url_private_download": "https:\/\/files.slack.com\/files-pri\/T1FJKLSJ2-F3AHUQHEX\/download\/pasted_image_at_2016_12_05_07_30_am.png?t=xoxe-49631706614-119786374643-119786374659-90264fc38b",
            "thumb_64": "https:\/\/files.slack.com\/files-tmb\/T1FJKLSJ2-F3AHUQHEX-ab54b561cb\/pasted_image_at_2016_12_05_07_30_am_64.png?t=xoxe-49631706614-119786374643-119786374659-90264fc38b",
            "thumb_80": "https:\/\/files.slack.com\/files-tmb\/T1FJKLSJ2-F3AHUQHEX-ab54b561cb\/pasted_image_at_2016_12_05_07_30_am_80.png?t=xoxe-49631706614-119786374643-119786374659-90264fc38b",
            "thumb_360": "https:\/\/files.slack.com\/files-tmb\/T1FJKLSJ2-F3AHUQHEX-ab54b561cb\/pasted_image_at_2016_12_05_07_30_am_360.png?t=xoxe-49631706614-119786374643-119786374659-90264fc38b",
            "thumb_360_w": 278,
            "thumb_360_h": 360,
            "thumb_480": "https:\/\/files.slack.com\/files-tmb\/T1FJKLSJ2-F3AHUQHEX-ab54b561cb\/pasted_image_at_2016_12_05_07_30_am_480.png?t=xoxe-49631706614-119786374643-119786374659-90264fc38b",
            "thumb_480_w": 371,
            "thumb_480_h": 480,
            "thumb_160": "https:\/\/files.slack.com\/files-tmb\/T1FJKLSJ2-F3AHUQHEX-ab54b561cb\/pasted_image_at_2016_12_05_07_30_am_160.png?t=xoxe-49631706614-119786374643-119786374659-90264fc38b",
            "thumb_720": "https:\/\/files.slack.com\/files-tmb\/T1FJKLSJ2-F3AHUQHEX-ab54b561cb\/pasted_image_at_2016_12_05_07_30_am_720.png?t=xoxe-49631706614-119786374643-119786374659-90264fc38b",
            "thumb_720_w": 556,
            "thumb_720_h": 720,
            "thumb_960": "https:\/\/files.slack.com\/files-tmb\/T1FJKLSJ2-F3AHUQHEX-ab54b561cb\/pasted_image_at_2016_12_05_07_30_am_960.png?t=xoxe-49631706614-119786374643-119786374659-90264fc38b",
            "thumb_960_w": 742,
            "thumb_960_h": 960,
            "thumb_1024": "https:\/\/files.slack.com\/files-tmb\/T1FJKLSJ2-F3AHUQHEX-ab54b561cb\/pasted_image_at_2016_12_05_07_30_am_1024.png?t=xoxe-49631706614-119786374643-119786374659-90264fc38b",
            "thumb_1024_w": 791,
            "thumb_1024_h": 1024,
            "image_exif_rotation": 1,
            "original_w": 816,
            "original_h": 1056,
            "permalink": "https:\/\/tradingfutures.slack.com\/files\/hernanavella\/F3AHUQHEX\/pasted_image_at_2016_12_05_07_30_am.png",
            "permalink_public": "https:\/\/slack-files.com\/T1FJKLSJ2-F3AHUQHEX-bdf2ac5b5c",
            "channels": [
                "C1FK0RL2V"
            ],
            "groups": [],
            "ims": [],
            "comments_count": 0,
            "reactions": [
                {
                    "name": "rocket",
                    "users": [
                        "U1FHF07QT",
                        "U1J0N0DPZ"
                    ],
                    "count": 2
                }
            ]
        },
        "user": "U1FKCRD8D",
        "upload": true,
        "display_as_bot": false,
        "username": "<@U1FKCRD8D|hernanavella>",
        "bot_id": null,
        "ts": "1480944622.000014"
    },
    {
        "type": "message",
        "subtype": "file_share",
        "text": "<@U1J0N0DPZ|duncan> uploaded a file: <https:\/\/tradingfutures.slack.com\/files\/duncan\/F3AKVBQ10\/-.txt|Untitled> and commented: buying below open bull",
        "file": {
            "id": "F3AKVBQ10",
            "created": 1480944832,
            "timestamp": 1480944832,
            "name": "-.txt",
            "title": "Untitled",
            "mimetype": "text\/plain",
            "filetype": "text",
            "pretty_type": "Plain Text",
            "user": "U1J0N0DPZ",
            "editable": true,
            "size": 2275,
            "mode": "snippet",
            "is_external": false,
            "external_type": "",
            "is_public": true,
            "public_url_shared": false,
            "display_as_bot": false,
            "username": "",
            "url_private": "https:\/\/files.slack.com\/files-pri\/T1FJKLSJ2-F3AKVBQ10\/-.txt?t=xoxe-49631706614-119786374643-119786374659-90264fc38b",
            "url_private_download": "https:\/\/files.slack.com\/files-pri\/T1FJKLSJ2-F3AKVBQ10\/download\/-.txt?t=xoxe-49631706614-119786374643-119786374659-90264fc38b",
            "permalink": "https:\/\/tradingfutures.slack.com\/files\/duncan\/F3AKVBQ10\/-.txt",
            "permalink_public": "https:\/\/slack-files.com\/T1FJKLSJ2-F3AKVBQ10-4f6e3532fa",
            "edit_link": "https:\/\/tradingfutures.slack.com\/files\/duncan\/F3AKVBQ10\/-.txt\/edit",
            "preview": "an at 12\/05\/2016 08:32\r\nCalculation results for ES from 01\/02\/2009 00:00 to 11\/30\/2016 00:00\r\nReference time at 09:30\r\n\r\nEntry Conditions:\r",
            "preview_highlight": "<div class=\"CodeMirror cm-s-default CodeMirrorServer\" oncopy=\"if(event.clipboardData){event.clipboardData.setData('text\/plain',window.getSelection().toString().replace(\/\\u200b\/g,''));event.preventDefault();event.stopPropagation();}\">\n<div class=\"CodeMirror-code\">\n<div><pre>an at 12\/05\/2016 08:32<\/pre><\/div>\n<div><pre>Calculation results for ES from 01\/02\/2009 00:00 to 11\/30\/2016 00:00<\/pre><\/div>\n<div><pre>Reference time at 09:30<\/pre><\/div>\n<div><pre><\/pre><\/div>\n<div><pre>Entry Conditions:<\/pre><\/div>\n<div><pre><\/pre><\/div>\n<\/div>\n<\/div>\n",
            "lines": 38,
            "lines_more": 33,
            "preview_is_truncated": true,
            "channels": [
                "C1FK0RL2V"
            ],
            "groups": [],
            "ims": [],
            "comments_count": 1,
            "initial_comment": {
                "id": "Fc39VDEEAD",
                "created": 1480944832,
                "timestamp": 1480944832,
                "user": "U1J0N0DPZ",
                "is_intro": true,
                "comment": "buying below open bull",
                "channel": ""
            }
        },
        "user": "U1J0N0DPZ",
        "upload": true,
        "display_as_bot": false,
        "username": "<@U1J0N0DPZ|duncan>",
        "bot_id": null,
        "ts": "1480944832.000018"
    },
    {
        "type": "message",
        "subtype": "file_share",
        "text": "<@U1FHF07QT|jkh> uploaded a file: <https:\/\/tradingfutures.slack.com\/files\/jkh\/F3BECK70F\/-.txt|Untitled>",
        "file": {
            "id": "F3BECK70F",
            "created": 1480959479,
            "timestamp": 1480959479,
            "name": "-.txt",
            "title": "Untitled",
            "mimetype": "text\/plain",
            "filetype": "text",
            "pretty_type": "Plain Text",
            "user": "U1FHF07QT",
            "editable": true,
            "size": 888,
            "mode": "snippet",
            "is_external": false,
            "external_type": "",
            "is_public": true,
            "public_url_shared": false,
            "display_as_bot": false,
            "username": "",
            "url_private": "https:\/\/files.slack.com\/files-pri\/T1FJKLSJ2-F3BECK70F\/-.txt?t=xoxe-49631706614-119786374643-119786374659-90264fc38b",
            "url_private_download": "https:\/\/files.slack.com\/files-pri\/T1FJKLSJ2-F3BECK70F\/download\/-.txt?t=xoxe-49631706614-119786374643-119786374659-90264fc38b",
            "permalink": "https:\/\/tradingfutures.slack.com\/files\/jkh\/F3BECK70F\/-.txt",
            "permalink_public": "https:\/\/slack-files.com\/T1FJKLSJ2-F3BECK70F-514a466db5",
            "edit_link": "https:\/\/tradingfutures.slack.com\/files\/jkh\/F3BECK70F\/-.txt\/edit",
            "preview": "JKH::Mon 05 Dec 2016 12:37:31 PM EST\r\nDEP VAR SP AT 1230 : 01\/01\/2013 TO 01\/01\/2020  US\/Eastern\r\n\r\nINDEPENDNT LAG1  HOUR LAG2  HOUR   LO    HI          TZ\r\n    tbond    0  1030    0  1230  100  5000  US\/Eastern\r",
            "preview_highlight": "<div class=\"CodeMirror cm-s-default CodeMirrorServer\" oncopy=\"if(event.clipboardData){event.clipboardData.setData('text\/plain',window.getSelection().toString().replace(\/\\u200b\/g,''));event.preventDefault();event.stopPropagation();}\">\n<div class=\"CodeMirror-code\">\n<div><pre>JKH::Mon 05 Dec 2016 12:37:31 PM EST<\/pre><\/div>\n<div><pre>DEP VAR SP AT 1230 : 01\/01\/2013 TO 01\/01\/2020  US\/Eastern<\/pre><\/div>\n<div><pre><\/pre><\/div>\n<div><pre>INDEPENDNT LAG1  HOUR LAG2  HOUR   LO    HI          TZ<\/pre><\/div>\n<div><pre>    tbond    0  1030    0  1230  100  5000  US\/Eastern<\/pre><\/div>\n<div><pre><\/pre><\/div>\n<\/div>\n<\/div>\n",
            "lines": 22,
            "lines_more": 17,
            "preview_is_truncated": false,
            "channels": [
                "C1FK0RL2V"
            ],
            "groups": [],
            "ims": [],
            "comments_count": 0
        },
        "user": "U1FHF07QT",
        "upload": true,
        "display_as_bot": false,
        "username": "<@U1FHF07QT|jkh>",
        "bot_id": null,
        "ts": "1480959480.000020"
    }
]