[
    {
        "type": "message",
        "subtype": "file_share",
        "text": "<@U1FHF07QT|jkh> uploaded a file: <https:\/\/tradingfutures.slack.com\/files\/jkh\/F35QRLKA8\/upcoming_holiday.txt|upcoming holiday>",
        "file": {
            "id": "F35QRLKA8",
            "created": 1479818340,
            "timestamp": 1479818340,
            "name": "upcoming_holiday.txt",
            "title": "upcoming holiday",
            "mimetype": "text\/plain",
            "filetype": "text",
            "pretty_type": "Plain Text",
            "user": "U1FHF07QT",
            "editable": true,
            "size": 962,
            "mode": "snippet",
            "is_external": false,
            "external_type": "",
            "is_public": true,
            "public_url_shared": false,
            "display_as_bot": false,
            "username": "",
            "url_private": "https:\/\/files.slack.com\/files-pri\/T1FJKLSJ2-F35QRLKA8\/upcoming_holiday.txt?t=xoxe-49631706614-119786374643-119786374659-90264fc38b",
            "url_private_download": "https:\/\/files.slack.com\/files-pri\/T1FJKLSJ2-F35QRLKA8\/download\/upcoming_holiday.txt?t=xoxe-49631706614-119786374643-119786374659-90264fc38b",
            "permalink": "https:\/\/tradingfutures.slack.com\/files\/jkh\/F35QRLKA8\/upcoming_holiday.txt",
            "permalink_public": "https:\/\/slack-files.com\/T1FJKLSJ2-F35QRLKA8-f2484dd310",
            "edit_link": "https:\/\/tradingfutures.slack.com\/files\/jkh\/F35QRLKA8\/upcoming_holiday.txt\/edit",
            "preview": "JKH::Tue 22 Nov 2016 07:38:20 AM EST\r\nDEP VAR SP AT 1000 : 01\/01\/2009 TO 01\/01\/2020  US\/Eastern\r\n\r\nINCLUDE SP_HOLIDAYS ANNOUNCEMENT AT T(-2)\r\n\r",
            "preview_highlight": "<div class=\"CodeMirror cm-s-default CodeMirrorServer\" oncopy=\"if(event.clipboardData){event.clipboardData.setData('text\/plain',window.getSelection().toString().replace(\/\\u200b\/g,''));event.preventDefault();event.stopPropagation();}\">\n<div class=\"CodeMirror-code\">\n<div><pre>JKH::Tue 22 Nov 2016 07:38:20 AM EST<\/pre><\/div>\n<div><pre>DEP VAR SP AT 1000 : 01\/01\/2009 TO 01\/01\/2020  US\/Eastern<\/pre><\/div>\n<div><pre><\/pre><\/div>\n<div><pre>INCLUDE SP_HOLIDAYS ANNOUNCEMENT AT T(-2)<\/pre><\/div>\n<div><pre><\/pre><\/div>\n<div><pre><\/pre><\/div>\n<\/div>\n<\/div>\n",
            "lines": 24,
            "lines_more": 19,
            "preview_is_truncated": false,
            "channels": [
                "C1FK0RL2V"
            ],
            "groups": [],
            "ims": [],
            "comments_count": 0,
            "reactions": [
                {
                    "name": "flushed",
                    "users": [
                        "U1FKCRD8D"
                    ],
                    "count": 1
                }
            ]
        },
        "user": "U1FHF07QT",
        "upload": true,
        "display_as_bot": false,
        "username": "<@U1FHF07QT|jkh>",
        "bot_id": null,
        "ts": "1479818340.000703"
    },
    {
        "type": "message",
        "subtype": "file_share",
        "text": "<@U1FHF07QT|jkh> uploaded a file: <https:\/\/tradingfutures.slack.com\/files\/jkh\/F36DB7U79\/5_year.txt|5 Year>",
        "file": {
            "id": "F36DB7U79",
            "created": 1479818494,
            "timestamp": 1479818494,
            "name": "5_Year.txt",
            "title": "5 Year",
            "mimetype": "text\/plain",
            "filetype": "text",
            "pretty_type": "Plain Text",
            "user": "U1FHF07QT",
            "editable": true,
            "size": 863,
            "mode": "snippet",
            "is_external": false,
            "external_type": "",
            "is_public": true,
            "public_url_shared": false,
            "display_as_bot": false,
            "username": "",
            "url_private": "https:\/\/files.slack.com\/files-pri\/T1FJKLSJ2-F36DB7U79\/5_year.txt?t=xoxe-49631706614-119786374643-119786374659-90264fc38b",
            "url_private_download": "https:\/\/files.slack.com\/files-pri\/T1FJKLSJ2-F36DB7U79\/download\/5_year.txt?t=xoxe-49631706614-119786374643-119786374659-90264fc38b",
            "permalink": "https:\/\/tradingfutures.slack.com\/files\/jkh\/F36DB7U79\/5_year.txt",
            "permalink_public": "https:\/\/slack-files.com\/T1FJKLSJ2-F36DB7U79-3f2ddaa043",
            "edit_link": "https:\/\/tradingfutures.slack.com\/files\/jkh\/F36DB7U79\/5_year.txt\/edit",
            "preview": "JKH::Tue 22 Nov 2016 07:41:02 AM EST\r\nDEP VAR SP AT 1100 : 01\/01\/2011 TO 01\/01\/2020  US\/Eastern\r\n\r\nINCLUDE FIVE_YEAR ANNOUNCEMENT AT T(0)\r\n\r",
            "preview_highlight": "<div class=\"CodeMirror cm-s-default CodeMirrorServer\" oncopy=\"if(event.clipboardData){event.clipboardData.setData('text\/plain',window.getSelection().toString().replace(\/\\u200b\/g,''));event.preventDefault();event.stopPropagation();}\">\n<div class=\"CodeMirror-code\">\n<div><pre>JKH::Tue 22 Nov 2016 07:41:02 AM EST<\/pre><\/div>\n<div><pre>DEP VAR SP AT 1100 : 01\/01\/2011 TO 01\/01\/2020  US\/Eastern<\/pre><\/div>\n<div><pre><\/pre><\/div>\n<div><pre>INCLUDE FIVE_YEAR ANNOUNCEMENT AT T(0)<\/pre><\/div>\n<div><pre><\/pre><\/div>\n<div><pre><\/pre><\/div>\n<\/div>\n<\/div>\n",
            "lines": 22,
            "lines_more": 17,
            "preview_is_truncated": false,
            "channels": [
                "C1FK0RL2V"
            ],
            "groups": [],
            "ims": [],
            "comments_count": 0,
            "reactions": [
                {
                    "name": "cow",
                    "users": [
                        "U1FKCRD8D"
                    ],
                    "count": 1
                }
            ]
        },
        "user": "U1FHF07QT",
        "upload": true,
        "display_as_bot": false,
        "username": "<@U1FHF07QT|jkh>",
        "bot_id": null,
        "ts": "1479818495.000704"
    },
    {
        "type": "message",
        "subtype": "file_share",
        "text": "<@U1FKCRD8D|hernanavella> uploaded a file: <https:\/\/tradingfutures.slack.com\/files\/hernanavella\/F36DWHW8P\/-.txt|Untitled>",
        "file": {
            "id": "F36DWHW8P",
            "created": 1479821802,
            "timestamp": 1479821802,
            "name": "-.txt",
            "title": "Untitled",
            "mimetype": "text\/plain",
            "filetype": "text",
            "pretty_type": "Plain Text",
            "user": "U1FKCRD8D",
            "editable": true,
            "size": 2031,
            "mode": "snippet",
            "is_external": false,
            "external_type": "",
            "is_public": true,
            "public_url_shared": false,
            "display_as_bot": false,
            "username": "",
            "url_private": "https:\/\/files.slack.com\/files-pri\/T1FJKLSJ2-F36DWHW8P\/-.txt?t=xoxe-49631706614-119786374643-119786374659-90264fc38b",
            "url_private_download": "https:\/\/files.slack.com\/files-pri\/T1FJKLSJ2-F36DWHW8P\/download\/-.txt?t=xoxe-49631706614-119786374643-119786374659-90264fc38b",
            "permalink": "https:\/\/tradingfutures.slack.com\/files\/hernanavella\/F36DWHW8P\/-.txt",
            "permalink_public": "https:\/\/slack-files.com\/T1FJKLSJ2-F36DWHW8P-eefdfa2c34",
            "edit_link": "https:\/\/tradingfutures.slack.com\/files\/hernanavella\/F36DWHW8P\/-.txt\/edit",
            "preview": "HERNANAVELLA-WS::Tue Nov 22 07:36:13 2016\r\nDEP VAR NITE.SP AT 830 ALL DAYS: 1\/1\/2015 to 11\/11\/2016\r\nAS OF 1 1620, NITE.SP AT 20 COMPARISON DAY HIGH \r\nINDEPENDNT   LAG1 HOUR   LAG2 HOUR       LO       HI     (TRADING DAYS)\r\n   NITE.SP     1  1620     0   830        1     5000\r",
            "preview_highlight": "<div class=\"CodeMirror cm-s-default CodeMirrorServer\" oncopy=\"if(event.clipboardData){event.clipboardData.setData('text\/plain',window.getSelection().toString().replace(\/\\u200b\/g,''));event.preventDefault();event.stopPropagation();}\">\n<div class=\"CodeMirror-code\">\n<div><pre>HERNANAVELLA-WS::Tue Nov 22 07:36:13 2016<\/pre><\/div>\n<div><pre>DEP VAR NITE.SP AT 830 ALL DAYS: 1\/1\/2015 to 11\/11\/2016<\/pre><\/div>\n<div><pre>AS OF 1 1620, NITE.SP AT 20 COMPARISON DAY HIGH <\/pre><\/div>\n<div><pre>INDEPENDNT   LAG1 HOUR   LAG2 HOUR       LO       HI     (TRADING DAYS)<\/pre><\/div>\n<div><pre>   NITE.SP     1  1620     0   830        1     5000<\/pre><\/div>\n<div><pre><\/pre><\/div>\n<\/div>\n<\/div>\n",
            "lines": 31,
            "lines_more": 26,
            "preview_is_truncated": true,
            "channels": [
                "C1FK0RL2V"
            ],
            "groups": [],
            "ims": [],
            "comments_count": 0,
            "reactions": [
                {
                    "name": "scream",
                    "users": [
                        "U1FHF07QT"
                    ],
                    "count": 1
                },
                {
                    "name": "bear",
                    "users": [
                        "U1J0N0DPZ"
                    ],
                    "count": 1
                }
            ]
        },
        "user": "U1FKCRD8D",
        "upload": true,
        "display_as_bot": false,
        "username": "<@U1FKCRD8D|hernanavella>",
        "bot_id": null,
        "ts": "1479821803.000707"
    },
    {
        "type": "message",
        "subtype": "file_share",
        "text": "<@U1FHF07QT|jkh> uploaded a file: <https:\/\/tradingfutures.slack.com\/files\/jkh\/F354J17EV\/holiday_pattern_muted_on_tuesdays__thanksgiving_.txt|holiday pattern muted on tuesdays (thanksgiving)>",
        "file": {
            "id": "F354J17EV",
            "created": 1479827263,
            "timestamp": 1479827263,
            "name": "holiday_pattern_muted_on_tuesdays__thanksgiving_.txt",
            "title": "holiday pattern muted on tuesdays (thanksgiving)",
            "mimetype": "text\/plain",
            "filetype": "text",
            "pretty_type": "Plain Text",
            "user": "U1FHF07QT",
            "editable": true,
            "size": 982,
            "mode": "snippet",
            "is_external": false,
            "external_type": "",
            "is_public": true,
            "public_url_shared": false,
            "display_as_bot": false,
            "username": "",
            "url_private": "https:\/\/files.slack.com\/files-pri\/T1FJKLSJ2-F354J17EV\/holiday_pattern_muted_on_tuesdays__thanksgiving_.txt?t=xoxe-49631706614-119786374643-119786374659-90264fc38b",
            "url_private_download": "https:\/\/files.slack.com\/files-pri\/T1FJKLSJ2-F354J17EV\/download\/holiday_pattern_muted_on_tuesdays__thanksgiving_.txt?t=xoxe-49631706614-119786374643-119786374659-90264fc38b",
            "permalink": "https:\/\/tradingfutures.slack.com\/files\/jkh\/F354J17EV\/holiday_pattern_muted_on_tuesdays__thanksgiving_.txt",
            "permalink_public": "https:\/\/slack-files.com\/T1FJKLSJ2-F354J17EV-2ac500075e",
            "edit_link": "https:\/\/tradingfutures.slack.com\/files\/jkh\/F354J17EV\/holiday_pattern_muted_on_tuesdays__thanksgiving_.txt\/edit",
            "preview": "JKH::Tue 22 Nov 2016 10:06:45 AM EST\r\nDEP VAR SP AT 1000 TUE: 01\/01\/2009 TO 01\/01\/2020  US\/Eastern\r\n\r\nINCLUDE SP_HOLIDAYS ANNOUNCEMENT AT T(-2)\r\n\r",
            "preview_highlight": "<div class=\"CodeMirror cm-s-default CodeMirrorServer\" oncopy=\"if(event.clipboardData){event.clipboardData.setData('text\/plain',window.getSelection().toString().replace(\/\\u200b\/g,''));event.preventDefault();event.stopPropagation();}\">\n<div class=\"CodeMirror-code\">\n<div><pre>JKH::Tue 22 Nov 2016 10:06:45 AM EST<\/pre><\/div>\n<div><pre>DEP VAR SP AT 1000 TUE: 01\/01\/2009 TO 01\/01\/2020  US\/Eastern<\/pre><\/div>\n<div><pre><\/pre><\/div>\n<div><pre>INCLUDE SP_HOLIDAYS ANNOUNCEMENT AT T(-2)<\/pre><\/div>\n<div><pre><\/pre><\/div>\n<div><pre><\/pre><\/div>\n<\/div>\n<\/div>\n",
            "lines": 35,
            "lines_more": 30,
            "preview_is_truncated": true,
            "channels": [
                "C1FK0RL2V"
            ],
            "groups": [],
            "ims": [],
            "comments_count": 0
        },
        "user": "U1FHF07QT",
        "upload": true,
        "display_as_bot": false,
        "username": "<@U1FHF07QT|jkh>",
        "bot_id": null,
        "ts": "1479827264.000710"
    },
    {
        "type": "message",
        "subtype": "file_share",
        "text": "<@U1FKCRD8D|hernanavella> uploaded a file: <https:\/\/tradingfutures.slack.com\/files\/hernanavella\/F35U1PQFM\/-.txt|Untitled>",
        "file": {
            "id": "F35U1PQFM",
            "created": 1479848163,
            "timestamp": 1479848163,
            "name": "-.txt",
            "title": "Untitled",
            "mimetype": "text\/plain",
            "filetype": "text",
            "pretty_type": "Plain Text",
            "user": "U1FKCRD8D",
            "editable": true,
            "size": 2482,
            "mode": "snippet",
            "is_external": false,
            "external_type": "",
            "is_public": true,
            "public_url_shared": false,
            "display_as_bot": false,
            "username": "",
            "url_private": "https:\/\/files.slack.com\/files-pri\/T1FJKLSJ2-F35U1PQFM\/-.txt?t=xoxe-49631706614-119786374643-119786374659-90264fc38b",
            "url_private_download": "https:\/\/files.slack.com\/files-pri\/T1FJKLSJ2-F35U1PQFM\/download\/-.txt?t=xoxe-49631706614-119786374643-119786374659-90264fc38b",
            "permalink": "https:\/\/tradingfutures.slack.com\/files\/hernanavella\/F35U1PQFM\/-.txt",
            "permalink_public": "https:\/\/slack-files.com\/T1FJKLSJ2-F35U1PQFM-efdeaa307a",
            "edit_link": "https:\/\/tradingfutures.slack.com\/files\/hernanavella\/F35U1PQFM\/-.txt\/edit",
            "preview": "HERNANAVELLA-WS::Tue Nov 22 14:55:44 2016\r\nDEP VAR NITE.SP AT 1620 ALL DAYS: 1\/1\/2015 to 11\/11\/2016\r\nAS OF 0 1620, NITE.SP AT 20 COMPARISON DAY HIGH \r\nINDEPENDNT   LAG1 HOUR   LAG2 HOUR       LO       HI     (TRADING DAYS)\r\n   NITE.SP     0   930     0  1100    -5000       -1\r",
            "preview_highlight": "<div class=\"CodeMirror cm-s-default CodeMirrorServer\" oncopy=\"if(event.clipboardData){event.clipboardData.setData('text\/plain',window.getSelection().toString().replace(\/\\u200b\/g,''));event.preventDefault();event.stopPropagation();}\">\n<div class=\"CodeMirror-code\">\n<div><pre>HERNANAVELLA-WS::Tue Nov 22 14:55:44 2016<\/pre><\/div>\n<div><pre>DEP VAR NITE.SP AT 1620 ALL DAYS: 1\/1\/2015 to 11\/11\/2016<\/pre><\/div>\n<div><pre>AS OF 0 1620, NITE.SP AT 20 COMPARISON DAY HIGH <\/pre><\/div>\n<div><pre>INDEPENDNT   LAG1 HOUR   LAG2 HOUR       LO       HI     (TRADING DAYS)<\/pre><\/div>\n<div><pre>   NITE.SP     0   930     0  1100    -5000       -1<\/pre><\/div>\n<div><pre><\/pre><\/div>\n<\/div>\n<\/div>\n",
            "lines": 37,
            "lines_more": 32,
            "preview_is_truncated": true,
            "channels": [
                "C1FK0RL2V"
            ],
            "groups": [],
            "ims": [],
            "comments_count": 0,
            "reactions": [
                {
                    "name": "crown",
                    "users": [
                        "U1FHF07QT",
                        "U1J0N0DPZ"
                    ],
                    "count": 2
                },
                {
                    "name": "clap::skin-tone-2",
                    "users": [
                        "U1FHF07QT"
                    ],
                    "count": 1
                }
            ]
        },
        "user": "U1FKCRD8D",
        "upload": true,
        "display_as_bot": false,
        "username": "<@U1FKCRD8D|hernanavella>",
        "bot_id": null,
        "ts": "1479848163.000713"
    },
    {
        "type": "message",
        "subtype": "file_share",
        "text": "<@U1FHF07QT|jkh> uploaded a file: <https:\/\/tradingfutures.slack.com\/files\/jkh\/F36MV2F8F\/-.txt|Untitled>",
        "file": {
            "id": "F36MV2F8F",
            "created": 1479852512,
            "timestamp": 1479852512,
            "name": "-.txt",
            "title": "Untitled",
            "mimetype": "text\/plain",
            "filetype": "text",
            "pretty_type": "Plain Text",
            "user": "U1FHF07QT",
            "editable": true,
            "size": 1495,
            "mode": "snippet",
            "is_external": false,
            "external_type": "",
            "is_public": true,
            "public_url_shared": false,
            "display_as_bot": false,
            "username": "",
            "url_private": "https:\/\/files.slack.com\/files-pri\/T1FJKLSJ2-F36MV2F8F\/-.txt?t=xoxe-49631706614-119786374643-119786374659-90264fc38b",
            "url_private_download": "https:\/\/files.slack.com\/files-pri\/T1FJKLSJ2-F36MV2F8F\/download\/-.txt?t=xoxe-49631706614-119786374643-119786374659-90264fc38b",
            "permalink": "https:\/\/tradingfutures.slack.com\/files\/jkh\/F36MV2F8F\/-.txt",
            "permalink_public": "https:\/\/slack-files.com\/T1FJKLSJ2-F36MV2F8F-70e80eec01",
            "edit_link": "https:\/\/tradingfutures.slack.com\/files\/jkh\/F36MV2F8F\/-.txt\/edit",
            "preview": "JKH::Tue 22 Nov 2016 05:07:57 PM EST\r\nDEP VAR SP AT 1715 : 01\/01\/2015 TO 01\/01\/2020  US\/Eastern\r\n\r\nINDEPENDNT LAG1  HOUR LAG2  HOUR  LO     HI          TZ\r\n    tbond    7  1715    0  1715  -1  -5000  US\/Eastern\r",
            "preview_highlight": "<div class=\"CodeMirror cm-s-default CodeMirrorServer\" oncopy=\"if(event.clipboardData){event.clipboardData.setData('text\/plain',window.getSelection().toString().replace(\/\\u200b\/g,''));event.preventDefault();event.stopPropagation();}\">\n<div class=\"CodeMirror-code\">\n<div><pre>JKH::Tue 22 Nov 2016 05:07:57 PM EST<\/pre><\/div>\n<div><pre>DEP VAR SP AT 1715 : 01\/01\/2015 TO 01\/01\/2020  US\/Eastern<\/pre><\/div>\n<div><pre><\/pre><\/div>\n<div><pre>INDEPENDNT LAG1  HOUR LAG2  HOUR  LO     HI          TZ<\/pre><\/div>\n<div><pre>    tbond    7  1715    0  1715  -1  -5000  US\/Eastern<\/pre><\/div>\n<div><pre><\/pre><\/div>\n<\/div>\n<\/div>\n",
            "lines": 34,
            "lines_more": 29,
            "preview_is_truncated": true,
            "channels": [
                "C1FK0RL2V"
            ],
            "groups": [],
            "ims": [],
            "comments_count": 0,
            "reactions": [
                {
                    "name": "bear",
                    "users": [
                        "U1FKCRD8D"
                    ],
                    "count": 1
                }
            ]
        },
        "user": "U1FHF07QT",
        "upload": true,
        "display_as_bot": false,
        "username": "<@U1FHF07QT|jkh>",
        "bot_id": null,
        "ts": "1479852513.000716"
    },
    {
        "type": "message",
        "subtype": "file_share",
        "text": "<@U1FHF07QT|jkh> uploaded a file: <https:\/\/tradingfutures.slack.com\/files\/jkh\/F363Y4QMS\/tomorrow___6am.txt|tomorrow @ 6AM> and commented: a bullish one to keep things interesting. ^_^",
        "file": {
            "id": "F363Y4QMS",
            "created": 1479852745,
            "timestamp": 1479852745,
            "name": "tomorrow___6AM.txt",
            "title": "tomorrow @ 6AM",
            "mimetype": "text\/plain",
            "filetype": "text",
            "pretty_type": "Plain Text",
            "user": "U1FHF07QT",
            "editable": true,
            "size": 1200,
            "mode": "snippet",
            "is_external": false,
            "external_type": "",
            "is_public": true,
            "public_url_shared": false,
            "display_as_bot": false,
            "username": "",
            "url_private": "https:\/\/files.slack.com\/files-pri\/T1FJKLSJ2-F363Y4QMS\/tomorrow___6am.txt?t=xoxe-49631706614-119786374643-119786374659-90264fc38b",
            "url_private_download": "https:\/\/files.slack.com\/files-pri\/T1FJKLSJ2-F363Y4QMS\/download\/tomorrow___6am.txt?t=xoxe-49631706614-119786374643-119786374659-90264fc38b",
            "permalink": "https:\/\/tradingfutures.slack.com\/files\/jkh\/F363Y4QMS\/tomorrow___6am.txt",
            "permalink_public": "https:\/\/slack-files.com\/T1FJKLSJ2-F363Y4QMS-a79dc77b16",
            "edit_link": "https:\/\/tradingfutures.slack.com\/files\/jkh\/F363Y4QMS\/tomorrow___6am.txt\/edit",
            "preview": "JKH::Tue 22 Nov 2016 05:11:20 PM EST\r\nDEP VAR SP AT 600 : 01\/01\/2013 TO 01\/01\/2020  US\/Eastern\r\n\r\nINCLUDE FED_MINUTES ANNOUNCEMENT AT T(0)\r\n\r",
            "preview_highlight": "<div class=\"CodeMirror cm-s-default CodeMirrorServer\" oncopy=\"if(event.clipboardData){event.clipboardData.setData('text\/plain',window.getSelection().toString().replace(\/\\u200b\/g,''));event.preventDefault();event.stopPropagation();}\">\n<div class=\"CodeMirror-code\">\n<div><pre>JKH::Tue 22 Nov 2016 05:11:20 PM EST<\/pre><\/div>\n<div><pre>DEP VAR SP AT 600 : 01\/01\/2013 TO 01\/01\/2020  US\/Eastern<\/pre><\/div>\n<div><pre><\/pre><\/div>\n<div><pre>INCLUDE FED_MINUTES ANNOUNCEMENT AT T(0)<\/pre><\/div>\n<div><pre><\/pre><\/div>\n<div><pre><\/pre><\/div>\n<\/div>\n<\/div>\n",
            "lines": 29,
            "lines_more": 24,
            "preview_is_truncated": true,
            "channels": [
                "C1FK0RL2V"
            ],
            "groups": [],
            "ims": [],
            "comments_count": 1,
            "initial_comment": {
                "id": "Fc3648PK0D",
                "created": 1479852745,
                "timestamp": 1479852745,
                "user": "U1FHF07QT",
                "is_intro": true,
                "comment": "a bullish one to keep things interesting. ^_^",
                "channel": ""
            }
        },
        "user": "U1FHF07QT",
        "upload": true,
        "display_as_bot": false,
        "username": "<@U1FHF07QT|jkh>",
        "bot_id": null,
        "ts": "1479852746.000718"
    }
]