[
    {
        "type": "message",
        "subtype": "file_share",
        "text": "<@U1J0N0DPZ|duncan> uploaded a file: <https:\/\/tradingfutures.slack.com\/files\/duncan\/F2FU0PJ84\/since_2012.txt|since 2012>",
        "file": {
            "id": "F2FU0PJ84",
            "created": 1474892166,
            "timestamp": 1474892166,
            "name": "since_2012.txt",
            "title": "since 2012",
            "mimetype": "text\/plain",
            "filetype": "text",
            "pretty_type": "Plain Text",
            "user": "U1J0N0DPZ",
            "editable": true,
            "size": 1200,
            "mode": "snippet",
            "is_external": false,
            "external_type": "",
            "is_public": true,
            "public_url_shared": false,
            "display_as_bot": false,
            "username": "",
            "url_private": "https:\/\/files.slack.com\/files-pri\/T1FJKLSJ2-F2FU0PJ84\/since_2012.txt?t=xoxe-49631706614-119786374643-119786374659-90264fc38b",
            "url_private_download": "https:\/\/files.slack.com\/files-pri\/T1FJKLSJ2-F2FU0PJ84\/download\/since_2012.txt?t=xoxe-49631706614-119786374643-119786374659-90264fc38b",
            "permalink": "https:\/\/tradingfutures.slack.com\/files\/duncan\/F2FU0PJ84\/since_2012.txt",
            "permalink_public": "https:\/\/slack-files.com\/T1FJKLSJ2-F2FU0PJ84-2f62b021fb",
            "edit_link": "https:\/\/tradingfutures.slack.com\/files\/duncan\/F2FU0PJ84\/since_2012.txt\/edit",
            "preview": "an at 09\/26\/2016 08:14\r\nCalculation results for ES from 01\/03\/2012 00:00 to 09\/16\/2016 00:00\r\nReference time at 09:30\r\n\r\nEntry Conditions:\r",
            "preview_highlight": "<div class=\"CodeMirror cm-s-default CodeMirrorServer\" oncopy=\"if(event.clipboardData){event.clipboardData.setData('text\/plain',window.getSelection().toString().replace(\/\\u200b\/g,''));event.preventDefault();event.stopPropagation();}\">\n<div class=\"CodeMirror-code\">\n<div><pre>an at 09\/26\/2016 08:14<\/pre><\/div>\n<div><pre>Calculation results for ES from 01\/03\/2012 00:00 to 09\/16\/2016 00:00<\/pre><\/div>\n<div><pre>Reference time at 09:30<\/pre><\/div>\n<div><pre><\/pre><\/div>\n<div><pre>Entry Conditions:<\/pre><\/div>\n<div><pre><\/pre><\/div>\n<\/div>\n<\/div>\n",
            "lines": 23,
            "lines_more": 18,
            "preview_is_truncated": true,
            "channels": [
                "C1FK0RL2V"
            ],
            "groups": [],
            "ims": [],
            "comments_count": 0
        },
        "user": "U1J0N0DPZ",
        "upload": true,
        "display_as_bot": false,
        "username": "<@U1J0N0DPZ|duncan>",
        "bot_id": null,
        "ts": "1474892166.000137"
    },
    {
        "type": "message",
        "subtype": "file_share",
        "text": "<@U1FJWQN1Z|bet4value> uploaded a file: <https:\/\/tradingfutures.slack.com\/files\/bet4value\/F2FUU6RS5\/-.txt|Untitled> and commented: my version of duncan's pattern",
        "file": {
            "id": "F2FUU6RS5",
            "created": 1474894356,
            "timestamp": 1474894356,
            "name": "-.txt",
            "title": "Untitled",
            "mimetype": "text\/plain",
            "filetype": "text",
            "pretty_type": "Plain Text",
            "user": "U1FJWQN1Z",
            "editable": true,
            "size": 3896,
            "mode": "snippet",
            "is_external": false,
            "external_type": "",
            "is_public": true,
            "public_url_shared": false,
            "display_as_bot": false,
            "username": "",
            "url_private": "https:\/\/files.slack.com\/files-pri\/T1FJKLSJ2-F2FUU6RS5\/-.txt?t=xoxe-49631706614-119786374643-119786374659-90264fc38b",
            "url_private_download": "https:\/\/files.slack.com\/files-pri\/T1FJKLSJ2-F2FUU6RS5\/download\/-.txt?t=xoxe-49631706614-119786374643-119786374659-90264fc38b",
            "permalink": "https:\/\/tradingfutures.slack.com\/files\/bet4value\/F2FUU6RS5\/-.txt",
            "permalink_public": "https:\/\/slack-files.com\/T1FJKLSJ2-F2FUU6RS5-65c094ecdd",
            "edit_link": "https:\/\/tradingfutures.slack.com\/files\/bet4value\/F2FUU6RS5\/-.txt\/edit",
            "preview": "PCMAC::Mon Sep 26 08:33:00 2016\r\nDEP VAR NITE.SP AT 930 ALL DAYS: 1\/1\/2013 to 9\/2\/2016\r\nINDEPENDNT   LAG1 HOUR   LAG2 HOUR       LO       HI     (TRADING DAYS)\r\n   NITE.SP     1  1620     0   930     -150      -50\r\n   NITE.SP     2  1620     1  1620    -5000       -1\r",
            "preview_highlight": "<div class=\"CodeMirror cm-s-default CodeMirrorServer\" oncopy=\"if(event.clipboardData){event.clipboardData.setData('text\/plain',window.getSelection().toString().replace(\/\\u200b\/g,''));event.preventDefault();event.stopPropagation();}\">\n<div class=\"CodeMirror-code\">\n<div><pre>PCMAC::Mon Sep 26 08:33:00 2016<\/pre><\/div>\n<div><pre>DEP VAR NITE.SP AT 930 ALL DAYS: 1\/1\/2013 to 9\/2\/2016<\/pre><\/div>\n<div><pre>INDEPENDNT   LAG1 HOUR   LAG2 HOUR       LO       HI     (TRADING DAYS)<\/pre><\/div>\n<div><pre>   NITE.SP     1  1620     0   930     -150      -50<\/pre><\/div>\n<div><pre>   NITE.SP     2  1620     1  1620    -5000       -1<\/pre><\/div>\n<div><pre><\/pre><\/div>\n<\/div>\n<\/div>\n",
            "lines": 65,
            "lines_more": 60,
            "preview_is_truncated": true,
            "channels": [
                "C1FK0RL2V"
            ],
            "groups": [],
            "ims": [],
            "comments_count": 1,
            "initial_comment": {
                "id": "Fc2FUHGGSU",
                "created": 1474894356,
                "timestamp": 1474894356,
                "user": "U1FJWQN1Z",
                "is_intro": true,
                "comment": "my version of duncan's pattern",
                "channel": ""
            },
            "reactions": [
                {
                    "name": "cow",
                    "users": [
                        "U1FKCRD8D"
                    ],
                    "count": 1
                },
                {
                    "name": "eyes",
                    "users": [
                        "U1FHF07QT"
                    ],
                    "count": 1
                }
            ]
        },
        "user": "U1FJWQN1Z",
        "upload": true,
        "display_as_bot": false,
        "username": "<@U1FJWQN1Z|bet4value>",
        "bot_id": null,
        "ts": "1474894356.000138"
    },
    {
        "type": "message",
        "subtype": "file_share",
        "text": "<@U1FKCRD8D|hernanavella> uploaded a file: <https:\/\/tradingfutures.slack.com\/files\/hernanavella\/F2FUW5WRJ\/-.txt|Untitled>",
        "file": {
            "id": "F2FUW5WRJ",
            "created": 1474896641,
            "timestamp": 1474896641,
            "name": "-.txt",
            "title": "Untitled",
            "mimetype": "text\/plain",
            "filetype": "text",
            "pretty_type": "Plain Text",
            "user": "U1FKCRD8D",
            "editable": true,
            "size": 2818,
            "mode": "snippet",
            "is_external": false,
            "external_type": "",
            "is_public": true,
            "public_url_shared": false,
            "display_as_bot": false,
            "username": "",
            "url_private": "https:\/\/files.slack.com\/files-pri\/T1FJKLSJ2-F2FUW5WRJ\/-.txt?t=xoxe-49631706614-119786374643-119786374659-90264fc38b",
            "url_private_download": "https:\/\/files.slack.com\/files-pri\/T1FJKLSJ2-F2FUW5WRJ\/download\/-.txt?t=xoxe-49631706614-119786374643-119786374659-90264fc38b",
            "permalink": "https:\/\/tradingfutures.slack.com\/files\/hernanavella\/F2FUW5WRJ\/-.txt",
            "permalink_public": "https:\/\/slack-files.com\/T1FJKLSJ2-F2FUW5WRJ-68082c5dd8",
            "edit_link": "https:\/\/tradingfutures.slack.com\/files\/hernanavella\/F2FUW5WRJ\/-.txt\/edit",
            "preview": "HERNANAVELLA-WS::Mon Sep 26 08:29:57 2016\r\nDEP VAR NITE.SP AT 930 ALL DAYS: 1\/1\/2013 to 9\/2\/2016\r\nINDEPENDNT   LAG1 HOUR   LAG2 HOUR       LO       HI     (TRADING DAYS)\r\n   NITE.SP     1  1620     0   930    -5000      -50\r\n     CRUDE     1  1430     0   900        1     5000\r",
            "preview_highlight": "<div class=\"CodeMirror cm-s-default CodeMirrorServer\" oncopy=\"if(event.clipboardData){event.clipboardData.setData('text\/plain',window.getSelection().toString().replace(\/\\u200b\/g,''));event.preventDefault();event.stopPropagation();}\">\n<div class=\"CodeMirror-code\">\n<div><pre>HERNANAVELLA-WS::Mon Sep 26 08:29:57 2016<\/pre><\/div>\n<div><pre>DEP VAR NITE.SP AT 930 ALL DAYS: 1\/1\/2013 to 9\/2\/2016<\/pre><\/div>\n<div><pre>INDEPENDNT   LAG1 HOUR   LAG2 HOUR       LO       HI     (TRADING DAYS)<\/pre><\/div>\n<div><pre>   NITE.SP     1  1620     0   930    -5000      -50<\/pre><\/div>\n<div><pre>     CRUDE     1  1430     0   900        1     5000<\/pre><\/div>\n<div><pre><\/pre><\/div>\n<\/div>\n<\/div>\n",
            "lines": 42,
            "lines_more": 37,
            "preview_is_truncated": true,
            "channels": [
                "C1FK0RL2V"
            ],
            "groups": [],
            "ims": [],
            "comments_count": 0
        },
        "user": "U1FKCRD8D",
        "upload": true,
        "display_as_bot": false,
        "username": "<@U1FKCRD8D|hernanavella>",
        "bot_id": null,
        "ts": "1474896641.000141"
    },
    {
        "type": "message",
        "subtype": "file_share",
        "text": "<@U1FKCRD8D|hernanavella> uploaded a file: <https:\/\/tradingfutures.slack.com\/files\/hernanavella\/F2G1S3AG0\/_close.txt|@close>",
        "file": {
            "id": "F2G1S3AG0",
            "created": 1474904690,
            "timestamp": 1474904690,
            "name": "_close.txt",
            "title": "@close",
            "mimetype": "text\/plain",
            "filetype": "text",
            "pretty_type": "Plain Text",
            "user": "U1FKCRD8D",
            "editable": true,
            "size": 2538,
            "mode": "snippet",
            "is_external": false,
            "external_type": "",
            "is_public": true,
            "public_url_shared": false,
            "display_as_bot": false,
            "username": "",
            "url_private": "https:\/\/files.slack.com\/files-pri\/T1FJKLSJ2-F2G1S3AG0\/_close.txt?t=xoxe-49631706614-119786374643-119786374659-90264fc38b",
            "url_private_download": "https:\/\/files.slack.com\/files-pri\/T1FJKLSJ2-F2G1S3AG0\/download\/_close.txt?t=xoxe-49631706614-119786374643-119786374659-90264fc38b",
            "permalink": "https:\/\/tradingfutures.slack.com\/files\/hernanavella\/F2G1S3AG0\/_close.txt",
            "permalink_public": "https:\/\/slack-files.com\/T1FJKLSJ2-F2G1S3AG0-6052b90586",
            "edit_link": "https:\/\/tradingfutures.slack.com\/files\/hernanavella\/F2G1S3AG0\/_close.txt\/edit",
            "preview": "HERNANAVELLA-WS::Mon Sep 26 10:44:21 2016\r\nDEP VAR NITE.SP AT 1620 ALL DAYS: 1\/1\/2015 to 9\/2\/2016\r\nINDEPENDNT   LAG1 HOUR   LAG2 HOUR       LO       HI     (TRADING DAYS)\r\n   NITE.SP     1  1620     0  1620    -5000      -10\r\n   NITE.SP     2  1620     1  1620    -5000      -10\r",
            "preview_highlight": "<div class=\"CodeMirror cm-s-default CodeMirrorServer\" oncopy=\"if(event.clipboardData){event.clipboardData.setData('text\/plain',window.getSelection().toString().replace(\/\\u200b\/g,''));event.preventDefault();event.stopPropagation();}\">\n<div class=\"CodeMirror-code\">\n<div><pre>HERNANAVELLA-WS::Mon Sep 26 10:44:21 2016<\/pre><\/div>\n<div><pre>DEP VAR NITE.SP AT 1620 ALL DAYS: 1\/1\/2015 to 9\/2\/2016<\/pre><\/div>\n<div><pre>INDEPENDNT   LAG1 HOUR   LAG2 HOUR       LO       HI     (TRADING DAYS)<\/pre><\/div>\n<div><pre>   NITE.SP     1  1620     0  1620    -5000      -10<\/pre><\/div>\n<div><pre>   NITE.SP     2  1620     1  1620    -5000      -10<\/pre><\/div>\n<div><pre><\/pre><\/div>\n<\/div>\n<\/div>\n",
            "lines": 38,
            "lines_more": 33,
            "preview_is_truncated": true,
            "channels": [
                "C1FK0RL2V"
            ],
            "groups": [],
            "ims": [],
            "comments_count": 0
        },
        "user": "U1FKCRD8D",
        "upload": true,
        "display_as_bot": false,
        "username": "<@U1FKCRD8D|hernanavella>",
        "bot_id": null,
        "ts": "1474904691.000142"
    },
    {
        "type": "message",
        "subtype": "file_share",
        "text": "<@U1FKCRD8D|hernanavella> uploaded a file: <https:\/\/tradingfutures.slack.com\/files\/hernanavella\/F2G2J2A73\/-.txt|Untitled>",
        "file": {
            "id": "F2G2J2A73",
            "created": 1474906251,
            "timestamp": 1474906251,
            "name": "-.txt",
            "title": "Untitled",
            "mimetype": "text\/plain",
            "filetype": "text",
            "pretty_type": "Plain Text",
            "user": "U1FKCRD8D",
            "editable": true,
            "size": 2819,
            "mode": "snippet",
            "is_external": false,
            "external_type": "",
            "is_public": true,
            "public_url_shared": false,
            "display_as_bot": false,
            "username": "",
            "url_private": "https:\/\/files.slack.com\/files-pri\/T1FJKLSJ2-F2G2J2A73\/-.txt?t=xoxe-49631706614-119786374643-119786374659-90264fc38b",
            "url_private_download": "https:\/\/files.slack.com\/files-pri\/T1FJKLSJ2-F2G2J2A73\/download\/-.txt?t=xoxe-49631706614-119786374643-119786374659-90264fc38b",
            "permalink": "https:\/\/tradingfutures.slack.com\/files\/hernanavella\/F2G2J2A73\/-.txt",
            "permalink_public": "https:\/\/slack-files.com\/T1FJKLSJ2-F2G2J2A73-952438110e",
            "edit_link": "https:\/\/tradingfutures.slack.com\/files\/hernanavella\/F2G2J2A73\/-.txt\/edit",
            "preview": "HERNANAVELLA-WS::Mon Sep 26 11:10:22 2016\r\nDEP VAR NITE.SP AT 1200 ALL DAYS: 1\/1\/2016 to 9\/2\/2016\r\nINDEPENDNT   LAG1 HOUR   LAG2 HOUR       LO       HI     (TRADING DAYS)\r\n   NITE.SP     1  1620     0  1200    -5000     -100\r\n   NITE.SP     2  1620     1  1620    -5000       -1\r",
            "preview_highlight": "<div class=\"CodeMirror cm-s-default CodeMirrorServer\" oncopy=\"if(event.clipboardData){event.clipboardData.setData('text\/plain',window.getSelection().toString().replace(\/\\u200b\/g,''));event.preventDefault();event.stopPropagation();}\">\n<div class=\"CodeMirror-code\">\n<div><pre>HERNANAVELLA-WS::Mon Sep 26 11:10:22 2016<\/pre><\/div>\n<div><pre>DEP VAR NITE.SP AT 1200 ALL DAYS: 1\/1\/2016 to 9\/2\/2016<\/pre><\/div>\n<div><pre>INDEPENDNT   LAG1 HOUR   LAG2 HOUR       LO       HI     (TRADING DAYS)<\/pre><\/div>\n<div><pre>   NITE.SP     1  1620     0  1200    -5000     -100<\/pre><\/div>\n<div><pre>   NITE.SP     2  1620     1  1620    -5000       -1<\/pre><\/div>\n<div><pre><\/pre><\/div>\n<\/div>\n<\/div>\n",
            "lines": 42,
            "lines_more": 37,
            "preview_is_truncated": true,
            "channels": [
                "C1FK0RL2V"
            ],
            "groups": [],
            "ims": [],
            "comments_count": 0,
            "reactions": [
                {
                    "name": "rocket",
                    "users": [
                        "U1FHF07QT"
                    ],
                    "count": 1
                }
            ]
        },
        "user": "U1FKCRD8D",
        "upload": true,
        "display_as_bot": false,
        "username": "<@U1FKCRD8D|hernanavella>",
        "bot_id": null,
        "ts": "1474906251.000143"
    },
    {
        "type": "message",
        "subtype": "file_share",
        "text": "<@U1FKCRD8D|hernanavella> uploaded a file: <https:\/\/tradingfutures.slack.com\/files\/hernanavella\/F2G3GQ9UM\/_close.txt|@Close>",
        "file": {
            "id": "F2G3GQ9UM",
            "created": 1474910437,
            "timestamp": 1474910437,
            "name": "_Close.txt",
            "title": "@Close",
            "mimetype": "text\/plain",
            "filetype": "text",
            "pretty_type": "Plain Text",
            "user": "U1FKCRD8D",
            "editable": true,
            "size": 2479,
            "mode": "snippet",
            "is_external": false,
            "external_type": "",
            "is_public": true,
            "public_url_shared": false,
            "display_as_bot": false,
            "username": "",
            "url_private": "https:\/\/files.slack.com\/files-pri\/T1FJKLSJ2-F2G3GQ9UM\/_close.txt?t=xoxe-49631706614-119786374643-119786374659-90264fc38b",
            "url_private_download": "https:\/\/files.slack.com\/files-pri\/T1FJKLSJ2-F2G3GQ9UM\/download\/_close.txt?t=xoxe-49631706614-119786374643-119786374659-90264fc38b",
            "permalink": "https:\/\/tradingfutures.slack.com\/files\/hernanavella\/F2G3GQ9UM\/_close.txt",
            "permalink_public": "https:\/\/slack-files.com\/T1FJKLSJ2-F2G3GQ9UM-f36343a77b",
            "edit_link": "https:\/\/tradingfutures.slack.com\/files\/hernanavella\/F2G3GQ9UM\/_close.txt\/edit",
            "preview": "HERNANAVELLA-WS::Mon Sep 26 12:19:47 2016\r\nDEP VAR NITE.SP AT 1620 MON: 1\/1\/2013 to 9\/2\/2016\r\nINDEPENDNT   LAG1 HOUR   LAG2 HOUR       LO       HI     (TRADING DAYS)\r\n   NITE.SP     2  1620     1  1620    -5000      -50\r\n   NITE.SP     1  1620     0  1620    -5000      -50\r",
            "preview_highlight": "<div class=\"CodeMirror cm-s-default CodeMirrorServer\" oncopy=\"if(event.clipboardData){event.clipboardData.setData('text\/plain',window.getSelection().toString().replace(\/\\u200b\/g,''));event.preventDefault();event.stopPropagation();}\">\n<div class=\"CodeMirror-code\">\n<div><pre>HERNANAVELLA-WS::Mon Sep 26 12:19:47 2016<\/pre><\/div>\n<div><pre>DEP VAR NITE.SP AT 1620 MON: 1\/1\/2013 to 9\/2\/2016<\/pre><\/div>\n<div><pre>INDEPENDNT   LAG1 HOUR   LAG2 HOUR       LO       HI     (TRADING DAYS)<\/pre><\/div>\n<div><pre>   NITE.SP     2  1620     1  1620    -5000      -50<\/pre><\/div>\n<div><pre>   NITE.SP     1  1620     0  1620    -5000      -50<\/pre><\/div>\n<div><pre><\/pre><\/div>\n<\/div>\n<\/div>\n",
            "lines": 37,
            "lines_more": 32,
            "preview_is_truncated": true,
            "channels": [
                "C1FK0RL2V"
            ],
            "groups": [],
            "ims": [],
            "comments_count": 0
        },
        "user": "U1FKCRD8D",
        "upload": true,
        "display_as_bot": false,
        "username": "<@U1FKCRD8D|hernanavella>",
        "bot_id": null,
        "ts": "1474910438.000145"
    },
    {
        "type": "message",
        "subtype": "file_share",
        "text": "<@U1FJWQN1Z|bet4value> uploaded a file: <https:\/\/tradingfutures.slack.com\/files\/bet4value\/F2G43GYKB\/-.txt|Untitled>",
        "file": {
            "id": "F2G43GYKB",
            "created": 1474912218,
            "timestamp": 1474912218,
            "name": "-.txt",
            "title": "Untitled",
            "mimetype": "text\/plain",
            "filetype": "text",
            "pretty_type": "Plain Text",
            "user": "U1FJWQN1Z",
            "editable": true,
            "size": 3773,
            "mode": "snippet",
            "is_external": false,
            "external_type": "",
            "is_public": true,
            "public_url_shared": false,
            "display_as_bot": false,
            "username": "",
            "url_private": "https:\/\/files.slack.com\/files-pri\/T1FJKLSJ2-F2G43GYKB\/-.txt?t=xoxe-49631706614-119786374643-119786374659-90264fc38b",
            "url_private_download": "https:\/\/files.slack.com\/files-pri\/T1FJKLSJ2-F2G43GYKB\/download\/-.txt?t=xoxe-49631706614-119786374643-119786374659-90264fc38b",
            "permalink": "https:\/\/tradingfutures.slack.com\/files\/bet4value\/F2G43GYKB\/-.txt",
            "permalink_public": "https:\/\/slack-files.com\/T1FJKLSJ2-F2G43GYKB-79513eb171",
            "edit_link": "https:\/\/tradingfutures.slack.com\/files\/bet4value\/F2G43GYKB\/-.txt\/edit",
            "preview": "PCMAC::Mon Sep 26 13:50:00 2016\r\nDEP VAR NITE.SP AT 1400 ALL DAYS: 1\/1\/2013 to 9\/2\/2016\r\nINDEPENDNT   LAG1 HOUR   LAG2 HOUR       LO       HI     (TRADING DAYS)\r\n   NITE.SP     5  1620     1  1620        1     5000\r\n   NITE.SP     2  1620     1  1620    -5000       -1\r",
            "preview_highlight": "<div class=\"CodeMirror cm-s-default CodeMirrorServer\" oncopy=\"if(event.clipboardData){event.clipboardData.setData('text\/plain',window.getSelection().toString().replace(\/\\u200b\/g,''));event.preventDefault();event.stopPropagation();}\">\n<div class=\"CodeMirror-code\">\n<div><pre>PCMAC::Mon Sep 26 13:50:00 2016<\/pre><\/div>\n<div><pre>DEP VAR NITE.SP AT 1400 ALL DAYS: 1\/1\/2013 to 9\/2\/2016<\/pre><\/div>\n<div><pre>INDEPENDNT   LAG1 HOUR   LAG2 HOUR       LO       HI     (TRADING DAYS)<\/pre><\/div>\n<div><pre>   NITE.SP     5  1620     1  1620        1     5000<\/pre><\/div>\n<div><pre>   NITE.SP     2  1620     1  1620    -5000       -1<\/pre><\/div>\n<div><pre><\/pre><\/div>\n<\/div>\n<\/div>\n",
            "lines": 63,
            "lines_more": 58,
            "preview_is_truncated": true,
            "channels": [
                "C1FK0RL2V"
            ],
            "groups": [],
            "ims": [],
            "comments_count": 0
        },
        "user": "U1FJWQN1Z",
        "upload": true,
        "display_as_bot": false,
        "username": "<@U1FJWQN1Z|bet4value>",
        "bot_id": null,
        "ts": "1474912219.000146"
    },
    {
        "type": "message",
        "subtype": "file_share",
        "text": "<@U1FJWQN1Z|bet4value> uploaded a file: <https:\/\/tradingfutures.slack.com\/files\/bet4value\/F2G4N6PEE\/-.txt|Untitled> and commented: thinking i missed buy opp or you may not want it if it goes back down",
        "file": {
            "id": "F2G4N6PEE",
            "created": 1474913605,
            "timestamp": 1474913605,
            "name": "-.txt",
            "title": "Untitled",
            "mimetype": "text\/plain",
            "filetype": "text",
            "pretty_type": "Plain Text",
            "user": "U1FJWQN1Z",
            "editable": true,
            "size": 3711,
            "mode": "snippet",
            "is_external": false,
            "external_type": "",
            "is_public": true,
            "public_url_shared": false,
            "display_as_bot": false,
            "username": "",
            "url_private": "https:\/\/files.slack.com\/files-pri\/T1FJKLSJ2-F2G4N6PEE\/-.txt?t=xoxe-49631706614-119786374643-119786374659-90264fc38b",
            "url_private_download": "https:\/\/files.slack.com\/files-pri\/T1FJKLSJ2-F2G4N6PEE\/download\/-.txt?t=xoxe-49631706614-119786374643-119786374659-90264fc38b",
            "permalink": "https:\/\/tradingfutures.slack.com\/files\/bet4value\/F2G4N6PEE\/-.txt",
            "permalink_public": "https:\/\/slack-files.com\/T1FJKLSJ2-F2G4N6PEE-7e3e94215c",
            "edit_link": "https:\/\/tradingfutures.slack.com\/files\/bet4value\/F2G4N6PEE\/-.txt\/edit",
            "preview": "PCMAC::Mon Sep 26 14:11:12 2016\r\nDEP VAR NITE.SP AT 1430 ALL DAYS: 1\/1\/2013 to 9\/2\/2016\r\nINDEPENDNT   LAG1 HOUR   LAG2 HOUR       LO       HI     (TRADING DAYS)\r\n   NITE.SP     5  1620     1  1620        1     5000\r\n   NITE.SP     2  1620     1  1620    -5000       -1\r",
            "preview_highlight": "<div class=\"CodeMirror cm-s-default CodeMirrorServer\" oncopy=\"if(event.clipboardData){event.clipboardData.setData('text\/plain',window.getSelection().toString().replace(\/\\u200b\/g,''));event.preventDefault();event.stopPropagation();}\">\n<div class=\"CodeMirror-code\">\n<div><pre>PCMAC::Mon Sep 26 14:11:12 2016<\/pre><\/div>\n<div><pre>DEP VAR NITE.SP AT 1430 ALL DAYS: 1\/1\/2013 to 9\/2\/2016<\/pre><\/div>\n<div><pre>INDEPENDNT   LAG1 HOUR   LAG2 HOUR       LO       HI     (TRADING DAYS)<\/pre><\/div>\n<div><pre>   NITE.SP     5  1620     1  1620        1     5000<\/pre><\/div>\n<div><pre>   NITE.SP     2  1620     1  1620    -5000       -1<\/pre><\/div>\n<div><pre><\/pre><\/div>\n<\/div>\n<\/div>\n",
            "lines": 62,
            "lines_more": 57,
            "preview_is_truncated": true,
            "channels": [
                "C1FK0RL2V"
            ],
            "groups": [],
            "ims": [],
            "comments_count": 1,
            "initial_comment": {
                "id": "Fc2G457UE4",
                "created": 1474913605,
                "timestamp": 1474913605,
                "user": "U1FJWQN1Z",
                "is_intro": true,
                "comment": "thinking i missed buy opp or you may not want it if it goes back down",
                "channel": ""
            }
        },
        "user": "U1FJWQN1Z",
        "upload": true,
        "display_as_bot": false,
        "username": "<@U1FJWQN1Z|bet4value>",
        "bot_id": null,
        "ts": "1474913605.000147"
    },
    {
        "type": "message",
        "subtype": "file_share",
        "text": "<@U1J0N0DPZ|duncan> uploaded a file: <https:\/\/tradingfutures.slack.com\/files\/duncan\/F2G5YF63U\/-.txt|Untitled> and commented: interesting trade equity curve, after losing 200 point in 8\/2015, now fully recovered, holding to close +1",
        "file": {
            "id": "F2G5YF63U",
            "created": 1474918777,
            "timestamp": 1474918777,
            "name": "-.txt",
            "title": "Untitled",
            "mimetype": "text\/plain",
            "filetype": "text",
            "pretty_type": "Plain Text",
            "user": "U1J0N0DPZ",
            "editable": true,
            "size": 1969,
            "mode": "snippet",
            "is_external": false,
            "external_type": "",
            "is_public": true,
            "public_url_shared": false,
            "display_as_bot": false,
            "username": "",
            "url_private": "https:\/\/files.slack.com\/files-pri\/T1FJKLSJ2-F2G5YF63U\/-.txt?t=xoxe-49631706614-119786374643-119786374659-90264fc38b",
            "url_private_download": "https:\/\/files.slack.com\/files-pri\/T1FJKLSJ2-F2G5YF63U\/download\/-.txt?t=xoxe-49631706614-119786374643-119786374659-90264fc38b",
            "permalink": "https:\/\/tradingfutures.slack.com\/files\/duncan\/F2G5YF63U\/-.txt",
            "permalink_public": "https:\/\/slack-files.com\/T1FJKLSJ2-F2G5YF63U-cca5df0dc5",
            "edit_link": "https:\/\/tradingfutures.slack.com\/files\/duncan\/F2G5YF63U\/-.txt\/edit",
            "preview": "Ran at 09\/26\/2016 15:37\r\nCalculation results for ES from 01\/07\/2003 00:00 to 09\/23\/2016 00:00\r\nReference time at 16:15\r\n\r\nEntry Conditions:\r",
            "preview_highlight": "<div class=\"CodeMirror cm-s-default CodeMirrorServer\" oncopy=\"if(event.clipboardData){event.clipboardData.setData('text\/plain',window.getSelection().toString().replace(\/\\u200b\/g,''));event.preventDefault();event.stopPropagation();}\">\n<div class=\"CodeMirror-code\">\n<div><pre>Ran at 09\/26\/2016 15:37<\/pre><\/div>\n<div><pre>Calculation results for ES from 01\/07\/2003 00:00 to 09\/23\/2016 00:00<\/pre><\/div>\n<div><pre>Reference time at 16:15<\/pre><\/div>\n<div><pre><\/pre><\/div>\n<div><pre>Entry Conditions:<\/pre><\/div>\n<div><pre><\/pre><\/div>\n<\/div>\n<\/div>\n",
            "lines": 31,
            "lines_more": 26,
            "preview_is_truncated": true,
            "channels": [
                "C1FK0RL2V"
            ],
            "groups": [],
            "ims": [],
            "comments_count": 1,
            "initial_comment": {
                "id": "Fc2G5SEHSM",
                "created": 1474918777,
                "timestamp": 1474918777,
                "user": "U1J0N0DPZ",
                "is_intro": true,
                "comment": "interesting trade equity curve, after losing 200 point in 8\/2015, now fully recovered, holding to close +1",
                "channel": ""
            }
        },
        "user": "U1J0N0DPZ",
        "upload": true,
        "display_as_bot": false,
        "username": "<@U1J0N0DPZ|duncan>",
        "bot_id": null,
        "ts": "1474918777.000148"
    },
    {
        "type": "message",
        "subtype": "file_share",
        "text": "<@U1J0N0DPZ|duncan> uploaded a file: <https:\/\/tradingfutures.slack.com\/files\/duncan\/F2G5ZEW6N\/pasted_image_at_2016_09_26_03_41_pm.png|Pasted image at 2016-09-26, 3:41 PM>",
        "file": {
            "id": "F2G5ZEW6N",
            "created": 1474918900,
            "timestamp": 1474918900,
            "name": "Pasted image at 2016_09_26 03_41 PM.png",
            "title": "Pasted image at 2016-09-26, 3:41 PM",
            "mimetype": "image\/png",
            "filetype": "png",
            "pretty_type": "PNG",
            "user": "U1J0N0DPZ",
            "editable": false,
            "size": 139044,
            "mode": "hosted",
            "is_external": false,
            "external_type": "",
            "is_public": true,
            "public_url_shared": false,
            "display_as_bot": false,
            "username": "",
            "url_private": "https:\/\/files.slack.com\/files-pri\/T1FJKLSJ2-F2G5ZEW6N\/pasted_image_at_2016_09_26_03_41_pm.png?t=xoxe-49631706614-119786374643-119786374659-90264fc38b",
            "url_private_download": "https:\/\/files.slack.com\/files-pri\/T1FJKLSJ2-F2G5ZEW6N\/download\/pasted_image_at_2016_09_26_03_41_pm.png?t=xoxe-49631706614-119786374643-119786374659-90264fc38b",
            "thumb_64": "https:\/\/files.slack.com\/files-tmb\/T1FJKLSJ2-F2G5ZEW6N-37d320d13f\/pasted_image_at_2016_09_26_03_41_pm_64.png?t=xoxe-49631706614-119786374643-119786374659-90264fc38b",
            "thumb_80": "https:\/\/files.slack.com\/files-tmb\/T1FJKLSJ2-F2G5ZEW6N-37d320d13f\/pasted_image_at_2016_09_26_03_41_pm_80.png?t=xoxe-49631706614-119786374643-119786374659-90264fc38b",
            "thumb_360": "https:\/\/files.slack.com\/files-tmb\/T1FJKLSJ2-F2G5ZEW6N-37d320d13f\/pasted_image_at_2016_09_26_03_41_pm_360.png?t=xoxe-49631706614-119786374643-119786374659-90264fc38b",
            "thumb_360_w": 360,
            "thumb_360_h": 195,
            "thumb_480": "https:\/\/files.slack.com\/files-tmb\/T1FJKLSJ2-F2G5ZEW6N-37d320d13f\/pasted_image_at_2016_09_26_03_41_pm_480.png?t=xoxe-49631706614-119786374643-119786374659-90264fc38b",
            "thumb_480_w": 480,
            "thumb_480_h": 260,
            "thumb_160": "https:\/\/files.slack.com\/files-tmb\/T1FJKLSJ2-F2G5ZEW6N-37d320d13f\/pasted_image_at_2016_09_26_03_41_pm_160.png?t=xoxe-49631706614-119786374643-119786374659-90264fc38b",
            "thumb_720": "https:\/\/files.slack.com\/files-tmb\/T1FJKLSJ2-F2G5ZEW6N-37d320d13f\/pasted_image_at_2016_09_26_03_41_pm_720.png?t=xoxe-49631706614-119786374643-119786374659-90264fc38b",
            "thumb_720_w": 720,
            "thumb_720_h": 390,
            "thumb_960": "https:\/\/files.slack.com\/files-tmb\/T1FJKLSJ2-F2G5ZEW6N-37d320d13f\/pasted_image_at_2016_09_26_03_41_pm_960.png?t=xoxe-49631706614-119786374643-119786374659-90264fc38b",
            "thumb_960_w": 960,
            "thumb_960_h": 520,
            "thumb_1024": "https:\/\/files.slack.com\/files-tmb\/T1FJKLSJ2-F2G5ZEW6N-37d320d13f\/pasted_image_at_2016_09_26_03_41_pm_1024.png?t=xoxe-49631706614-119786374643-119786374659-90264fc38b",
            "thumb_1024_w": 1024,
            "thumb_1024_h": 555,
            "image_exif_rotation": 1,
            "original_w": 1920,
            "original_h": 1040,
            "permalink": "https:\/\/tradingfutures.slack.com\/files\/duncan\/F2G5ZEW6N\/pasted_image_at_2016_09_26_03_41_pm.png",
            "permalink_public": "https:\/\/slack-files.com\/T1FJKLSJ2-F2G5ZEW6N-43fd922a22",
            "channels": [
                "C1FK0RL2V"
            ],
            "groups": [],
            "ims": [],
            "comments_count": 0,
            "reactions": [
                {
                    "name": "thinking_face",
                    "users": [
                        "U1FHF07QT"
                    ],
                    "count": 1
                },
                {
                    "name": "tophat",
                    "users": [
                        "U1FHF07QT"
                    ],
                    "count": 1
                }
            ]
        },
        "user": "U1J0N0DPZ",
        "upload": true,
        "display_as_bot": false,
        "username": "<@U1J0N0DPZ|duncan>",
        "bot_id": null,
        "ts": "1474918903.000149"
    },
    {
        "type": "message",
        "user": "U1J0N0DPZ",
        "text": "but is recent trade success (2016),  bullish or bearish for the strategy, tend to think bullish",
        "ts": "1474918980.000150"
    }
]