[
    {
        "type": "message",
        "subtype": "file_share",
        "text": "<@U1FKCRD8D|hernanavella> uploaded a file: <https:\/\/tradingfutures.slack.com\/files\/hernanavella\/F2DKQAAUR\/-.txt|Untitled>",
        "file": {
            "id": "F2DKQAAUR",
            "created": 1474372538,
            "timestamp": 1474372538,
            "name": "-.txt",
            "title": "Untitled",
            "mimetype": "text\/plain",
            "filetype": "text",
            "pretty_type": "Plain Text",
            "user": "U1FKCRD8D",
            "editable": true,
            "size": 1861,
            "mode": "snippet",
            "is_external": false,
            "external_type": "",
            "is_public": true,
            "public_url_shared": false,
            "display_as_bot": false,
            "username": "",
            "url_private": "https:\/\/files.slack.com\/files-pri\/T1FJKLSJ2-F2DKQAAUR\/-.txt?t=xoxe-49631706614-119786374643-119786374659-90264fc38b",
            "url_private_download": "https:\/\/files.slack.com\/files-pri\/T1FJKLSJ2-F2DKQAAUR\/download\/-.txt?t=xoxe-49631706614-119786374643-119786374659-90264fc38b",
            "permalink": "https:\/\/tradingfutures.slack.com\/files\/hernanavella\/F2DKQAAUR\/-.txt",
            "permalink_public": "https:\/\/slack-files.com\/T1FJKLSJ2-F2DKQAAUR-179f81e863",
            "edit_link": "https:\/\/tradingfutures.slack.com\/files\/hernanavella\/F2DKQAAUR\/-.txt\/edit",
            "preview": "HERNANAVELLA-WS::Tue Sep 20 06:55:05 2016\r\nDEP VAR NITE.SP AT 930 ALL DAYS: 1\/1\/2010 to 9\/2\/2016\r\nINCLUDE FOMC ANNOUNCEMENT AT T(1)\r\nINDEPENDNT   LAG1 HOUR   LAG2 HOUR       LO       HI     (TRADING DAYS)\r\n   NITE.SP     1  1620     0   930        1      100\r",
            "preview_highlight": "<div class=\"CodeMirror cm-s-default CodeMirrorServer\" oncopy=\"if(event.clipboardData){event.clipboardData.setData('text\/plain',window.getSelection().toString().replace(\/\\u200b\/g,''));event.preventDefault();event.stopPropagation();}\">\n<div class=\"CodeMirror-code\">\n<div><pre>HERNANAVELLA-WS::Tue Sep 20 06:55:05 2016<\/pre><\/div>\n<div><pre>DEP VAR NITE.SP AT 930 ALL DAYS: 1\/1\/2010 to 9\/2\/2016<\/pre><\/div>\n<div><pre>INCLUDE FOMC ANNOUNCEMENT AT T(1)<\/pre><\/div>\n<div><pre>INDEPENDNT   LAG1 HOUR   LAG2 HOUR       LO       HI     (TRADING DAYS)<\/pre><\/div>\n<div><pre>   NITE.SP     1  1620     0   930        1      100<\/pre><\/div>\n<div><pre><\/pre><\/div>\n<\/div>\n<\/div>\n",
            "lines": 28,
            "lines_more": 23,
            "preview_is_truncated": true,
            "channels": [
                "C1FK0RL2V"
            ],
            "groups": [],
            "ims": [],
            "comments_count": 0
        },
        "user": "U1FKCRD8D",
        "upload": true,
        "display_as_bot": false,
        "username": "<@U1FKCRD8D|hernanavella>",
        "bot_id": null,
        "ts": "1474372538.000093"
    },
    {
        "type": "message",
        "subtype": "file_share",
        "text": "<@U1FKCRD8D|hernanavella> uploaded a file: <https:\/\/tradingfutures.slack.com\/files\/hernanavella\/F2DKFHAS2\/-.txt|Untitled>",
        "file": {
            "id": "F2DKFHAS2",
            "created": 1474373000,
            "timestamp": 1474373000,
            "name": "-.txt",
            "title": "Untitled",
            "mimetype": "text\/plain",
            "filetype": "text",
            "pretty_type": "Plain Text",
            "user": "U1FKCRD8D",
            "editable": true,
            "size": 1875,
            "mode": "snippet",
            "is_external": false,
            "external_type": "",
            "is_public": true,
            "public_url_shared": false,
            "display_as_bot": false,
            "username": "",
            "url_private": "https:\/\/files.slack.com\/files-pri\/T1FJKLSJ2-F2DKFHAS2\/-.txt?t=xoxe-49631706614-119786374643-119786374659-90264fc38b",
            "url_private_download": "https:\/\/files.slack.com\/files-pri\/T1FJKLSJ2-F2DKFHAS2\/download\/-.txt?t=xoxe-49631706614-119786374643-119786374659-90264fc38b",
            "permalink": "https:\/\/tradingfutures.slack.com\/files\/hernanavella\/F2DKFHAS2\/-.txt",
            "permalink_public": "https:\/\/slack-files.com\/T1FJKLSJ2-F2DKFHAS2-0954516079",
            "edit_link": "https:\/\/tradingfutures.slack.com\/files\/hernanavella\/F2DKFHAS2\/-.txt\/edit",
            "preview": "HERNANAVELLA-WS::Tue Sep 20 07:02:47 2016\r\nDEP VAR NITE.SP AT 930 TUE: 1\/1\/2011 to 9\/2\/2016\r\nINDEPENDNT   LAG1 HOUR   LAG2 HOUR       LO       HI     (TRADING DAYS)\r\n   NITE.SP     1  1620     0   930        1     5000\r\n   NITE.SP     2  1620     1  1620        1     5000\r",
            "preview_highlight": "<div class=\"CodeMirror cm-s-default CodeMirrorServer\" oncopy=\"if(event.clipboardData){event.clipboardData.setData('text\/plain',window.getSelection().toString().replace(\/\\u200b\/g,''));event.preventDefault();event.stopPropagation();}\">\n<div class=\"CodeMirror-code\">\n<div><pre>HERNANAVELLA-WS::Tue Sep 20 07:02:47 2016<\/pre><\/div>\n<div><pre>DEP VAR NITE.SP AT 930 TUE: 1\/1\/2011 to 9\/2\/2016<\/pre><\/div>\n<div><pre>INDEPENDNT   LAG1 HOUR   LAG2 HOUR       LO       HI     (TRADING DAYS)<\/pre><\/div>\n<div><pre>   NITE.SP     1  1620     0   930        1     5000<\/pre><\/div>\n<div><pre>   NITE.SP     2  1620     1  1620        1     5000<\/pre><\/div>\n<div><pre><\/pre><\/div>\n<\/div>\n<\/div>\n",
            "lines": 28,
            "lines_more": 23,
            "preview_is_truncated": true,
            "channels": [
                "C1FK0RL2V"
            ],
            "groups": [],
            "ims": [],
            "comments_count": 0
        },
        "user": "U1FKCRD8D",
        "upload": true,
        "display_as_bot": false,
        "username": "<@U1FKCRD8D|hernanavella>",
        "bot_id": null,
        "ts": "1474373001.000094"
    },
    {
        "type": "message",
        "subtype": "file_share",
        "text": "<@U1FKCRD8D|hernanavella> uploaded a file: <https:\/\/tradingfutures.slack.com\/files\/hernanavella\/F2DKR3XRT\/housing_starts.txt|Housing Starts> and commented: Last 5 not good",
        "file": {
            "id": "F2DKR3XRT",
            "created": 1474373517,
            "timestamp": 1474373517,
            "name": "Housing_Starts.txt",
            "title": "Housing Starts",
            "mimetype": "text\/plain",
            "filetype": "text",
            "pretty_type": "Plain Text",
            "user": "U1FKCRD8D",
            "editable": true,
            "size": 1811,
            "mode": "snippet",
            "is_external": false,
            "external_type": "",
            "is_public": true,
            "public_url_shared": false,
            "display_as_bot": false,
            "username": "",
            "url_private": "https:\/\/files.slack.com\/files-pri\/T1FJKLSJ2-F2DKR3XRT\/housing_starts.txt?t=xoxe-49631706614-119786374643-119786374659-90264fc38b",
            "url_private_download": "https:\/\/files.slack.com\/files-pri\/T1FJKLSJ2-F2DKR3XRT\/download\/housing_starts.txt?t=xoxe-49631706614-119786374643-119786374659-90264fc38b",
            "permalink": "https:\/\/tradingfutures.slack.com\/files\/hernanavella\/F2DKR3XRT\/housing_starts.txt",
            "permalink_public": "https:\/\/slack-files.com\/T1FJKLSJ2-F2DKR3XRT-4e512ce0d5",
            "edit_link": "https:\/\/tradingfutures.slack.com\/files\/hernanavella\/F2DKR3XRT\/housing_starts.txt\/edit",
            "preview": "HERNANAVELLA-WS::Tue Sep 20 07:10:59 2016\r\nDEP VAR NITE.SP AT 830 ALL DAYS: 1\/1\/2013 to 9\/2\/2016\r\nINCLUDE HOUSING.STARTS ANNOUNCEMENT AT T(0)\r\n\r\n   Y  M  D  DW  PLAST  900 1000 1100 1200 1300 1400 1500 1600 1620  100  200  300\r",
            "preview_highlight": "<div class=\"CodeMirror cm-s-default CodeMirrorServer\" oncopy=\"if(event.clipboardData){event.clipboardData.setData('text\/plain',window.getSelection().toString().replace(\/\\u200b\/g,''));event.preventDefault();event.stopPropagation();}\">\n<div class=\"CodeMirror-code\">\n<div><pre>HERNANAVELLA-WS::Tue Sep 20 07:10:59 2016<\/pre><\/div>\n<div><pre>DEP VAR NITE.SP AT 830 ALL DAYS: 1\/1\/2013 to 9\/2\/2016<\/pre><\/div>\n<div><pre>INCLUDE HOUSING.STARTS ANNOUNCEMENT AT T(0)<\/pre><\/div>\n<div><pre><\/pre><\/div>\n<div><pre>   Y  M  D  DW  PLAST  900 1000 1100 1200 1300 1400 1500 1600 1620  100  200  300<\/pre><\/div>\n<div><pre><\/pre><\/div>\n<\/div>\n<\/div>\n",
            "lines": 27,
            "lines_more": 22,
            "preview_is_truncated": true,
            "channels": [
                "C1FK0RL2V"
            ],
            "groups": [],
            "ims": [],
            "comments_count": 1,
            "initial_comment": {
                "id": "Fc2DKR3YDB",
                "created": 1474373517,
                "timestamp": 1474373517,
                "user": "U1FKCRD8D",
                "is_intro": true,
                "comment": "Last 5 not good",
                "channel": ""
            }
        },
        "user": "U1FKCRD8D",
        "upload": true,
        "display_as_bot": false,
        "username": "<@U1FKCRD8D|hernanavella>",
        "bot_id": null,
        "ts": "1474373518.000095"
    },
    {
        "type": "message",
        "subtype": "file_share",
        "text": "<@U1FHF07QT|jkh> shared a file: <https:\/\/tradingfutures.slack.com\/files\/jkh\/F2DJGCVV1\/BOJ__tonight_at_the_close.txt|BOJ, tonight at the close>",
        "file": {
            "id": "F2DJGCVV1",
            "created": 1474375761,
            "timestamp": 1474375761,
            "name": "BOJ__tonight_at_the_close.txt",
            "title": "BOJ, tonight at the close",
            "mimetype": "text\/plain",
            "filetype": "text",
            "pretty_type": "Plain Text",
            "user": "U1FHF07QT",
            "editable": true,
            "size": 1337,
            "mode": "snippet",
            "is_external": false,
            "external_type": "",
            "is_public": true,
            "public_url_shared": false,
            "display_as_bot": false,
            "username": "",
            "url_private": "https:\/\/files.slack.com\/files-pri\/T1FJKLSJ2-F2DJGCVV1\/BOJ__tonight_at_the_close.txt?t=xoxe-49631706614-119786374643-119786374659-90264fc38b",
            "url_private_download": "https:\/\/files.slack.com\/files-pri\/T1FJKLSJ2-F2DJGCVV1\/download\/BOJ__tonight_at_the_close.txt?t=xoxe-49631706614-119786374643-119786374659-90264fc38b",
            "permalink": "https:\/\/tradingfutures.slack.com\/files\/jkh\/F2DJGCVV1\/BOJ__tonight_at_the_close.txt",
            "permalink_public": "https:\/\/slack-files.com\/T1FJKLSJ2-F2DJGCVV1-8d8356567f",
            "edit_link": "https:\/\/tradingfutures.slack.com\/files\/jkh\/F2DJGCVV1\/BOJ__tonight_at_the_close.txt\/edit",
            "preview": "JKH::Tue 20 Sep 2016 08:48:08 AM EDT\r\nDEP VAR SP AT 1715 : 01\/01\/2013 TO 01\/01\/2020  US\/Eastern\r\n\r\nINCLUDE BOJ ANNOUNCEMENT AT T(0)\r\n\r",
            "preview_highlight": "<div class=\"CodeMirror cm-s-default CodeMirrorServer\" oncopy=\"if(event.clipboardData){event.clipboardData.setData('text\/plain',window.getSelection().toString().replace(\/\\u200b\/g,''));event.preventDefault();event.stopPropagation();}\">\n<div class=\"CodeMirror-code\">\n<div><pre>JKH::Tue 20 Sep 2016 08:48:08 AM EDT<\/pre><\/div>\n<div><pre>DEP VAR SP AT 1715 : 01\/01\/2013 TO 01\/01\/2020  US\/Eastern<\/pre><\/div>\n<div><pre><\/pre><\/div>\n<div><pre>INCLUDE BOJ ANNOUNCEMENT AT T(0)<\/pre><\/div>\n<div><pre><\/pre><\/div>\n<div><pre><\/pre><\/div>\n<\/div>\n<\/div>\n",
            "lines": 32,
            "lines_more": 27,
            "preview_is_truncated": true,
            "channels": [
                "C1FK0RL2V",
                "C1FK4DHNW"
            ],
            "groups": [],
            "ims": [],
            "comments_count": 0
        },
        "user": "U1FHF07QT",
        "upload": false,
        "display_as_bot": false,
        "username": "<@U1FHF07QT|jkh>",
        "bot_id": null,
        "ts": "1474376001.000096"
    },
    {
        "type": "message",
        "subtype": "file_share",
        "text": "<@U1FHF07QT|jkh> shared a file: <https:\/\/tradingfutures.slack.com\/files\/jkh\/F2DL9KGP3\/boj_tomorrow_morning.txt|BOJ tomorrow morning>",
        "file": {
            "id": "F2DL9KGP3",
            "created": 1474375925,
            "timestamp": 1474375925,
            "name": "BOJ_tomorrow_morning.txt",
            "title": "BOJ tomorrow morning",
            "mimetype": "text\/plain",
            "filetype": "text",
            "pretty_type": "Plain Text",
            "user": "U1FHF07QT",
            "editable": true,
            "size": 1336,
            "mode": "snippet",
            "is_external": false,
            "external_type": "",
            "is_public": true,
            "public_url_shared": false,
            "display_as_bot": false,
            "username": "",
            "url_private": "https:\/\/files.slack.com\/files-pri\/T1FJKLSJ2-F2DL9KGP3\/boj_tomorrow_morning.txt?t=xoxe-49631706614-119786374643-119786374659-90264fc38b",
            "url_private_download": "https:\/\/files.slack.com\/files-pri\/T1FJKLSJ2-F2DL9KGP3\/download\/boj_tomorrow_morning.txt?t=xoxe-49631706614-119786374643-119786374659-90264fc38b",
            "permalink": "https:\/\/tradingfutures.slack.com\/files\/jkh\/F2DL9KGP3\/boj_tomorrow_morning.txt",
            "permalink_public": "https:\/\/slack-files.com\/T1FJKLSJ2-F2DL9KGP3-e9fdeea724",
            "edit_link": "https:\/\/tradingfutures.slack.com\/files\/jkh\/F2DL9KGP3\/boj_tomorrow_morning.txt\/edit",
            "preview": "JKH::Tue 20 Sep 2016 08:51:30 AM EDT\r\nDEP VAR SP AT 930 : 01\/01\/2013 TO 01\/01\/2020  US\/Eastern\r\n\r\nINCLUDE BOJ ANNOUNCEMENT AT T(1)\r\n\r",
            "preview_highlight": "<div class=\"CodeMirror cm-s-default CodeMirrorServer\" oncopy=\"if(event.clipboardData){event.clipboardData.setData('text\/plain',window.getSelection().toString().replace(\/\\u200b\/g,''));event.preventDefault();event.stopPropagation();}\">\n<div class=\"CodeMirror-code\">\n<div><pre>JKH::Tue 20 Sep 2016 08:51:30 AM EDT<\/pre><\/div>\n<div><pre>DEP VAR SP AT 930 : 01\/01\/2013 TO 01\/01\/2020  US\/Eastern<\/pre><\/div>\n<div><pre><\/pre><\/div>\n<div><pre>INCLUDE BOJ ANNOUNCEMENT AT T(1)<\/pre><\/div>\n<div><pre><\/pre><\/div>\n<div><pre><\/pre><\/div>\n<\/div>\n<\/div>\n",
            "lines": 32,
            "lines_more": 27,
            "preview_is_truncated": true,
            "channels": [
                "C1FK0RL2V",
                "C1FK4DHNW"
            ],
            "groups": [],
            "ims": [],
            "comments_count": 0
        },
        "user": "U1FHF07QT",
        "upload": false,
        "display_as_bot": false,
        "username": "<@U1FHF07QT|jkh>",
        "bot_id": null,
        "ts": "1474376014.000097"
    },
    {
        "type": "message",
        "subtype": "file_share",
        "text": "<@U1FKCRD8D|hernanavella> uploaded a file: <https:\/\/tradingfutures.slack.com\/files\/hernanavella\/F2DLUGNCA\/on_bond_open.txt|on bond open>",
        "file": {
            "id": "F2DLUGNCA",
            "created": 1474377695,
            "timestamp": 1474377695,
            "name": "on_bond_open.txt",
            "title": "on bond open",
            "mimetype": "text\/plain",
            "filetype": "text",
            "pretty_type": "Plain Text",
            "user": "U1FKCRD8D",
            "editable": true,
            "size": 1826,
            "mode": "snippet",
            "is_external": false,
            "external_type": "",
            "is_public": true,
            "public_url_shared": false,
            "display_as_bot": false,
            "username": "",
            "url_private": "https:\/\/files.slack.com\/files-pri\/T1FJKLSJ2-F2DLUGNCA\/on_bond_open.txt?t=xoxe-49631706614-119786374643-119786374659-90264fc38b",
            "url_private_download": "https:\/\/files.slack.com\/files-pri\/T1FJKLSJ2-F2DLUGNCA\/download\/on_bond_open.txt?t=xoxe-49631706614-119786374643-119786374659-90264fc38b",
            "permalink": "https:\/\/tradingfutures.slack.com\/files\/hernanavella\/F2DLUGNCA\/on_bond_open.txt",
            "permalink_public": "https:\/\/slack-files.com\/T1FJKLSJ2-F2DLUGNCA-ef6f4fc03f",
            "edit_link": "https:\/\/tradingfutures.slack.com\/files\/hernanavella\/F2DLUGNCA\/on_bond_open.txt\/edit",
            "preview": "HERNANAVELLA-WS::Tue Sep 20 08:21:14 2016\r\nDEP VAR NITE.SP AT 930 ALL DAYS: 1\/1\/2013 to 9\/2\/2016\r\nINDEPENDNT   LAG1 HOUR   LAG2 HOUR       LO       HI     (TRADING DAYS)\r\n     TBOND     1  1700     0   930       75      125\r\n\r",
            "preview_highlight": "<div class=\"CodeMirror cm-s-default CodeMirrorServer\" oncopy=\"if(event.clipboardData){event.clipboardData.setData('text\/plain',window.getSelection().toString().replace(\/\\u200b\/g,''));event.preventDefault();event.stopPropagation();}\">\n<div class=\"CodeMirror-code\">\n<div><pre>HERNANAVELLA-WS::Tue Sep 20 08:21:14 2016<\/pre><\/div>\n<div><pre>DEP VAR NITE.SP AT 930 ALL DAYS: 1\/1\/2013 to 9\/2\/2016<\/pre><\/div>\n<div><pre>INDEPENDNT   LAG1 HOUR   LAG2 HOUR       LO       HI     (TRADING DAYS)<\/pre><\/div>\n<div><pre>     TBOND     1  1700     0   930       75      125<\/pre><\/div>\n<div><pre><\/pre><\/div>\n<div><pre><\/pre><\/div>\n<\/div>\n<\/div>\n",
            "lines": 27,
            "lines_more": 22,
            "preview_is_truncated": true,
            "channels": [
                "C1FK0RL2V"
            ],
            "groups": [],
            "ims": [],
            "comments_count": 0,
            "reactions": [
                {
                    "name": "metal",
                    "users": [
                        "U1FHF07QT"
                    ],
                    "count": 1
                },
                {
                    "name": "tophat",
                    "users": [
                        "U1J0N0DPZ"
                    ],
                    "count": 1
                }
            ]
        },
        "user": "U1FKCRD8D",
        "upload": true,
        "display_as_bot": false,
        "username": "<@U1FKCRD8D|hernanavella>",
        "bot_id": null,
        "ts": "1474377695.000098"
    },
    {
        "type": "message",
        "subtype": "file_share",
        "text": "<@U1J0N0DPZ|duncan> uploaded a file: <https:\/\/tradingfutures.slack.com\/files\/duncan\/F2DLA60KE\/-.txt|Untitled>",
        "file": {
            "id": "F2DLA60KE",
            "created": 1474377945,
            "timestamp": 1474377945,
            "name": "-.txt",
            "title": "Untitled",
            "mimetype": "text\/plain",
            "filetype": "text",
            "pretty_type": "Plain Text",
            "user": "U1J0N0DPZ",
            "editable": true,
            "size": 1202,
            "mode": "snippet",
            "is_external": false,
            "external_type": "",
            "is_public": true,
            "public_url_shared": false,
            "display_as_bot": false,
            "username": "",
            "url_private": "https:\/\/files.slack.com\/files-pri\/T1FJKLSJ2-F2DLA60KE\/-.txt?t=xoxe-49631706614-119786374643-119786374659-90264fc38b",
            "url_private_download": "https:\/\/files.slack.com\/files-pri\/T1FJKLSJ2-F2DLA60KE\/download\/-.txt?t=xoxe-49631706614-119786374643-119786374659-90264fc38b",
            "permalink": "https:\/\/tradingfutures.slack.com\/files\/duncan\/F2DLA60KE\/-.txt",
            "permalink_public": "https:\/\/slack-files.com\/T1FJKLSJ2-F2DLA60KE-440fb4b0da",
            "edit_link": "https:\/\/tradingfutures.slack.com\/files\/duncan\/F2DLA60KE\/-.txt\/edit",
            "preview": "Ran at 09\/20\/2016 09:24\r\nCalculation results for ES from 01\/02\/2009 00:00 to 09\/16\/2016 00:00\r\nReference time at 09:30\r\n\r\nEntry Conditions:\r",
            "preview_highlight": "<div class=\"CodeMirror cm-s-default CodeMirrorServer\" oncopy=\"if(event.clipboardData){event.clipboardData.setData('text\/plain',window.getSelection().toString().replace(\/\\u200b\/g,''));event.preventDefault();event.stopPropagation();}\">\n<div class=\"CodeMirror-code\">\n<div><pre>Ran at 09\/20\/2016 09:24<\/pre><\/div>\n<div><pre>Calculation results for ES from 01\/02\/2009 00:00 to 09\/16\/2016 00:00<\/pre><\/div>\n<div><pre>Reference time at 09:30<\/pre><\/div>\n<div><pre><\/pre><\/div>\n<div><pre>Entry Conditions:<\/pre><\/div>\n<div><pre><\/pre><\/div>\n<\/div>\n<\/div>\n",
            "lines": 23,
            "lines_more": 18,
            "preview_is_truncated": true,
            "channels": [
                "C1FK0RL2V"
            ],
            "groups": [],
            "ims": [],
            "comments_count": 0
        },
        "user": "U1J0N0DPZ",
        "upload": true,
        "display_as_bot": false,
        "username": "<@U1J0N0DPZ|duncan>",
        "bot_id": null,
        "ts": "1474377946.000100"
    },
    {
        "type": "message",
        "subtype": "file_share",
        "text": "<@U1FKCRD8D|hernanavella> uploaded a file: <https:\/\/tradingfutures.slack.com\/files\/hernanavella\/F2DN210J0\/_close.txt|@close>",
        "file": {
            "id": "F2DN210J0",
            "created": 1474384534,
            "timestamp": 1474384534,
            "name": "_close.txt",
            "title": "@close",
            "mimetype": "text\/plain",
            "filetype": "text",
            "pretty_type": "Plain Text",
            "user": "U1FKCRD8D",
            "editable": true,
            "size": 1929,
            "mode": "snippet",
            "is_external": false,
            "external_type": "",
            "is_public": true,
            "public_url_shared": false,
            "display_as_bot": false,
            "username": "",
            "url_private": "https:\/\/files.slack.com\/files-pri\/T1FJKLSJ2-F2DN210J0\/_close.txt?t=xoxe-49631706614-119786374643-119786374659-90264fc38b",
            "url_private_download": "https:\/\/files.slack.com\/files-pri\/T1FJKLSJ2-F2DN210J0\/download\/_close.txt?t=xoxe-49631706614-119786374643-119786374659-90264fc38b",
            "permalink": "https:\/\/tradingfutures.slack.com\/files\/hernanavella\/F2DN210J0\/_close.txt",
            "permalink_public": "https:\/\/slack-files.com\/T1FJKLSJ2-F2DN210J0-d5406cfcde",
            "edit_link": "https:\/\/tradingfutures.slack.com\/files\/hernanavella\/F2DN210J0\/_close.txt\/edit",
            "preview": "HERNANAVELLA-WS::Tue Sep 20 10:15:05 2016\r\nDEP VAR NITE.SP AT 1620 ALL DAYS: 1\/1\/2012 to 9\/2\/2016\r\nINCLUDE FOMC ANNOUNCEMENT AT T(1)\r\nINDEPENDNT   LAG1 HOUR   LAG2 HOUR       LO       HI     (TRADING DAYS)\r\n     TBOND     1  1700     0  1620        1     5000\r",
            "preview_highlight": "<div class=\"CodeMirror cm-s-default CodeMirrorServer\" oncopy=\"if(event.clipboardData){event.clipboardData.setData('text\/plain',window.getSelection().toString().replace(\/\\u200b\/g,''));event.preventDefault();event.stopPropagation();}\">\n<div class=\"CodeMirror-code\">\n<div><pre>HERNANAVELLA-WS::Tue Sep 20 10:15:05 2016<\/pre><\/div>\n<div><pre>DEP VAR NITE.SP AT 1620 ALL DAYS: 1\/1\/2012 to 9\/2\/2016<\/pre><\/div>\n<div><pre>INCLUDE FOMC ANNOUNCEMENT AT T(1)<\/pre><\/div>\n<div><pre>INDEPENDNT   LAG1 HOUR   LAG2 HOUR       LO       HI     (TRADING DAYS)<\/pre><\/div>\n<div><pre>     TBOND     1  1700     0  1620        1     5000<\/pre><\/div>\n<div><pre><\/pre><\/div>\n<\/div>\n<\/div>\n",
            "lines": 29,
            "lines_more": 24,
            "preview_is_truncated": true,
            "channels": [
                "C1FK0RL2V"
            ],
            "groups": [],
            "ims": [],
            "comments_count": 0,
            "reactions": [
                {
                    "name": "hushed",
                    "users": [
                        "U1FHF07QT"
                    ],
                    "count": 1
                }
            ]
        },
        "user": "U1FKCRD8D",
        "upload": true,
        "display_as_bot": false,
        "username": "<@U1FKCRD8D|hernanavella>",
        "bot_id": null,
        "ts": "1474384534.000102"
    },
    {
        "type": "message",
        "subtype": "file_share",
        "text": "<@U1FKCRD8D|hernanavella> shared a file: <https:\/\/tradingfutures.slack.com\/files\/hernanavella\/F2DN2MELU\/-.txt|Untitled>",
        "file": {
            "id": "F2DN2MELU",
            "created": 1474384610,
            "timestamp": 1474384610,
            "name": "-.txt",
            "title": "Untitled",
            "mimetype": "text\/plain",
            "filetype": "text",
            "pretty_type": "Plain Text",
            "user": "U1FKCRD8D",
            "editable": true,
            "size": 1996,
            "mode": "snippet",
            "is_external": false,
            "external_type": "",
            "is_public": true,
            "public_url_shared": false,
            "display_as_bot": false,
            "username": "",
            "url_private": "https:\/\/files.slack.com\/files-pri\/T1FJKLSJ2-F2DN2MELU\/-.txt?t=xoxe-49631706614-119786374643-119786374659-90264fc38b",
            "url_private_download": "https:\/\/files.slack.com\/files-pri\/T1FJKLSJ2-F2DN2MELU\/download\/-.txt?t=xoxe-49631706614-119786374643-119786374659-90264fc38b",
            "permalink": "https:\/\/tradingfutures.slack.com\/files\/hernanavella\/F2DN2MELU\/-.txt",
            "permalink_public": "https:\/\/slack-files.com\/T1FJKLSJ2-F2DN2MELU-eaec5eb826",
            "edit_link": "https:\/\/tradingfutures.slack.com\/files\/hernanavella\/F2DN2MELU\/-.txt\/edit",
            "preview": "HERNANAVELLA-WS::Tue Sep 20 10:16:30 2016\r\nDEP VAR NITE.SP AT 1620 ALL DAYS: 1\/1\/2010 to 9\/2\/2016\r\nINCLUDE FOMC ANNOUNCEMENT AT T(1)\r\nINDEPENDNT   LAG1 HOUR   LAG2 HOUR       LO       HI     (TRADING DAYS)\r\n   NITE.SP     0   930     0  1620    -5000       -1\r",
            "preview_highlight": "<div class=\"CodeMirror cm-s-default CodeMirrorServer\" oncopy=\"if(event.clipboardData){event.clipboardData.setData('text\/plain',window.getSelection().toString().replace(\/\\u200b\/g,''));event.preventDefault();event.stopPropagation();}\">\n<div class=\"CodeMirror-code\">\n<div><pre>HERNANAVELLA-WS::Tue Sep 20 10:16:30 2016<\/pre><\/div>\n<div><pre>DEP VAR NITE.SP AT 1620 ALL DAYS: 1\/1\/2010 to 9\/2\/2016<\/pre><\/div>\n<div><pre>INCLUDE FOMC ANNOUNCEMENT AT T(1)<\/pre><\/div>\n<div><pre>INDEPENDNT   LAG1 HOUR   LAG2 HOUR       LO       HI     (TRADING DAYS)<\/pre><\/div>\n<div><pre>   NITE.SP     0   930     0  1620    -5000       -1<\/pre><\/div>\n<div><pre><\/pre><\/div>\n<\/div>\n<\/div>\n",
            "lines": 30,
            "lines_more": 25,
            "preview_is_truncated": true,
            "channels": [
                "C1FK0RL2V"
            ],
            "groups": [],
            "ims": [],
            "comments_count": 0
        },
        "user": "U1FKCRD8D",
        "upload": false,
        "display_as_bot": false,
        "username": "<@U1FKCRD8D|hernanavella>",
        "bot_id": null,
        "ts": "1474384640.000104"
    },
    {
        "type": "message",
        "subtype": "file_share",
        "text": "<@U1FHF07QT|jkh> uploaded a file: <https:\/\/tradingfutures.slack.com\/files\/jkh\/F2DPK0L8J\/-.txt|Untitled>",
        "file": {
            "id": "F2DPK0L8J",
            "created": 1474387688,
            "timestamp": 1474387688,
            "name": "-.txt",
            "title": "Untitled",
            "mimetype": "text\/plain",
            "filetype": "text",
            "pretty_type": "Plain Text",
            "user": "U1FHF07QT",
            "editable": true,
            "size": 1052,
            "mode": "snippet",
            "is_external": false,
            "external_type": "",
            "is_public": true,
            "public_url_shared": false,
            "display_as_bot": false,
            "username": "",
            "url_private": "https:\/\/files.slack.com\/files-pri\/T1FJKLSJ2-F2DPK0L8J\/-.txt?t=xoxe-49631706614-119786374643-119786374659-90264fc38b",
            "url_private_download": "https:\/\/files.slack.com\/files-pri\/T1FJKLSJ2-F2DPK0L8J\/download\/-.txt?t=xoxe-49631706614-119786374643-119786374659-90264fc38b",
            "permalink": "https:\/\/tradingfutures.slack.com\/files\/jkh\/F2DPK0L8J\/-.txt",
            "permalink_public": "https:\/\/slack-files.com\/T1FJKLSJ2-F2DPK0L8J-0fc5df073f",
            "edit_link": "https:\/\/tradingfutures.slack.com\/files\/jkh\/F2DPK0L8J\/-.txt\/edit",
            "preview": "JKH::Tue 20 Sep 2016 12:07:36 PM EDT\r\nDEP VAR SP AT 1200 : 01\/01\/2013 TO 01\/01\/2020  US\/Eastern\r\n\r\nINDEPENDNT LAG1  HOUR LAG2  HOUR LO    HI          TZ\r\n       sp    1  1615    0  1200  1  5000  US\/Eastern\r",
            "preview_highlight": "<div class=\"CodeMirror cm-s-default CodeMirrorServer\" oncopy=\"if(event.clipboardData){event.clipboardData.setData('text\/plain',window.getSelection().toString().replace(\/\\u200b\/g,''));event.preventDefault();event.stopPropagation();}\">\n<div class=\"CodeMirror-code\">\n<div><pre>JKH::Tue 20 Sep 2016 12:07:36 PM EDT<\/pre><\/div>\n<div><pre>DEP VAR SP AT 1200 : 01\/01\/2013 TO 01\/01\/2020  US\/Eastern<\/pre><\/div>\n<div><pre><\/pre><\/div>\n<div><pre>INDEPENDNT LAG1  HOUR LAG2  HOUR LO    HI          TZ<\/pre><\/div>\n<div><pre>       sp    1  1615    0  1200  1  5000  US\/Eastern<\/pre><\/div>\n<div><pre><\/pre><\/div>\n<\/div>\n<\/div>\n",
            "lines": 25,
            "lines_more": 20,
            "preview_is_truncated": true,
            "channels": [
                "C1FK0RL2V"
            ],
            "groups": [],
            "ims": [],
            "comments_count": 0,
            "reactions": [
                {
                    "name": "cow",
                    "users": [
                        "U1FKCRD8D"
                    ],
                    "count": 1
                }
            ]
        },
        "user": "U1FHF07QT",
        "upload": true,
        "display_as_bot": false,
        "username": "<@U1FHF07QT|jkh>",
        "bot_id": null,
        "ts": "1474387689.000105"
    },
    {
        "type": "message",
        "subtype": "file_share",
        "text": "<@U1FJWQN1Z|bet4value> uploaded a file: <https:\/\/tradingfutures.slack.com\/files\/bet4value\/F2DPR152L\/-.txt|Untitled> and commented: possible",
        "file": {
            "id": "F2DPR152L",
            "created": 1474390231,
            "timestamp": 1474390231,
            "name": "-.txt",
            "title": "Untitled",
            "mimetype": "text\/plain",
            "filetype": "text",
            "pretty_type": "Plain Text",
            "user": "U1FJWQN1Z",
            "editable": true,
            "size": 3514,
            "mode": "snippet",
            "is_external": false,
            "external_type": "",
            "is_public": true,
            "public_url_shared": false,
            "display_as_bot": false,
            "username": "",
            "url_private": "https:\/\/files.slack.com\/files-pri\/T1FJKLSJ2-F2DPR152L\/-.txt?t=xoxe-49631706614-119786374643-119786374659-90264fc38b",
            "url_private_download": "https:\/\/files.slack.com\/files-pri\/T1FJKLSJ2-F2DPR152L\/download\/-.txt?t=xoxe-49631706614-119786374643-119786374659-90264fc38b",
            "permalink": "https:\/\/tradingfutures.slack.com\/files\/bet4value\/F2DPR152L\/-.txt",
            "permalink_public": "https:\/\/slack-files.com\/T1FJKLSJ2-F2DPR152L-8be72a1613",
            "edit_link": "https:\/\/tradingfutures.slack.com\/files\/bet4value\/F2DPR152L\/-.txt\/edit",
            "preview": "PCMAC::Tue Sep 20 12:50:11 2016\r\nDEP VAR NITE.SP AT 1400 ALL DAYS: 1\/1\/2013 to 9\/2\/2016\r\nINCLUDE FOMC ANNOUNCEMENT AT T(1)\r\nINDEPENDNT   LAG1 HOUR   LAG2 HOUR       LO       HI     (TRADING DAYS)\r\n   NITE.SP     1  1620     0  1400    -5000       -1\r",
            "preview_highlight": "<div class=\"CodeMirror cm-s-default CodeMirrorServer\" oncopy=\"if(event.clipboardData){event.clipboardData.setData('text\/plain',window.getSelection().toString().replace(\/\\u200b\/g,''));event.preventDefault();event.stopPropagation();}\">\n<div class=\"CodeMirror-code\">\n<div><pre>PCMAC::Tue Sep 20 12:50:11 2016<\/pre><\/div>\n<div><pre>DEP VAR NITE.SP AT 1400 ALL DAYS: 1\/1\/2013 to 9\/2\/2016<\/pre><\/div>\n<div><pre>INCLUDE FOMC ANNOUNCEMENT AT T(1)<\/pre><\/div>\n<div><pre>INDEPENDNT   LAG1 HOUR   LAG2 HOUR       LO       HI     (TRADING DAYS)<\/pre><\/div>\n<div><pre>   NITE.SP     1  1620     0  1400    -5000       -1<\/pre><\/div>\n<div><pre><\/pre><\/div>\n<\/div>\n<\/div>\n",
            "lines": 59,
            "lines_more": 54,
            "preview_is_truncated": true,
            "channels": [
                "C1FK0RL2V"
            ],
            "groups": [],
            "ims": [],
            "comments_count": 1,
            "initial_comment": {
                "id": "Fc2DQ81Q02",
                "created": 1474390231,
                "timestamp": 1474390231,
                "user": "U1FJWQN1Z",
                "is_intro": true,
                "comment": "possible",
                "channel": ""
            }
        },
        "user": "U1FJWQN1Z",
        "upload": true,
        "display_as_bot": false,
        "username": "<@U1FJWQN1Z|bet4value>",
        "bot_id": null,
        "ts": "1474390231.000107"
    },
    {
        "type": "message",
        "subtype": "file_share",
        "text": "<@U1FKCRD8D|hernanavella> uploaded a file: <https:\/\/tradingfutures.slack.com\/files\/hernanavella\/F2DPTEXUY\/_close.txt|@close>",
        "file": {
            "id": "F2DPTEXUY",
            "created": 1474390514,
            "timestamp": 1474390514,
            "name": "_close.txt",
            "title": "@close",
            "mimetype": "text\/plain",
            "filetype": "text",
            "pretty_type": "Plain Text",
            "user": "U1FKCRD8D",
            "editable": true,
            "size": 2353,
            "mode": "snippet",
            "is_external": false,
            "external_type": "",
            "is_public": true,
            "public_url_shared": false,
            "display_as_bot": false,
            "username": "",
            "url_private": "https:\/\/files.slack.com\/files-pri\/T1FJKLSJ2-F2DPTEXUY\/_close.txt?t=xoxe-49631706614-119786374643-119786374659-90264fc38b",
            "url_private_download": "https:\/\/files.slack.com\/files-pri\/T1FJKLSJ2-F2DPTEXUY\/download\/_close.txt?t=xoxe-49631706614-119786374643-119786374659-90264fc38b",
            "permalink": "https:\/\/tradingfutures.slack.com\/files\/hernanavella\/F2DPTEXUY\/_close.txt",
            "permalink_public": "https:\/\/slack-files.com\/T1FJKLSJ2-F2DPTEXUY-4f069a358d",
            "edit_link": "https:\/\/tradingfutures.slack.com\/files\/hernanavella\/F2DPTEXUY\/_close.txt\/edit",
            "preview": "HERNANAVELLA-WS::Tue Sep 20 11:54:40 2016\r\nDEP VAR NITE.SP AT 1620 ALL DAYS: 1\/1\/2007 to 9\/2\/2016\r\nINCLUDE FOMC ANNOUNCEMENT AT T(1)\r\nINDEPENDNT   LAG1 HOUR   LAG2 HOUR       LO       HI     (TRADING DAYS)\r\n   NITE.SP     1   930     1  1620    -5000       -1\r",
            "preview_highlight": "<div class=\"CodeMirror cm-s-default CodeMirrorServer\" oncopy=\"if(event.clipboardData){event.clipboardData.setData('text\/plain',window.getSelection().toString().replace(\/\\u200b\/g,''));event.preventDefault();event.stopPropagation();}\">\n<div class=\"CodeMirror-code\">\n<div><pre>HERNANAVELLA-WS::Tue Sep 20 11:54:40 2016<\/pre><\/div>\n<div><pre>DEP VAR NITE.SP AT 1620 ALL DAYS: 1\/1\/2007 to 9\/2\/2016<\/pre><\/div>\n<div><pre>INCLUDE FOMC ANNOUNCEMENT AT T(1)<\/pre><\/div>\n<div><pre>INDEPENDNT   LAG1 HOUR   LAG2 HOUR       LO       HI     (TRADING DAYS)<\/pre><\/div>\n<div><pre>   NITE.SP     1   930     1  1620    -5000       -1<\/pre><\/div>\n<div><pre><\/pre><\/div>\n<\/div>\n<\/div>\n",
            "lines": 36,
            "lines_more": 31,
            "preview_is_truncated": true,
            "channels": [
                "C1FK0RL2V"
            ],
            "groups": [],
            "ims": [],
            "comments_count": 0,
            "reactions": [
                {
                    "name": "eyes",
                    "users": [
                        "U1FHF07QT"
                    ],
                    "count": 1
                }
            ]
        },
        "user": "U1FKCRD8D",
        "upload": true,
        "display_as_bot": false,
        "username": "<@U1FKCRD8D|hernanavella>",
        "bot_id": null,
        "ts": "1474390515.000108"
    },
    {
        "type": "message",
        "subtype": "file_share",
        "text": "<@U1FKCRD8D|hernanavella> shared a file: <https:\/\/tradingfutures.slack.com\/files\/hernanavella\/F2DSUF6SZ\/-.txt|Untitled>",
        "file": {
            "id": "F2DSUF6SZ",
            "created": 1474401598,
            "timestamp": 1474401598,
            "name": "-.txt",
            "title": "Untitled",
            "mimetype": "text\/plain",
            "filetype": "text",
            "pretty_type": "Plain Text",
            "user": "U1FKCRD8D",
            "editable": true,
            "size": 1795,
            "mode": "snippet",
            "is_external": false,
            "external_type": "",
            "is_public": true,
            "public_url_shared": false,
            "display_as_bot": false,
            "username": "",
            "url_private": "https:\/\/files.slack.com\/files-pri\/T1FJKLSJ2-F2DSUF6SZ\/-.txt?t=xoxe-49631706614-119786374643-119786374659-90264fc38b",
            "url_private_download": "https:\/\/files.slack.com\/files-pri\/T1FJKLSJ2-F2DSUF6SZ\/download\/-.txt?t=xoxe-49631706614-119786374643-119786374659-90264fc38b",
            "permalink": "https:\/\/tradingfutures.slack.com\/files\/hernanavella\/F2DSUF6SZ\/-.txt",
            "permalink_public": "https:\/\/slack-files.com\/T1FJKLSJ2-F2DSUF6SZ-fed28299be",
            "edit_link": "https:\/\/tradingfutures.slack.com\/files\/hernanavella\/F2DSUF6SZ\/-.txt\/edit",
            "preview": "HERNANAVELLA-WS::Tue Sep 20 14:59:41 2016\r\nDEP VAR NITE.SP AT 1620 ALL DAYS: 1\/1\/2010 to 9\/2\/2016\r\nINCLUDE FOMC ANNOUNCEMENT AT T(1)\r\nINDEPENDNT   LAG1 HOUR   LAG2 HOUR       LO       HI     (TRADING DAYS)\r\n   NITE.SP     1  1620     0  1620     -100       -1\r",
            "preview_highlight": "<div class=\"CodeMirror cm-s-default CodeMirrorServer\" oncopy=\"if(event.clipboardData){event.clipboardData.setData('text\/plain',window.getSelection().toString().replace(\/\\u200b\/g,''));event.preventDefault();event.stopPropagation();}\">\n<div class=\"CodeMirror-code\">\n<div><pre>HERNANAVELLA-WS::Tue Sep 20 14:59:41 2016<\/pre><\/div>\n<div><pre>DEP VAR NITE.SP AT 1620 ALL DAYS: 1\/1\/2010 to 9\/2\/2016<\/pre><\/div>\n<div><pre>INCLUDE FOMC ANNOUNCEMENT AT T(1)<\/pre><\/div>\n<div><pre>INDEPENDNT   LAG1 HOUR   LAG2 HOUR       LO       HI     (TRADING DAYS)<\/pre><\/div>\n<div><pre>   NITE.SP     1  1620     0  1620     -100       -1<\/pre><\/div>\n<div><pre><\/pre><\/div>\n<\/div>\n<\/div>\n",
            "lines": 27,
            "lines_more": 22,
            "preview_is_truncated": true,
            "channels": [
                "C1FK0RL2V"
            ],
            "groups": [],
            "ims": [],
            "comments_count": 0
        },
        "user": "U1FKCRD8D",
        "upload": false,
        "display_as_bot": false,
        "username": "<@U1FKCRD8D|hernanavella>",
        "bot_id": null,
        "ts": "1474401644.000110"
    },
    {
        "type": "message",
        "subtype": "file_share",
        "text": "<@U1FKCRD8D|hernanavella> uploaded a file: <https:\/\/tradingfutures.slack.com\/files\/hernanavella\/F2DSVKH38\/overfitting_alert.txt|Overfitting alert>",
        "file": {
            "id": "F2DSVKH38",
            "created": 1474402573,
            "timestamp": 1474402573,
            "name": "Overfitting_alert.txt",
            "title": "Overfitting alert",
            "mimetype": "text\/plain",
            "filetype": "text",
            "pretty_type": "Plain Text",
            "user": "U1FKCRD8D",
            "editable": true,
            "size": 2488,
            "mode": "snippet",
            "is_external": false,
            "external_type": "",
            "is_public": true,
            "public_url_shared": false,
            "display_as_bot": false,
            "username": "",
            "url_private": "https:\/\/files.slack.com\/files-pri\/T1FJKLSJ2-F2DSVKH38\/overfitting_alert.txt?t=xoxe-49631706614-119786374643-119786374659-90264fc38b",
            "url_private_download": "https:\/\/files.slack.com\/files-pri\/T1FJKLSJ2-F2DSVKH38\/download\/overfitting_alert.txt?t=xoxe-49631706614-119786374643-119786374659-90264fc38b",
            "permalink": "https:\/\/tradingfutures.slack.com\/files\/hernanavella\/F2DSVKH38\/overfitting_alert.txt",
            "permalink_public": "https:\/\/slack-files.com\/T1FJKLSJ2-F2DSVKH38-b44f863b49",
            "edit_link": "https:\/\/tradingfutures.slack.com\/files\/hernanavella\/F2DSVKH38\/overfitting_alert.txt\/edit",
            "preview": "HERNANAVELLA-WS::Tue Sep 20 15:15:33 2016\r\nDEP VAR NITE.SP AT 1620 MON THRU WED: 1\/1\/2013 to 9\/2\/2016\r\nINDEPENDNT   LAG1 HOUR   LAG2 HOUR       LO       HI     (TRADING DAYS)\r\n   NITE.SP     1  1620     0  1620    -5000       -1\r\n     TBOND     1  1700     0  1620       50      100\r",
            "preview_highlight": "<div class=\"CodeMirror cm-s-default CodeMirrorServer\" oncopy=\"if(event.clipboardData){event.clipboardData.setData('text\/plain',window.getSelection().toString().replace(\/\\u200b\/g,''));event.preventDefault();event.stopPropagation();}\">\n<div class=\"CodeMirror-code\">\n<div><pre>HERNANAVELLA-WS::Tue Sep 20 15:15:33 2016<\/pre><\/div>\n<div><pre>DEP VAR NITE.SP AT 1620 MON THRU WED: 1\/1\/2013 to 9\/2\/2016<\/pre><\/div>\n<div><pre>INDEPENDNT   LAG1 HOUR   LAG2 HOUR       LO       HI     (TRADING DAYS)<\/pre><\/div>\n<div><pre>   NITE.SP     1  1620     0  1620    -5000       -1<\/pre><\/div>\n<div><pre>     TBOND     1  1700     0  1620       50      100<\/pre><\/div>\n<div><pre><\/pre><\/div>\n<\/div>\n<\/div>\n",
            "lines": 37,
            "lines_more": 32,
            "preview_is_truncated": true,
            "channels": [
                "C1FK0RL2V"
            ],
            "groups": [],
            "ims": [],
            "comments_count": 0,
            "reactions": [
                {
                    "name": "joy",
                    "users": [
                        "U1FHF07QT"
                    ],
                    "count": 1
                }
            ]
        },
        "user": "U1FKCRD8D",
        "upload": true,
        "display_as_bot": false,
        "username": "<@U1FKCRD8D|hernanavella>",
        "bot_id": null,
        "ts": "1474402574.000111"
    }
]