[
    {
        "type": "message",
        "subtype": "file_share",
        "text": "<@U1FKCRD8D|hernanavella> uploaded a file: <https:\/\/tradingfutures.slack.com\/files\/hernanavella\/F25U9UKG9\/pasted_image_at_2016_08_29_06_57_am.png|Pasted image at 2016-08-29, 6:57 AM>",
        "file": {
            "id": "F25U9UKG9",
            "created": 1472471812,
            "timestamp": 1472471812,
            "name": "Pasted image at 2016_08_29 06_57 AM.png",
            "title": "Pasted image at 2016-08-29, 6:57 AM",
            "mimetype": "image\/png",
            "filetype": "png",
            "pretty_type": "PNG",
            "user": "U1FKCRD8D",
            "editable": false,
            "size": 114411,
            "mode": "hosted",
            "is_external": false,
            "external_type": "",
            "is_public": true,
            "public_url_shared": false,
            "display_as_bot": false,
            "username": "",
            "url_private": "https:\/\/files.slack.com\/files-pri\/T1FJKLSJ2-F25U9UKG9\/pasted_image_at_2016_08_29_06_57_am.png?t=xoxe-49631706614-119786374643-119786374659-90264fc38b",
            "url_private_download": "https:\/\/files.slack.com\/files-pri\/T1FJKLSJ2-F25U9UKG9\/download\/pasted_image_at_2016_08_29_06_57_am.png?t=xoxe-49631706614-119786374643-119786374659-90264fc38b",
            "thumb_64": "https:\/\/files.slack.com\/files-tmb\/T1FJKLSJ2-F25U9UKG9-fb5c8b5a7e\/pasted_image_at_2016_08_29_06_57_am_64.png?t=xoxe-49631706614-119786374643-119786374659-90264fc38b",
            "thumb_80": "https:\/\/files.slack.com\/files-tmb\/T1FJKLSJ2-F25U9UKG9-fb5c8b5a7e\/pasted_image_at_2016_08_29_06_57_am_80.png?t=xoxe-49631706614-119786374643-119786374659-90264fc38b",
            "thumb_360": "https:\/\/files.slack.com\/files-tmb\/T1FJKLSJ2-F25U9UKG9-fb5c8b5a7e\/pasted_image_at_2016_08_29_06_57_am_360.png?t=xoxe-49631706614-119786374643-119786374659-90264fc38b",
            "thumb_360_w": 278,
            "thumb_360_h": 360,
            "thumb_480": "https:\/\/files.slack.com\/files-tmb\/T1FJKLSJ2-F25U9UKG9-fb5c8b5a7e\/pasted_image_at_2016_08_29_06_57_am_480.png?t=xoxe-49631706614-119786374643-119786374659-90264fc38b",
            "thumb_480_w": 371,
            "thumb_480_h": 480,
            "thumb_160": "https:\/\/files.slack.com\/files-tmb\/T1FJKLSJ2-F25U9UKG9-fb5c8b5a7e\/pasted_image_at_2016_08_29_06_57_am_160.png?t=xoxe-49631706614-119786374643-119786374659-90264fc38b",
            "thumb_720": "https:\/\/files.slack.com\/files-tmb\/T1FJKLSJ2-F25U9UKG9-fb5c8b5a7e\/pasted_image_at_2016_08_29_06_57_am_720.png?t=xoxe-49631706614-119786374643-119786374659-90264fc38b",
            "thumb_720_w": 556,
            "thumb_720_h": 720,
            "thumb_960": "https:\/\/files.slack.com\/files-tmb\/T1FJKLSJ2-F25U9UKG9-fb5c8b5a7e\/pasted_image_at_2016_08_29_06_57_am_960.png?t=xoxe-49631706614-119786374643-119786374659-90264fc38b",
            "thumb_960_w": 742,
            "thumb_960_h": 960,
            "thumb_1024": "https:\/\/files.slack.com\/files-tmb\/T1FJKLSJ2-F25U9UKG9-fb5c8b5a7e\/pasted_image_at_2016_08_29_06_57_am_1024.png?t=xoxe-49631706614-119786374643-119786374659-90264fc38b",
            "thumb_1024_w": 791,
            "thumb_1024_h": 1024,
            "image_exif_rotation": 1,
            "original_w": 816,
            "original_h": 1056,
            "permalink": "https:\/\/tradingfutures.slack.com\/files\/hernanavella\/F25U9UKG9\/pasted_image_at_2016_08_29_06_57_am.png",
            "permalink_public": "https:\/\/slack-files.com\/T1FJKLSJ2-F25U9UKG9-67842b8f8e",
            "channels": [
                "C1FK0RL2V"
            ],
            "groups": [],
            "ims": [],
            "comments_count": 1,
            "reactions": [
                {
                    "name": "scream",
                    "users": [
                        "U1FHF07QT"
                    ],
                    "count": 1
                }
            ]
        },
        "user": "U1FKCRD8D",
        "upload": true,
        "display_as_bot": false,
        "username": "<@U1FKCRD8D|hernanavella>",
        "bot_id": null,
        "ts": "1472471816.000002"
    },
    {
        "type": "message",
        "subtype": "file_comment",
        "text": "<@U1FHF07QT|jkh> commented on <@U1FKCRD8D|hernanavella>'s file <https:\/\/tradingfutures.slack.com\/files\/hernanavella\/F25U9UKG9\/pasted_image_at_2016_08_29_06_57_am.png|Pasted image at 2016-08-29, 6:57 AM>: my bullish tbond patt also makes spu look quite bear",
        "file": {
            "id": "F25U9UKG9",
            "created": 1472471812,
            "timestamp": 1472471812,
            "name": "Pasted image at 2016_08_29 06_57 AM.png",
            "title": "Pasted image at 2016-08-29, 6:57 AM",
            "mimetype": "image\/png",
            "filetype": "png",
            "pretty_type": "PNG",
            "user": "U1FKCRD8D",
            "editable": false,
            "size": 114411,
            "mode": "hosted",
            "is_external": false,
            "external_type": "",
            "is_public": true,
            "public_url_shared": false,
            "display_as_bot": false,
            "username": "",
            "url_private": "https:\/\/files.slack.com\/files-pri\/T1FJKLSJ2-F25U9UKG9\/pasted_image_at_2016_08_29_06_57_am.png?t=xoxe-49631706614-119786374643-119786374659-90264fc38b",
            "url_private_download": "https:\/\/files.slack.com\/files-pri\/T1FJKLSJ2-F25U9UKG9\/download\/pasted_image_at_2016_08_29_06_57_am.png?t=xoxe-49631706614-119786374643-119786374659-90264fc38b",
            "thumb_64": "https:\/\/files.slack.com\/files-tmb\/T1FJKLSJ2-F25U9UKG9-fb5c8b5a7e\/pasted_image_at_2016_08_29_06_57_am_64.png?t=xoxe-49631706614-119786374643-119786374659-90264fc38b",
            "thumb_80": "https:\/\/files.slack.com\/files-tmb\/T1FJKLSJ2-F25U9UKG9-fb5c8b5a7e\/pasted_image_at_2016_08_29_06_57_am_80.png?t=xoxe-49631706614-119786374643-119786374659-90264fc38b",
            "thumb_360": "https:\/\/files.slack.com\/files-tmb\/T1FJKLSJ2-F25U9UKG9-fb5c8b5a7e\/pasted_image_at_2016_08_29_06_57_am_360.png?t=xoxe-49631706614-119786374643-119786374659-90264fc38b",
            "thumb_360_w": 278,
            "thumb_360_h": 360,
            "thumb_480": "https:\/\/files.slack.com\/files-tmb\/T1FJKLSJ2-F25U9UKG9-fb5c8b5a7e\/pasted_image_at_2016_08_29_06_57_am_480.png?t=xoxe-49631706614-119786374643-119786374659-90264fc38b",
            "thumb_480_w": 371,
            "thumb_480_h": 480,
            "thumb_160": "https:\/\/files.slack.com\/files-tmb\/T1FJKLSJ2-F25U9UKG9-fb5c8b5a7e\/pasted_image_at_2016_08_29_06_57_am_160.png?t=xoxe-49631706614-119786374643-119786374659-90264fc38b",
            "thumb_720": "https:\/\/files.slack.com\/files-tmb\/T1FJKLSJ2-F25U9UKG9-fb5c8b5a7e\/pasted_image_at_2016_08_29_06_57_am_720.png?t=xoxe-49631706614-119786374643-119786374659-90264fc38b",
            "thumb_720_w": 556,
            "thumb_720_h": 720,
            "thumb_960": "https:\/\/files.slack.com\/files-tmb\/T1FJKLSJ2-F25U9UKG9-fb5c8b5a7e\/pasted_image_at_2016_08_29_06_57_am_960.png?t=xoxe-49631706614-119786374643-119786374659-90264fc38b",
            "thumb_960_w": 742,
            "thumb_960_h": 960,
            "thumb_1024": "https:\/\/files.slack.com\/files-tmb\/T1FJKLSJ2-F25U9UKG9-fb5c8b5a7e\/pasted_image_at_2016_08_29_06_57_am_1024.png?t=xoxe-49631706614-119786374643-119786374659-90264fc38b",
            "thumb_1024_w": 791,
            "thumb_1024_h": 1024,
            "image_exif_rotation": 1,
            "original_w": 816,
            "original_h": 1056,
            "permalink": "https:\/\/tradingfutures.slack.com\/files\/hernanavella\/F25U9UKG9\/pasted_image_at_2016_08_29_06_57_am.png",
            "permalink_public": "https:\/\/slack-files.com\/T1FJKLSJ2-F25U9UKG9-67842b8f8e",
            "channels": [
                "C1FK0RL2V"
            ],
            "groups": [],
            "ims": [],
            "comments_count": 1,
            "reactions": [
                {
                    "name": "scream",
                    "users": [
                        "U1FHF07QT"
                    ],
                    "count": 1
                }
            ]
        },
        "comment": {
            "id": "Fc25UGDYLA",
            "created": 1472471897,
            "timestamp": 1472471897,
            "user": "U1FHF07QT",
            "is_intro": false,
            "comment": "my bullish tbond patt also makes spu look quite bear",
            "channel": ""
        },
        "is_intro": false,
        "ts": "1472471897.000004"
    },
    {
        "type": "message",
        "subtype": "file_share",
        "text": "<@U1FJWQN1Z|bet4value> uploaded a file: <https:\/\/tradingfutures.slack.com\/files\/bet4value\/F25UL9W07\/-.txt|Untitled>",
        "file": {
            "id": "F25UL9W07",
            "created": 1472474535,
            "timestamp": 1472474535,
            "name": "-.txt",
            "title": "Untitled",
            "mimetype": "text\/plain",
            "filetype": "text",
            "pretty_type": "Plain Text",
            "user": "U1FJWQN1Z",
            "editable": true,
            "size": 3951,
            "mode": "snippet",
            "is_external": false,
            "external_type": "",
            "is_public": true,
            "public_url_shared": false,
            "display_as_bot": false,
            "username": "",
            "url_private": "https:\/\/files.slack.com\/files-pri\/T1FJKLSJ2-F25UL9W07\/-.txt?t=xoxe-49631706614-119786374643-119786374659-90264fc38b",
            "url_private_download": "https:\/\/files.slack.com\/files-pri\/T1FJKLSJ2-F25UL9W07\/download\/-.txt?t=xoxe-49631706614-119786374643-119786374659-90264fc38b",
            "permalink": "https:\/\/tradingfutures.slack.com\/files\/bet4value\/F25UL9W07\/-.txt",
            "permalink_public": "https:\/\/slack-files.com\/T1FJKLSJ2-F25UL9W07-c89b146fd4",
            "edit_link": "https:\/\/tradingfutures.slack.com\/files\/bet4value\/F25UL9W07\/-.txt\/edit",
            "preview": "PCMAC::Mon Aug 29 08:39:30 2016\r\nDEP VAR NITE.SP AT 930 ALL DAYS: 1\/1\/2013 to 8\/26\/2016\r\nINDEPENDNT   LAG1 HOUR   LAG2 HOUR       LO       HI     (TRADING DAYS)\r\n   NITE.SP     5  1620     1  1620    -5000       -1\r\n   NITE.SP     2  1620     1   930        1     5000\r",
            "preview_highlight": "<div class=\"CodeMirror cm-s-default CodeMirrorServer\" oncopy=\"if(event.clipboardData){event.clipboardData.setData('text\/plain',window.getSelection().toString().replace(\/\\u200b\/g,''));event.preventDefault();event.stopPropagation();}\">\n<div class=\"CodeMirror-code\">\n<div><pre>PCMAC::Mon Aug 29 08:39:30 2016<\/pre><\/div>\n<div><pre>DEP VAR NITE.SP AT 930 ALL DAYS: 1\/1\/2013 to 8\/26\/2016<\/pre><\/div>\n<div><pre>INDEPENDNT   LAG1 HOUR   LAG2 HOUR       LO       HI     (TRADING DAYS)<\/pre><\/div>\n<div><pre>   NITE.SP     5  1620     1  1620    -5000       -1<\/pre><\/div>\n<div><pre>   NITE.SP     2  1620     1   930        1     5000<\/pre><\/div>\n<div><pre><\/pre><\/div>\n<\/div>\n<\/div>\n",
            "lines": 66,
            "lines_more": 61,
            "preview_is_truncated": true,
            "channels": [
                "C1FK0RL2V"
            ],
            "groups": [],
            "ims": [],
            "comments_count": 0
        },
        "user": "U1FJWQN1Z",
        "upload": true,
        "display_as_bot": false,
        "username": "<@U1FJWQN1Z|bet4value>",
        "bot_id": null,
        "ts": "1472474535.000005"
    },
    {
        "type": "message",
        "subtype": "file_share",
        "text": "<@U1J0N0DPZ|duncan> uploaded a file: <https:\/\/tradingfutures.slack.com\/files\/duncan\/F25ULNUES\/morning_bear__but_then_bull.txt|morning bear, but then bull> and commented: hilo's of interest",
        "file": {
            "id": "F25ULNUES",
            "created": 1472476510,
            "timestamp": 1472476510,
            "name": "morning_bear__but_then_bull.txt",
            "title": "morning bear, but then bull",
            "mimetype": "text\/plain",
            "filetype": "text",
            "pretty_type": "Plain Text",
            "user": "U1J0N0DPZ",
            "editable": true,
            "size": 2698,
            "mode": "snippet",
            "is_external": false,
            "external_type": "",
            "is_public": true,
            "public_url_shared": false,
            "display_as_bot": false,
            "username": "",
            "url_private": "https:\/\/files.slack.com\/files-pri\/T1FJKLSJ2-F25ULNUES\/morning_bear__but_then_bull.txt?t=xoxe-49631706614-119786374643-119786374659-90264fc38b",
            "url_private_download": "https:\/\/files.slack.com\/files-pri\/T1FJKLSJ2-F25ULNUES\/download\/morning_bear__but_then_bull.txt?t=xoxe-49631706614-119786374643-119786374659-90264fc38b",
            "permalink": "https:\/\/tradingfutures.slack.com\/files\/duncan\/F25ULNUES\/morning_bear__but_then_bull.txt",
            "permalink_public": "https:\/\/slack-files.com\/T1FJKLSJ2-F25ULNUES-dcad027b0b",
            "edit_link": "https:\/\/tradingfutures.slack.com\/files\/duncan\/F25ULNUES\/morning_bear__but_then_bull.txt\/edit",
            "preview": "Ran at 08\/29\/2016 09:13\r\nCalculation results for ES from 01\/04\/2013 00:00 to 08\/15\/2016 00:00\r\nReference time at 09:30\r\n\r\nEntry Conditions:\r",
            "preview_highlight": "<div class=\"CodeMirror cm-s-default CodeMirrorServer\" oncopy=\"if(event.clipboardData){event.clipboardData.setData('text\/plain',window.getSelection().toString().replace(\/\\u200b\/g,''));event.preventDefault();event.stopPropagation();}\">\n<div class=\"CodeMirror-code\">\n<div><pre>Ran at 08\/29\/2016 09:13<\/pre><\/div>\n<div><pre>Calculation results for ES from 01\/04\/2013 00:00 to 08\/15\/2016 00:00<\/pre><\/div>\n<div><pre>Reference time at 09:30<\/pre><\/div>\n<div><pre><\/pre><\/div>\n<div><pre>Entry Conditions:<\/pre><\/div>\n<div><pre><\/pre><\/div>\n<\/div>\n<\/div>\n",
            "lines": 42,
            "lines_more": 37,
            "preview_is_truncated": true,
            "channels": [
                "C1FK0RL2V"
            ],
            "groups": [],
            "ims": [],
            "comments_count": 1,
            "initial_comment": {
                "id": "Fc25V46S0J",
                "created": 1472476510,
                "timestamp": 1472476510,
                "user": "U1J0N0DPZ",
                "is_intro": true,
                "comment": "hilo's of interest",
                "channel": ""
            },
            "reactions": [
                {
                    "name": "chart_with_upwards_trend",
                    "users": [
                        "U1FHF07QT"
                    ],
                    "count": 1
                },
                {
                    "name": "white_check_mark",
                    "users": [
                        "U1FKCRD8D"
                    ],
                    "count": 1
                }
            ]
        },
        "user": "U1J0N0DPZ",
        "upload": true,
        "display_as_bot": false,
        "username": "<@U1J0N0DPZ|duncan>",
        "bot_id": null,
        "ts": "1472476510.000006"
    },
    {
        "type": "message",
        "subtype": "file_share",
        "text": "<@U1FKCRD8D|hernanavella> uploaded a file: <https:\/\/tradingfutures.slack.com\/files\/hernanavella\/F25UPUAAU\/pasted_image_at_2016_08_29_08_23_am.png|Pasted image at 2016-08-29, 8:23 AM>",
        "file": {
            "id": "F25UPUAAU",
            "created": 1472476985,
            "timestamp": 1472476985,
            "name": "Pasted image at 2016_08_29 08_23 AM.png",
            "title": "Pasted image at 2016-08-29, 8:23 AM",
            "mimetype": "image\/png",
            "filetype": "png",
            "pretty_type": "PNG",
            "user": "U1FKCRD8D",
            "editable": false,
            "size": 116391,
            "mode": "hosted",
            "is_external": false,
            "external_type": "",
            "is_public": true,
            "public_url_shared": false,
            "display_as_bot": false,
            "username": "",
            "url_private": "https:\/\/files.slack.com\/files-pri\/T1FJKLSJ2-F25UPUAAU\/pasted_image_at_2016_08_29_08_23_am.png?t=xoxe-49631706614-119786374643-119786374659-90264fc38b",
            "url_private_download": "https:\/\/files.slack.com\/files-pri\/T1FJKLSJ2-F25UPUAAU\/download\/pasted_image_at_2016_08_29_08_23_am.png?t=xoxe-49631706614-119786374643-119786374659-90264fc38b",
            "thumb_64": "https:\/\/files.slack.com\/files-tmb\/T1FJKLSJ2-F25UPUAAU-ae9327c94d\/pasted_image_at_2016_08_29_08_23_am_64.png?t=xoxe-49631706614-119786374643-119786374659-90264fc38b",
            "thumb_80": "https:\/\/files.slack.com\/files-tmb\/T1FJKLSJ2-F25UPUAAU-ae9327c94d\/pasted_image_at_2016_08_29_08_23_am_80.png?t=xoxe-49631706614-119786374643-119786374659-90264fc38b",
            "thumb_360": "https:\/\/files.slack.com\/files-tmb\/T1FJKLSJ2-F25UPUAAU-ae9327c94d\/pasted_image_at_2016_08_29_08_23_am_360.png?t=xoxe-49631706614-119786374643-119786374659-90264fc38b",
            "thumb_360_w": 278,
            "thumb_360_h": 360,
            "thumb_480": "https:\/\/files.slack.com\/files-tmb\/T1FJKLSJ2-F25UPUAAU-ae9327c94d\/pasted_image_at_2016_08_29_08_23_am_480.png?t=xoxe-49631706614-119786374643-119786374659-90264fc38b",
            "thumb_480_w": 371,
            "thumb_480_h": 480,
            "thumb_160": "https:\/\/files.slack.com\/files-tmb\/T1FJKLSJ2-F25UPUAAU-ae9327c94d\/pasted_image_at_2016_08_29_08_23_am_160.png?t=xoxe-49631706614-119786374643-119786374659-90264fc38b",
            "thumb_720": "https:\/\/files.slack.com\/files-tmb\/T1FJKLSJ2-F25UPUAAU-ae9327c94d\/pasted_image_at_2016_08_29_08_23_am_720.png?t=xoxe-49631706614-119786374643-119786374659-90264fc38b",
            "thumb_720_w": 556,
            "thumb_720_h": 720,
            "thumb_960": "https:\/\/files.slack.com\/files-tmb\/T1FJKLSJ2-F25UPUAAU-ae9327c94d\/pasted_image_at_2016_08_29_08_23_am_960.png?t=xoxe-49631706614-119786374643-119786374659-90264fc38b",
            "thumb_960_w": 742,
            "thumb_960_h": 960,
            "thumb_1024": "https:\/\/files.slack.com\/files-tmb\/T1FJKLSJ2-F25UPUAAU-ae9327c94d\/pasted_image_at_2016_08_29_08_23_am_1024.png?t=xoxe-49631706614-119786374643-119786374659-90264fc38b",
            "thumb_1024_w": 791,
            "thumb_1024_h": 1024,
            "image_exif_rotation": 1,
            "original_w": 816,
            "original_h": 1056,
            "permalink": "https:\/\/tradingfutures.slack.com\/files\/hernanavella\/F25UPUAAU\/pasted_image_at_2016_08_29_08_23_am.png",
            "permalink_public": "https:\/\/slack-files.com\/T1FJKLSJ2-F25UPUAAU-dc5729eb1e",
            "channels": [
                "C1FK0RL2V"
            ],
            "groups": [],
            "ims": [],
            "comments_count": 0
        },
        "user": "U1FKCRD8D",
        "upload": true,
        "display_as_bot": false,
        "username": "<@U1FKCRD8D|hernanavella>",
        "bot_id": null,
        "ts": "1472476990.000009"
    },
    {
        "type": "message",
        "subtype": "file_share",
        "text": "<@U1J0N0DPZ|duncan> uploaded a file: <https:\/\/tradingfutures.slack.com\/files\/duncan\/F25V9AA4D\/-.txt|Untitled> and commented: so much for the morning sell off..",
        "file": {
            "id": "F25V9AA4D",
            "created": 1472478942,
            "timestamp": 1472478942,
            "name": "-.txt",
            "title": "Untitled",
            "mimetype": "text\/plain",
            "filetype": "text",
            "pretty_type": "Plain Text",
            "user": "U1J0N0DPZ",
            "editable": true,
            "size": 1202,
            "mode": "snippet",
            "is_external": false,
            "external_type": "",
            "is_public": true,
            "public_url_shared": false,
            "display_as_bot": false,
            "username": "",
            "url_private": "https:\/\/files.slack.com\/files-pri\/T1FJKLSJ2-F25V9AA4D\/-.txt?t=xoxe-49631706614-119786374643-119786374659-90264fc38b",
            "url_private_download": "https:\/\/files.slack.com\/files-pri\/T1FJKLSJ2-F25V9AA4D\/download\/-.txt?t=xoxe-49631706614-119786374643-119786374659-90264fc38b",
            "permalink": "https:\/\/tradingfutures.slack.com\/files\/duncan\/F25V9AA4D\/-.txt",
            "permalink_public": "https:\/\/slack-files.com\/T1FJKLSJ2-F25V9AA4D-e2bd00c447",
            "edit_link": "https:\/\/tradingfutures.slack.com\/files\/duncan\/F25V9AA4D\/-.txt\/edit",
            "preview": "an at 08\/29\/2016 09:54\r\nCalculation results for ES from 01\/06\/2009 00:00 to 08\/15\/2016 00:00\r\nReference time at 09:50\r\n\r\nEntry Conditions:\r",
            "preview_highlight": "<div class=\"CodeMirror cm-s-default CodeMirrorServer\" oncopy=\"if(event.clipboardData){event.clipboardData.setData('text\/plain',window.getSelection().toString().replace(\/\\u200b\/g,''));event.preventDefault();event.stopPropagation();}\">\n<div class=\"CodeMirror-code\">\n<div><pre>an at 08\/29\/2016 09:54<\/pre><\/div>\n<div><pre>Calculation results for ES from 01\/06\/2009 00:00 to 08\/15\/2016 00:00<\/pre><\/div>\n<div><pre>Reference time at 09:50<\/pre><\/div>\n<div><pre><\/pre><\/div>\n<div><pre>Entry Conditions:<\/pre><\/div>\n<div><pre><\/pre><\/div>\n<\/div>\n<\/div>\n",
            "lines": 22,
            "lines_more": 17,
            "preview_is_truncated": true,
            "channels": [
                "C1FK0RL2V"
            ],
            "groups": [],
            "ims": [],
            "comments_count": 1,
            "initial_comment": {
                "id": "Fc26055Z6E",
                "created": 1472478942,
                "timestamp": 1472478942,
                "user": "U1J0N0DPZ",
                "is_intro": true,
                "comment": "so much for the morning sell off..",
                "channel": ""
            }
        },
        "user": "U1J0N0DPZ",
        "upload": true,
        "display_as_bot": false,
        "username": "<@U1J0N0DPZ|duncan>",
        "bot_id": null,
        "ts": "1472478942.000010"
    },
    {
        "type": "message",
        "subtype": "file_share",
        "text": "<@U1FKCRD8D|hernanavella> uploaded a file: <https:\/\/tradingfutures.slack.com\/files\/hernanavella\/F25V4RDDL\/pasted_image_at_2016_08_29_09_02_am.png|This could have helped us...> and commented: #needrealtimepatternalertsystem",
        "file": {
            "id": "F25V4RDDL",
            "created": 1472479389,
            "timestamp": 1472479389,
            "name": "Pasted image at 2016_08_29 09_02 AM.png",
            "title": "This could have helped us...",
            "mimetype": "image\/png",
            "filetype": "png",
            "pretty_type": "PNG",
            "user": "U1FKCRD8D",
            "editable": false,
            "size": 114604,
            "mode": "hosted",
            "is_external": false,
            "external_type": "",
            "is_public": true,
            "public_url_shared": false,
            "display_as_bot": false,
            "username": "",
            "url_private": "https:\/\/files.slack.com\/files-pri\/T1FJKLSJ2-F25V4RDDL\/pasted_image_at_2016_08_29_09_02_am.png?t=xoxe-49631706614-119786374643-119786374659-90264fc38b",
            "url_private_download": "https:\/\/files.slack.com\/files-pri\/T1FJKLSJ2-F25V4RDDL\/download\/pasted_image_at_2016_08_29_09_02_am.png?t=xoxe-49631706614-119786374643-119786374659-90264fc38b",
            "thumb_64": "https:\/\/files.slack.com\/files-tmb\/T1FJKLSJ2-F25V4RDDL-24c1df6b53\/pasted_image_at_2016_08_29_09_02_am_64.png?t=xoxe-49631706614-119786374643-119786374659-90264fc38b",
            "thumb_80": "https:\/\/files.slack.com\/files-tmb\/T1FJKLSJ2-F25V4RDDL-24c1df6b53\/pasted_image_at_2016_08_29_09_02_am_80.png?t=xoxe-49631706614-119786374643-119786374659-90264fc38b",
            "thumb_360": "https:\/\/files.slack.com\/files-tmb\/T1FJKLSJ2-F25V4RDDL-24c1df6b53\/pasted_image_at_2016_08_29_09_02_am_360.png?t=xoxe-49631706614-119786374643-119786374659-90264fc38b",
            "thumb_360_w": 278,
            "thumb_360_h": 360,
            "thumb_480": "https:\/\/files.slack.com\/files-tmb\/T1FJKLSJ2-F25V4RDDL-24c1df6b53\/pasted_image_at_2016_08_29_09_02_am_480.png?t=xoxe-49631706614-119786374643-119786374659-90264fc38b",
            "thumb_480_w": 371,
            "thumb_480_h": 480,
            "thumb_160": "https:\/\/files.slack.com\/files-tmb\/T1FJKLSJ2-F25V4RDDL-24c1df6b53\/pasted_image_at_2016_08_29_09_02_am_160.png?t=xoxe-49631706614-119786374643-119786374659-90264fc38b",
            "thumb_720": "https:\/\/files.slack.com\/files-tmb\/T1FJKLSJ2-F25V4RDDL-24c1df6b53\/pasted_image_at_2016_08_29_09_02_am_720.png?t=xoxe-49631706614-119786374643-119786374659-90264fc38b",
            "thumb_720_w": 556,
            "thumb_720_h": 720,
            "thumb_960": "https:\/\/files.slack.com\/files-tmb\/T1FJKLSJ2-F25V4RDDL-24c1df6b53\/pasted_image_at_2016_08_29_09_02_am_960.png?t=xoxe-49631706614-119786374643-119786374659-90264fc38b",
            "thumb_960_w": 742,
            "thumb_960_h": 960,
            "thumb_1024": "https:\/\/files.slack.com\/files-tmb\/T1FJKLSJ2-F25V4RDDL-24c1df6b53\/pasted_image_at_2016_08_29_09_02_am_1024.png?t=xoxe-49631706614-119786374643-119786374659-90264fc38b",
            "thumb_1024_w": 791,
            "thumb_1024_h": 1024,
            "image_exif_rotation": 1,
            "original_w": 816,
            "original_h": 1056,
            "permalink": "https:\/\/tradingfutures.slack.com\/files\/hernanavella\/F25V4RDDL\/pasted_image_at_2016_08_29_09_02_am.png",
            "permalink_public": "https:\/\/slack-files.com\/T1FJKLSJ2-F25V4RDDL-3ae735a306",
            "channels": [
                "C1FK0RL2V"
            ],
            "groups": [],
            "ims": [],
            "comments_count": 1,
            "initial_comment": {
                "id": "Fc25VCDP8V",
                "created": 1472479389,
                "timestamp": 1472479389,
                "user": "U1FKCRD8D",
                "is_intro": true,
                "comment": "#needrealtimepatternalertsystem",
                "channel": ""
            },
            "reactions": [
                {
                    "name": "tophat",
                    "users": [
                        "U1FHF07QT"
                    ],
                    "count": 1
                },
                {
                    "name": "white_check_mark",
                    "users": [
                        "U1J0N0DPZ"
                    ],
                    "count": 1
                }
            ]
        },
        "user": "U1FKCRD8D",
        "upload": true,
        "display_as_bot": false,
        "username": "<@U1FKCRD8D|hernanavella>",
        "bot_id": null,
        "ts": "1472479393.000011"
    },
    {
        "type": "message",
        "subtype": "file_share",
        "text": "<@U1FJWQN1Z|bet4value> uploaded a file: <https:\/\/tradingfutures.slack.com\/files\/bet4value\/F260BE8NM\/-.txt|Untitled>",
        "file": {
            "id": "F260BE8NM",
            "created": 1472480749,
            "timestamp": 1472480749,
            "name": "-.txt",
            "title": "Untitled",
            "mimetype": "text\/plain",
            "filetype": "text",
            "pretty_type": "Plain Text",
            "user": "U1FJWQN1Z",
            "editable": true,
            "size": 3952,
            "mode": "snippet",
            "is_external": false,
            "external_type": "",
            "is_public": true,
            "public_url_shared": false,
            "display_as_bot": false,
            "username": "",
            "url_private": "https:\/\/files.slack.com\/files-pri\/T1FJKLSJ2-F260BE8NM\/-.txt?t=xoxe-49631706614-119786374643-119786374659-90264fc38b",
            "url_private_download": "https:\/\/files.slack.com\/files-pri\/T1FJKLSJ2-F260BE8NM\/download\/-.txt?t=xoxe-49631706614-119786374643-119786374659-90264fc38b",
            "permalink": "https:\/\/tradingfutures.slack.com\/files\/bet4value\/F260BE8NM\/-.txt",
            "permalink_public": "https:\/\/slack-files.com\/T1FJKLSJ2-F260BE8NM-9e9b8ce93d",
            "edit_link": "https:\/\/tradingfutures.slack.com\/files\/bet4value\/F260BE8NM\/-.txt\/edit",
            "preview": "PCMAC::Mon Aug 29 10:23:54 2016\r\nDEP VAR NITE.SP AT 1030 ALL DAYS: 1\/1\/2013 to 8\/26\/2016\r\nINDEPENDNT   LAG1 HOUR   LAG2 HOUR       LO       HI     (TRADING DAYS)\r\n   NITE.SP     5  1620     1  1620    -5000       -1\r\n   NITE.SP     2  1620     1   930        1     5000\r",
            "preview_highlight": "<div class=\"CodeMirror cm-s-default CodeMirrorServer\" oncopy=\"if(event.clipboardData){event.clipboardData.setData('text\/plain',window.getSelection().toString().replace(\/\\u200b\/g,''));event.preventDefault();event.stopPropagation();}\">\n<div class=\"CodeMirror-code\">\n<div><pre>PCMAC::Mon Aug 29 10:23:54 2016<\/pre><\/div>\n<div><pre>DEP VAR NITE.SP AT 1030 ALL DAYS: 1\/1\/2013 to 8\/26\/2016<\/pre><\/div>\n<div><pre>INDEPENDNT   LAG1 HOUR   LAG2 HOUR       LO       HI     (TRADING DAYS)<\/pre><\/div>\n<div><pre>   NITE.SP     5  1620     1  1620    -5000       -1<\/pre><\/div>\n<div><pre>   NITE.SP     2  1620     1   930        1     5000<\/pre><\/div>\n<div><pre><\/pre><\/div>\n<\/div>\n<\/div>\n",
            "lines": 66,
            "lines_more": 61,
            "preview_is_truncated": true,
            "channels": [
                "C1FK0RL2V"
            ],
            "groups": [],
            "ims": [],
            "comments_count": 0
        },
        "user": "U1FJWQN1Z",
        "upload": true,
        "display_as_bot": false,
        "username": "<@U1FJWQN1Z|bet4value>",
        "bot_id": null,
        "ts": "1472480750.000014"
    },
    {
        "type": "message",
        "subtype": "file_share",
        "text": "<@U1FKCRD8D|hernanavella> uploaded a file: <https:\/\/tradingfutures.slack.com\/files\/hernanavella\/F25UHDR0T\/-.txt|Untitled>",
        "file": {
            "id": "F25UHDR0T",
            "created": 1472483105,
            "timestamp": 1472483105,
            "name": "-.txt",
            "title": "Untitled",
            "mimetype": "text\/plain",
            "filetype": "text",
            "pretty_type": "Plain Text",
            "user": "U1FKCRD8D",
            "editable": true,
            "size": 1675,
            "mode": "snippet",
            "is_external": false,
            "external_type": "",
            "is_public": true,
            "public_url_shared": false,
            "display_as_bot": false,
            "username": "",
            "url_private": "https:\/\/files.slack.com\/files-pri\/T1FJKLSJ2-F25UHDR0T\/-.txt?t=xoxe-49631706614-119786374643-119786374659-90264fc38b",
            "url_private_download": "https:\/\/files.slack.com\/files-pri\/T1FJKLSJ2-F25UHDR0T\/download\/-.txt?t=xoxe-49631706614-119786374643-119786374659-90264fc38b",
            "permalink": "https:\/\/tradingfutures.slack.com\/files\/hernanavella\/F25UHDR0T\/-.txt",
            "permalink_public": "https:\/\/slack-files.com\/T1FJKLSJ2-F25UHDR0T-4b37682a55",
            "edit_link": "https:\/\/tradingfutures.slack.com\/files\/hernanavella\/F25UHDR0T\/-.txt\/edit",
            "preview": "HERNAN-HP::Mon Aug 29 10:04:36 2016\r\nDEP VAR NITE.SP AT 1200 ALL DAYS: 1\/1\/2015 to 7\/29\/2016\r\nINDEPENDNT   LAG1 HOUR   LAG2 HOUR       LO       HI     (TRADING DAYS)\r\n     TBOND     0   820     0  1200       35     5000\r\n   NITE.SP     0   930     0  1200        1     5000\r",
            "preview_highlight": "<div class=\"CodeMirror cm-s-default CodeMirrorServer\" oncopy=\"if(event.clipboardData){event.clipboardData.setData('text\/plain',window.getSelection().toString().replace(\/\\u200b\/g,''));event.preventDefault();event.stopPropagation();}\">\n<div class=\"CodeMirror-code\">\n<div><pre>HERNAN-HP::Mon Aug 29 10:04:36 2016<\/pre><\/div>\n<div><pre>DEP VAR NITE.SP AT 1200 ALL DAYS: 1\/1\/2015 to 7\/29\/2016<\/pre><\/div>\n<div><pre>INDEPENDNT   LAG1 HOUR   LAG2 HOUR       LO       HI     (TRADING DAYS)<\/pre><\/div>\n<div><pre>     TBOND     0   820     0  1200       35     5000<\/pre><\/div>\n<div><pre>   NITE.SP     0   930     0  1200        1     5000<\/pre><\/div>\n<div><pre><\/pre><\/div>\n<\/div>\n<\/div>\n",
            "lines": 25,
            "lines_more": 20,
            "preview_is_truncated": true,
            "channels": [
                "C1FK0RL2V"
            ],
            "groups": [],
            "ims": [],
            "comments_count": 0
        },
        "user": "U1FKCRD8D",
        "upload": true,
        "display_as_bot": false,
        "username": "<@U1FKCRD8D|hernanavella>",
        "bot_id": null,
        "ts": "1472483106.000015"
    },
    {
        "type": "message",
        "subtype": "file_share",
        "text": "<@U1FKCRD8D|hernanavella> uploaded a file: <https:\/\/tradingfutures.slack.com\/files\/hernanavella\/F264N1GQN\/recent_pattern.txt|Recent Pattern> and commented: Works Better with 0.930-0.1 down",
        "file": {
            "id": "F264N1GQN",
            "created": 1472502746,
            "timestamp": 1472502746,
            "name": "Recent_Pattern.txt",
            "title": "Recent Pattern",
            "mimetype": "text\/plain",
            "filetype": "text",
            "pretty_type": "Plain Text",
            "user": "U1FKCRD8D",
            "editable": true,
            "size": 2483,
            "mode": "snippet",
            "is_external": false,
            "external_type": "",
            "is_public": true,
            "public_url_shared": false,
            "display_as_bot": false,
            "username": "",
            "url_private": "https:\/\/files.slack.com\/files-pri\/T1FJKLSJ2-F264N1GQN\/recent_pattern.txt?t=xoxe-49631706614-119786374643-119786374659-90264fc38b",
            "url_private_download": "https:\/\/files.slack.com\/files-pri\/T1FJKLSJ2-F264N1GQN\/download\/recent_pattern.txt?t=xoxe-49631706614-119786374643-119786374659-90264fc38b",
            "permalink": "https:\/\/tradingfutures.slack.com\/files\/hernanavella\/F264N1GQN\/recent_pattern.txt",
            "permalink_public": "https:\/\/slack-files.com\/T1FJKLSJ2-F264N1GQN-8d1cafe3ba",
            "edit_link": "https:\/\/tradingfutures.slack.com\/files\/hernanavella\/F264N1GQN\/recent_pattern.txt\/edit",
            "preview": "HERNAN-HP::Mon Aug 29 15:31:13 2016\r\nDEP VAR NITE.SP AT 1620 MON THRU WED: 6\/1\/2015 to 7\/29\/2016\r\nINDEPENDNT   LAG1 HOUR   LAG2 HOUR       LO       HI     (TRADING DAYS)\r\n   NITE.SP     0  1400     0  1620    -5000       -1\r\n   NITE.SP     1  1620     0   930        1     5000\r",
            "preview_highlight": "<div class=\"CodeMirror cm-s-default CodeMirrorServer\" oncopy=\"if(event.clipboardData){event.clipboardData.setData('text\/plain',window.getSelection().toString().replace(\/\\u200b\/g,''));event.preventDefault();event.stopPropagation();}\">\n<div class=\"CodeMirror-code\">\n<div><pre>HERNAN-HP::Mon Aug 29 15:31:13 2016<\/pre><\/div>\n<div><pre>DEP VAR NITE.SP AT 1620 MON THRU WED: 6\/1\/2015 to 7\/29\/2016<\/pre><\/div>\n<div><pre>INDEPENDNT   LAG1 HOUR   LAG2 HOUR       LO       HI     (TRADING DAYS)<\/pre><\/div>\n<div><pre>   NITE.SP     0  1400     0  1620    -5000       -1<\/pre><\/div>\n<div><pre>   NITE.SP     1  1620     0   930        1     5000<\/pre><\/div>\n<div><pre><\/pre><\/div>\n<\/div>\n<\/div>\n",
            "lines": 37,
            "lines_more": 32,
            "preview_is_truncated": true,
            "channels": [
                "C1FK0RL2V"
            ],
            "groups": [],
            "ims": [],
            "comments_count": 2,
            "initial_comment": {
                "id": "Fc264Y3CHM",
                "created": 1472502746,
                "timestamp": 1472502746,
                "user": "U1FKCRD8D",
                "is_intro": true,
                "comment": "Works Better with 0.930-0.1 down",
                "channel": ""
            }
        },
        "user": "U1FKCRD8D",
        "upload": true,
        "display_as_bot": false,
        "username": "<@U1FKCRD8D|hernanavella>",
        "bot_id": null,
        "ts": "1472502747.000016"
    },
    {
        "type": "message",
        "subtype": "file_comment",
        "text": "<@U1FHF07QT|jkh> commented on <@U1FKCRD8D|hernanavella>'s file <https:\/\/tradingfutures.slack.com\/files\/hernanavella\/F264N1GQN\/recent_pattern.txt|Recent Pattern>: Strange pattern",
        "file": {
            "id": "F264N1GQN",
            "created": 1472502746,
            "timestamp": 1472502746,
            "name": "Recent_Pattern.txt",
            "title": "Recent Pattern",
            "mimetype": "text\/plain",
            "filetype": "text",
            "pretty_type": "Plain Text",
            "user": "U1FKCRD8D",
            "editable": true,
            "size": 2483,
            "mode": "snippet",
            "is_external": false,
            "external_type": "",
            "is_public": true,
            "public_url_shared": false,
            "display_as_bot": false,
            "username": "",
            "url_private": "https:\/\/files.slack.com\/files-pri\/T1FJKLSJ2-F264N1GQN\/recent_pattern.txt?t=xoxe-49631706614-119786374643-119786374659-90264fc38b",
            "url_private_download": "https:\/\/files.slack.com\/files-pri\/T1FJKLSJ2-F264N1GQN\/download\/recent_pattern.txt?t=xoxe-49631706614-119786374643-119786374659-90264fc38b",
            "permalink": "https:\/\/tradingfutures.slack.com\/files\/hernanavella\/F264N1GQN\/recent_pattern.txt",
            "permalink_public": "https:\/\/slack-files.com\/T1FJKLSJ2-F264N1GQN-8d1cafe3ba",
            "edit_link": "https:\/\/tradingfutures.slack.com\/files\/hernanavella\/F264N1GQN\/recent_pattern.txt\/edit",
            "preview": "HERNAN-HP::Mon Aug 29 15:31:13 2016\r\nDEP VAR NITE.SP AT 1620 MON THRU WED: 6\/1\/2015 to 7\/29\/2016\r\nINDEPENDNT   LAG1 HOUR   LAG2 HOUR       LO       HI     (TRADING DAYS)\r\n   NITE.SP     0  1400     0  1620    -5000       -1\r\n   NITE.SP     1  1620     0   930        1     5000\r",
            "preview_highlight": "<div class=\"CodeMirror cm-s-default CodeMirrorServer\" oncopy=\"if(event.clipboardData){event.clipboardData.setData('text\/plain',window.getSelection().toString().replace(\/\\u200b\/g,''));event.preventDefault();event.stopPropagation();}\">\n<div class=\"CodeMirror-code\">\n<div><pre>HERNAN-HP::Mon Aug 29 15:31:13 2016<\/pre><\/div>\n<div><pre>DEP VAR NITE.SP AT 1620 MON THRU WED: 6\/1\/2015 to 7\/29\/2016<\/pre><\/div>\n<div><pre>INDEPENDNT   LAG1 HOUR   LAG2 HOUR       LO       HI     (TRADING DAYS)<\/pre><\/div>\n<div><pre>   NITE.SP     0  1400     0  1620    -5000       -1<\/pre><\/div>\n<div><pre>   NITE.SP     1  1620     0   930        1     5000<\/pre><\/div>\n<div><pre><\/pre><\/div>\n<\/div>\n<\/div>\n",
            "lines": 37,
            "lines_more": 32,
            "preview_is_truncated": true,
            "channels": [
                "C1FK0RL2V"
            ],
            "groups": [],
            "ims": [],
            "comments_count": 2,
            "initial_comment": {
                "id": "Fc264Y3CHM",
                "created": 1472502746,
                "timestamp": 1472502746,
                "user": "U1FKCRD8D",
                "is_intro": true,
                "comment": "Works Better with 0.930-0.1 down",
                "channel": ""
            }
        },
        "comment": {
            "id": "Fc266VB28Z",
            "created": 1472515550,
            "timestamp": 1472515550,
            "user": "U1FHF07QT",
            "is_intro": false,
            "comment": "Strange pattern",
            "channel": ""
        },
        "is_intro": false,
        "ts": "1472515550.000017"
    }
]