[
    {
        "type": "message",
        "subtype": "file_share",
        "text": "<@U1FJWQN1Z|bet4value> uploaded a file: <https:\/\/tradingfutures.slack.com\/files\/bet4value\/F1Y7BMAQM\/-.txt|Untitled>",
        "file": {
            "id": "F1Y7BMAQM",
            "created": 1470315549,
            "timestamp": 1470315549,
            "name": "-.txt",
            "title": "Untitled",
            "mimetype": "text\/plain",
            "filetype": "text",
            "pretty_type": "Plain Text",
            "user": "U1FJWQN1Z",
            "editable": true,
            "size": 3519,
            "mode": "snippet",
            "is_external": false,
            "external_type": "",
            "is_public": true,
            "public_url_shared": false,
            "display_as_bot": false,
            "username": "",
            "url_private": "https:\/\/files.slack.com\/files-pri\/T1FJKLSJ2-F1Y7BMAQM\/-.txt?t=xoxe-49631706614-119786374643-119786374659-90264fc38b",
            "url_private_download": "https:\/\/files.slack.com\/files-pri\/T1FJKLSJ2-F1Y7BMAQM\/download\/-.txt?t=xoxe-49631706614-119786374643-119786374659-90264fc38b",
            "permalink": "https:\/\/tradingfutures.slack.com\/files\/bet4value\/F1Y7BMAQM\/-.txt",
            "permalink_public": "https:\/\/slack-files.com\/T1FJKLSJ2-F1Y7BMAQM-5c7b2f70c5",
            "edit_link": "https:\/\/tradingfutures.slack.com\/files\/bet4value\/F1Y7BMAQM\/-.txt\/edit",
            "preview": "PCMAC::Thu Aug 04 08:58:22 2016\r\nDEP VAR NITE.SP AT 1520 ALL DAYS: 1\/1\/2013 to 7\/29\/2016\r\nINCLUDE UNEMPLOYMENT ANNOUNCEMENT AT T(1)\r\nINDEPENDNT   LAG1 HOUR   LAG2 HOUR       LO       HI     (TRADING DAYS)\r\n   NITE.SP     1  1620     0  1520    -5000       -1\r",
            "preview_highlight": "<div class=\"CodeMirror cm-s-default CodeMirrorServer\" oncopy=\"if(event.clipboardData){event.clipboardData.setData('text\/plain',window.getSelection().toString().replace(\/\\u200b\/g,''));event.preventDefault();event.stopPropagation();}\">\n<div class=\"CodeMirror-code\">\n<div><pre>PCMAC::Thu Aug 04 08:58:22 2016<\/pre><\/div>\n<div><pre>DEP VAR NITE.SP AT 1520 ALL DAYS: 1\/1\/2013 to 7\/29\/2016<\/pre><\/div>\n<div><pre>INCLUDE UNEMPLOYMENT ANNOUNCEMENT AT T(1)<\/pre><\/div>\n<div><pre>INDEPENDNT   LAG1 HOUR   LAG2 HOUR       LO       HI     (TRADING DAYS)<\/pre><\/div>\n<div><pre>   NITE.SP     1  1620     0  1520    -5000       -1<\/pre><\/div>\n<div><pre><\/pre><\/div>\n<\/div>\n<\/div>\n",
            "lines": 57,
            "lines_more": 52,
            "preview_is_truncated": true,
            "channels": [
                "C1FK0RL2V"
            ],
            "groups": [],
            "ims": [],
            "comments_count": 0,
            "reactions": [
                {
                    "name": "chart_with_upwards_trend",
                    "users": [
                        "U1FHF07QT"
                    ],
                    "count": 1
                }
            ]
        },
        "user": "U1FJWQN1Z",
        "upload": true,
        "display_as_bot": false,
        "username": "<@U1FJWQN1Z|bet4value>",
        "bot_id": null,
        "ts": "1470315550.000205"
    },
    {
        "type": "message",
        "subtype": "file_share",
        "text": "<@U1FJYUKQ9|mkchuprin> uploaded a file: <https:\/\/tradingfutures.slack.com\/files\/mkchuprin\/F1Y7FJTQX\/pasted_image_at_2016_08_04_09_07_am.png|Pasted image at 2016-08-04, 9:07 AM>",
        "file": {
            "id": "F1Y7FJTQX",
            "created": 1470316060,
            "timestamp": 1470316060,
            "name": "Pasted image at 2016_08_04 09_07 AM.png",
            "title": "Pasted image at 2016-08-04, 9:07 AM",
            "mimetype": "image\/png",
            "filetype": "png",
            "pretty_type": "PNG",
            "user": "U1FJYUKQ9",
            "editable": false,
            "size": 225184,
            "mode": "hosted",
            "is_external": false,
            "external_type": "",
            "is_public": true,
            "public_url_shared": false,
            "display_as_bot": false,
            "username": "",
            "url_private": "https:\/\/files.slack.com\/files-pri\/T1FJKLSJ2-F1Y7FJTQX\/pasted_image_at_2016_08_04_09_07_am.png?t=xoxe-49631706614-119786374643-119786374659-90264fc38b",
            "url_private_download": "https:\/\/files.slack.com\/files-pri\/T1FJKLSJ2-F1Y7FJTQX\/download\/pasted_image_at_2016_08_04_09_07_am.png?t=xoxe-49631706614-119786374643-119786374659-90264fc38b",
            "thumb_64": "https:\/\/files.slack.com\/files-tmb\/T1FJKLSJ2-F1Y7FJTQX-adfa3e6506\/pasted_image_at_2016_08_04_09_07_am_64.png?t=xoxe-49631706614-119786374643-119786374659-90264fc38b",
            "thumb_80": "https:\/\/files.slack.com\/files-tmb\/T1FJKLSJ2-F1Y7FJTQX-adfa3e6506\/pasted_image_at_2016_08_04_09_07_am_80.png?t=xoxe-49631706614-119786374643-119786374659-90264fc38b",
            "thumb_360": "https:\/\/files.slack.com\/files-tmb\/T1FJKLSJ2-F1Y7FJTQX-adfa3e6506\/pasted_image_at_2016_08_04_09_07_am_360.png?t=xoxe-49631706614-119786374643-119786374659-90264fc38b",
            "thumb_360_w": 360,
            "thumb_360_h": 233,
            "thumb_480": "https:\/\/files.slack.com\/files-tmb\/T1FJKLSJ2-F1Y7FJTQX-adfa3e6506\/pasted_image_at_2016_08_04_09_07_am_480.png?t=xoxe-49631706614-119786374643-119786374659-90264fc38b",
            "thumb_480_w": 480,
            "thumb_480_h": 311,
            "thumb_160": "https:\/\/files.slack.com\/files-tmb\/T1FJKLSJ2-F1Y7FJTQX-adfa3e6506\/pasted_image_at_2016_08_04_09_07_am_160.png?t=xoxe-49631706614-119786374643-119786374659-90264fc38b",
            "thumb_720": "https:\/\/files.slack.com\/files-tmb\/T1FJKLSJ2-F1Y7FJTQX-adfa3e6506\/pasted_image_at_2016_08_04_09_07_am_720.png?t=xoxe-49631706614-119786374643-119786374659-90264fc38b",
            "thumb_720_w": 720,
            "thumb_720_h": 467,
            "thumb_960": "https:\/\/files.slack.com\/files-tmb\/T1FJKLSJ2-F1Y7FJTQX-adfa3e6506\/pasted_image_at_2016_08_04_09_07_am_960.png?t=xoxe-49631706614-119786374643-119786374659-90264fc38b",
            "thumb_960_w": 960,
            "thumb_960_h": 622,
            "thumb_1024": "https:\/\/files.slack.com\/files-tmb\/T1FJKLSJ2-F1Y7FJTQX-adfa3e6506\/pasted_image_at_2016_08_04_09_07_am_1024.png?t=xoxe-49631706614-119786374643-119786374659-90264fc38b",
            "thumb_1024_w": 1024,
            "thumb_1024_h": 664,
            "image_exif_rotation": 1,
            "original_w": 1353,
            "original_h": 877,
            "permalink": "https:\/\/tradingfutures.slack.com\/files\/mkchuprin\/F1Y7FJTQX\/pasted_image_at_2016_08_04_09_07_am.png",
            "permalink_public": "https:\/\/slack-files.com\/T1FJKLSJ2-F1Y7FJTQX-90250d1ca3",
            "channels": [
                "C1FK0RL2V"
            ],
            "groups": [],
            "ims": [],
            "comments_count": 1,
            "reactions": [
                {
                    "name": "metal",
                    "users": [
                        "U1FHF07QT"
                    ],
                    "count": 1
                }
            ]
        },
        "user": "U1FJYUKQ9",
        "upload": true,
        "display_as_bot": false,
        "username": "<@U1FJYUKQ9|mkchuprin>",
        "bot_id": null,
        "ts": "1470316064.000207"
    },
    {
        "type": "message",
        "user": "U1FKCRD8D",
        "text": "This patt is iven better if open less than 100",
        "ts": "1470316946.000209"
    },
    {
        "type": "message",
        "user": "U1FKCRD8D",
        "text": "Big Daddy Chuprin is on fire today :fire:",
        "ts": "1470316973.000210",
        "reactions": [
            {
                "name": "fire",
                "users": [
                    "U1FHF07QT"
                ],
                "count": 1
            }
        ]
    },
    {
        "type": "message",
        "user": "U1FJYUKQ9",
        "text": "haha thank you",
        "ts": "1470317167.000211"
    },
    {
        "type": "message",
        "user": "U1FJYUKQ9",
        "text": "Please let it be an up open",
        "ts": "1470317308.000212"
    },
    {
        "type": "message",
        "subtype": "file_share",
        "text": "<@U1FJYUKQ9|mkchuprin> uploaded a file: <https:\/\/tradingfutures.slack.com\/files\/mkchuprin\/F1Y7ESLHW\/imgres.jpg|imgres.jpg>",
        "file": {
            "id": "F1Y7ESLHW",
            "created": 1470317323,
            "timestamp": 1470317323,
            "name": "imgres.jpg",
            "title": "imgres.jpg",
            "mimetype": "image\/jpeg",
            "filetype": "jpg",
            "pretty_type": "JPEG",
            "user": "U1FJYUKQ9",
            "editable": false,
            "size": 4868,
            "mode": "hosted",
            "is_external": false,
            "external_type": "",
            "is_public": true,
            "public_url_shared": false,
            "display_as_bot": false,
            "username": "",
            "url_private": "https:\/\/files.slack.com\/files-pri\/T1FJKLSJ2-F1Y7ESLHW\/imgres.jpg?t=xoxe-49631706614-119786374643-119786374659-90264fc38b",
            "url_private_download": "https:\/\/files.slack.com\/files-pri\/T1FJKLSJ2-F1Y7ESLHW\/download\/imgres.jpg?t=xoxe-49631706614-119786374643-119786374659-90264fc38b",
            "thumb_64": "https:\/\/files.slack.com\/files-tmb\/T1FJKLSJ2-F1Y7ESLHW-641139b21b\/imgres_64.jpg?t=xoxe-49631706614-119786374643-119786374659-90264fc38b",
            "thumb_80": "https:\/\/files.slack.com\/files-tmb\/T1FJKLSJ2-F1Y7ESLHW-641139b21b\/imgres_80.jpg?t=xoxe-49631706614-119786374643-119786374659-90264fc38b",
            "thumb_360": "https:\/\/files.slack.com\/files-tmb\/T1FJKLSJ2-F1Y7ESLHW-641139b21b\/imgres_360.jpg?t=xoxe-49631706614-119786374643-119786374659-90264fc38b",
            "thumb_360_w": 220,
            "thumb_360_h": 229,
            "thumb_160": "https:\/\/files.slack.com\/files-tmb\/T1FJKLSJ2-F1Y7ESLHW-641139b21b\/imgres_160.jpg?t=xoxe-49631706614-119786374643-119786374659-90264fc38b",
            "image_exif_rotation": 1,
            "original_w": 220,
            "original_h": 229,
            "permalink": "https:\/\/tradingfutures.slack.com\/files\/mkchuprin\/F1Y7ESLHW\/imgres.jpg",
            "permalink_public": "https:\/\/slack-files.com\/T1FJKLSJ2-F1Y7ESLHW-aa4ac9f8a2",
            "channels": [
                "C1FK0RL2V"
            ],
            "groups": [],
            "ims": [],
            "comments_count": 0
        },
        "user": "U1FJYUKQ9",
        "upload": true,
        "display_as_bot": false,
        "username": "<@U1FJYUKQ9|mkchuprin>",
        "bot_id": null,
        "ts": "1470317324.000213"
    },
    {
        "type": "message",
        "user": "U1FJWQN1Z",
        "text": "tell them there's more behind it",
        "ts": "1470317832.000215"
    },
    {
        "type": "message",
        "user": "U1FJWQN1Z",
        "text": "more behind it",
        "ts": "1470317836.000217"
    },
    {
        "type": "message",
        "subtype": "file_share",
        "text": "<@U1FJWQN1Z|bet4value> uploaded a file: <https:\/\/tradingfutures.slack.com\/files\/bet4value\/F1Y7Z53L0\/-.txt|Untitled>",
        "file": {
            "id": "F1Y7Z53L0",
            "created": 1470320093,
            "timestamp": 1470320093,
            "name": "-.txt",
            "title": "Untitled",
            "mimetype": "text\/plain",
            "filetype": "text",
            "pretty_type": "Plain Text",
            "user": "U1FJWQN1Z",
            "editable": true,
            "size": 3894,
            "mode": "snippet",
            "is_external": false,
            "external_type": "",
            "is_public": true,
            "public_url_shared": false,
            "display_as_bot": false,
            "username": "",
            "url_private": "https:\/\/files.slack.com\/files-pri\/T1FJKLSJ2-F1Y7Z53L0\/-.txt?t=xoxe-49631706614-119786374643-119786374659-90264fc38b",
            "url_private_download": "https:\/\/files.slack.com\/files-pri\/T1FJKLSJ2-F1Y7Z53L0\/download\/-.txt?t=xoxe-49631706614-119786374643-119786374659-90264fc38b",
            "permalink": "https:\/\/tradingfutures.slack.com\/files\/bet4value\/F1Y7Z53L0\/-.txt",
            "permalink_public": "https:\/\/slack-files.com\/T1FJKLSJ2-F1Y7Z53L0-40e530febd",
            "edit_link": "https:\/\/tradingfutures.slack.com\/files\/bet4value\/F1Y7Z53L0\/-.txt\/edit",
            "preview": "PCMAC::Thu Aug 04 10:14:21 2016\r\nDEP VAR NITE.SP AT 1010 ALL DAYS: 1\/1\/2013 to 7\/29\/2016\r\nINDEPENDNT   LAG1 HOUR   LAG2 HOUR       LO       HI     (TRADING DAYS)\r\n   NITE.SP     5  1620     1  1620    -5000       -1\r\n   NITE.SP     1  1620     0   930        1     5000\r",
            "preview_highlight": "<div class=\"CodeMirror cm-s-default CodeMirrorServer\" oncopy=\"if(event.clipboardData){event.clipboardData.setData('text\/plain',window.getSelection().toString().replace(\/\\u200b\/g,''));event.preventDefault();event.stopPropagation();}\">\n<div class=\"CodeMirror-code\">\n<div><pre>PCMAC::Thu Aug 04 10:14:21 2016<\/pre><\/div>\n<div><pre>DEP VAR NITE.SP AT 1010 ALL DAYS: 1\/1\/2013 to 7\/29\/2016<\/pre><\/div>\n<div><pre>INDEPENDNT   LAG1 HOUR   LAG2 HOUR       LO       HI     (TRADING DAYS)<\/pre><\/div>\n<div><pre>   NITE.SP     5  1620     1  1620    -5000       -1<\/pre><\/div>\n<div><pre>   NITE.SP     1  1620     0   930        1     5000<\/pre><\/div>\n<div><pre><\/pre><\/div>\n<\/div>\n<\/div>\n",
            "lines": 63,
            "lines_more": 58,
            "preview_is_truncated": true,
            "channels": [
                "C1FK0RL2V"
            ],
            "groups": [],
            "ims": [],
            "comments_count": 0
        },
        "user": "U1FJWQN1Z",
        "upload": true,
        "display_as_bot": false,
        "username": "<@U1FJWQN1Z|bet4value>",
        "bot_id": null,
        "ts": "1470320093.000218"
    },
    {
        "type": "message",
        "subtype": "file_share",
        "text": "<@U1FJWQN1Z|bet4value> uploaded a file: <https:\/\/tradingfutures.slack.com\/files\/bet4value\/F1Y75QFT5\/-.txt|Untitled>",
        "file": {
            "id": "F1Y75QFT5",
            "created": 1470322990,
            "timestamp": 1470322990,
            "name": "-.txt",
            "title": "Untitled",
            "mimetype": "text\/plain",
            "filetype": "text",
            "pretty_type": "Plain Text",
            "user": "U1FJWQN1Z",
            "editable": true,
            "size": 3894,
            "mode": "snippet",
            "is_external": false,
            "external_type": "",
            "is_public": true,
            "public_url_shared": false,
            "display_as_bot": false,
            "username": "",
            "url_private": "https:\/\/files.slack.com\/files-pri\/T1FJKLSJ2-F1Y75QFT5\/-.txt?t=xoxe-49631706614-119786374643-119786374659-90264fc38b",
            "url_private_download": "https:\/\/files.slack.com\/files-pri\/T1FJKLSJ2-F1Y75QFT5\/download\/-.txt?t=xoxe-49631706614-119786374643-119786374659-90264fc38b",
            "permalink": "https:\/\/tradingfutures.slack.com\/files\/bet4value\/F1Y75QFT5\/-.txt",
            "permalink_public": "https:\/\/slack-files.com\/T1FJKLSJ2-F1Y75QFT5-52c9cd5f9f",
            "edit_link": "https:\/\/tradingfutures.slack.com\/files\/bet4value\/F1Y75QFT5\/-.txt\/edit",
            "preview": "PCMAC::Thu Aug 04 11:02:42 2016\r\nDEP VAR NITE.SP AT 1100 ALL DAYS: 1\/1\/2013 to 7\/29\/2016\r\nINDEPENDNT   LAG1 HOUR   LAG2 HOUR       LO       HI     (TRADING DAYS)\r\n   NITE.SP     5  1620     1  1620    -5000       -1\r\n   NITE.SP     1  1620     0   930        1     5000\r",
            "preview_highlight": "<div class=\"CodeMirror cm-s-default CodeMirrorServer\" oncopy=\"if(event.clipboardData){event.clipboardData.setData('text\/plain',window.getSelection().toString().replace(\/\\u200b\/g,''));event.preventDefault();event.stopPropagation();}\">\n<div class=\"CodeMirror-code\">\n<div><pre>PCMAC::Thu Aug 04 11:02:42 2016<\/pre><\/div>\n<div><pre>DEP VAR NITE.SP AT 1100 ALL DAYS: 1\/1\/2013 to 7\/29\/2016<\/pre><\/div>\n<div><pre>INDEPENDNT   LAG1 HOUR   LAG2 HOUR       LO       HI     (TRADING DAYS)<\/pre><\/div>\n<div><pre>   NITE.SP     5  1620     1  1620    -5000       -1<\/pre><\/div>\n<div><pre>   NITE.SP     1  1620     0   930        1     5000<\/pre><\/div>\n<div><pre><\/pre><\/div>\n<\/div>\n<\/div>\n",
            "lines": 63,
            "lines_more": 58,
            "preview_is_truncated": true,
            "channels": [
                "C1FK0RL2V"
            ],
            "groups": [],
            "ims": [],
            "comments_count": 0
        },
        "user": "U1FJWQN1Z",
        "upload": true,
        "display_as_bot": false,
        "username": "<@U1FJWQN1Z|bet4value>",
        "bot_id": null,
        "ts": "1470322991.000219"
    },
    {
        "type": "message",
        "subtype": "file_share",
        "text": "<@U1FJWQN1Z|bet4value> uploaded a file: <https:\/\/tradingfutures.slack.com\/files\/bet4value\/F1YAFC71U\/-.txt|Untitled>",
        "file": {
            "id": "F1YAFC71U",
            "created": 1470331824,
            "timestamp": 1470331824,
            "name": "-.txt",
            "title": "Untitled",
            "mimetype": "text\/plain",
            "filetype": "text",
            "pretty_type": "Plain Text",
            "user": "U1FJWQN1Z",
            "editable": true,
            "size": 3956,
            "mode": "snippet",
            "is_external": false,
            "external_type": "",
            "is_public": true,
            "public_url_shared": false,
            "display_as_bot": false,
            "username": "",
            "url_private": "https:\/\/files.slack.com\/files-pri\/T1FJKLSJ2-F1YAFC71U\/-.txt?t=xoxe-49631706614-119786374643-119786374659-90264fc38b",
            "url_private_download": "https:\/\/files.slack.com\/files-pri\/T1FJKLSJ2-F1YAFC71U\/download\/-.txt?t=xoxe-49631706614-119786374643-119786374659-90264fc38b",
            "permalink": "https:\/\/tradingfutures.slack.com\/files\/bet4value\/F1YAFC71U\/-.txt",
            "permalink_public": "https:\/\/slack-files.com\/T1FJKLSJ2-F1YAFC71U-a1de749d1c",
            "edit_link": "https:\/\/tradingfutures.slack.com\/files\/bet4value\/F1YAFC71U\/-.txt\/edit",
            "preview": "PCMAC::Thu Aug 04 13:29:56 2016\r\nDEP VAR NITE.SP AT 1330 ALL DAYS: 1\/1\/2013 to 7\/29\/2016\r\nINDEPENDNT   LAG1 HOUR   LAG2 HOUR       LO       HI     (TRADING DAYS)\r\n   NITE.SP     1  1620     0   930        1     5000\r\n   NITE.SP     0   930     0  1130        1     5000\r",
            "preview_highlight": "<div class=\"CodeMirror cm-s-default CodeMirrorServer\" oncopy=\"if(event.clipboardData){event.clipboardData.setData('text\/plain',window.getSelection().toString().replace(\/\\u200b\/g,''));event.preventDefault();event.stopPropagation();}\">\n<div class=\"CodeMirror-code\">\n<div><pre>PCMAC::Thu Aug 04 13:29:56 2016<\/pre><\/div>\n<div><pre>DEP VAR NITE.SP AT 1330 ALL DAYS: 1\/1\/2013 to 7\/29\/2016<\/pre><\/div>\n<div><pre>INDEPENDNT   LAG1 HOUR   LAG2 HOUR       LO       HI     (TRADING DAYS)<\/pre><\/div>\n<div><pre>   NITE.SP     1  1620     0   930        1     5000<\/pre><\/div>\n<div><pre>   NITE.SP     0   930     0  1130        1     5000<\/pre><\/div>\n<div><pre><\/pre><\/div>\n<\/div>\n<\/div>\n",
            "lines": 64,
            "lines_more": 59,
            "preview_is_truncated": true,
            "channels": [
                "C1FK0RL2V"
            ],
            "groups": [],
            "ims": [],
            "comments_count": 0
        },
        "user": "U1FJWQN1Z",
        "upload": true,
        "display_as_bot": false,
        "username": "<@U1FJWQN1Z|bet4value>",
        "bot_id": null,
        "ts": "1470331825.000220"
    },
    {
        "type": "message",
        "subtype": "file_share",
        "text": "<@U1FJWQN1Z|bet4value> uploaded a file: <https:\/\/tradingfutures.slack.com\/files\/bet4value\/F1YAQPKPZ\/-.txt|Untitled>",
        "file": {
            "id": "F1YAQPKPZ",
            "created": 1470331859,
            "timestamp": 1470331859,
            "name": "-.txt",
            "title": "Untitled",
            "mimetype": "text\/plain",
            "filetype": "text",
            "pretty_type": "Plain Text",
            "user": "U1FJWQN1Z",
            "editable": true,
            "size": 3894,
            "mode": "snippet",
            "is_external": false,
            "external_type": "",
            "is_public": true,
            "public_url_shared": false,
            "display_as_bot": false,
            "username": "",
            "url_private": "https:\/\/files.slack.com\/files-pri\/T1FJKLSJ2-F1YAQPKPZ\/-.txt?t=xoxe-49631706614-119786374643-119786374659-90264fc38b",
            "url_private_download": "https:\/\/files.slack.com\/files-pri\/T1FJKLSJ2-F1YAQPKPZ\/download\/-.txt?t=xoxe-49631706614-119786374643-119786374659-90264fc38b",
            "permalink": "https:\/\/tradingfutures.slack.com\/files\/bet4value\/F1YAQPKPZ\/-.txt",
            "permalink_public": "https:\/\/slack-files.com\/T1FJKLSJ2-F1YAQPKPZ-0db778ccc8",
            "edit_link": "https:\/\/tradingfutures.slack.com\/files\/bet4value\/F1YAQPKPZ\/-.txt\/edit",
            "preview": "PCMAC::Thu Aug 04 13:30:42 2016\r\nDEP VAR NITE.SP AT 1330 ALL DAYS: 1\/1\/2013 to 7\/29\/2016\r\nINDEPENDNT   LAG1 HOUR   LAG2 HOUR       LO       HI     (TRADING DAYS)\r\n   NITE.SP     5  1620     1  1620    -5000       -1\r\n   NITE.SP     1  1620     0   930        1     5000\r",
            "preview_highlight": "<div class=\"CodeMirror cm-s-default CodeMirrorServer\" oncopy=\"if(event.clipboardData){event.clipboardData.setData('text\/plain',window.getSelection().toString().replace(\/\\u200b\/g,''));event.preventDefault();event.stopPropagation();}\">\n<div class=\"CodeMirror-code\">\n<div><pre>PCMAC::Thu Aug 04 13:30:42 2016<\/pre><\/div>\n<div><pre>DEP VAR NITE.SP AT 1330 ALL DAYS: 1\/1\/2013 to 7\/29\/2016<\/pre><\/div>\n<div><pre>INDEPENDNT   LAG1 HOUR   LAG2 HOUR       LO       HI     (TRADING DAYS)<\/pre><\/div>\n<div><pre>   NITE.SP     5  1620     1  1620    -5000       -1<\/pre><\/div>\n<div><pre>   NITE.SP     1  1620     0   930        1     5000<\/pre><\/div>\n<div><pre><\/pre><\/div>\n<\/div>\n<\/div>\n",
            "lines": 63,
            "lines_more": 58,
            "preview_is_truncated": true,
            "channels": [
                "C1FK0RL2V"
            ],
            "groups": [],
            "ims": [],
            "comments_count": 0
        },
        "user": "U1FJWQN1Z",
        "upload": true,
        "display_as_bot": false,
        "username": "<@U1FJWQN1Z|bet4value>",
        "bot_id": null,
        "ts": "1470331859.000221"
    },
    {
        "type": "message",
        "subtype": "file_share",
        "text": "<@U1FJWQN1Z|bet4value> uploaded a file: <https:\/\/tradingfutures.slack.com\/files\/bet4value\/F1YC5FP89\/-.txt|Untitled>",
        "file": {
            "id": "F1YC5FP89",
            "created": 1470338349,
            "timestamp": 1470338349,
            "name": "-.txt",
            "title": "Untitled",
            "mimetype": "text\/plain",
            "filetype": "text",
            "pretty_type": "Plain Text",
            "user": "U1FJWQN1Z",
            "editable": true,
            "size": 3643,
            "mode": "snippet",
            "is_external": false,
            "external_type": "",
            "is_public": true,
            "public_url_shared": false,
            "display_as_bot": false,
            "username": "",
            "url_private": "https:\/\/files.slack.com\/files-pri\/T1FJKLSJ2-F1YC5FP89\/-.txt?t=xoxe-49631706614-119786374643-119786374659-90264fc38b",
            "url_private_download": "https:\/\/files.slack.com\/files-pri\/T1FJKLSJ2-F1YC5FP89\/download\/-.txt?t=xoxe-49631706614-119786374643-119786374659-90264fc38b",
            "permalink": "https:\/\/tradingfutures.slack.com\/files\/bet4value\/F1YC5FP89\/-.txt",
            "permalink_public": "https:\/\/slack-files.com\/T1FJKLSJ2-F1YC5FP89-c2fdda7a39",
            "edit_link": "https:\/\/tradingfutures.slack.com\/files\/bet4value\/F1YC5FP89\/-.txt\/edit",
            "preview": "PCMAC::Thu Aug 04 15:18:42 2016\r\nDEP VAR NITE.SP AT 1520 ALL DAYS: 1\/1\/2013 to 7\/29\/2016\r\nINCLUDE UNEMPLOYMENT ANNOUNCEMENT AT T(1)\r\nINDEPENDNT   LAG1 HOUR   LAG2 HOUR       LO       HI     (TRADING DAYS)\r\n   NITE.SP     1  1620     0  1520        1     5000\r",
            "preview_highlight": "<div class=\"CodeMirror cm-s-default CodeMirrorServer\" oncopy=\"if(event.clipboardData){event.clipboardData.setData('text\/plain',window.getSelection().toString().replace(\/\\u200b\/g,''));event.preventDefault();event.stopPropagation();}\">\n<div class=\"CodeMirror-code\">\n<div><pre>PCMAC::Thu Aug 04 15:18:42 2016<\/pre><\/div>\n<div><pre>DEP VAR NITE.SP AT 1520 ALL DAYS: 1\/1\/2013 to 7\/29\/2016<\/pre><\/div>\n<div><pre>INCLUDE UNEMPLOYMENT ANNOUNCEMENT AT T(1)<\/pre><\/div>\n<div><pre>INDEPENDNT   LAG1 HOUR   LAG2 HOUR       LO       HI     (TRADING DAYS)<\/pre><\/div>\n<div><pre>   NITE.SP     1  1620     0  1520        1     5000<\/pre><\/div>\n<div><pre><\/pre><\/div>\n<\/div>\n<\/div>\n",
            "lines": 59,
            "lines_more": 54,
            "preview_is_truncated": true,
            "channels": [
                "C1FK0RL2V"
            ],
            "groups": [],
            "ims": [],
            "comments_count": 0
        },
        "user": "U1FJWQN1Z",
        "upload": true,
        "display_as_bot": false,
        "username": "<@U1FJWQN1Z|bet4value>",
        "bot_id": null,
        "ts": "1470338349.000222"
    }
]