[
    {
        "type": "message",
        "subtype": "file_share",
        "text": "<@U1FKCRD8D|hernanavella> uploaded a file: <https:\/\/tradingfutures.slack.com\/files\/hernanavella\/F1XBM08HE\/-.txt|Untitled>",
        "file": {
            "id": "F1XBM08HE",
            "created": 1470138213,
            "timestamp": 1470138213,
            "name": "-.txt",
            "title": "Untitled",
            "mimetype": "text\/plain",
            "filetype": "text",
            "pretty_type": "Plain Text",
            "user": "U1FKCRD8D",
            "editable": true,
            "size": 4500,
            "mode": "snippet",
            "is_external": false,
            "external_type": "",
            "is_public": true,
            "public_url_shared": false,
            "display_as_bot": false,
            "username": "",
            "url_private": "https:\/\/files.slack.com\/files-pri\/T1FJKLSJ2-F1XBM08HE\/-.txt?t=xoxe-49631706614-119786374643-119786374659-90264fc38b",
            "url_private_download": "https:\/\/files.slack.com\/files-pri\/T1FJKLSJ2-F1XBM08HE\/download\/-.txt?t=xoxe-49631706614-119786374643-119786374659-90264fc38b",
            "permalink": "https:\/\/tradingfutures.slack.com\/files\/hernanavella\/F1XBM08HE\/-.txt",
            "permalink_public": "https:\/\/slack-files.com\/T1FJKLSJ2-F1XBM08HE-06fdbe3cb9",
            "edit_link": "https:\/\/tradingfutures.slack.com\/files\/hernanavella\/F1XBM08HE\/-.txt\/edit",
            "preview": "HERNANAVELLA-WS::Tue Aug 02 06:26:03 2016\r\nDEP VAR NITE.SP AT 930 ALL DAYS: 1\/1\/2015 to 7\/29\/2016\r\nAS OF 2 1620, NITE.SP AT 20 COMPARISON DAY HIGH \r\nINDEPENDNT   LAG1 HOUR   LAG2 HOUR       LO       HI     (TRADING DAYS)\r\n   NITE.SP     2  1620     1  1620    -5000       -1\r",
            "preview_highlight": "<div class=\"CodeMirror cm-s-default CodeMirrorServer\" oncopy=\"if(event.clipboardData){event.clipboardData.setData('text\/plain',window.getSelection().toString().replace(\/\\u200b\/g,''));event.preventDefault();event.stopPropagation();}\">\n<div class=\"CodeMirror-code\">\n<div><pre>HERNANAVELLA-WS::Tue Aug 02 06:26:03 2016<\/pre><\/div>\n<div><pre>DEP VAR NITE.SP AT 930 ALL DAYS: 1\/1\/2015 to 7\/29\/2016<\/pre><\/div>\n<div><pre>AS OF 2 1620, NITE.SP AT 20 COMPARISON DAY HIGH <\/pre><\/div>\n<div><pre>INDEPENDNT   LAG1 HOUR   LAG2 HOUR       LO       HI     (TRADING DAYS)<\/pre><\/div>\n<div><pre>   NITE.SP     2  1620     1  1620    -5000       -1<\/pre><\/div>\n<div><pre><\/pre><\/div>\n<\/div>\n<\/div>\n",
            "lines": 71,
            "lines_more": 66,
            "preview_is_truncated": true,
            "channels": [
                "C1FK0RL2V"
            ],
            "groups": [],
            "ims": [],
            "comments_count": 0
        },
        "user": "U1FKCRD8D",
        "upload": true,
        "display_as_bot": false,
        "username": "<@U1FKCRD8D|hernanavella>",
        "bot_id": null,
        "ts": "1470138213.000176"
    },
    {
        "type": "message",
        "subtype": "file_share",
        "text": "<@U1FKCRD8D|hernanavella> uploaded a file: <https:\/\/tradingfutures.slack.com\/files\/hernanavella\/F1XC1E6BB\/low_n.txt|Low N>",
        "file": {
            "id": "F1XC1E6BB",
            "created": 1470138883,
            "timestamp": 1470138883,
            "name": "Low_N.txt",
            "title": "Low N",
            "mimetype": "text\/plain",
            "filetype": "text",
            "pretty_type": "Plain Text",
            "user": "U1FKCRD8D",
            "editable": true,
            "size": 2051,
            "mode": "snippet",
            "is_external": false,
            "external_type": "",
            "is_public": true,
            "public_url_shared": false,
            "display_as_bot": false,
            "username": "",
            "url_private": "https:\/\/files.slack.com\/files-pri\/T1FJKLSJ2-F1XC1E6BB\/low_n.txt?t=xoxe-49631706614-119786374643-119786374659-90264fc38b",
            "url_private_download": "https:\/\/files.slack.com\/files-pri\/T1FJKLSJ2-F1XC1E6BB\/download\/low_n.txt?t=xoxe-49631706614-119786374643-119786374659-90264fc38b",
            "permalink": "https:\/\/tradingfutures.slack.com\/files\/hernanavella\/F1XC1E6BB\/low_n.txt",
            "permalink_public": "https:\/\/slack-files.com\/T1FJKLSJ2-F1XC1E6BB-c555a21d7b",
            "edit_link": "https:\/\/tradingfutures.slack.com\/files\/hernanavella\/F1XC1E6BB\/low_n.txt\/edit",
            "preview": "HERNANAVELLA-WS::Tue Aug 02 06:51:52 2016\r\nDEP VAR NITE.SP AT 930 ALL DAYS: 1\/1\/2007 to 7\/29\/2016\r\nLOOKING AT DAY 2 FROM BEG OF MONTH\r\nINDEPENDNT   LAG1 HOUR   LAG2 HOUR       LO       HI     (TRADING DAYS)\r\n   NITE.SP     2  1620     1  1620     -100       -1\r",
            "preview_highlight": "<div class=\"CodeMirror cm-s-default CodeMirrorServer\" oncopy=\"if(event.clipboardData){event.clipboardData.setData('text\/plain',window.getSelection().toString().replace(\/\\u200b\/g,''));event.preventDefault();event.stopPropagation();}\">\n<div class=\"CodeMirror-code\">\n<div><pre>HERNANAVELLA-WS::Tue Aug 02 06:51:52 2016<\/pre><\/div>\n<div><pre>DEP VAR NITE.SP AT 930 ALL DAYS: 1\/1\/2007 to 7\/29\/2016<\/pre><\/div>\n<div><pre>LOOKING AT DAY 2 FROM BEG OF MONTH<\/pre><\/div>\n<div><pre>INDEPENDNT   LAG1 HOUR   LAG2 HOUR       LO       HI     (TRADING DAYS)<\/pre><\/div>\n<div><pre>   NITE.SP     2  1620     1  1620     -100       -1<\/pre><\/div>\n<div><pre><\/pre><\/div>\n<\/div>\n<\/div>\n",
            "lines": 31,
            "lines_more": 26,
            "preview_is_truncated": true,
            "channels": [
                "C1FK0RL2V"
            ],
            "groups": [],
            "ims": [],
            "comments_count": 0
        },
        "user": "U1FKCRD8D",
        "upload": true,
        "display_as_bot": false,
        "username": "<@U1FKCRD8D|hernanavella>",
        "bot_id": null,
        "ts": "1470138883.000177"
    },
    {
        "type": "message",
        "subtype": "file_share",
        "text": "<@U1J0N0DPZ|duncan> uploaded a file: <https:\/\/tradingfutures.slack.com\/files\/duncan\/F1XC846BU\/4_day_still_up_ideas.txt|4 day still up ideas>",
        "file": {
            "id": "F1XC846BU",
            "created": 1470139281,
            "timestamp": 1470139281,
            "name": "4_day_still_up_ideas.txt",
            "title": "4 day still up ideas",
            "mimetype": "text\/plain",
            "filetype": "text",
            "pretty_type": "Plain Text",
            "user": "U1J0N0DPZ",
            "editable": true,
            "size": 3336,
            "mode": "snippet",
            "is_external": false,
            "external_type": "",
            "is_public": true,
            "public_url_shared": false,
            "display_as_bot": false,
            "username": "",
            "url_private": "https:\/\/files.slack.com\/files-pri\/T1FJKLSJ2-F1XC846BU\/4_day_still_up_ideas.txt?t=xoxe-49631706614-119786374643-119786374659-90264fc38b",
            "url_private_download": "https:\/\/files.slack.com\/files-pri\/T1FJKLSJ2-F1XC846BU\/download\/4_day_still_up_ideas.txt?t=xoxe-49631706614-119786374643-119786374659-90264fc38b",
            "permalink": "https:\/\/tradingfutures.slack.com\/files\/duncan\/F1XC846BU\/4_day_still_up_ideas.txt",
            "permalink_public": "https:\/\/slack-files.com\/T1FJKLSJ2-F1XC846BU-fcb962de43",
            "edit_link": "https:\/\/tradingfutures.slack.com\/files\/duncan\/F1XC846BU\/4_day_still_up_ideas.txt\/edit",
            "preview": "Ran at 08\/02\/2016 07:59\r\nCalculation results for ES from 01\/03\/2012 00:00 to 07\/01\/2016 00:00\r\nReference time at 09:30\r\n\r\nEntry Conditions:\r",
            "preview_highlight": "<div class=\"CodeMirror cm-s-default CodeMirrorServer\" oncopy=\"if(event.clipboardData){event.clipboardData.setData('text\/plain',window.getSelection().toString().replace(\/\\u200b\/g,''));event.preventDefault();event.stopPropagation();}\">\n<div class=\"CodeMirror-code\">\n<div><pre>Ran at 08\/02\/2016 07:59<\/pre><\/div>\n<div><pre>Calculation results for ES from 01\/03\/2012 00:00 to 07\/01\/2016 00:00<\/pre><\/div>\n<div><pre>Reference time at 09:30<\/pre><\/div>\n<div><pre><\/pre><\/div>\n<div><pre>Entry Conditions:<\/pre><\/div>\n<div><pre><\/pre><\/div>\n<\/div>\n<\/div>\n",
            "lines": 37,
            "lines_more": 32,
            "preview_is_truncated": true,
            "channels": [
                "C1FK0RL2V"
            ],
            "groups": [],
            "ims": [],
            "comments_count": 0
        },
        "user": "U1J0N0DPZ",
        "upload": true,
        "display_as_bot": false,
        "username": "<@U1J0N0DPZ|duncan>",
        "bot_id": null,
        "ts": "1470139282.000178"
    },
    {
        "type": "message",
        "subtype": "file_share",
        "text": "<@U1FKCRD8D|hernanavella> uploaded a file: <https:\/\/tradingfutures.slack.com\/files\/hernanavella\/F1XBW1JP2\/-.txt|Untitled>",
        "file": {
            "id": "F1XBW1JP2",
            "created": 1470140476,
            "timestamp": 1470140476,
            "name": "-.txt",
            "title": "Untitled",
            "mimetype": "text\/plain",
            "filetype": "text",
            "pretty_type": "Plain Text",
            "user": "U1FKCRD8D",
            "editable": true,
            "size": 1961,
            "mode": "snippet",
            "is_external": false,
            "external_type": "",
            "is_public": true,
            "public_url_shared": false,
            "display_as_bot": false,
            "username": "",
            "url_private": "https:\/\/files.slack.com\/files-pri\/T1FJKLSJ2-F1XBW1JP2\/-.txt?t=xoxe-49631706614-119786374643-119786374659-90264fc38b",
            "url_private_download": "https:\/\/files.slack.com\/files-pri\/T1FJKLSJ2-F1XBW1JP2\/download\/-.txt?t=xoxe-49631706614-119786374643-119786374659-90264fc38b",
            "permalink": "https:\/\/tradingfutures.slack.com\/files\/hernanavella\/F1XBW1JP2\/-.txt",
            "permalink_public": "https:\/\/slack-files.com\/T1FJKLSJ2-F1XBW1JP2-bf7993640f",
            "edit_link": "https:\/\/tradingfutures.slack.com\/files\/hernanavella\/F1XBW1JP2\/-.txt\/edit",
            "preview": "HERNANAVELLA-WS::Tue Aug 02 07:20:39 2016\r\nDEP VAR NITE.SP AT 930 ALL DAYS: 6\/1\/2015 to 7\/29\/2016\r\nINDEPENDNT   LAG1 HOUR   LAG2 HOUR       LO       HI     (TRADING DAYS)\r\n     TBOND     1  1700     0   930    -5000     -100\r\n\r",
            "preview_highlight": "<div class=\"CodeMirror cm-s-default CodeMirrorServer\" oncopy=\"if(event.clipboardData){event.clipboardData.setData('text\/plain',window.getSelection().toString().replace(\/\\u200b\/g,''));event.preventDefault();event.stopPropagation();}\">\n<div class=\"CodeMirror-code\">\n<div><pre>HERNANAVELLA-WS::Tue Aug 02 07:20:39 2016<\/pre><\/div>\n<div><pre>DEP VAR NITE.SP AT 930 ALL DAYS: 6\/1\/2015 to 7\/29\/2016<\/pre><\/div>\n<div><pre>INDEPENDNT   LAG1 HOUR   LAG2 HOUR       LO       HI     (TRADING DAYS)<\/pre><\/div>\n<div><pre>     TBOND     1  1700     0   930    -5000     -100<\/pre><\/div>\n<div><pre><\/pre><\/div>\n<div><pre><\/pre><\/div>\n<\/div>\n<\/div>\n",
            "lines": 29,
            "lines_more": 24,
            "preview_is_truncated": true,
            "channels": [
                "C1FK0RL2V"
            ],
            "groups": [],
            "ims": [],
            "comments_count": 0,
            "reactions": [
                {
                    "name": "thinking_face",
                    "users": [
                        "U1FHF07QT"
                    ],
                    "count": 1
                }
            ]
        },
        "user": "U1FKCRD8D",
        "upload": true,
        "display_as_bot": false,
        "username": "<@U1FKCRD8D|hernanavella>",
        "bot_id": null,
        "ts": "1470140476.000179"
    },
    {
        "type": "message",
        "subtype": "file_share",
        "text": "<@U1J0N0DPZ|duncan> uploaded a file: <https:\/\/tradingfutures.slack.com\/files\/duncan\/F1XH7AN01\/since_2016.txt|since 2016>",
        "file": {
            "id": "F1XH7AN01",
            "created": 1470165337,
            "timestamp": 1470165337,
            "name": "since_2016.txt",
            "title": "since 2016",
            "mimetype": "text\/plain",
            "filetype": "text",
            "pretty_type": "Plain Text",
            "user": "U1J0N0DPZ",
            "editable": true,
            "size": 3846,
            "mode": "snippet",
            "is_external": false,
            "external_type": "",
            "is_public": true,
            "public_url_shared": false,
            "display_as_bot": false,
            "username": "",
            "url_private": "https:\/\/files.slack.com\/files-pri\/T1FJKLSJ2-F1XH7AN01\/since_2016.txt?t=xoxe-49631706614-119786374643-119786374659-90264fc38b",
            "url_private_download": "https:\/\/files.slack.com\/files-pri\/T1FJKLSJ2-F1XH7AN01\/download\/since_2016.txt?t=xoxe-49631706614-119786374643-119786374659-90264fc38b",
            "permalink": "https:\/\/tradingfutures.slack.com\/files\/duncan\/F1XH7AN01\/since_2016.txt",
            "permalink_public": "https:\/\/slack-files.com\/T1FJKLSJ2-F1XH7AN01-eafc0c2573",
            "edit_link": "https:\/\/tradingfutures.slack.com\/files\/duncan\/F1XH7AN01\/since_2016.txt\/edit",
            "preview": "Ran at 08\/02\/2016 15:13\r\nCalculation results for ES from 01\/04\/2016 00:00 to 07\/01\/2016 00:00\r\nReference time at 15:30\r\n\r\nEntry Conditions:\r",
            "preview_highlight": "<div class=\"CodeMirror cm-s-default CodeMirrorServer\" oncopy=\"if(event.clipboardData){event.clipboardData.setData('text\/plain',window.getSelection().toString().replace(\/\\u200b\/g,''));event.preventDefault();event.stopPropagation();}\">\n<div class=\"CodeMirror-code\">\n<div><pre>Ran at 08\/02\/2016 15:13<\/pre><\/div>\n<div><pre>Calculation results for ES from 01\/04\/2016 00:00 to 07\/01\/2016 00:00<\/pre><\/div>\n<div><pre>Reference time at 15:30<\/pre><\/div>\n<div><pre><\/pre><\/div>\n<div><pre>Entry Conditions:<\/pre><\/div>\n<div><pre><\/pre><\/div>\n<\/div>\n<\/div>\n",
            "lines": 41,
            "lines_more": 36,
            "preview_is_truncated": true,
            "channels": [
                "C1FK0RL2V"
            ],
            "groups": [],
            "ims": [],
            "comments_count": 1
        },
        "user": "U1J0N0DPZ",
        "upload": true,
        "display_as_bot": false,
        "username": "<@U1J0N0DPZ|duncan>",
        "bot_id": null,
        "ts": "1470165337.000181"
    },
    {
        "type": "message",
        "subtype": "file_comment",
        "text": "<@U1FHF07QT|jkh> commented on <@U1J0N0DPZ|duncan>'s file <https:\/\/tradingfutures.slack.com\/files\/duncan\/F1XH7AN01\/since_2016.txt|since 2016>: wow. Particularly strong when down over 200.",
        "file": {
            "id": "F1XH7AN01",
            "created": 1470165337,
            "timestamp": 1470165337,
            "name": "since_2016.txt",
            "title": "since 2016",
            "mimetype": "text\/plain",
            "filetype": "text",
            "pretty_type": "Plain Text",
            "user": "U1J0N0DPZ",
            "editable": true,
            "size": 3846,
            "mode": "snippet",
            "is_external": false,
            "external_type": "",
            "is_public": true,
            "public_url_shared": false,
            "display_as_bot": false,
            "username": "",
            "url_private": "https:\/\/files.slack.com\/files-pri\/T1FJKLSJ2-F1XH7AN01\/since_2016.txt?t=xoxe-49631706614-119786374643-119786374659-90264fc38b",
            "url_private_download": "https:\/\/files.slack.com\/files-pri\/T1FJKLSJ2-F1XH7AN01\/download\/since_2016.txt?t=xoxe-49631706614-119786374643-119786374659-90264fc38b",
            "permalink": "https:\/\/tradingfutures.slack.com\/files\/duncan\/F1XH7AN01\/since_2016.txt",
            "permalink_public": "https:\/\/slack-files.com\/T1FJKLSJ2-F1XH7AN01-eafc0c2573",
            "edit_link": "https:\/\/tradingfutures.slack.com\/files\/duncan\/F1XH7AN01\/since_2016.txt\/edit",
            "preview": "Ran at 08\/02\/2016 15:13\r\nCalculation results for ES from 01\/04\/2016 00:00 to 07\/01\/2016 00:00\r\nReference time at 15:30\r\n\r\nEntry Conditions:\r",
            "preview_highlight": "<div class=\"CodeMirror cm-s-default CodeMirrorServer\" oncopy=\"if(event.clipboardData){event.clipboardData.setData('text\/plain',window.getSelection().toString().replace(\/\\u200b\/g,''));event.preventDefault();event.stopPropagation();}\">\n<div class=\"CodeMirror-code\">\n<div><pre>Ran at 08\/02\/2016 15:13<\/pre><\/div>\n<div><pre>Calculation results for ES from 01\/04\/2016 00:00 to 07\/01\/2016 00:00<\/pre><\/div>\n<div><pre>Reference time at 15:30<\/pre><\/div>\n<div><pre><\/pre><\/div>\n<div><pre>Entry Conditions:<\/pre><\/div>\n<div><pre><\/pre><\/div>\n<\/div>\n<\/div>\n",
            "lines": 41,
            "lines_more": 36,
            "preview_is_truncated": true,
            "channels": [
                "C1FK0RL2V"
            ],
            "groups": [],
            "ims": [],
            "comments_count": 1
        },
        "comment": {
            "id": "Fc1XH4KR6K",
            "created": 1470165602,
            "timestamp": 1470165602,
            "user": "U1FHF07QT",
            "is_intro": false,
            "comment": "wow. Particularly strong when down over 200.",
            "channel": ""
        },
        "is_intro": false,
        "ts": "1470165602.000182"
    },
    {
        "type": "message",
        "subtype": "file_share",
        "text": "<@U1FHF07QT|jkh> uploaded a file: <https:\/\/tradingfutures.slack.com\/files\/jkh\/F1XHNUYNM\/trying_to_capture_adp.txt|Trying to capture ADP>",
        "file": {
            "id": "F1XHNUYNM",
            "created": 1470167751,
            "timestamp": 1470167751,
            "name": "Trying_to_capture_ADP.txt",
            "title": "Trying to capture ADP",
            "mimetype": "text\/plain",
            "filetype": "text",
            "pretty_type": "Plain Text",
            "user": "U1FHF07QT",
            "editable": true,
            "size": 1268,
            "mode": "snippet",
            "is_external": false,
            "external_type": "",
            "is_public": true,
            "public_url_shared": false,
            "display_as_bot": false,
            "username": "",
            "url_private": "https:\/\/files.slack.com\/files-pri\/T1FJKLSJ2-F1XHNUYNM\/trying_to_capture_adp.txt?t=xoxe-49631706614-119786374643-119786374659-90264fc38b",
            "url_private_download": "https:\/\/files.slack.com\/files-pri\/T1FJKLSJ2-F1XHNUYNM\/download\/trying_to_capture_adp.txt?t=xoxe-49631706614-119786374643-119786374659-90264fc38b",
            "permalink": "https:\/\/tradingfutures.slack.com\/files\/jkh\/F1XHNUYNM\/trying_to_capture_adp.txt",
            "permalink_public": "https:\/\/slack-files.com\/T1FJKLSJ2-F1XHNUYNM-0186503d1d",
            "edit_link": "https:\/\/tradingfutures.slack.com\/files\/jkh\/F1XHNUYNM\/trying_to_capture_adp.txt\/edit",
            "preview": "JKH::Tue 02 Aug 2016 03:54:59 PM EDT\r\nDEP VAR SP AT 1715 : 01\/01\/2007 TO 01\/01\/2020  US\/Eastern\r\n\r\nINDEPENDNT LAG1  HOUR LAG2  HOUR  LO     HI          TZ\r\n       sp    1  1615    0  1615  -1  -5000  US\/Eastern\r",
            "preview_highlight": "<div class=\"CodeMirror cm-s-default CodeMirrorServer\" oncopy=\"if(event.clipboardData){event.clipboardData.setData('text\/plain',window.getSelection().toString().replace(\/\\u200b\/g,''));event.preventDefault();event.stopPropagation();}\">\n<div class=\"CodeMirror-code\">\n<div><pre>JKH::Tue 02 Aug 2016 03:54:59 PM EDT<\/pre><\/div>\n<div><pre>DEP VAR SP AT 1715 : 01\/01\/2007 TO 01\/01\/2020  US\/Eastern<\/pre><\/div>\n<div><pre><\/pre><\/div>\n<div><pre>INDEPENDNT LAG1  HOUR LAG2  HOUR  LO     HI          TZ<\/pre><\/div>\n<div><pre>       sp    1  1615    0  1615  -1  -5000  US\/Eastern<\/pre><\/div>\n<div><pre><\/pre><\/div>\n<\/div>\n<\/div>\n",
            "lines": 30,
            "lines_more": 25,
            "preview_is_truncated": true,
            "channels": [
                "C1FK0RL2V"
            ],
            "groups": [],
            "ims": [],
            "comments_count": 0,
            "reactions": [
                {
                    "name": "money_mouth_face",
                    "users": [
                        "U1FKCRD8D"
                    ],
                    "count": 1
                }
            ]
        },
        "user": "U1FHF07QT",
        "upload": true,
        "display_as_bot": false,
        "username": "<@U1FHF07QT|jkh>",
        "bot_id": null,
        "ts": "1470167751.000183"
    }
]