[
    {
        "type": "message",
        "subtype": "file_share",
        "text": "<@U1FJWQN1Z|bet4value> uploaded a file: <https:\/\/tradingfutures.slack.com\/files\/bet4value\/F1MNAF9QC\/-.txt|Untitled>",
        "file": {
            "id": "F1MNAF9QC",
            "created": 1467292056,
            "timestamp": 1467292056,
            "name": "-.txt",
            "title": "Untitled",
            "mimetype": "text\/plain",
            "filetype": "text",
            "pretty_type": "Plain Text",
            "user": "U1FJWQN1Z",
            "editable": true,
            "size": 3727,
            "mode": "snippet",
            "is_external": false,
            "external_type": "",
            "is_public": true,
            "public_url_shared": false,
            "display_as_bot": false,
            "username": "",
            "url_private": "https:\/\/files.slack.com\/files-pri\/T1FJKLSJ2-F1MNAF9QC\/-.txt?t=xoxe-49631706614-119786374643-119786374659-90264fc38b",
            "url_private_download": "https:\/\/files.slack.com\/files-pri\/T1FJKLSJ2-F1MNAF9QC\/download\/-.txt?t=xoxe-49631706614-119786374643-119786374659-90264fc38b",
            "permalink": "https:\/\/tradingfutures.slack.com\/files\/bet4value\/F1MNAF9QC\/-.txt",
            "permalink_public": "https:\/\/slack-files.com\/T1FJKLSJ2-F1MNAF9QC-094e706cd4",
            "edit_link": "https:\/\/tradingfutures.slack.com\/files\/bet4value\/F1MNAF9QC\/-.txt\/edit",
            "preview": "PCMAC::Thu Jun 30 08:50:30 2016\r\nDEP VAR NITE.SP AT 930 ALL DAYS: 1\/1\/2009 to 6\/24\/2016\r\nINDEPENDNT   LAG1 HOUR   LAG2 HOUR       LO       HI     (TRADING DAYS)\r\n   NITE.SP     3  1620     2  1620      200     5000\r\n   NITE.SP     2  1620     1  1620      200     5000\r",
            "preview_highlight": "<div class=\"CodeMirror cm-s-default CodeMirrorServer\" oncopy=\"if(event.clipboardData){event.clipboardData.setData('text\/plain',window.getSelection().toString().replace(\/\\u200b\/g,''));event.preventDefault();event.stopPropagation();}\">\n<div class=\"CodeMirror-code\">\n<div><pre>PCMAC::Thu Jun 30 08:50:30 2016<\/pre><\/div>\n<div><pre>DEP VAR NITE.SP AT 930 ALL DAYS: 1\/1\/2009 to 6\/24\/2016<\/pre><\/div>\n<div><pre>INDEPENDNT   LAG1 HOUR   LAG2 HOUR       LO       HI     (TRADING DAYS)<\/pre><\/div>\n<div><pre>   NITE.SP     3  1620     2  1620      200     5000<\/pre><\/div>\n<div><pre>   NITE.SP     2  1620     1  1620      200     5000<\/pre><\/div>\n<div><pre><\/pre><\/div>\n<\/div>\n<\/div>\n",
            "lines": 61,
            "lines_more": 56,
            "preview_is_truncated": true,
            "channels": [
                "C1FK0RL2V"
            ],
            "groups": [],
            "ims": [],
            "comments_count": 0
        },
        "user": "U1FJWQN1Z",
        "upload": true,
        "display_as_bot": false,
        "username": "<@U1FJWQN1Z|bet4value>",
        "bot_id": null,
        "ts": "1467292056.000112"
    },
    {
        "type": "message",
        "user": "U1FJYUKQ9",
        "text": "in my opionon, today is a confusing day",
        "ts": "1467295395.000113"
    },
    {
        "type": "message",
        "user": "U1FJYUKQ9",
        "text": "but maybe this is relevant",
        "ts": "1467295401.000114"
    },
    {
        "type": "message",
        "subtype": "file_share",
        "text": "<@U1FJYUKQ9|mkchuprin> uploaded a file: <https:\/\/tradingfutures.slack.com\/files\/mkchuprin\/F1MPHUPPU\/pasted_image_at_2016_06_30_10_03_am.png|Pasted image at 2016-06-30, 10:03 AM>",
        "file": {
            "id": "F1MPHUPPU",
            "created": 1467295402,
            "timestamp": 1467295402,
            "name": "Pasted image at 2016_06_30 10_03 AM.png",
            "title": "Pasted image at 2016-06-30, 10:03 AM",
            "mimetype": "image\/png",
            "filetype": "png",
            "pretty_type": "PNG",
            "user": "U1FJYUKQ9",
            "editable": false,
            "size": 204031,
            "mode": "hosted",
            "is_external": false,
            "external_type": "",
            "is_public": true,
            "public_url_shared": false,
            "display_as_bot": false,
            "username": "",
            "url_private": "https:\/\/files.slack.com\/files-pri\/T1FJKLSJ2-F1MPHUPPU\/pasted_image_at_2016_06_30_10_03_am.png?t=xoxe-49631706614-119786374643-119786374659-90264fc38b",
            "url_private_download": "https:\/\/files.slack.com\/files-pri\/T1FJKLSJ2-F1MPHUPPU\/download\/pasted_image_at_2016_06_30_10_03_am.png?t=xoxe-49631706614-119786374643-119786374659-90264fc38b",
            "thumb_64": "https:\/\/files.slack.com\/files-tmb\/T1FJKLSJ2-F1MPHUPPU-9df17caf4f\/pasted_image_at_2016_06_30_10_03_am_64.png?t=xoxe-49631706614-119786374643-119786374659-90264fc38b",
            "thumb_80": "https:\/\/files.slack.com\/files-tmb\/T1FJKLSJ2-F1MPHUPPU-9df17caf4f\/pasted_image_at_2016_06_30_10_03_am_80.png?t=xoxe-49631706614-119786374643-119786374659-90264fc38b",
            "thumb_360": "https:\/\/files.slack.com\/files-tmb\/T1FJKLSJ2-F1MPHUPPU-9df17caf4f\/pasted_image_at_2016_06_30_10_03_am_360.png?t=xoxe-49631706614-119786374643-119786374659-90264fc38b",
            "thumb_360_w": 360,
            "thumb_360_h": 233,
            "thumb_480": "https:\/\/files.slack.com\/files-tmb\/T1FJKLSJ2-F1MPHUPPU-9df17caf4f\/pasted_image_at_2016_06_30_10_03_am_480.png?t=xoxe-49631706614-119786374643-119786374659-90264fc38b",
            "thumb_480_w": 480,
            "thumb_480_h": 311,
            "thumb_160": "https:\/\/files.slack.com\/files-tmb\/T1FJKLSJ2-F1MPHUPPU-9df17caf4f\/pasted_image_at_2016_06_30_10_03_am_160.png?t=xoxe-49631706614-119786374643-119786374659-90264fc38b",
            "thumb_720": "https:\/\/files.slack.com\/files-tmb\/T1FJKLSJ2-F1MPHUPPU-9df17caf4f\/pasted_image_at_2016_06_30_10_03_am_720.png?t=xoxe-49631706614-119786374643-119786374659-90264fc38b",
            "thumb_720_w": 720,
            "thumb_720_h": 467,
            "thumb_960": "https:\/\/files.slack.com\/files-tmb\/T1FJKLSJ2-F1MPHUPPU-9df17caf4f\/pasted_image_at_2016_06_30_10_03_am_960.png?t=xoxe-49631706614-119786374643-119786374659-90264fc38b",
            "thumb_960_w": 960,
            "thumb_960_h": 622,
            "thumb_1024": "https:\/\/files.slack.com\/files-tmb\/T1FJKLSJ2-F1MPHUPPU-9df17caf4f\/pasted_image_at_2016_06_30_10_03_am_1024.png?t=xoxe-49631706614-119786374643-119786374659-90264fc38b",
            "thumb_1024_w": 1024,
            "thumb_1024_h": 664,
            "image_exif_rotation": 1,
            "original_w": 1353,
            "original_h": 877,
            "permalink": "https:\/\/tradingfutures.slack.com\/files\/mkchuprin\/F1MPHUPPU\/pasted_image_at_2016_06_30_10_03_am.png",
            "permalink_public": "https:\/\/slack-files.com\/T1FJKLSJ2-F1MPHUPPU-c2fb92f088",
            "channels": [
                "C1FK0RL2V"
            ],
            "groups": [],
            "ims": [],
            "comments_count": 0,
            "reactions": [
                {
                    "name": "+1::skin-tone-5",
                    "users": [
                        "U1FKCRD8D"
                    ],
                    "count": 1
                }
            ]
        },
        "user": "U1FJYUKQ9",
        "upload": true,
        "display_as_bot": false,
        "username": "<@U1FJYUKQ9|mkchuprin>",
        "bot_id": null,
        "ts": "1467295406.000115"
    },
    {
        "type": "message",
        "user": "U1FJYUKQ9",
        "text": "bull until 12:00 and bear until eod",
        "ts": "1467295419.000116"
    },
    {
        "type": "message",
        "subtype": "file_share",
        "text": "<@U1J0N0DPZ|duncan> uploaded a file: <https:\/\/tradingfutures.slack.com\/files\/duncan\/F1MP0QFL4\/requires_ignoring_last_2_big_up_day__looking_just_at_4_day_and_up_open.txt|requires ignoring last 2 big up day, looking just at 4 day and up open>",
        "file": {
            "id": "F1MP0QFL4",
            "created": 1467295997,
            "timestamp": 1467295997,
            "name": "requires_ignoring_last_2_big_up_day__looking_just_at_4_day_and_up_open.txt",
            "title": "requires ignoring last 2 big up day, looking just at 4 day and up open",
            "mimetype": "text\/plain",
            "filetype": "text",
            "pretty_type": "Plain Text",
            "user": "U1J0N0DPZ",
            "editable": true,
            "size": 2853,
            "mode": "snippet",
            "is_external": false,
            "external_type": "",
            "is_public": true,
            "public_url_shared": false,
            "display_as_bot": false,
            "username": "",
            "url_private": "https:\/\/files.slack.com\/files-pri\/T1FJKLSJ2-F1MP0QFL4\/requires_ignoring_last_2_big_up_day__looking_just_at_4_day_and_up_open.txt?t=xoxe-49631706614-119786374643-119786374659-90264fc38b",
            "url_private_download": "https:\/\/files.slack.com\/files-pri\/T1FJKLSJ2-F1MP0QFL4\/download\/requires_ignoring_last_2_big_up_day__looking_just_at_4_day_and_up_open.txt?t=xoxe-49631706614-119786374643-119786374659-90264fc38b",
            "permalink": "https:\/\/tradingfutures.slack.com\/files\/duncan\/F1MP0QFL4\/requires_ignoring_last_2_big_up_day__looking_just_at_4_day_and_up_open.txt",
            "permalink_public": "https:\/\/slack-files.com\/T1FJKLSJ2-F1MP0QFL4-029ebdb104",
            "edit_link": "https:\/\/tradingfutures.slack.com\/files\/duncan\/F1MP0QFL4\/requires_ignoring_last_2_big_up_day__looking_just_at_4_day_and_up_open.txt\/edit",
            "preview": "an at 06\/30\/2016 10:11\nCalculation results for ES from 01\/11\/2011 00:00 to 06\/28\/2016 00:00\nReference time at 10:00\n\nEntry Conditions:",
            "preview_highlight": "<div class=\"CodeMirror cm-s-default CodeMirrorServer\" oncopy=\"if(event.clipboardData){event.clipboardData.setData('text\/plain',window.getSelection().toString().replace(\/\\u200b\/g,''));event.preventDefault();event.stopPropagation();}\">\n<div class=\"CodeMirror-code\">\n<div><pre>an at 06\/30\/2016 10:11<\/pre><\/div>\n<div><pre>Calculation results for ES from 01\/11\/2011 00:00 to 06\/28\/2016 00:00<\/pre><\/div>\n<div><pre>Reference time at 10:00<\/pre><\/div>\n<div><pre><\/pre><\/div>\n<div><pre>Entry Conditions:<\/pre><\/div>\n<\/div>\n<\/div>\n",
            "lines": 36,
            "lines_more": 31,
            "preview_is_truncated": true,
            "channels": [
                "C1FK0RL2V"
            ],
            "groups": [],
            "ims": [],
            "comments_count": 0
        },
        "user": "U1J0N0DPZ",
        "upload": true,
        "display_as_bot": false,
        "username": "<@U1J0N0DPZ|duncan>",
        "bot_id": null,
        "ts": "1467295998.000118"
    },
    {
        "type": "message",
        "subtype": "file_share",
        "text": "<@U1FJYUKQ9|mkchuprin> uploaded a file: <https:\/\/tradingfutures.slack.com\/files\/mkchuprin\/F1MMY9M5H\/pasted_image_at_2016_06_30_10_19_am.png|Duncan as Screenshot>",
        "file": {
            "id": "F1MMY9M5H",
            "created": 1467296387,
            "timestamp": 1467296387,
            "name": "Pasted image at 2016_06_30 10_19 AM.png",
            "title": "Duncan as Screenshot",
            "mimetype": "image\/png",
            "filetype": "png",
            "pretty_type": "PNG",
            "user": "U1FJYUKQ9",
            "editable": false,
            "size": 134091,
            "mode": "hosted",
            "is_external": false,
            "external_type": "",
            "is_public": true,
            "public_url_shared": false,
            "display_as_bot": false,
            "username": "",
            "url_private": "https:\/\/files.slack.com\/files-pri\/T1FJKLSJ2-F1MMY9M5H\/pasted_image_at_2016_06_30_10_19_am.png?t=xoxe-49631706614-119786374643-119786374659-90264fc38b",
            "url_private_download": "https:\/\/files.slack.com\/files-pri\/T1FJKLSJ2-F1MMY9M5H\/download\/pasted_image_at_2016_06_30_10_19_am.png?t=xoxe-49631706614-119786374643-119786374659-90264fc38b",
            "thumb_64": "https:\/\/files.slack.com\/files-tmb\/T1FJKLSJ2-F1MMY9M5H-aefe2f803c\/pasted_image_at_2016_06_30_10_19_am_64.png?t=xoxe-49631706614-119786374643-119786374659-90264fc38b",
            "thumb_80": "https:\/\/files.slack.com\/files-tmb\/T1FJKLSJ2-F1MMY9M5H-aefe2f803c\/pasted_image_at_2016_06_30_10_19_am_80.png?t=xoxe-49631706614-119786374643-119786374659-90264fc38b",
            "thumb_360": "https:\/\/files.slack.com\/files-tmb\/T1FJKLSJ2-F1MMY9M5H-aefe2f803c\/pasted_image_at_2016_06_30_10_19_am_360.png?t=xoxe-49631706614-119786374643-119786374659-90264fc38b",
            "thumb_360_w": 360,
            "thumb_360_h": 191,
            "thumb_480": "https:\/\/files.slack.com\/files-tmb\/T1FJKLSJ2-F1MMY9M5H-aefe2f803c\/pasted_image_at_2016_06_30_10_19_am_480.png?t=xoxe-49631706614-119786374643-119786374659-90264fc38b",
            "thumb_480_w": 480,
            "thumb_480_h": 255,
            "thumb_160": "https:\/\/files.slack.com\/files-tmb\/T1FJKLSJ2-F1MMY9M5H-aefe2f803c\/pasted_image_at_2016_06_30_10_19_am_160.png?t=xoxe-49631706614-119786374643-119786374659-90264fc38b",
            "thumb_720": "https:\/\/files.slack.com\/files-tmb\/T1FJKLSJ2-F1MMY9M5H-aefe2f803c\/pasted_image_at_2016_06_30_10_19_am_720.png?t=xoxe-49631706614-119786374643-119786374659-90264fc38b",
            "thumb_720_w": 720,
            "thumb_720_h": 382,
            "thumb_960": "https:\/\/files.slack.com\/files-tmb\/T1FJKLSJ2-F1MMY9M5H-aefe2f803c\/pasted_image_at_2016_06_30_10_19_am_960.png?t=xoxe-49631706614-119786374643-119786374659-90264fc38b",
            "thumb_960_w": 960,
            "thumb_960_h": 509,
            "thumb_1024": "https:\/\/files.slack.com\/files-tmb\/T1FJKLSJ2-F1MMY9M5H-aefe2f803c\/pasted_image_at_2016_06_30_10_19_am_1024.png?t=xoxe-49631706614-119786374643-119786374659-90264fc38b",
            "thumb_1024_w": 1024,
            "thumb_1024_h": 543,
            "image_exif_rotation": 1,
            "original_w": 1920,
            "original_h": 1018,
            "permalink": "https:\/\/tradingfutures.slack.com\/files\/mkchuprin\/F1MMY9M5H\/pasted_image_at_2016_06_30_10_19_am.png",
            "permalink_public": "https:\/\/slack-files.com\/T1FJKLSJ2-F1MMY9M5H-9d7f9556d1",
            "channels": [
                "C1FK0RL2V"
            ],
            "groups": [],
            "ims": [],
            "comments_count": 0
        },
        "user": "U1FJYUKQ9",
        "upload": true,
        "display_as_bot": false,
        "username": "<@U1FJYUKQ9|mkchuprin>",
        "bot_id": null,
        "ts": "1467296391.000119"
    },
    {
        "type": "message",
        "subtype": "file_share",
        "text": "<@U1FJYUKQ9|mkchuprin> uploaded a file: <https:\/\/tradingfutures.slack.com\/files\/mkchuprin\/F1MMYUW3D\/pasted_image_at_2016_06_30_10_21_am.png|Exactly same thing as Duncan (Just in my stats thing)>",
        "file": {
            "id": "F1MMYUW3D",
            "created": 1467296488,
            "timestamp": 1467296488,
            "name": "Pasted image at 2016_06_30 10_21 AM.png",
            "title": "Exactly same thing as Duncan (Just in my stats thing)",
            "mimetype": "image\/png",
            "filetype": "png",
            "pretty_type": "PNG",
            "user": "U1FJYUKQ9",
            "editable": false,
            "size": 214200,
            "mode": "hosted",
            "is_external": false,
            "external_type": "",
            "is_public": true,
            "public_url_shared": false,
            "display_as_bot": false,
            "username": "",
            "url_private": "https:\/\/files.slack.com\/files-pri\/T1FJKLSJ2-F1MMYUW3D\/pasted_image_at_2016_06_30_10_21_am.png?t=xoxe-49631706614-119786374643-119786374659-90264fc38b",
            "url_private_download": "https:\/\/files.slack.com\/files-pri\/T1FJKLSJ2-F1MMYUW3D\/download\/pasted_image_at_2016_06_30_10_21_am.png?t=xoxe-49631706614-119786374643-119786374659-90264fc38b",
            "thumb_64": "https:\/\/files.slack.com\/files-tmb\/T1FJKLSJ2-F1MMYUW3D-10ee06b366\/pasted_image_at_2016_06_30_10_21_am_64.png?t=xoxe-49631706614-119786374643-119786374659-90264fc38b",
            "thumb_80": "https:\/\/files.slack.com\/files-tmb\/T1FJKLSJ2-F1MMYUW3D-10ee06b366\/pasted_image_at_2016_06_30_10_21_am_80.png?t=xoxe-49631706614-119786374643-119786374659-90264fc38b",
            "thumb_360": "https:\/\/files.slack.com\/files-tmb\/T1FJKLSJ2-F1MMYUW3D-10ee06b366\/pasted_image_at_2016_06_30_10_21_am_360.png?t=xoxe-49631706614-119786374643-119786374659-90264fc38b",
            "thumb_360_w": 360,
            "thumb_360_h": 233,
            "thumb_480": "https:\/\/files.slack.com\/files-tmb\/T1FJKLSJ2-F1MMYUW3D-10ee06b366\/pasted_image_at_2016_06_30_10_21_am_480.png?t=xoxe-49631706614-119786374643-119786374659-90264fc38b",
            "thumb_480_w": 480,
            "thumb_480_h": 311,
            "thumb_160": "https:\/\/files.slack.com\/files-tmb\/T1FJKLSJ2-F1MMYUW3D-10ee06b366\/pasted_image_at_2016_06_30_10_21_am_160.png?t=xoxe-49631706614-119786374643-119786374659-90264fc38b",
            "thumb_720": "https:\/\/files.slack.com\/files-tmb\/T1FJKLSJ2-F1MMYUW3D-10ee06b366\/pasted_image_at_2016_06_30_10_21_am_720.png?t=xoxe-49631706614-119786374643-119786374659-90264fc38b",
            "thumb_720_w": 720,
            "thumb_720_h": 467,
            "thumb_960": "https:\/\/files.slack.com\/files-tmb\/T1FJKLSJ2-F1MMYUW3D-10ee06b366\/pasted_image_at_2016_06_30_10_21_am_960.png?t=xoxe-49631706614-119786374643-119786374659-90264fc38b",
            "thumb_960_w": 960,
            "thumb_960_h": 622,
            "thumb_1024": "https:\/\/files.slack.com\/files-tmb\/T1FJKLSJ2-F1MMYUW3D-10ee06b366\/pasted_image_at_2016_06_30_10_21_am_1024.png?t=xoxe-49631706614-119786374643-119786374659-90264fc38b",
            "thumb_1024_w": 1024,
            "thumb_1024_h": 664,
            "image_exif_rotation": 1,
            "original_w": 1353,
            "original_h": 877,
            "permalink": "https:\/\/tradingfutures.slack.com\/files\/mkchuprin\/F1MMYUW3D\/pasted_image_at_2016_06_30_10_21_am.png",
            "permalink_public": "https:\/\/slack-files.com\/T1FJKLSJ2-F1MMYUW3D-f668bb5a83",
            "channels": [
                "C1FK0RL2V"
            ],
            "groups": [],
            "ims": [],
            "comments_count": 0,
            "reactions": [
                {
                    "name": "+1::skin-tone-5",
                    "users": [
                        "U1FKCRD8D"
                    ],
                    "count": 1
                }
            ]
        },
        "user": "U1FJYUKQ9",
        "upload": true,
        "display_as_bot": false,
        "username": "<@U1FJYUKQ9|mkchuprin>",
        "bot_id": null,
        "ts": "1467296492.000121"
    },
    {
        "type": "message",
        "subtype": "file_share",
        "text": "<@U1FKCRD8D|hernanavella> uploaded a file: <https:\/\/tradingfutures.slack.com\/files\/hernanavella\/F1MPF0BNF\/spoo_not_longer_bear.txt|Spoo not longer bear>",
        "file": {
            "id": "F1MPF0BNF",
            "created": 1467303430,
            "timestamp": 1467303430,
            "name": "Spoo_not_longer_bear.txt",
            "title": "Spoo not longer bear",
            "mimetype": "text\/plain",
            "filetype": "text",
            "pretty_type": "Plain Text",
            "user": "U1FKCRD8D",
            "editable": true,
            "size": 1448,
            "mode": "snippet",
            "is_external": false,
            "external_type": "",
            "is_public": true,
            "public_url_shared": false,
            "display_as_bot": false,
            "username": "",
            "url_private": "https:\/\/files.slack.com\/files-pri\/T1FJKLSJ2-F1MPF0BNF\/spoo_not_longer_bear.txt?t=xoxe-49631706614-119786374643-119786374659-90264fc38b",
            "url_private_download": "https:\/\/files.slack.com\/files-pri\/T1FJKLSJ2-F1MPF0BNF\/download\/spoo_not_longer_bear.txt?t=xoxe-49631706614-119786374643-119786374659-90264fc38b",
            "permalink": "https:\/\/tradingfutures.slack.com\/files\/hernanavella\/F1MPF0BNF\/spoo_not_longer_bear.txt",
            "permalink_public": "https:\/\/slack-files.com\/T1FJKLSJ2-F1MPF0BNF-479f5f242c",
            "edit_link": "https:\/\/tradingfutures.slack.com\/files\/hernanavella\/F1MPF0BNF\/spoo_not_longer_bear.txt\/edit",
            "preview": "HERNANAVELLA-WS::Thu Jun 30 11:15:59 2016\r\nDEP VAR NITE.SP AT 1200 ALL DAYS: 1\/1\/2010 to 6\/3\/2016\r\nLOOKING AT DAY 1 FROM END OF MONTH\r\nINDEPENDNT   LAG1 HOUR   LAG2 HOUR       LO       HI     (TRADING DAYS)\r\n   NITE.SP     1  1620     0  1200       50     5000\r",
            "preview_highlight": "<div class=\"CodeMirror cm-s-default CodeMirrorServer\" oncopy=\"if(event.clipboardData){event.clipboardData.setData('text\/plain',window.getSelection().toString().replace(\/\\u200b\/g,''));event.preventDefault();event.stopPropagation();}\">\n<div class=\"CodeMirror-code\">\n<div><pre>HERNANAVELLA-WS::Thu Jun 30 11:15:59 2016<\/pre><\/div>\n<div><pre>DEP VAR NITE.SP AT 1200 ALL DAYS: 1\/1\/2010 to 6\/3\/2016<\/pre><\/div>\n<div><pre>LOOKING AT DAY 1 FROM END OF MONTH<\/pre><\/div>\n<div><pre>INDEPENDNT   LAG1 HOUR   LAG2 HOUR       LO       HI     (TRADING DAYS)<\/pre><\/div>\n<div><pre>   NITE.SP     1  1620     0  1200       50     5000<\/pre><\/div>\n<div><pre><\/pre><\/div>\n<\/div>\n<\/div>\n",
            "lines": 23,
            "lines_more": 18,
            "preview_is_truncated": true,
            "channels": [
                "C1FK0RL2V"
            ],
            "groups": [],
            "ims": [],
            "comments_count": 0
        },
        "user": "U1FKCRD8D",
        "upload": true,
        "display_as_bot": false,
        "username": "<@U1FKCRD8D|hernanavella>",
        "bot_id": null,
        "ts": "1467303430.000123"
    },
    {
        "type": "message",
        "subtype": "file_share",
        "text": "<@U1J0N0DPZ|duncan> uploaded a file: <https:\/\/tradingfutures.slack.com\/files\/duncan\/F1MR7NTPZ\/general_bull_momentum_patt__worked_last_2_days.txt|general bull momentum patt, worked last 2 days>",
        "file": {
            "id": "F1MR7NTPZ",
            "created": 1467305045,
            "timestamp": 1467305045,
            "name": "general_bull_momentum_patt__worked_last_2_days.txt",
            "title": "general bull momentum patt, worked last 2 days",
            "mimetype": "text\/plain",
            "filetype": "text",
            "pretty_type": "Plain Text",
            "user": "U1J0N0DPZ",
            "editable": true,
            "size": 3779,
            "mode": "snippet",
            "is_external": false,
            "external_type": "",
            "is_public": true,
            "public_url_shared": false,
            "display_as_bot": false,
            "username": "",
            "url_private": "https:\/\/files.slack.com\/files-pri\/T1FJKLSJ2-F1MR7NTPZ\/general_bull_momentum_patt__worked_last_2_days.txt?t=xoxe-49631706614-119786374643-119786374659-90264fc38b",
            "url_private_download": "https:\/\/files.slack.com\/files-pri\/T1FJKLSJ2-F1MR7NTPZ\/download\/general_bull_momentum_patt__worked_last_2_days.txt?t=xoxe-49631706614-119786374643-119786374659-90264fc38b",
            "permalink": "https:\/\/tradingfutures.slack.com\/files\/duncan\/F1MR7NTPZ\/general_bull_momentum_patt__worked_last_2_days.txt",
            "permalink_public": "https:\/\/slack-files.com\/T1FJKLSJ2-F1MR7NTPZ-9f61fee438",
            "edit_link": "https:\/\/tradingfutures.slack.com\/files\/duncan\/F1MR7NTPZ\/general_bull_momentum_patt__worked_last_2_days.txt\/edit",
            "preview": "Ran at 06\/30\/2016 12:42\nCalculation results for ES from 02\/05\/2007 00:00 to 06\/28\/2016 00:00\nReference time at 12:00\n\nEntry Conditions:",
            "preview_highlight": "<div class=\"CodeMirror cm-s-default CodeMirrorServer\" oncopy=\"if(event.clipboardData){event.clipboardData.setData('text\/plain',window.getSelection().toString().replace(\/\\u200b\/g,''));event.preventDefault();event.stopPropagation();}\">\n<div class=\"CodeMirror-code\">\n<div><pre>Ran at 06\/30\/2016 12:42<\/pre><\/div>\n<div><pre>Calculation results for ES from 02\/05\/2007 00:00 to 06\/28\/2016 00:00<\/pre><\/div>\n<div><pre>Reference time at 12:00<\/pre><\/div>\n<div><pre><\/pre><\/div>\n<div><pre>Entry Conditions:<\/pre><\/div>\n<\/div>\n<\/div>\n",
            "lines": 51,
            "lines_more": 46,
            "preview_is_truncated": true,
            "channels": [
                "C1FK0RL2V"
            ],
            "groups": [],
            "ims": [],
            "comments_count": 0
        },
        "user": "U1J0N0DPZ",
        "upload": true,
        "display_as_bot": false,
        "username": "<@U1J0N0DPZ|duncan>",
        "bot_id": null,
        "ts": "1467305045.000124"
    },
    {
        "type": "message",
        "subtype": "file_share",
        "text": "<@U1FKCRD8D|hernanavella> uploaded a file: <https:\/\/tradingfutures.slack.com\/files\/hernanavella\/F1MRK3UCF\/more_momentum___.txt|more momentum...>",
        "file": {
            "id": "F1MRK3UCF",
            "created": 1467306758,
            "timestamp": 1467306758,
            "name": "more_momentum___.txt",
            "title": "more momentum...",
            "mimetype": "text\/plain",
            "filetype": "text",
            "pretty_type": "Plain Text",
            "user": "U1FKCRD8D",
            "editable": true,
            "size": 1399,
            "mode": "snippet",
            "is_external": false,
            "external_type": "",
            "is_public": true,
            "public_url_shared": false,
            "display_as_bot": false,
            "username": "",
            "url_private": "https:\/\/files.slack.com\/files-pri\/T1FJKLSJ2-F1MRK3UCF\/more_momentum___.txt?t=xoxe-49631706614-119786374643-119786374659-90264fc38b",
            "url_private_download": "https:\/\/files.slack.com\/files-pri\/T1FJKLSJ2-F1MRK3UCF\/download\/more_momentum___.txt?t=xoxe-49631706614-119786374643-119786374659-90264fc38b",
            "permalink": "https:\/\/tradingfutures.slack.com\/files\/hernanavella\/F1MRK3UCF\/more_momentum___.txt",
            "permalink_public": "https:\/\/slack-files.com\/T1FJKLSJ2-F1MRK3UCF-e802b068b9",
            "edit_link": "https:\/\/tradingfutures.slack.com\/files\/hernanavella\/F1MRK3UCF\/more_momentum___.txt\/edit",
            "preview": "HERNANAVELLA-WS::Thu Jun 30 12:11:39 2016\r\nDEP VAR NITE.SP AT 1300 ALL DAYS: 1\/1\/2007 to 6\/3\/2016\r\nINDEPENDNT   LAG1 HOUR   LAG2 HOUR       LO       HI     (TRADING DAYS)\r\n   NITE.SP     3  1620     1  1620      400     5000\r\n   NITE.SP     1  1620     0  1300      100     5000\r",
            "preview_highlight": "<div class=\"CodeMirror cm-s-default CodeMirrorServer\" oncopy=\"if(event.clipboardData){event.clipboardData.setData('text\/plain',window.getSelection().toString().replace(\/\\u200b\/g,''));event.preventDefault();event.stopPropagation();}\">\n<div class=\"CodeMirror-code\">\n<div><pre>HERNANAVELLA-WS::Thu Jun 30 12:11:39 2016<\/pre><\/div>\n<div><pre>DEP VAR NITE.SP AT 1300 ALL DAYS: 1\/1\/2007 to 6\/3\/2016<\/pre><\/div>\n<div><pre>INDEPENDNT   LAG1 HOUR   LAG2 HOUR       LO       HI     (TRADING DAYS)<\/pre><\/div>\n<div><pre>   NITE.SP     3  1620     1  1620      400     5000<\/pre><\/div>\n<div><pre>   NITE.SP     1  1620     0  1300      100     5000<\/pre><\/div>\n<div><pre><\/pre><\/div>\n<\/div>\n<\/div>\n",
            "lines": 22,
            "lines_more": 17,
            "preview_is_truncated": true,
            "channels": [
                "C1FK0RL2V"
            ],
            "groups": [],
            "ims": [],
            "comments_count": 0
        },
        "user": "U1FKCRD8D",
        "upload": true,
        "display_as_bot": false,
        "username": "<@U1FKCRD8D|hernanavella>",
        "bot_id": null,
        "ts": "1467306758.000125"
    },
    {
        "type": "message",
        "subtype": "file_share",
        "text": "<@U1FJYUKQ9|mkchuprin> uploaded a file: <https:\/\/tradingfutures.slack.com\/files\/mkchuprin\/F1MSN6JAJ\/pasted_image_at_2016_06_30_03_09_pm.png|Pasted image at 2016-06-30, 3:09 PM>",
        "file": {
            "id": "F1MSN6JAJ",
            "created": 1467313772,
            "timestamp": 1467313772,
            "name": "Pasted image at 2016_06_30 03_09 PM.png",
            "title": "Pasted image at 2016-06-30, 3:09 PM",
            "mimetype": "image\/png",
            "filetype": "png",
            "pretty_type": "PNG",
            "user": "U1FJYUKQ9",
            "editable": false,
            "size": 201304,
            "mode": "hosted",
            "is_external": false,
            "external_type": "",
            "is_public": true,
            "public_url_shared": false,
            "display_as_bot": false,
            "username": "",
            "url_private": "https:\/\/files.slack.com\/files-pri\/T1FJKLSJ2-F1MSN6JAJ\/pasted_image_at_2016_06_30_03_09_pm.png?t=xoxe-49631706614-119786374643-119786374659-90264fc38b",
            "url_private_download": "https:\/\/files.slack.com\/files-pri\/T1FJKLSJ2-F1MSN6JAJ\/download\/pasted_image_at_2016_06_30_03_09_pm.png?t=xoxe-49631706614-119786374643-119786374659-90264fc38b",
            "thumb_64": "https:\/\/files.slack.com\/files-tmb\/T1FJKLSJ2-F1MSN6JAJ-e858305ae6\/pasted_image_at_2016_06_30_03_09_pm_64.png?t=xoxe-49631706614-119786374643-119786374659-90264fc38b",
            "thumb_80": "https:\/\/files.slack.com\/files-tmb\/T1FJKLSJ2-F1MSN6JAJ-e858305ae6\/pasted_image_at_2016_06_30_03_09_pm_80.png?t=xoxe-49631706614-119786374643-119786374659-90264fc38b",
            "thumb_360": "https:\/\/files.slack.com\/files-tmb\/T1FJKLSJ2-F1MSN6JAJ-e858305ae6\/pasted_image_at_2016_06_30_03_09_pm_360.png?t=xoxe-49631706614-119786374643-119786374659-90264fc38b",
            "thumb_360_w": 360,
            "thumb_360_h": 233,
            "thumb_480": "https:\/\/files.slack.com\/files-tmb\/T1FJKLSJ2-F1MSN6JAJ-e858305ae6\/pasted_image_at_2016_06_30_03_09_pm_480.png?t=xoxe-49631706614-119786374643-119786374659-90264fc38b",
            "thumb_480_w": 480,
            "thumb_480_h": 311,
            "thumb_160": "https:\/\/files.slack.com\/files-tmb\/T1FJKLSJ2-F1MSN6JAJ-e858305ae6\/pasted_image_at_2016_06_30_03_09_pm_160.png?t=xoxe-49631706614-119786374643-119786374659-90264fc38b",
            "thumb_720": "https:\/\/files.slack.com\/files-tmb\/T1FJKLSJ2-F1MSN6JAJ-e858305ae6\/pasted_image_at_2016_06_30_03_09_pm_720.png?t=xoxe-49631706614-119786374643-119786374659-90264fc38b",
            "thumb_720_w": 720,
            "thumb_720_h": 467,
            "thumb_960": "https:\/\/files.slack.com\/files-tmb\/T1FJKLSJ2-F1MSN6JAJ-e858305ae6\/pasted_image_at_2016_06_30_03_09_pm_960.png?t=xoxe-49631706614-119786374643-119786374659-90264fc38b",
            "thumb_960_w": 960,
            "thumb_960_h": 622,
            "thumb_1024": "https:\/\/files.slack.com\/files-tmb\/T1FJKLSJ2-F1MSN6JAJ-e858305ae6\/pasted_image_at_2016_06_30_03_09_pm_1024.png?t=xoxe-49631706614-119786374643-119786374659-90264fc38b",
            "thumb_1024_w": 1024,
            "thumb_1024_h": 664,
            "image_exif_rotation": 1,
            "original_w": 1353,
            "original_h": 877,
            "permalink": "https:\/\/tradingfutures.slack.com\/files\/mkchuprin\/F1MSN6JAJ\/pasted_image_at_2016_06_30_03_09_pm.png",
            "permalink_public": "https:\/\/slack-files.com\/T1FJKLSJ2-F1MSN6JAJ-2541f0111a",
            "channels": [
                "C1FK0RL2V"
            ],
            "groups": [],
            "ims": [],
            "comments_count": 0
        },
        "user": "U1FJYUKQ9",
        "upload": true,
        "display_as_bot": false,
        "username": "<@U1FJYUKQ9|mkchuprin>",
        "bot_id": null,
        "ts": "1467313777.000126"
    }
]