[
    {
        "id": "C2XNL92EM",
        "name": "betting_strategy",
        "created": "1478273726",
        "creator": "U1FJYUKQ9",
        "is_archived": false,
        "is_general": false,
        "members": [
            "U1FHF07QT",
            "U1FJYUKQ9",
            "U1FKCRD8D",
            "U1J0N0DPZ"
        ],
        "topic": {
            "value": "",
            "creator": "",
            "last_set": "0"
        },
        "purpose": {
            "value": "talk about betting strategy",
            "creator": "U1FJYUKQ9",
            "last_set": "1478273726"
        }
    },
    {
        "id": "C1GBS8MU6",
        "name": "business",
        "created": "1465827676",
        "creator": "U1FKCRD8D",
        "is_archived": false,
        "is_general": false,
        "members": [
            "U1FJWQN1Z",
            "U1FJYUKQ9",
            "U1J0N0DPZ"
        ],
        "topic": {
            "value": "",
            "creator": "",
            "last_set": "0"
        },
        "purpose": {
            "value": "All things related to the business, logistics, accounts, trading_technology, connectivity, data feed, commissions, etc.",
            "creator": "U1FKCRD8D",
            "last_set": "1465827676"
        }
    },
    {
        "id": "C37JGFAE4",
        "name": "coding",
        "created": "1480436850",
        "creator": "U1FJYUKQ9",
        "is_archived": false,
        "is_general": false,
        "members": [
            "U1FHF07QT",
            "U1FJYUKQ9",
            "U1FKCRD8D",
            "U1J0N0DPZ"
        ],
        "topic": {
            "value": "",
            "creator": "",
            "last_set": "0"
        },
        "purpose": {
            "value": "L33t h4X0rz",
            "creator": "U1FJYUKQ9",
            "last_set": "1480436851"
        }
    },
    {
        "id": "C1FJVD12T",
        "name": "crude",
        "created": "1465503573",
        "creator": "U1FJYUKQ9",
        "is_archived": false,
        "is_general": false,
        "members": [
            "U1FHF07QT",
            "U1FJWQN1Z",
            "U1FJYUKQ9",
            "U1FKCRD8D",
            "U1J0N0DPZ"
        ],
        "pins": [
            {
                "id": "F1H5J3ZFA",
                "type": "F",
                "user": "U1FHF07QT",
                "owner": "U1FKCRD8D",
                "created": "1466002143"
            }
        ],
        "topic": {
            "value": "Crude Predictions",
            "creator": "U1FJYUKQ9",
            "last_set": "1465504248"
        },
        "purpose": {
            "value": "",
            "creator": "",
            "last_set": "0"
        }
    },
    {
        "id": "C3F9C8JP6",
        "name": "euro",
        "created": "1481807916",
        "creator": "U1FHF07QT",
        "is_archived": false,
        "is_general": false,
        "members": [],
        "topic": {
            "value": "",
            "creator": "",
            "last_set": "0"
        },
        "purpose": {
            "value": "",
            "creator": "",
            "last_set": "0"
        }
    },
    {
        "id": "C1FK4DHNW",
        "name": "general",
        "created": "1465503236",
        "creator": "U1FJYUKQ9",
        "is_archived": false,
        "is_general": true,
        "members": [
            "U1FHF07QT",
            "U1FJWQN1Z",
            "U1FJYUKQ9",
            "U1FKCRD8D",
            "U1J0N0DPZ"
        ],
        "pins": [
            {
                "id": "1466088316.000603",
                "type": "C",
                "user": "U1FJYUKQ9",
                "owner": "U1FKCRD8D",
                "created": "1466088358"
            },
            {
                "id": "F1JQQGUB1",
                "type": "F",
                "user": "U1FKCRD8D",
                "owner": "U1FJYUKQ9",
                "created": "1466513432"
            }
        ],
        "topic": {
            "value": "Non-Prediction Stuff",
            "creator": "U1FJYUKQ9",
            "last_set": "1465504276"
        },
        "purpose": {
            "value": "This channel is for team-wide communication and announcements. All team members are in this channel.\r\n\r\n(you can down grade notifications from this chat to only ping you if you're \"@mentioned\" - jkh)",
            "creator": "U1FHF07QT",
            "last_set": "1465566377"
        }
    },
    {
        "id": "C387LBH7V",
        "name": "programming",
        "created": "1480435933",
        "creator": "U1FHF07QT",
        "is_archived": false,
        "is_general": false,
        "members": [],
        "topic": {
            "value": "",
            "creator": "",
            "last_set": "0"
        },
        "purpose": {
            "value": "",
            "creator": "",
            "last_set": "0"
        }
    },
    {
        "id": "C1FK0RL2V",
        "name": "sp",
        "created": "1465503569",
        "creator": "U1FJYUKQ9",
        "is_archived": false,
        "is_general": false,
        "members": [
            "U1FHF07QT",
            "U1FJWQN1Z",
            "U1FJYUKQ9",
            "U1FKCRD8D",
            "U1J0N0DPZ"
        ],
        "topic": {
            "value": "SP Predictions",
            "creator": "U1FJYUKQ9",
            "last_set": "1465504223"
        },
        "purpose": {
            "value": "",
            "creator": "",
            "last_set": "0"
        }
    },
    {
        "id": "C3BAYQJQJ",
        "name": "studies",
        "created": "1481049151",
        "creator": "U1FKCRD8D",
        "is_archived": false,
        "is_general": false,
        "members": [
            "U1FHF07QT",
            "U1FJYUKQ9",
            "U1FKCRD8D",
            "U1J0N0DPZ"
        ],
        "pins": [
            {
                "id": "1481049253.000007",
                "type": "C",
                "user": "U1FHF07QT",
                "owner": "U00",
                "created": "1481049374"
            },
            {
                "id": "F3BDNJ9KN",
                "type": "F",
                "user": "U1FHF07QT",
                "owner": "U1FHF07QT",
                "created": "1481050779"
            },
            {
                "id": "F3C8V2B6D",
                "type": "F",
                "user": "U1FKCRD8D",
                "owner": "U1FKCRD8D",
                "created": "1481308815"
            },
            {
                "id": "F3FSPCHRQ",
                "type": "F",
                "user": "U1FJYUKQ9",
                "owner": "U1FHF07QT",
                "created": "1481913818"
            },
            {
                "id": "F3FUUHULD",
                "type": "F",
                "user": "U1FHF07QT",
                "owner": "U1FHF07QT",
                "created": "1481908770"
            },
            {
                "id": "F3H66EN1K",
                "type": "F",
                "user": "U1J0N0DPZ",
                "owner": "U1J0N0DPZ",
                "created": "1482251010"
            },
            {
                "id": "F3H6MS1L5",
                "type": "F",
                "user": "U1J0N0DPZ",
                "owner": "U1J0N0DPZ",
                "created": "1482251068"
            }
        ],
        "topic": {
            "value": "",
            "creator": "",
            "last_set": "0"
        },
        "purpose": {
            "value": "Each week a different person presents an indicator with expectation stats. Each study gets pinned at the top by Friday at noon.",
            "creator": "U1FKCRD8D",
            "last_set": "1481049253"
        }
    },
    {
        "id": "C1FJVPA1K",
        "name": "tbonds",
        "created": "1465503581",
        "creator": "U1FJYUKQ9",
        "is_archived": false,
        "is_general": false,
        "members": [
            "U1FHF07QT",
            "U1FJWQN1Z",
            "U1FJYUKQ9",
            "U1FKCRD8D",
            "U1J0N0DPZ"
        ],
        "topic": {
            "value": "Tbond Predictions",
            "creator": "U1FJYUKQ9",
            "last_set": "1465504229"
        },
        "purpose": {
            "value": "",
            "creator": "",
            "last_set": "0"
        }
    },
    {
        "id": "C38E4FPBQ",
        "name": "twitter",
        "created": "1480350662",
        "creator": "U1FJYUKQ9",
        "is_archived": false,
        "is_general": false,
        "members": [
            "U1FHF07QT",
            "U1FJYUKQ9",
            "U1FKCRD8D",
            "U1J0N0DPZ"
        ],
        "topic": {
            "value": "",
            "creator": "",
            "last_set": "0"
        },
        "purpose": {
            "value": "",
            "creator": "",
            "last_set": "0"
        }
    },
    {
        "id": "C24S46TKM",
        "name": "untrue_patterns",
        "created": "1472132303",
        "creator": "U1FJYUKQ9",
        "is_archived": false,
        "is_general": false,
        "members": [
            "U1FHF07QT",
            "U1FJWQN1Z",
            "U1FJYUKQ9",
            "U1FKCRD8D",
            "U1J0N0DPZ"
        ],
        "topic": {
            "value": "",
            "creator": "",
            "last_set": "0"
        },
        "purpose": {
            "value": "Post interesting research that may not be true today",
            "creator": "U1FJYUKQ9",
            "last_set": "1472132303"
        }
    }
]