[
    {
        "type": "message",
        "subtype": "file_share",
        "text": "<@U1FHF07QT|jkh> uploaded a file: <https:\/\/tradingfutures.slack.com\/files\/jkh\/F3H401K2Q\/Summary_of_Best_Patterns.txt|Summary of Best Patterns>",
        "file": {
            "id": "F3H401K2Q",
            "created": 1482241536,
            "timestamp": 1482241536,
            "name": "Summary_of_Best_Patterns.txt",
            "title": "Summary of Best Patterns",
            "mimetype": "text\/plain",
            "filetype": "text",
            "pretty_type": "Plain Text",
            "user": "U1FHF07QT",
            "editable": true,
            "size": 1396,
            "mode": "snippet",
            "is_external": false,
            "external_type": "",
            "is_public": true,
            "public_url_shared": false,
            "display_as_bot": false,
            "username": "",
            "url_private": "https:\/\/files.slack.com\/files-pri\/T1FJKLSJ2-F3H401K2Q\/Summary_of_Best_Patterns.txt?t=xoxe-49631706614-119786374643-119786374659-90264fc38b",
            "url_private_download": "https:\/\/files.slack.com\/files-pri\/T1FJKLSJ2-F3H401K2Q\/download\/Summary_of_Best_Patterns.txt?t=xoxe-49631706614-119786374643-119786374659-90264fc38b",
            "permalink": "https:\/\/tradingfutures.slack.com\/files\/jkh\/F3H401K2Q\/Summary_of_Best_Patterns.txt",
            "permalink_public": "https:\/\/slack-files.com\/T1FJKLSJ2-F3H401K2Q-bafcda44cc",
            "edit_link": "https:\/\/tradingfutures.slack.com\/files\/jkh\/F3H401K2Q\/Summary_of_Best_Patterns.txt\/edit",
            "preview": "All trades are close to close.\r\nThe tscore and mean are both calculated withouth drift.\r\nMost of the results are bear patterns for spu. \r\n20 Day Mins seemed to be more predictive than Maxes, but that may be more a statement that bearish patts dominated the results.\r\n\r",
            "preview_highlight": "<div class=\"CodeMirror cm-s-default CodeMirrorServer\" oncopy=\"if(event.clipboardData){event.clipboardData.setData('text\/plain',window.getSelection().toString().replace(\/\\u200b\/g,''));event.preventDefault();event.stopPropagation();}\">\n<div class=\"CodeMirror-code\">\n<div><pre>All trades are close to close.<\/pre><\/div>\n<div><pre>The tscore and mean are both calculated withouth drift.<\/pre><\/div>\n<div><pre>Most of the results are bear patterns for spu. <\/pre><\/div>\n<div><pre>20 Day Mins seemed to be more predictive than Maxes, but that may be more a statement that bearish patts dominated the results.<\/pre><\/div>\n<div><pre><\/pre><\/div>\n<div><pre><\/pre><\/div>\n<\/div>\n<\/div>\n",
            "lines": 46,
            "lines_more": 41,
            "preview_is_truncated": true,
            "channels": [
                "C3BAYQJQJ"
            ],
            "groups": [],
            "ims": [],
            "comments_count": 0
        },
        "user": "U1FHF07QT",
        "upload": true,
        "display_as_bot": false,
        "username": "<@U1FHF07QT|jkh>",
        "bot_id": null,
        "ts": "1482241537.000132"
    },
    {
        "type": "message",
        "subtype": "file_share",
        "text": "<@U1J0N0DPZ|duncan> uploaded a file: <https:\/\/tradingfutures.slack.com\/files\/duncan\/F3H66EN1K\/-.txt|Untitled>",
        "file": {
            "id": "F3H66EN1K",
            "created": 1482249431,
            "timestamp": 1482249431,
            "name": "-.txt",
            "title": "Untitled",
            "mimetype": "text\/plain",
            "filetype": "text",
            "pretty_type": "Plain Text",
            "user": "U1J0N0DPZ",
            "editable": true,
            "size": 2676,
            "mode": "snippet",
            "is_external": false,
            "external_type": "",
            "is_public": true,
            "public_url_shared": false,
            "display_as_bot": false,
            "username": "",
            "url_private": "https:\/\/files.slack.com\/files-pri\/T1FJKLSJ2-F3H66EN1K\/-.txt?t=xoxe-49631706614-119786374643-119786374659-90264fc38b",
            "url_private_download": "https:\/\/files.slack.com\/files-pri\/T1FJKLSJ2-F3H66EN1K\/download\/-.txt?t=xoxe-49631706614-119786374643-119786374659-90264fc38b",
            "permalink": "https:\/\/tradingfutures.slack.com\/files\/duncan\/F3H66EN1K\/-.txt",
            "permalink_public": "https:\/\/slack-files.com\/T1FJKLSJ2-F3H66EN1K-9e7b8ce2a7",
            "edit_link": "https:\/\/tradingfutures.slack.com\/files\/duncan\/F3H66EN1K\/-.txt\/edit",
            "preview": "ES 1\/2015-12\/2016\r\n\r\nSystem of maintaing tracking variable(y) of number of 10 point moves (x) from arbitrary start day at 16:15.\r\n\r\nexample 11pts;x=1 23pts:x=2, -31pts:x=-3.  Looks at cummulative moves from arbitrary start date:\r",
            "preview_highlight": "<div class=\"CodeMirror cm-s-default CodeMirrorServer\" oncopy=\"if(event.clipboardData){event.clipboardData.setData('text\/plain',window.getSelection().toString().replace(\/\\u200b\/g,''));event.preventDefault();event.stopPropagation();}\">\n<div class=\"CodeMirror-code\">\n<div><pre>ES 1\/2015-12\/2016<\/pre><\/div>\n<div><pre><\/pre><\/div>\n<div><pre>System of maintaing tracking variable(y) of number of 10 point moves (x) from arbitrary start day at 16:15.<\/pre><\/div>\n<div><pre><\/pre><\/div>\n<div><pre>example 11pts;x=1 23pts:x=2, -31pts:x=-3.  Looks at cummulative moves from arbitrary start date:<\/pre><\/div>\n<div><pre><\/pre><\/div>\n<\/div>\n<\/div>\n",
            "lines": 83,
            "lines_more": 78,
            "preview_is_truncated": true,
            "channels": [
                "C3BAYQJQJ"
            ],
            "groups": [],
            "ims": [],
            "comments_count": 0,
            "pinned_to": [
                "C3BAYQJQJ"
            ]
        },
        "user": "U1J0N0DPZ",
        "upload": true,
        "display_as_bot": false,
        "username": "<@U1J0N0DPZ|duncan>",
        "bot_id": null,
        "ts": "1482249433.000134"
    },
    {
        "type": "message",
        "user": "U1J0N0DPZ",
        "text": "guys I am in an out for rest of week.  Here is  study for Friday.  Will add bonds as well",
        "ts": "1482249515.000135",
        "reactions": [
            {
                "name": "+1::skin-tone-5",
                "users": [
                    "U1FKCRD8D",
                    "U1FHF07QT"
                ],
                "count": 2
            }
        ]
    },
    {
        "type": "message",
        "user": "U1J0N0DPZ",
        "text": "take a look at your leasure",
        "ts": "1482249537.000136"
    },
    {
        "type": "message",
        "subtype": "pinned_item",
        "user": "U1J0N0DPZ",
        "item_type": "F",
        "text": "<@U1J0N0DPZ|duncan> pinned their Plain Text <https:\/\/tradingfutures.slack.com\/files\/duncan\/F3H66EN1K\/-.txt|Untitled> to this channel.",
        "item": {
            "id": "F3H66EN1K",
            "created": 1482249431,
            "timestamp": 1482249431,
            "name": "-.txt",
            "title": "Untitled",
            "mimetype": "text\/plain",
            "filetype": "text",
            "pretty_type": "Plain Text",
            "user": "U1J0N0DPZ",
            "editable": true,
            "size": 2676,
            "mode": "snippet",
            "is_external": false,
            "external_type": "",
            "is_public": true,
            "public_url_shared": false,
            "display_as_bot": false,
            "username": "",
            "url_private": "https:\/\/files.slack.com\/files-pri\/T1FJKLSJ2-F3H66EN1K\/-.txt?t=xoxe-49631706614-119786374643-119786374659-90264fc38b",
            "url_private_download": "https:\/\/files.slack.com\/files-pri\/T1FJKLSJ2-F3H66EN1K\/download\/-.txt?t=xoxe-49631706614-119786374643-119786374659-90264fc38b",
            "permalink": "https:\/\/tradingfutures.slack.com\/files\/duncan\/F3H66EN1K\/-.txt",
            "permalink_public": "https:\/\/slack-files.com\/T1FJKLSJ2-F3H66EN1K-9e7b8ce2a7",
            "edit_link": "https:\/\/tradingfutures.slack.com\/files\/duncan\/F3H66EN1K\/-.txt\/edit",
            "preview": "ES 1\/2015-12\/2016\r\n\r\nSystem of maintaing tracking variable(y) of number of 10 point moves (x) from arbitrary start day at 16:15.\r\n\r\nexample 11pts;x=1 23pts:x=2, -31pts:x=-3.  Looks at cummulative moves from arbitrary start date:\r",
            "preview_highlight": "<div class=\"CodeMirror cm-s-default CodeMirrorServer\" oncopy=\"if(event.clipboardData){event.clipboardData.setData('text\/plain',window.getSelection().toString().replace(\/\\u200b\/g,''));event.preventDefault();event.stopPropagation();}\">\n<div class=\"CodeMirror-code\">\n<div><pre>ES 1\/2015-12\/2016<\/pre><\/div>\n<div><pre><\/pre><\/div>\n<div><pre>System of maintaing tracking variable(y) of number of 10 point moves (x) from arbitrary start day at 16:15.<\/pre><\/div>\n<div><pre><\/pre><\/div>\n<div><pre>example 11pts;x=1 23pts:x=2, -31pts:x=-3.  Looks at cummulative moves from arbitrary start date:<\/pre><\/div>\n<div><pre><\/pre><\/div>\n<\/div>\n<\/div>\n",
            "lines": 83,
            "lines_more": 78,
            "preview_is_truncated": true,
            "channels": [
                "C3BAYQJQJ"
            ],
            "groups": [],
            "ims": [],
            "comments_count": 0,
            "pinned_to": [
                "C3BAYQJQJ"
            ]
        },
        "ts": "1482251009.000137"
    },
    {
        "type": "message",
        "subtype": "file_share",
        "text": "<@U1J0N0DPZ|duncan> uploaded a file: <https:\/\/tradingfutures.slack.com\/files\/duncan\/F3H6MS1L5\/bonds.txt|bonds>",
        "file": {
            "id": "F3H6MS1L5",
            "created": 1482251035,
            "timestamp": 1482251035,
            "name": "bonds.txt",
            "title": "bonds",
            "mimetype": "text\/plain",
            "filetype": "text",
            "pretty_type": "Plain Text",
            "user": "U1J0N0DPZ",
            "editable": true,
            "size": 2443,
            "mode": "snippet",
            "is_external": false,
            "external_type": "",
            "is_public": true,
            "public_url_shared": false,
            "display_as_bot": false,
            "username": "",
            "url_private": "https:\/\/files.slack.com\/files-pri\/T1FJKLSJ2-F3H6MS1L5\/bonds.txt?t=xoxe-49631706614-119786374643-119786374659-90264fc38b",
            "url_private_download": "https:\/\/files.slack.com\/files-pri\/T1FJKLSJ2-F3H6MS1L5\/download\/bonds.txt?t=xoxe-49631706614-119786374643-119786374659-90264fc38b",
            "permalink": "https:\/\/tradingfutures.slack.com\/files\/duncan\/F3H6MS1L5\/bonds.txt",
            "permalink_public": "https:\/\/slack-files.com\/T1FJKLSJ2-F3H6MS1L5-2930fa0cc2",
            "edit_link": "https:\/\/tradingfutures.slack.com\/files\/duncan\/F3H6MS1L5\/bonds.txt\/edit",
            "preview": "US 1\/2015-12\/2016\r\n\r\nSystem of maintaing tracking variable(y) of number of 100 point moves (x) from arbitrary start day at 16:15.\r\n\r\nexample 110pts;x=1 230pts:x=2, -310pts:x=-3.  Looks at cummulative moves from arbitrary start date:\r",
            "preview_highlight": "<div class=\"CodeMirror cm-s-default CodeMirrorServer\" oncopy=\"if(event.clipboardData){event.clipboardData.setData('text\/plain',window.getSelection().toString().replace(\/\\u200b\/g,''));event.preventDefault();event.stopPropagation();}\">\n<div class=\"CodeMirror-code\">\n<div><pre>US 1\/2015-12\/2016<\/pre><\/div>\n<div><pre><\/pre><\/div>\n<div><pre>System of maintaing tracking variable(y) of number of 100 point moves (x) from arbitrary start day at 16:15.<\/pre><\/div>\n<div><pre><\/pre><\/div>\n<div><pre>example 110pts;x=1 230pts:x=2, -310pts:x=-3.  Looks at cummulative moves from arbitrary start date:<\/pre><\/div>\n<div><pre><\/pre><\/div>\n<\/div>\n<\/div>\n",
            "lines": 81,
            "lines_more": 76,
            "preview_is_truncated": true,
            "channels": [
                "C3BAYQJQJ"
            ],
            "groups": [],
            "ims": [],
            "comments_count": 0,
            "pinned_to": [
                "C3BAYQJQJ"
            ]
        },
        "user": "U1J0N0DPZ",
        "upload": true,
        "display_as_bot": false,
        "username": "<@U1J0N0DPZ|duncan>",
        "bot_id": null,
        "ts": "1482251035.000138"
    },
    {
        "type": "message",
        "subtype": "pinned_item",
        "user": "U1J0N0DPZ",
        "item_type": "F",
        "text": "<@U1J0N0DPZ|duncan> pinned their Plain Text <https:\/\/tradingfutures.slack.com\/files\/duncan\/F3H6MS1L5\/bonds.txt|bonds> to this channel.",
        "item": {
            "id": "F3H6MS1L5",
            "created": 1482251035,
            "timestamp": 1482251035,
            "name": "bonds.txt",
            "title": "bonds",
            "mimetype": "text\/plain",
            "filetype": "text",
            "pretty_type": "Plain Text",
            "user": "U1J0N0DPZ",
            "editable": true,
            "size": 2443,
            "mode": "snippet",
            "is_external": false,
            "external_type": "",
            "is_public": true,
            "public_url_shared": false,
            "display_as_bot": false,
            "username": "",
            "url_private": "https:\/\/files.slack.com\/files-pri\/T1FJKLSJ2-F3H6MS1L5\/bonds.txt?t=xoxe-49631706614-119786374643-119786374659-90264fc38b",
            "url_private_download": "https:\/\/files.slack.com\/files-pri\/T1FJKLSJ2-F3H6MS1L5\/download\/bonds.txt?t=xoxe-49631706614-119786374643-119786374659-90264fc38b",
            "permalink": "https:\/\/tradingfutures.slack.com\/files\/duncan\/F3H6MS1L5\/bonds.txt",
            "permalink_public": "https:\/\/slack-files.com\/T1FJKLSJ2-F3H6MS1L5-2930fa0cc2",
            "edit_link": "https:\/\/tradingfutures.slack.com\/files\/duncan\/F3H6MS1L5\/bonds.txt\/edit",
            "preview": "US 1\/2015-12\/2016\r\n\r\nSystem of maintaing tracking variable(y) of number of 100 point moves (x) from arbitrary start day at 16:15.\r\n\r\nexample 110pts;x=1 230pts:x=2, -310pts:x=-3.  Looks at cummulative moves from arbitrary start date:\r",
            "preview_highlight": "<div class=\"CodeMirror cm-s-default CodeMirrorServer\" oncopy=\"if(event.clipboardData){event.clipboardData.setData('text\/plain',window.getSelection().toString().replace(\/\\u200b\/g,''));event.preventDefault();event.stopPropagation();}\">\n<div class=\"CodeMirror-code\">\n<div><pre>US 1\/2015-12\/2016<\/pre><\/div>\n<div><pre><\/pre><\/div>\n<div><pre>System of maintaing tracking variable(y) of number of 100 point moves (x) from arbitrary start day at 16:15.<\/pre><\/div>\n<div><pre><\/pre><\/div>\n<div><pre>example 110pts;x=1 230pts:x=2, -310pts:x=-3.  Looks at cummulative moves from arbitrary start date:<\/pre><\/div>\n<div><pre><\/pre><\/div>\n<\/div>\n<\/div>\n",
            "lines": 81,
            "lines_more": 76,
            "preview_is_truncated": true,
            "channels": [
                "C3BAYQJQJ"
            ],
            "groups": [],
            "ims": [],
            "comments_count": 0,
            "pinned_to": [
                "C3BAYQJQJ"
            ]
        },
        "ts": "1482251068.000139"
    }
]