[
    {
        "type": "message",
        "subtype": "file_share",
        "text": "<@U1FKCRD8D|hernanavella> uploaded a file: <https:\/\/tradingfutures.slack.com\/files\/hernanavella\/F1SFMQCHK\/big_move_from_low_to_close__still_down_from_820.txt|Big Move from Low to Close, Still down from 820>",
        "file": {
            "id": "F1SFMQCHK",
            "created": 1468782679,
            "timestamp": 1468782679,
            "name": "Big_Move_from_Low_to_Close__Still_down_from_820.txt",
            "title": "Big Move from Low to Close, Still down from 820",
            "mimetype": "text\/plain",
            "filetype": "text",
            "pretty_type": "Plain Text",
            "user": "U1FKCRD8D",
            "editable": true,
            "size": 2067,
            "mode": "snippet",
            "is_external": false,
            "external_type": "",
            "is_public": true,
            "public_url_shared": false,
            "display_as_bot": false,
            "username": "",
            "url_private": "https:\/\/files.slack.com\/files-pri\/T1FJKLSJ2-F1SFMQCHK\/big_move_from_low_to_close__still_down_from_820.txt?t=xoxe-49631706614-119786374643-119786374659-90264fc38b",
            "url_private_download": "https:\/\/files.slack.com\/files-pri\/T1FJKLSJ2-F1SFMQCHK\/download\/big_move_from_low_to_close__still_down_from_820.txt?t=xoxe-49631706614-119786374643-119786374659-90264fc38b",
            "permalink": "https:\/\/tradingfutures.slack.com\/files\/hernanavella\/F1SFMQCHK\/big_move_from_low_to_close__still_down_from_820.txt",
            "permalink_public": "https:\/\/slack-files.com\/T1FJKLSJ2-F1SFMQCHK-d27cad4941",
            "edit_link": "https:\/\/tradingfutures.slack.com\/files\/hernanavella\/F1SFMQCHK\/big_move_from_low_to_close__still_down_from_820.txt\/edit",
            "preview": "HERNANAVELLA-WS::Sun Jul 17 14:09:56 2016\r\nDEP VAR TBOND AT 1700 ALL DAYS: 1\/1\/2010 to 6\/3\/2016\r\nINDEPENDNT   LAG1 HOUR   LAG2 HOUR       LO       HI     (TRADING DAYS)\r\n     TBOND     0   LOW     0  1700      100     5000\r\n     TBOND     0   820     0  1700      -50       -1\r",
            "preview_highlight": "<div class=\"CodeMirror cm-s-default CodeMirrorServer\" oncopy=\"if(event.clipboardData){event.clipboardData.setData('text\/plain',window.getSelection().toString().replace(\/\\u200b\/g,''));event.preventDefault();event.stopPropagation();}\">\n<div class=\"CodeMirror-code\">\n<div><pre>HERNANAVELLA-WS::Sun Jul 17 14:09:56 2016<\/pre><\/div>\n<div><pre>DEP VAR TBOND AT 1700 ALL DAYS: 1\/1\/2010 to 6\/3\/2016<\/pre><\/div>\n<div><pre>INDEPENDNT   LAG1 HOUR   LAG2 HOUR       LO       HI     (TRADING DAYS)<\/pre><\/div>\n<div><pre>     TBOND     0   LOW     0  1700      100     5000<\/pre><\/div>\n<div><pre>     TBOND     0   820     0  1700      -50       -1<\/pre><\/div>\n<div><pre><\/pre><\/div>\n<\/div>\n<\/div>\n",
            "lines": 32,
            "lines_more": 27,
            "preview_is_truncated": true,
            "channels": [
                "C1FJVPA1K"
            ],
            "groups": [],
            "ims": [],
            "comments_count": 1,
            "reactions": [
                {
                    "name": "scream",
                    "users": [
                        "U1FHF07QT"
                    ],
                    "count": 1
                }
            ]
        },
        "user": "U1FKCRD8D",
        "upload": true,
        "display_as_bot": false,
        "username": "<@U1FKCRD8D|hernanavella>",
        "bot_id": null,
        "ts": "1468782679.000002"
    },
    {
        "type": "message",
        "user": "U1FKCRD8D",
        "text": "There's lots of general patterns bullish. However, the big move from  12 to Close is extremely bearish....",
        "ts": "1468796782.000004"
    }
]