[
    {
        "type": "message",
        "subtype": "file_share",
        "text": "<@U1FJYUKQ9|mkchuprin> uploaded a file: <https:\/\/tradingfutures.slack.com\/files\/mkchuprin\/F1Y71C88L\/pasted_image_at_2016_08_04_08_58_am.png|@820 Nascent tbond bullishness unemplyoment tomorrow>",
        "file": {
            "id": "F1Y71C88L",
            "created": 1470315499,
            "timestamp": 1470315499,
            "name": "Pasted image at 2016_08_04 08_58 AM.png",
            "title": "@820 Nascent tbond bullishness unemplyoment tomorrow",
            "mimetype": "image\/png",
            "filetype": "png",
            "pretty_type": "PNG",
            "user": "U1FJYUKQ9",
            "editable": false,
            "size": 217043,
            "mode": "hosted",
            "is_external": false,
            "external_type": "",
            "is_public": true,
            "public_url_shared": false,
            "display_as_bot": false,
            "username": "",
            "url_private": "https:\/\/files.slack.com\/files-pri\/T1FJKLSJ2-F1Y71C88L\/pasted_image_at_2016_08_04_08_58_am.png?t=xoxe-49631706614-119786374643-119786374659-90264fc38b",
            "url_private_download": "https:\/\/files.slack.com\/files-pri\/T1FJKLSJ2-F1Y71C88L\/download\/pasted_image_at_2016_08_04_08_58_am.png?t=xoxe-49631706614-119786374643-119786374659-90264fc38b",
            "thumb_64": "https:\/\/files.slack.com\/files-tmb\/T1FJKLSJ2-F1Y71C88L-661193bde0\/pasted_image_at_2016_08_04_08_58_am_64.png?t=xoxe-49631706614-119786374643-119786374659-90264fc38b",
            "thumb_80": "https:\/\/files.slack.com\/files-tmb\/T1FJKLSJ2-F1Y71C88L-661193bde0\/pasted_image_at_2016_08_04_08_58_am_80.png?t=xoxe-49631706614-119786374643-119786374659-90264fc38b",
            "thumb_360": "https:\/\/files.slack.com\/files-tmb\/T1FJKLSJ2-F1Y71C88L-661193bde0\/pasted_image_at_2016_08_04_08_58_am_360.png?t=xoxe-49631706614-119786374643-119786374659-90264fc38b",
            "thumb_360_w": 360,
            "thumb_360_h": 233,
            "thumb_480": "https:\/\/files.slack.com\/files-tmb\/T1FJKLSJ2-F1Y71C88L-661193bde0\/pasted_image_at_2016_08_04_08_58_am_480.png?t=xoxe-49631706614-119786374643-119786374659-90264fc38b",
            "thumb_480_w": 480,
            "thumb_480_h": 311,
            "thumb_160": "https:\/\/files.slack.com\/files-tmb\/T1FJKLSJ2-F1Y71C88L-661193bde0\/pasted_image_at_2016_08_04_08_58_am_160.png?t=xoxe-49631706614-119786374643-119786374659-90264fc38b",
            "thumb_720": "https:\/\/files.slack.com\/files-tmb\/T1FJKLSJ2-F1Y71C88L-661193bde0\/pasted_image_at_2016_08_04_08_58_am_720.png?t=xoxe-49631706614-119786374643-119786374659-90264fc38b",
            "thumb_720_w": 720,
            "thumb_720_h": 467,
            "thumb_960": "https:\/\/files.slack.com\/files-tmb\/T1FJKLSJ2-F1Y71C88L-661193bde0\/pasted_image_at_2016_08_04_08_58_am_960.png?t=xoxe-49631706614-119786374643-119786374659-90264fc38b",
            "thumb_960_w": 960,
            "thumb_960_h": 622,
            "thumb_1024": "https:\/\/files.slack.com\/files-tmb\/T1FJKLSJ2-F1Y71C88L-661193bde0\/pasted_image_at_2016_08_04_08_58_am_1024.png?t=xoxe-49631706614-119786374643-119786374659-90264fc38b",
            "thumb_1024_w": 1024,
            "thumb_1024_h": 664,
            "image_exif_rotation": 1,
            "original_w": 1353,
            "original_h": 877,
            "permalink": "https:\/\/tradingfutures.slack.com\/files\/mkchuprin\/F1Y71C88L\/pasted_image_at_2016_08_04_08_58_am.png",
            "permalink_public": "https:\/\/slack-files.com\/T1FJKLSJ2-F1Y71C88L-b3eedbb23e",
            "channels": [
                "C1FJVPA1K"
            ],
            "groups": [],
            "ims": [],
            "comments_count": 1,
            "reactions": [
                {
                    "name": "crown",
                    "users": [
                        "U1FHF07QT"
                    ],
                    "count": 1
                },
                {
                    "name": "money_mouth_face",
                    "users": [
                        "U1FKCRD8D"
                    ],
                    "count": 1
                }
            ]
        },
        "user": "U1FJYUKQ9",
        "upload": true,
        "display_as_bot": false,
        "username": "<@U1FJYUKQ9|mkchuprin>",
        "bot_id": null,
        "ts": "1470315504.000131"
    },
    {
        "type": "message",
        "subtype": "file_comment",
        "text": "<@U1FHF07QT|jkh> commented on <@U1FJYUKQ9|mkchuprin>'s file <https:\/\/tradingfutures.slack.com\/files\/mkchuprin\/F1Y71C88L\/pasted_image_at_2016_08_04_08_58_am.png|@820 Nascent tbond bullishness unemplyoment tomorrow>: deleted my previous tbond patt because this one is strictly superior.",
        "file": {
            "id": "F1Y71C88L",
            "created": 1470315499,
            "timestamp": 1470315499,
            "name": "Pasted image at 2016_08_04 08_58 AM.png",
            "title": "@820 Nascent tbond bullishness unemplyoment tomorrow",
            "mimetype": "image\/png",
            "filetype": "png",
            "pretty_type": "PNG",
            "user": "U1FJYUKQ9",
            "editable": false,
            "size": 217043,
            "mode": "hosted",
            "is_external": false,
            "external_type": "",
            "is_public": true,
            "public_url_shared": false,
            "display_as_bot": false,
            "username": "",
            "url_private": "https:\/\/files.slack.com\/files-pri\/T1FJKLSJ2-F1Y71C88L\/pasted_image_at_2016_08_04_08_58_am.png?t=xoxe-49631706614-119786374643-119786374659-90264fc38b",
            "url_private_download": "https:\/\/files.slack.com\/files-pri\/T1FJKLSJ2-F1Y71C88L\/download\/pasted_image_at_2016_08_04_08_58_am.png?t=xoxe-49631706614-119786374643-119786374659-90264fc38b",
            "thumb_64": "https:\/\/files.slack.com\/files-tmb\/T1FJKLSJ2-F1Y71C88L-661193bde0\/pasted_image_at_2016_08_04_08_58_am_64.png?t=xoxe-49631706614-119786374643-119786374659-90264fc38b",
            "thumb_80": "https:\/\/files.slack.com\/files-tmb\/T1FJKLSJ2-F1Y71C88L-661193bde0\/pasted_image_at_2016_08_04_08_58_am_80.png?t=xoxe-49631706614-119786374643-119786374659-90264fc38b",
            "thumb_360": "https:\/\/files.slack.com\/files-tmb\/T1FJKLSJ2-F1Y71C88L-661193bde0\/pasted_image_at_2016_08_04_08_58_am_360.png?t=xoxe-49631706614-119786374643-119786374659-90264fc38b",
            "thumb_360_w": 360,
            "thumb_360_h": 233,
            "thumb_480": "https:\/\/files.slack.com\/files-tmb\/T1FJKLSJ2-F1Y71C88L-661193bde0\/pasted_image_at_2016_08_04_08_58_am_480.png?t=xoxe-49631706614-119786374643-119786374659-90264fc38b",
            "thumb_480_w": 480,
            "thumb_480_h": 311,
            "thumb_160": "https:\/\/files.slack.com\/files-tmb\/T1FJKLSJ2-F1Y71C88L-661193bde0\/pasted_image_at_2016_08_04_08_58_am_160.png?t=xoxe-49631706614-119786374643-119786374659-90264fc38b",
            "thumb_720": "https:\/\/files.slack.com\/files-tmb\/T1FJKLSJ2-F1Y71C88L-661193bde0\/pasted_image_at_2016_08_04_08_58_am_720.png?t=xoxe-49631706614-119786374643-119786374659-90264fc38b",
            "thumb_720_w": 720,
            "thumb_720_h": 467,
            "thumb_960": "https:\/\/files.slack.com\/files-tmb\/T1FJKLSJ2-F1Y71C88L-661193bde0\/pasted_image_at_2016_08_04_08_58_am_960.png?t=xoxe-49631706614-119786374643-119786374659-90264fc38b",
            "thumb_960_w": 960,
            "thumb_960_h": 622,
            "thumb_1024": "https:\/\/files.slack.com\/files-tmb\/T1FJKLSJ2-F1Y71C88L-661193bde0\/pasted_image_at_2016_08_04_08_58_am_1024.png?t=xoxe-49631706614-119786374643-119786374659-90264fc38b",
            "thumb_1024_w": 1024,
            "thumb_1024_h": 664,
            "image_exif_rotation": 1,
            "original_w": 1353,
            "original_h": 877,
            "permalink": "https:\/\/tradingfutures.slack.com\/files\/mkchuprin\/F1Y71C88L\/pasted_image_at_2016_08_04_08_58_am.png",
            "permalink_public": "https:\/\/slack-files.com\/T1FJKLSJ2-F1Y71C88L-b3eedbb23e",
            "channels": [
                "C1FJVPA1K"
            ],
            "groups": [],
            "ims": [],
            "comments_count": 1,
            "reactions": [
                {
                    "name": "crown",
                    "users": [
                        "U1FHF07QT"
                    ],
                    "count": 1
                },
                {
                    "name": "money_mouth_face",
                    "users": [
                        "U1FKCRD8D"
                    ],
                    "count": 1
                }
            ]
        },
        "comment": {
            "id": "Fc1Y7MKAEN",
            "created": 1470315566,
            "timestamp": 1470315566,
            "user": "U1FHF07QT",
            "is_intro": false,
            "comment": "deleted my previous tbond patt because this one is strictly superior.",
            "channel": ""
        },
        "is_intro": false,
        "ts": "1470315566.000135"
    },
    {
        "type": "message",
        "subtype": "file_share",
        "text": "<@U1FJYUKQ9|mkchuprin> uploaded a file: <https:\/\/tradingfutures.slack.com\/files\/mkchuprin\/F1Y74GAP8\/imgres.jpg|imgres.jpg>",
        "file": {
            "id": "F1Y74GAP8",
            "created": 1470315733,
            "timestamp": 1470315733,
            "name": "imgres.jpg",
            "title": "imgres.jpg",
            "mimetype": "image\/jpeg",
            "filetype": "jpg",
            "pretty_type": "JPEG",
            "user": "U1FJYUKQ9",
            "editable": false,
            "size": 11265,
            "mode": "hosted",
            "is_external": false,
            "external_type": "",
            "is_public": true,
            "public_url_shared": false,
            "display_as_bot": false,
            "username": "",
            "url_private": "https:\/\/files.slack.com\/files-pri\/T1FJKLSJ2-F1Y74GAP8\/imgres.jpg?t=xoxe-49631706614-119786374643-119786374659-90264fc38b",
            "url_private_download": "https:\/\/files.slack.com\/files-pri\/T1FJKLSJ2-F1Y74GAP8\/download\/imgres.jpg?t=xoxe-49631706614-119786374643-119786374659-90264fc38b",
            "thumb_64": "https:\/\/files.slack.com\/files-tmb\/T1FJKLSJ2-F1Y74GAP8-d8ed710728\/imgres_64.jpg?t=xoxe-49631706614-119786374643-119786374659-90264fc38b",
            "thumb_80": "https:\/\/files.slack.com\/files-tmb\/T1FJKLSJ2-F1Y74GAP8-d8ed710728\/imgres_80.jpg?t=xoxe-49631706614-119786374643-119786374659-90264fc38b",
            "thumb_360": "https:\/\/files.slack.com\/files-tmb\/T1FJKLSJ2-F1Y74GAP8-d8ed710728\/imgres_360.jpg?t=xoxe-49631706614-119786374643-119786374659-90264fc38b",
            "thumb_360_w": 184,
            "thumb_360_h": 274,
            "thumb_160": "https:\/\/files.slack.com\/files-tmb\/T1FJKLSJ2-F1Y74GAP8-d8ed710728\/imgres_160.jpg?t=xoxe-49631706614-119786374643-119786374659-90264fc38b",
            "image_exif_rotation": 1,
            "original_w": 184,
            "original_h": 274,
            "permalink": "https:\/\/tradingfutures.slack.com\/files\/mkchuprin\/F1Y74GAP8\/imgres.jpg",
            "permalink_public": "https:\/\/slack-files.com\/T1FJKLSJ2-F1Y74GAP8-62623f55f0",
            "channels": [
                "C1FJVPA1K"
            ],
            "groups": [],
            "ims": [],
            "comments_count": 0
        },
        "user": "U1FJYUKQ9",
        "upload": true,
        "display_as_bot": false,
        "username": "<@U1FJYUKQ9|mkchuprin>",
        "bot_id": null,
        "ts": "1470315734.000138"
    },
    {
        "type": "message",
        "user": "U1FHF07QT",
        "text": "<https:\/\/media.giphy.com\/media\/SPqz9tfgMGLyo\/giphy.gif>",
        "attachments": [
            {
                "fallback": "400x230px image",
                "image_url": "https:\/\/media.giphy.com\/media\/SPqz9tfgMGLyo\/giphy.gif",
                "image_width": 400,
                "image_height": 230,
                "image_bytes": 1283549,
                "is_animated": true,
                "from_url": "https:\/\/media.giphy.com\/media\/SPqz9tfgMGLyo\/giphy.gif",
                "id": 1
            }
        ],
        "ts": "1470315755.000139"
    }
]