[
    {
        "type": "message",
        "subtype": "file_share",
        "text": "<@U1FHF07QT|jkh> uploaded a file: <https:\/\/tradingfutures.slack.com\/files\/jkh\/F2VTD0Z09\/first_day_of_boj.txt|First day of BOJ> and commented: tbond quite bull till 3 (end of asia session)",
        "file": {
            "id": "F2VTD0Z09",
            "created": 1477746166,
            "timestamp": 1477746166,
            "name": "First_day_of_BOJ.txt",
            "title": "First day of BOJ",
            "mimetype": "text\/plain",
            "filetype": "text",
            "pretty_type": "Plain Text",
            "user": "U1FHF07QT",
            "editable": true,
            "size": 878,
            "mode": "snippet",
            "is_external": false,
            "external_type": "",
            "is_public": true,
            "public_url_shared": false,
            "display_as_bot": false,
            "username": "",
            "url_private": "https:\/\/files.slack.com\/files-pri\/T1FJKLSJ2-F2VTD0Z09\/first_day_of_boj.txt?t=xoxe-49631706614-119786374643-119786374659-90264fc38b",
            "url_private_download": "https:\/\/files.slack.com\/files-pri\/T1FJKLSJ2-F2VTD0Z09\/download\/first_day_of_boj.txt?t=xoxe-49631706614-119786374643-119786374659-90264fc38b",
            "permalink": "https:\/\/tradingfutures.slack.com\/files\/jkh\/F2VTD0Z09\/first_day_of_boj.txt",
            "permalink_public": "https:\/\/slack-files.com\/T1FJKLSJ2-F2VTD0Z09-558f7a521b",
            "edit_link": "https:\/\/tradingfutures.slack.com\/files\/jkh\/F2VTD0Z09\/first_day_of_boj.txt\/edit",
            "preview": "JKH::Sat 29 Oct 2016 09:01:34 AM EDT\r\nDEP VAR TBOND AT 1715 : 01\/01\/2013 TO 01\/01\/2020  US\/Eastern\r\n\r\nINDEPENDNT LAG1  HOUR LAG2  HOUR  LO     HI          TZ\r\n    tbond    1  1500    0  1500  -1  -5000  US\/Eastern\r",
            "preview_highlight": "<div class=\"CodeMirror cm-s-default CodeMirrorServer\" oncopy=\"if(event.clipboardData){event.clipboardData.setData('text\/plain',window.getSelection().toString().replace(\/\\u200b\/g,''));event.preventDefault();event.stopPropagation();}\">\n<div class=\"CodeMirror-code\">\n<div><pre>JKH::Sat 29 Oct 2016 09:01:34 AM EDT<\/pre><\/div>\n<div><pre>DEP VAR TBOND AT 1715 : 01\/01\/2013 TO 01\/01\/2020  US\/Eastern<\/pre><\/div>\n<div><pre><\/pre><\/div>\n<div><pre>INDEPENDNT LAG1  HOUR LAG2  HOUR  LO     HI          TZ<\/pre><\/div>\n<div><pre>    tbond    1  1500    0  1500  -1  -5000  US\/Eastern<\/pre><\/div>\n<div><pre><\/pre><\/div>\n<\/div>\n<\/div>\n",
            "lines": 22,
            "lines_more": 17,
            "preview_is_truncated": false,
            "channels": [
                "C1FJVPA1K"
            ],
            "groups": [],
            "ims": [],
            "comments_count": 2,
            "initial_comment": {
                "id": "Fc2VT1C494",
                "created": 1477746166,
                "timestamp": 1477746166,
                "user": "U1FHF07QT",
                "is_intro": true,
                "comment": "tbond quite bull till 3 (end of asia session)",
                "channel": ""
            },
            "reactions": [
                {
                    "name": "money_mouth_face",
                    "users": [
                        "U1FKCRD8D"
                    ],
                    "count": 1
                }
            ]
        },
        "user": "U1FHF07QT",
        "upload": true,
        "display_as_bot": false,
        "username": "<@U1FHF07QT|jkh>",
        "bot_id": null,
        "ts": "1477746167.000456"
    },
    {
        "type": "message",
        "subtype": "file_comment",
        "text": "<@U1FKCRD8D|hernanavella> commented on <@U1FHF07QT|jkh>'s file <https:\/\/tradingfutures.slack.com\/files\/jkh\/F2VTD0Z09\/first_day_of_boj.txt|First day of BOJ>: Wow. Nice find. Bonds have a lot of good patts ",
        "file": {
            "id": "F2VTD0Z09",
            "created": 1477746166,
            "timestamp": 1477746166,
            "name": "First_day_of_BOJ.txt",
            "title": "First day of BOJ",
            "mimetype": "text\/plain",
            "filetype": "text",
            "pretty_type": "Plain Text",
            "user": "U1FHF07QT",
            "editable": true,
            "size": 878,
            "mode": "snippet",
            "is_external": false,
            "external_type": "",
            "is_public": true,
            "public_url_shared": false,
            "display_as_bot": false,
            "username": "",
            "url_private": "https:\/\/files.slack.com\/files-pri\/T1FJKLSJ2-F2VTD0Z09\/first_day_of_boj.txt?t=xoxe-49631706614-119786374643-119786374659-90264fc38b",
            "url_private_download": "https:\/\/files.slack.com\/files-pri\/T1FJKLSJ2-F2VTD0Z09\/download\/first_day_of_boj.txt?t=xoxe-49631706614-119786374643-119786374659-90264fc38b",
            "permalink": "https:\/\/tradingfutures.slack.com\/files\/jkh\/F2VTD0Z09\/first_day_of_boj.txt",
            "permalink_public": "https:\/\/slack-files.com\/T1FJKLSJ2-F2VTD0Z09-558f7a521b",
            "edit_link": "https:\/\/tradingfutures.slack.com\/files\/jkh\/F2VTD0Z09\/first_day_of_boj.txt\/edit",
            "preview": "JKH::Sat 29 Oct 2016 09:01:34 AM EDT\r\nDEP VAR TBOND AT 1715 : 01\/01\/2013 TO 01\/01\/2020  US\/Eastern\r\n\r\nINDEPENDNT LAG1  HOUR LAG2  HOUR  LO     HI          TZ\r\n    tbond    1  1500    0  1500  -1  -5000  US\/Eastern\r",
            "preview_highlight": "<div class=\"CodeMirror cm-s-default CodeMirrorServer\" oncopy=\"if(event.clipboardData){event.clipboardData.setData('text\/plain',window.getSelection().toString().replace(\/\\u200b\/g,''));event.preventDefault();event.stopPropagation();}\">\n<div class=\"CodeMirror-code\">\n<div><pre>JKH::Sat 29 Oct 2016 09:01:34 AM EDT<\/pre><\/div>\n<div><pre>DEP VAR TBOND AT 1715 : 01\/01\/2013 TO 01\/01\/2020  US\/Eastern<\/pre><\/div>\n<div><pre><\/pre><\/div>\n<div><pre>INDEPENDNT LAG1  HOUR LAG2  HOUR  LO     HI          TZ<\/pre><\/div>\n<div><pre>    tbond    1  1500    0  1500  -1  -5000  US\/Eastern<\/pre><\/div>\n<div><pre><\/pre><\/div>\n<\/div>\n<\/div>\n",
            "lines": 22,
            "lines_more": 17,
            "preview_is_truncated": false,
            "channels": [
                "C1FJVPA1K"
            ],
            "groups": [],
            "ims": [],
            "comments_count": 2,
            "initial_comment": {
                "id": "Fc2VT1C494",
                "created": 1477746166,
                "timestamp": 1477746166,
                "user": "U1FHF07QT",
                "is_intro": true,
                "comment": "tbond quite bull till 3 (end of asia session)",
                "channel": ""
            },
            "reactions": [
                {
                    "name": "money_mouth_face",
                    "users": [
                        "U1FKCRD8D"
                    ],
                    "count": 1
                }
            ]
        },
        "comment": {
            "id": "Fc2VTD5UQZ",
            "created": 1477746274,
            "timestamp": 1477746274,
            "user": "U1FKCRD8D",
            "is_intro": false,
            "comment": "Wow. Nice find. Bonds have a lot of good patts ",
            "channel": ""
        },
        "is_intro": false,
        "ts": "1477746274.000457"
    }
]