[
    {
        "type": "message",
        "subtype": "file_share",
        "text": "<@U1FKCRD8D|hernanavella> uploaded a file: <https:\/\/tradingfutures.slack.com\/files\/hernanavella\/F1J94BK7F\/down_day_after_20dmax.txt|Down day after 20dMax>",
        "file": {
            "id": "F1J94BK7F",
            "created": 1466367122,
            "timestamp": 1466367122,
            "name": "Down_day_after_20dMax.txt",
            "title": "Down day after 20dMax",
            "mimetype": "text\/plain",
            "filetype": "text",
            "pretty_type": "Plain Text",
            "user": "U1FKCRD8D",
            "editable": true,
            "size": 2195,
            "mode": "snippet",
            "is_external": false,
            "external_type": "",
            "is_public": true,
            "public_url_shared": false,
            "display_as_bot": false,
            "username": "",
            "url_private": "https:\/\/files.slack.com\/files-pri\/T1FJKLSJ2-F1J94BK7F\/down_day_after_20dmax.txt?t=xoxe-49631706614-119786374643-119786374659-90264fc38b",
            "url_private_download": "https:\/\/files.slack.com\/files-pri\/T1FJKLSJ2-F1J94BK7F\/download\/down_day_after_20dmax.txt?t=xoxe-49631706614-119786374643-119786374659-90264fc38b",
            "permalink": "https:\/\/tradingfutures.slack.com\/files\/hernanavella\/F1J94BK7F\/down_day_after_20dmax.txt",
            "permalink_public": "https:\/\/slack-files.com\/T1FJKLSJ2-F1J94BK7F-a74cc72cb9",
            "edit_link": "https:\/\/tradingfutures.slack.com\/files\/hernanavella\/F1J94BK7F\/down_day_after_20dmax.txt\/edit",
            "preview": "HERNANAVELLA-WS::Sun Jun 19 15:10:36 2016\r\nDEP VAR TBOND AT 1700 ALL DAYS: 1\/1\/2016 to 6\/3\/2016\r\nAS OF 1 1700, TBOND AT 20 COMPARISON DAY HIGH \r\nINDEPENDNT   LAG1 HOUR   LAG2 HOUR       LO       HI     (TRADING DAYS)\r\n     TBOND     1  1700     0  1700    -5000       -1\r",
            "preview_highlight": "<div class=\"CodeMirror cm-s-default CodeMirrorServer\" oncopy=\"if(event.clipboardData){event.clipboardData.setData('text\/plain',window.getSelection().toString().replace(\/\\u200b\/g,''));event.preventDefault();event.stopPropagation();}\">\n<div class=\"CodeMirror-code\">\n<div><pre>HERNANAVELLA-WS::Sun Jun 19 15:10:36 2016<\/pre><\/div>\n<div><pre>DEP VAR TBOND AT 1700 ALL DAYS: 1\/1\/2016 to 6\/3\/2016<\/pre><\/div>\n<div><pre>AS OF 1 1700, TBOND AT 20 COMPARISON DAY HIGH <\/pre><\/div>\n<div><pre>INDEPENDNT   LAG1 HOUR   LAG2 HOUR       LO       HI     (TRADING DAYS)<\/pre><\/div>\n<div><pre>     TBOND     1  1700     0  1700    -5000       -1<\/pre><\/div>\n<div><pre><\/pre><\/div>\n<\/div>\n<\/div>\n",
            "lines": 34,
            "lines_more": 29,
            "preview_is_truncated": true,
            "channels": [
                "C1FJVPA1K"
            ],
            "groups": [],
            "ims": [],
            "comments_count": 0
        },
        "user": "U1FKCRD8D",
        "upload": true,
        "display_as_bot": false,
        "username": "<@U1FKCRD8D|hernanavella>",
        "bot_id": null,
        "ts": "1466367123.000002"
    }
]