[
    {
        "type": "message",
        "subtype": "file_share",
        "text": "<@U1FHF07QT|jkh> uploaded a file: <https:\/\/tradingfutures.slack.com\/files\/jkh\/F1XR191D1\/-.txt|Untitled>",
        "file": {
            "id": "F1XR191D1",
            "created": 1470239428,
            "timestamp": 1470239428,
            "name": "-.txt",
            "title": "Untitled",
            "mimetype": "text\/plain",
            "filetype": "text",
            "pretty_type": "Plain Text",
            "user": "U1FHF07QT",
            "editable": true,
            "size": 854,
            "mode": "snippet",
            "is_external": false,
            "external_type": "",
            "is_public": true,
            "public_url_shared": false,
            "display_as_bot": false,
            "username": "",
            "url_private": "https:\/\/files.slack.com\/files-pri\/T1FJKLSJ2-F1XR191D1\/-.txt?t=xoxe-49631706614-119786374643-119786374659-90264fc38b",
            "url_private_download": "https:\/\/files.slack.com\/files-pri\/T1FJKLSJ2-F1XR191D1\/download\/-.txt?t=xoxe-49631706614-119786374643-119786374659-90264fc38b",
            "permalink": "https:\/\/tradingfutures.slack.com\/files\/jkh\/F1XR191D1\/-.txt",
            "permalink_public": "https:\/\/slack-files.com\/T1FJKLSJ2-F1XR191D1-23361429d5",
            "edit_link": "https:\/\/tradingfutures.slack.com\/files\/jkh\/F1XR191D1\/-.txt\/edit",
            "preview": "JKH::Wed 03 Aug 2016 11:48:41 AM EDT\r\nDEP VAR TBOND AT 1300 : 01\/01\/2013 TO 01\/01\/2020  US\/Eastern\r\n\r\nINDEPENDNT LAG1  HOUR LAG2  HOUR   LO     HI          TZ\r\n    tbond    1  1500    0  1300   -1   -100  US\/Eastern\r",
            "preview_highlight": "<div class=\"CodeMirror cm-s-default CodeMirrorServer\" oncopy=\"if(event.clipboardData){event.clipboardData.setData('text\/plain',window.getSelection().toString().replace(\/\\u200b\/g,''));event.preventDefault();event.stopPropagation();}\">\n<div class=\"CodeMirror-code\">\n<div><pre>JKH::Wed 03 Aug 2016 11:48:41 AM EDT<\/pre><\/div>\n<div><pre>DEP VAR TBOND AT 1300 : 01\/01\/2013 TO 01\/01\/2020  US\/Eastern<\/pre><\/div>\n<div><pre><\/pre><\/div>\n<div><pre>INDEPENDNT LAG1  HOUR LAG2  HOUR   LO     HI          TZ<\/pre><\/div>\n<div><pre>    tbond    1  1500    0  1300   -1   -100  US\/Eastern<\/pre><\/div>\n<div><pre><\/pre><\/div>\n<\/div>\n<\/div>\n",
            "lines": 21,
            "lines_more": 16,
            "preview_is_truncated": false,
            "channels": [
                "C1FJVPA1K"
            ],
            "groups": [],
            "ims": [],
            "comments_count": 0,
            "reactions": [
                {
                    "name": "cow",
                    "users": [
                        "U1FKCRD8D"
                    ],
                    "count": 1
                },
                {
                    "name": "moneybag",
                    "users": [
                        "U1FJYUKQ9"
                    ],
                    "count": 1
                }
            ]
        },
        "user": "U1FHF07QT",
        "upload": true,
        "display_as_bot": false,
        "username": "<@U1FHF07QT|jkh>",
        "bot_id": null,
        "ts": "1470239429.000127"
    }
]