[
    {
        "type": "message",
        "user": "U1FJYUKQ9",
        "text": "2 year tbond auc today",
        "ts": "1466424700.000003"
    },
    {
        "type": "message",
        "subtype": "file_share",
        "text": "<@U1FJYUKQ9|mkchuprin> uploaded a file: <https:\/\/tradingfutures.slack.com\/files\/mkchuprin\/F1JD30EP6\/pasted_image_at_2016_06_20_08_12_am.png|Pasted image at 2016-06-20, 8:12 AM>",
        "file": {
            "id": "F1JD30EP6",
            "created": 1466424726,
            "timestamp": 1466424726,
            "name": "Pasted image at 2016_06_20 08_12 AM.png",
            "title": "Pasted image at 2016-06-20, 8:12 AM",
            "mimetype": "image\/png",
            "filetype": "png",
            "pretty_type": "PNG",
            "user": "U1FJYUKQ9",
            "editable": false,
            "size": 208451,
            "mode": "hosted",
            "is_external": false,
            "external_type": "",
            "is_public": true,
            "public_url_shared": false,
            "display_as_bot": false,
            "username": "",
            "url_private": "https:\/\/files.slack.com\/files-pri\/T1FJKLSJ2-F1JD30EP6\/pasted_image_at_2016_06_20_08_12_am.png?t=xoxe-49631706614-119786374643-119786374659-90264fc38b",
            "url_private_download": "https:\/\/files.slack.com\/files-pri\/T1FJKLSJ2-F1JD30EP6\/download\/pasted_image_at_2016_06_20_08_12_am.png?t=xoxe-49631706614-119786374643-119786374659-90264fc38b",
            "thumb_64": "https:\/\/files.slack.com\/files-tmb\/T1FJKLSJ2-F1JD30EP6-ddd5228a40\/pasted_image_at_2016_06_20_08_12_am_64.png?t=xoxe-49631706614-119786374643-119786374659-90264fc38b",
            "thumb_80": "https:\/\/files.slack.com\/files-tmb\/T1FJKLSJ2-F1JD30EP6-ddd5228a40\/pasted_image_at_2016_06_20_08_12_am_80.png?t=xoxe-49631706614-119786374643-119786374659-90264fc38b",
            "thumb_360": "https:\/\/files.slack.com\/files-tmb\/T1FJKLSJ2-F1JD30EP6-ddd5228a40\/pasted_image_at_2016_06_20_08_12_am_360.png?t=xoxe-49631706614-119786374643-119786374659-90264fc38b",
            "thumb_360_w": 360,
            "thumb_360_h": 233,
            "thumb_480": "https:\/\/files.slack.com\/files-tmb\/T1FJKLSJ2-F1JD30EP6-ddd5228a40\/pasted_image_at_2016_06_20_08_12_am_480.png?t=xoxe-49631706614-119786374643-119786374659-90264fc38b",
            "thumb_480_w": 480,
            "thumb_480_h": 311,
            "thumb_160": "https:\/\/files.slack.com\/files-tmb\/T1FJKLSJ2-F1JD30EP6-ddd5228a40\/pasted_image_at_2016_06_20_08_12_am_160.png?t=xoxe-49631706614-119786374643-119786374659-90264fc38b",
            "thumb_720": "https:\/\/files.slack.com\/files-tmb\/T1FJKLSJ2-F1JD30EP6-ddd5228a40\/pasted_image_at_2016_06_20_08_12_am_720.png?t=xoxe-49631706614-119786374643-119786374659-90264fc38b",
            "thumb_720_w": 720,
            "thumb_720_h": 467,
            "thumb_960": "https:\/\/files.slack.com\/files-tmb\/T1FJKLSJ2-F1JD30EP6-ddd5228a40\/pasted_image_at_2016_06_20_08_12_am_960.png?t=xoxe-49631706614-119786374643-119786374659-90264fc38b",
            "thumb_960_w": 960,
            "thumb_960_h": 622,
            "thumb_1024": "https:\/\/files.slack.com\/files-tmb\/T1FJKLSJ2-F1JD30EP6-ddd5228a40\/pasted_image_at_2016_06_20_08_12_am_1024.png?t=xoxe-49631706614-119786374643-119786374659-90264fc38b",
            "thumb_1024_w": 1024,
            "thumb_1024_h": 664,
            "image_exif_rotation": 1,
            "original_w": 1353,
            "original_h": 877,
            "permalink": "https:\/\/tradingfutures.slack.com\/files\/mkchuprin\/F1JD30EP6\/pasted_image_at_2016_06_20_08_12_am.png",
            "permalink_public": "https:\/\/slack-files.com\/T1FJKLSJ2-F1JD30EP6-d90b85a90e",
            "channels": [
                "C1FJVPA1K"
            ],
            "groups": [],
            "ims": [],
            "comments_count": 0
        },
        "user": "U1FJYUKQ9",
        "upload": true,
        "display_as_bot": false,
        "username": "<@U1FJYUKQ9|mkchuprin>",
        "bot_id": null,
        "ts": "1466424729.000004"
    },
    {
        "type": "message",
        "user": "U1FJYUKQ9",
        "text": "but all the other stuff is extreemly bearish for bonds",
        "ts": "1466425395.000005"
    },
    {
        "type": "message",
        "subtype": "file_share",
        "text": "<@U1FJYUKQ9|mkchuprin> uploaded a file: <https:\/\/tradingfutures.slack.com\/files\/mkchuprin\/F1JDG8F7X\/pasted_image_at_2016_06_20_08_23_am.png|Pasted image at 2016-06-20, 8:23 AM>",
        "file": {
            "id": "F1JDG8F7X",
            "created": 1466425402,
            "timestamp": 1466425402,
            "name": "Pasted image at 2016_06_20 08_23 AM.png",
            "title": "Pasted image at 2016-06-20, 8:23 AM",
            "mimetype": "image\/png",
            "filetype": "png",
            "pretty_type": "PNG",
            "user": "U1FJYUKQ9",
            "editable": false,
            "size": 202499,
            "mode": "hosted",
            "is_external": false,
            "external_type": "",
            "is_public": true,
            "public_url_shared": false,
            "display_as_bot": false,
            "username": "",
            "url_private": "https:\/\/files.slack.com\/files-pri\/T1FJKLSJ2-F1JDG8F7X\/pasted_image_at_2016_06_20_08_23_am.png?t=xoxe-49631706614-119786374643-119786374659-90264fc38b",
            "url_private_download": "https:\/\/files.slack.com\/files-pri\/T1FJKLSJ2-F1JDG8F7X\/download\/pasted_image_at_2016_06_20_08_23_am.png?t=xoxe-49631706614-119786374643-119786374659-90264fc38b",
            "thumb_64": "https:\/\/files.slack.com\/files-tmb\/T1FJKLSJ2-F1JDG8F7X-c63bb0e799\/pasted_image_at_2016_06_20_08_23_am_64.png?t=xoxe-49631706614-119786374643-119786374659-90264fc38b",
            "thumb_80": "https:\/\/files.slack.com\/files-tmb\/T1FJKLSJ2-F1JDG8F7X-c63bb0e799\/pasted_image_at_2016_06_20_08_23_am_80.png?t=xoxe-49631706614-119786374643-119786374659-90264fc38b",
            "thumb_360": "https:\/\/files.slack.com\/files-tmb\/T1FJKLSJ2-F1JDG8F7X-c63bb0e799\/pasted_image_at_2016_06_20_08_23_am_360.png?t=xoxe-49631706614-119786374643-119786374659-90264fc38b",
            "thumb_360_w": 360,
            "thumb_360_h": 233,
            "thumb_480": "https:\/\/files.slack.com\/files-tmb\/T1FJKLSJ2-F1JDG8F7X-c63bb0e799\/pasted_image_at_2016_06_20_08_23_am_480.png?t=xoxe-49631706614-119786374643-119786374659-90264fc38b",
            "thumb_480_w": 480,
            "thumb_480_h": 311,
            "thumb_160": "https:\/\/files.slack.com\/files-tmb\/T1FJKLSJ2-F1JDG8F7X-c63bb0e799\/pasted_image_at_2016_06_20_08_23_am_160.png?t=xoxe-49631706614-119786374643-119786374659-90264fc38b",
            "thumb_720": "https:\/\/files.slack.com\/files-tmb\/T1FJKLSJ2-F1JDG8F7X-c63bb0e799\/pasted_image_at_2016_06_20_08_23_am_720.png?t=xoxe-49631706614-119786374643-119786374659-90264fc38b",
            "thumb_720_w": 720,
            "thumb_720_h": 467,
            "thumb_960": "https:\/\/files.slack.com\/files-tmb\/T1FJKLSJ2-F1JDG8F7X-c63bb0e799\/pasted_image_at_2016_06_20_08_23_am_960.png?t=xoxe-49631706614-119786374643-119786374659-90264fc38b",
            "thumb_960_w": 960,
            "thumb_960_h": 622,
            "thumb_1024": "https:\/\/files.slack.com\/files-tmb\/T1FJKLSJ2-F1JDG8F7X-c63bb0e799\/pasted_image_at_2016_06_20_08_23_am_1024.png?t=xoxe-49631706614-119786374643-119786374659-90264fc38b",
            "thumb_1024_w": 1024,
            "thumb_1024_h": 664,
            "image_exif_rotation": 1,
            "original_w": 1353,
            "original_h": 877,
            "permalink": "https:\/\/tradingfutures.slack.com\/files\/mkchuprin\/F1JDG8F7X\/pasted_image_at_2016_06_20_08_23_am.png",
            "permalink_public": "https:\/\/slack-files.com\/T1FJKLSJ2-F1JDG8F7X-82cb5eba76",
            "channels": [
                "C1FJVPA1K"
            ],
            "groups": [],
            "ims": [],
            "comments_count": 0
        },
        "user": "U1FJYUKQ9",
        "upload": true,
        "display_as_bot": false,
        "username": "<@U1FJYUKQ9|mkchuprin>",
        "bot_id": null,
        "ts": "1466425405.000006"
    },
    {
        "type": "message",
        "subtype": "file_share",
        "text": "<@U1FJYUKQ9|mkchuprin> uploaded a file: <https:\/\/tradingfutures.slack.com\/files\/mkchuprin\/F1JDGAMRB\/pasted_image_at_2016_06_20_08_23_am.png|Pasted image at 2016-06-20, 8:23 AM>",
        "file": {
            "id": "F1JDGAMRB",
            "created": 1466425428,
            "timestamp": 1466425428,
            "name": "Pasted image at 2016_06_20 08_23 AM.png",
            "title": "Pasted image at 2016-06-20, 8:23 AM",
            "mimetype": "image\/png",
            "filetype": "png",
            "pretty_type": "PNG",
            "user": "U1FJYUKQ9",
            "editable": false,
            "size": 197877,
            "mode": "hosted",
            "is_external": false,
            "external_type": "",
            "is_public": true,
            "public_url_shared": false,
            "display_as_bot": false,
            "username": "",
            "url_private": "https:\/\/files.slack.com\/files-pri\/T1FJKLSJ2-F1JDGAMRB\/pasted_image_at_2016_06_20_08_23_am.png?t=xoxe-49631706614-119786374643-119786374659-90264fc38b",
            "url_private_download": "https:\/\/files.slack.com\/files-pri\/T1FJKLSJ2-F1JDGAMRB\/download\/pasted_image_at_2016_06_20_08_23_am.png?t=xoxe-49631706614-119786374643-119786374659-90264fc38b",
            "thumb_64": "https:\/\/files.slack.com\/files-tmb\/T1FJKLSJ2-F1JDGAMRB-f8987bec2d\/pasted_image_at_2016_06_20_08_23_am_64.png?t=xoxe-49631706614-119786374643-119786374659-90264fc38b",
            "thumb_80": "https:\/\/files.slack.com\/files-tmb\/T1FJKLSJ2-F1JDGAMRB-f8987bec2d\/pasted_image_at_2016_06_20_08_23_am_80.png?t=xoxe-49631706614-119786374643-119786374659-90264fc38b",
            "thumb_360": "https:\/\/files.slack.com\/files-tmb\/T1FJKLSJ2-F1JDGAMRB-f8987bec2d\/pasted_image_at_2016_06_20_08_23_am_360.png?t=xoxe-49631706614-119786374643-119786374659-90264fc38b",
            "thumb_360_w": 360,
            "thumb_360_h": 233,
            "thumb_480": "https:\/\/files.slack.com\/files-tmb\/T1FJKLSJ2-F1JDGAMRB-f8987bec2d\/pasted_image_at_2016_06_20_08_23_am_480.png?t=xoxe-49631706614-119786374643-119786374659-90264fc38b",
            "thumb_480_w": 480,
            "thumb_480_h": 311,
            "thumb_160": "https:\/\/files.slack.com\/files-tmb\/T1FJKLSJ2-F1JDGAMRB-f8987bec2d\/pasted_image_at_2016_06_20_08_23_am_160.png?t=xoxe-49631706614-119786374643-119786374659-90264fc38b",
            "thumb_720": "https:\/\/files.slack.com\/files-tmb\/T1FJKLSJ2-F1JDGAMRB-f8987bec2d\/pasted_image_at_2016_06_20_08_23_am_720.png?t=xoxe-49631706614-119786374643-119786374659-90264fc38b",
            "thumb_720_w": 720,
            "thumb_720_h": 467,
            "thumb_960": "https:\/\/files.slack.com\/files-tmb\/T1FJKLSJ2-F1JDGAMRB-f8987bec2d\/pasted_image_at_2016_06_20_08_23_am_960.png?t=xoxe-49631706614-119786374643-119786374659-90264fc38b",
            "thumb_960_w": 960,
            "thumb_960_h": 622,
            "thumb_1024": "https:\/\/files.slack.com\/files-tmb\/T1FJKLSJ2-F1JDGAMRB-f8987bec2d\/pasted_image_at_2016_06_20_08_23_am_1024.png?t=xoxe-49631706614-119786374643-119786374659-90264fc38b",
            "thumb_1024_w": 1024,
            "thumb_1024_h": 664,
            "image_exif_rotation": 1,
            "original_w": 1353,
            "original_h": 877,
            "permalink": "https:\/\/tradingfutures.slack.com\/files\/mkchuprin\/F1JDGAMRB\/pasted_image_at_2016_06_20_08_23_am.png",
            "permalink_public": "https:\/\/slack-files.com\/T1FJKLSJ2-F1JDGAMRB-0346aa150a",
            "channels": [
                "C1FJVPA1K"
            ],
            "groups": [],
            "ims": [],
            "comments_count": 0,
            "reactions": [
                {
                    "name": "+1::skin-tone-5",
                    "users": [
                        "U1FKCRD8D"
                    ],
                    "count": 1
                }
            ]
        },
        "user": "U1FJYUKQ9",
        "upload": true,
        "display_as_bot": false,
        "username": "<@U1FJYUKQ9|mkchuprin>",
        "bot_id": null,
        "ts": "1466425431.000007"
    },
    {
        "type": "message",
        "subtype": "file_share",
        "text": "<@U1FKCRD8D|hernanavella> uploaded a file: <https:\/\/tradingfutures.slack.com\/files\/hernanavella\/F1JF82UF6\/-.txt|Untitled>",
        "file": {
            "id": "F1JF82UF6",
            "created": 1466437124,
            "timestamp": 1466437124,
            "name": "-.txt",
            "title": "Untitled",
            "mimetype": "text\/plain",
            "filetype": "text",
            "pretty_type": "Plain Text",
            "user": "U1FKCRD8D",
            "editable": true,
            "size": 2255,
            "mode": "snippet",
            "is_external": false,
            "external_type": "",
            "is_public": true,
            "public_url_shared": false,
            "display_as_bot": false,
            "username": "",
            "url_private": "https:\/\/files.slack.com\/files-pri\/T1FJKLSJ2-F1JF82UF6\/-.txt?t=xoxe-49631706614-119786374643-119786374659-90264fc38b",
            "url_private_download": "https:\/\/files.slack.com\/files-pri\/T1FJKLSJ2-F1JF82UF6\/download\/-.txt?t=xoxe-49631706614-119786374643-119786374659-90264fc38b",
            "permalink": "https:\/\/tradingfutures.slack.com\/files\/hernanavella\/F1JF82UF6\/-.txt",
            "permalink_public": "https:\/\/slack-files.com\/T1FJKLSJ2-F1JF82UF6-f2d862be8a",
            "edit_link": "https:\/\/tradingfutures.slack.com\/files\/hernanavella\/F1JF82UF6\/-.txt\/edit",
            "preview": "HERNANAVELLA-WS::Mon Jun 20 10:37:54 2016\r\nDEP VAR TBOND AT 1700 ALL DAYS: 1\/1\/2013 to 6\/3\/2016\r\nINDEPENDNT   LAG1 HOUR   LAG2 HOUR       LO       HI     (TRADING DAYS)\r\n     TBOND     1  1700     0  1700    -5000     -100\r\n     TBOND     2  1700     1  1700    -5000       -1\r",
            "preview_highlight": "<div class=\"CodeMirror cm-s-default CodeMirrorServer\" oncopy=\"if(event.clipboardData){event.clipboardData.setData('text\/plain',window.getSelection().toString().replace(\/\\u200b\/g,''));event.preventDefault();event.stopPropagation();}\">\n<div class=\"CodeMirror-code\">\n<div><pre>HERNANAVELLA-WS::Mon Jun 20 10:37:54 2016<\/pre><\/div>\n<div><pre>DEP VAR TBOND AT 1700 ALL DAYS: 1\/1\/2013 to 6\/3\/2016<\/pre><\/div>\n<div><pre>INDEPENDNT   LAG1 HOUR   LAG2 HOUR       LO       HI     (TRADING DAYS)<\/pre><\/div>\n<div><pre>     TBOND     1  1700     0  1700    -5000     -100<\/pre><\/div>\n<div><pre>     TBOND     2  1700     1  1700    -5000       -1<\/pre><\/div>\n<div><pre><\/pre><\/div>\n<\/div>\n<\/div>\n",
            "lines": 35,
            "lines_more": 30,
            "preview_is_truncated": true,
            "channels": [
                "C1FJVPA1K"
            ],
            "groups": [],
            "ims": [],
            "comments_count": 0
        },
        "user": "U1FKCRD8D",
        "upload": true,
        "display_as_bot": false,
        "username": "<@U1FKCRD8D|hernanavella>",
        "bot_id": null,
        "ts": "1466437124.000009"
    },
    {
        "type": "message",
        "subtype": "file_share",
        "text": "<@U1FKCRD8D|hernanavella> uploaded a file: <https:\/\/tradingfutures.slack.com\/files\/hernanavella\/F1JJBU9MJ\/-.txt|Untitled>",
        "file": {
            "id": "F1JJBU9MJ",
            "created": 1466453812,
            "timestamp": 1466453812,
            "name": "-.txt",
            "title": "Untitled",
            "mimetype": "text\/plain",
            "filetype": "text",
            "pretty_type": "Plain Text",
            "user": "U1FKCRD8D",
            "editable": true,
            "size": 2657,
            "mode": "snippet",
            "is_external": false,
            "external_type": "",
            "is_public": true,
            "public_url_shared": false,
            "display_as_bot": false,
            "username": "",
            "url_private": "https:\/\/files.slack.com\/files-pri\/T1FJKLSJ2-F1JJBU9MJ\/-.txt?t=xoxe-49631706614-119786374643-119786374659-90264fc38b",
            "url_private_download": "https:\/\/files.slack.com\/files-pri\/T1FJKLSJ2-F1JJBU9MJ\/download\/-.txt?t=xoxe-49631706614-119786374643-119786374659-90264fc38b",
            "permalink": "https:\/\/tradingfutures.slack.com\/files\/hernanavella\/F1JJBU9MJ\/-.txt",
            "permalink_public": "https:\/\/slack-files.com\/T1FJKLSJ2-F1JJBU9MJ-535075f63c",
            "edit_link": "https:\/\/tradingfutures.slack.com\/files\/hernanavella\/F1JJBU9MJ\/-.txt\/edit",
            "preview": "HERNANAVELLA-WS::Mon Jun 20 15:15:04 2016\r\nDEP VAR TBOND AT 1700 ALL DAYS: 1\/1\/2014 to 6\/3\/2016\r\nINDEPENDNT   LAG1 HOUR   LAG2 HOUR       LO       HI     (TRADING DAYS)\r\n   NITE.SP     1  1620     0  1620      100      200\r\n     TBOND     1  1700     0  1700    -5000       -1\r",
            "preview_highlight": "<div class=\"CodeMirror cm-s-default CodeMirrorServer\" oncopy=\"if(event.clipboardData){event.clipboardData.setData('text\/plain',window.getSelection().toString().replace(\/\\u200b\/g,''));event.preventDefault();event.stopPropagation();}\">\n<div class=\"CodeMirror-code\">\n<div><pre>HERNANAVELLA-WS::Mon Jun 20 15:15:04 2016<\/pre><\/div>\n<div><pre>DEP VAR TBOND AT 1700 ALL DAYS: 1\/1\/2014 to 6\/3\/2016<\/pre><\/div>\n<div><pre>INDEPENDNT   LAG1 HOUR   LAG2 HOUR       LO       HI     (TRADING DAYS)<\/pre><\/div>\n<div><pre>   NITE.SP     1  1620     0  1620      100      200<\/pre><\/div>\n<div><pre>     TBOND     1  1700     0  1700    -5000       -1<\/pre><\/div>\n<div><pre><\/pre><\/div>\n<\/div>\n<\/div>\n",
            "lines": 41,
            "lines_more": 36,
            "preview_is_truncated": true,
            "channels": [
                "C1FJVPA1K"
            ],
            "groups": [],
            "ims": [],
            "comments_count": 0,
            "reactions": [
                {
                    "name": "rocket",
                    "users": [
                        "U1FHF07QT"
                    ],
                    "count": 1
                },
                {
                    "name": "crown",
                    "users": [
                        "U1FHF07QT"
                    ],
                    "count": 1
                }
            ]
        },
        "user": "U1FKCRD8D",
        "upload": true,
        "display_as_bot": false,
        "username": "<@U1FKCRD8D|hernanavella>",
        "bot_id": null,
        "ts": "1466453812.000010"
    },
    {
        "type": "message",
        "subtype": "file_share",
        "text": "<@U1FHF07QT|jkh> uploaded a file: <https:\/\/tradingfutures.slack.com\/files\/jkh\/F1JLK0NMA\/recent_auction_bearishness.txt|recent auction bearishness>",
        "file": {
            "id": "F1JLK0NMA",
            "created": 1466472415,
            "timestamp": 1466472415,
            "name": "recent_auction_bearishness.txt",
            "title": "recent auction bearishness",
            "mimetype": "text\/plain",
            "filetype": "text",
            "pretty_type": "Plain Text",
            "user": "U1FHF07QT",
            "editable": true,
            "size": 1153,
            "mode": "snippet",
            "is_external": false,
            "external_type": "",
            "is_public": true,
            "public_url_shared": false,
            "display_as_bot": false,
            "username": "",
            "url_private": "https:\/\/files.slack.com\/files-pri\/T1FJKLSJ2-F1JLK0NMA\/recent_auction_bearishness.txt?t=xoxe-49631706614-119786374643-119786374659-90264fc38b",
            "url_private_download": "https:\/\/files.slack.com\/files-pri\/T1FJKLSJ2-F1JLK0NMA\/download\/recent_auction_bearishness.txt?t=xoxe-49631706614-119786374643-119786374659-90264fc38b",
            "permalink": "https:\/\/tradingfutures.slack.com\/files\/jkh\/F1JLK0NMA\/recent_auction_bearishness.txt",
            "permalink_public": "https:\/\/slack-files.com\/T1FJKLSJ2-F1JLK0NMA-937fb0fe04",
            "edit_link": "https:\/\/tradingfutures.slack.com\/files\/jkh\/F1JLK0NMA\/recent_auction_bearishness.txt\/edit",
            "preview": "JKH::Mon 20 Jun 2016 09:25:58 PM EDT\r\nDEP VAR TBOND AT 1715 : 01\/01\/2015 TO 01\/01\/2020  US\/Eastern\r\n\r\nINCLUDE TWO_YEAR ANNOUNCEMENT AT T(0)\r\n\r",
            "preview_highlight": "<div class=\"CodeMirror cm-s-default CodeMirrorServer\" oncopy=\"if(event.clipboardData){event.clipboardData.setData('text\/plain',window.getSelection().toString().replace(\/\\u200b\/g,''));event.preventDefault();event.stopPropagation();}\">\n<div class=\"CodeMirror-code\">\n<div><pre>JKH::Mon 20 Jun 2016 09:25:58 PM EDT<\/pre><\/div>\n<div><pre>DEP VAR TBOND AT 1715 : 01\/01\/2015 TO 01\/01\/2020  US\/Eastern<\/pre><\/div>\n<div><pre><\/pre><\/div>\n<div><pre>INCLUDE TWO_YEAR ANNOUNCEMENT AT T(0)<\/pre><\/div>\n<div><pre><\/pre><\/div>\n<div><pre><\/pre><\/div>\n<\/div>\n<\/div>\n",
            "lines": 25,
            "lines_more": 20,
            "preview_is_truncated": true,
            "channels": [
                "C1FJVPA1K"
            ],
            "groups": [],
            "ims": [],
            "comments_count": 0
        },
        "user": "U1FHF07QT",
        "upload": true,
        "display_as_bot": false,
        "username": "<@U1FHF07QT|jkh>",
        "bot_id": null,
        "ts": "1466472415.000013"
    }
]