[
    {
        "type": "message",
        "subtype": "file_share",
        "text": "<@U1FHF07QT|jkh> shared a file: <https:\/\/tradingfutures.slack.com\/files\/jkh\/F2JJBTZ38\/-.txt|Untitled>",
        "file": {
            "id": "F2JJBTZ38",
            "created": 1475496133,
            "timestamp": 1475496133,
            "name": "-.txt",
            "title": "Untitled",
            "mimetype": "text\/plain",
            "filetype": "text",
            "pretty_type": "Plain Text",
            "user": "U1FHF07QT",
            "editable": true,
            "size": 1064,
            "mode": "snippet",
            "is_external": false,
            "external_type": "",
            "is_public": true,
            "public_url_shared": false,
            "display_as_bot": false,
            "username": "",
            "url_private": "https:\/\/files.slack.com\/files-pri\/T1FJKLSJ2-F2JJBTZ38\/-.txt?t=xoxe-49631706614-119786374643-119786374659-90264fc38b",
            "url_private_download": "https:\/\/files.slack.com\/files-pri\/T1FJKLSJ2-F2JJBTZ38\/download\/-.txt?t=xoxe-49631706614-119786374643-119786374659-90264fc38b",
            "permalink": "https:\/\/tradingfutures.slack.com\/files\/jkh\/F2JJBTZ38\/-.txt",
            "permalink_public": "https:\/\/slack-files.com\/T1FJKLSJ2-F2JJBTZ38-7f94ae5818",
            "edit_link": "https:\/\/tradingfutures.slack.com\/files\/jkh\/F2JJBTZ38\/-.txt\/edit",
            "preview": "JKH::Mon 03 Oct 2016 08:01:45 AM EDT\r\nDEP VAR TBOND AT 800 : 01\/01\/2015 TO 01\/01\/2020  US\/Eastern\r\n\r\nINDEPENDNT LAG1  HOUR LAG2  HOUR    LO     HI          TZ\r\n    tbond    1  1500    0   800     1     50  US\/Eastern\r",
            "preview_highlight": "<div class=\"CodeMirror cm-s-default CodeMirrorServer\" oncopy=\"if(event.clipboardData){event.clipboardData.setData('text\/plain',window.getSelection().toString().replace(\/\\u200b\/g,''));event.preventDefault();event.stopPropagation();}\">\n<div class=\"CodeMirror-code\">\n<div><pre>JKH::Mon 03 Oct 2016 08:01:45 AM EDT<\/pre><\/div>\n<div><pre>DEP VAR TBOND AT 800 : 01\/01\/2015 TO 01\/01\/2020  US\/Eastern<\/pre><\/div>\n<div><pre><\/pre><\/div>\n<div><pre>INDEPENDNT LAG1  HOUR LAG2  HOUR    LO     HI          TZ<\/pre><\/div>\n<div><pre>    tbond    1  1500    0   800     1     50  US\/Eastern<\/pre><\/div>\n<div><pre><\/pre><\/div>\n<\/div>\n<\/div>\n",
            "lines": 25,
            "lines_more": 20,
            "preview_is_truncated": true,
            "channels": [
                "C1FJVPA1K"
            ],
            "groups": [],
            "ims": [],
            "comments_count": 0,
            "reactions": [
                {
                    "name": "metal",
                    "users": [
                        "U1FKCRD8D"
                    ],
                    "count": 1
                },
                {
                    "name": "white_check_mark",
                    "users": [
                        "U1J0N0DPZ"
                    ],
                    "count": 1
                }
            ]
        },
        "user": "U1FHF07QT",
        "upload": false,
        "display_as_bot": false,
        "username": "<@U1FHF07QT|jkh>",
        "bot_id": null,
        "ts": "1475496144.000183"
    },
    {
        "type": "message",
        "subtype": "file_share",
        "text": "<@U1FKCRD8D|hernanavella> uploaded a file: <https:\/\/tradingfutures.slack.com\/files\/hernanavella\/F2JL04FFY\/-.txt|Untitled>",
        "file": {
            "id": "F2JL04FFY",
            "created": 1475506590,
            "timestamp": 1475506590,
            "name": "-.txt",
            "title": "Untitled",
            "mimetype": "text\/plain",
            "filetype": "text",
            "pretty_type": "Plain Text",
            "user": "U1FKCRD8D",
            "editable": true,
            "size": 1928,
            "mode": "snippet",
            "is_external": false,
            "external_type": "",
            "is_public": true,
            "public_url_shared": false,
            "display_as_bot": false,
            "username": "",
            "url_private": "https:\/\/files.slack.com\/files-pri\/T1FJKLSJ2-F2JL04FFY\/-.txt?t=xoxe-49631706614-119786374643-119786374659-90264fc38b",
            "url_private_download": "https:\/\/files.slack.com\/files-pri\/T1FJKLSJ2-F2JL04FFY\/download\/-.txt?t=xoxe-49631706614-119786374643-119786374659-90264fc38b",
            "permalink": "https:\/\/tradingfutures.slack.com\/files\/hernanavella\/F2JL04FFY\/-.txt",
            "permalink_public": "https:\/\/slack-files.com\/T1FJKLSJ2-F2JL04FFY-344cd90ed0",
            "edit_link": "https:\/\/tradingfutures.slack.com\/files\/hernanavella\/F2JL04FFY\/-.txt\/edit",
            "preview": "HERNANAVELLA-WS::Mon Oct 03 09:55:58 2016\r\nDEP VAR TBOND AT 1100 ALL DAYS: 1\/1\/2012 to 9\/2\/2016\r\nLOOKING AT DAY 1 FROM BEG OF MONTH\r\nINDEPENDNT   LAG1 HOUR   LAG2 HOUR       LO       HI     (TRADING DAYS)\r\n     TBOND     1  1700     0  1100    -5000       -1\r",
            "preview_highlight": "<div class=\"CodeMirror cm-s-default CodeMirrorServer\" oncopy=\"if(event.clipboardData){event.clipboardData.setData('text\/plain',window.getSelection().toString().replace(\/\\u200b\/g,''));event.preventDefault();event.stopPropagation();}\">\n<div class=\"CodeMirror-code\">\n<div><pre>HERNANAVELLA-WS::Mon Oct 03 09:55:58 2016<\/pre><\/div>\n<div><pre>DEP VAR TBOND AT 1100 ALL DAYS: 1\/1\/2012 to 9\/2\/2016<\/pre><\/div>\n<div><pre>LOOKING AT DAY 1 FROM BEG OF MONTH<\/pre><\/div>\n<div><pre>INDEPENDNT   LAG1 HOUR   LAG2 HOUR       LO       HI     (TRADING DAYS)<\/pre><\/div>\n<div><pre>     TBOND     1  1700     0  1100    -5000       -1<\/pre><\/div>\n<div><pre><\/pre><\/div>\n<\/div>\n<\/div>\n",
            "lines": 29,
            "lines_more": 24,
            "preview_is_truncated": true,
            "channels": [
                "C1FJVPA1K"
            ],
            "groups": [],
            "ims": [],
            "comments_count": 0
        },
        "user": "U1FKCRD8D",
        "upload": true,
        "display_as_bot": false,
        "username": "<@U1FKCRD8D|hernanavella>",
        "bot_id": null,
        "ts": "1475506590.000186"
    },
    {
        "type": "message",
        "subtype": "file_share",
        "text": "<@U1FKCRD8D|hernanavella> shared a file: <https:\/\/tradingfutures.slack.com\/files\/hernanavella\/F2JQCKMJ4\/-.txt|Untitled>",
        "file": {
            "id": "F2JQCKMJ4",
            "created": 1475527926,
            "timestamp": 1475527926,
            "name": "-.txt",
            "title": "Untitled",
            "mimetype": "text\/plain",
            "filetype": "text",
            "pretty_type": "Plain Text",
            "user": "U1FKCRD8D",
            "editable": true,
            "size": 2194,
            "mode": "snippet",
            "is_external": false,
            "external_type": "",
            "is_public": true,
            "public_url_shared": false,
            "display_as_bot": false,
            "username": "",
            "url_private": "https:\/\/files.slack.com\/files-pri\/T1FJKLSJ2-F2JQCKMJ4\/-.txt?t=xoxe-49631706614-119786374643-119786374659-90264fc38b",
            "url_private_download": "https:\/\/files.slack.com\/files-pri\/T1FJKLSJ2-F2JQCKMJ4\/download\/-.txt?t=xoxe-49631706614-119786374643-119786374659-90264fc38b",
            "permalink": "https:\/\/tradingfutures.slack.com\/files\/hernanavella\/F2JQCKMJ4\/-.txt",
            "permalink_public": "https:\/\/slack-files.com\/T1FJKLSJ2-F2JQCKMJ4-b37625f80e",
            "edit_link": "https:\/\/tradingfutures.slack.com\/files\/hernanavella\/F2JQCKMJ4\/-.txt\/edit",
            "preview": "HERNANAVELLA-WS::Mon Oct 03 15:51:48 2016\r\nDEP VAR TBOND AT 820 ALL DAYS: 1\/1\/2010 to 9\/2\/2016\r\nAS OF 1 1430, CRUDE AT 20 COMPARISON DAY HIGH \r\nINDEPENDNT   LAG1 HOUR   LAG2 HOUR       LO       HI     (TRADING DAYS)\r\n     TBOND     2  1700     1  1700    -5000       -1\r",
            "preview_highlight": "<div class=\"CodeMirror cm-s-default CodeMirrorServer\" oncopy=\"if(event.clipboardData){event.clipboardData.setData('text\/plain',window.getSelection().toString().replace(\/\\u200b\/g,''));event.preventDefault();event.stopPropagation();}\">\n<div class=\"CodeMirror-code\">\n<div><pre>HERNANAVELLA-WS::Mon Oct 03 15:51:48 2016<\/pre><\/div>\n<div><pre>DEP VAR TBOND AT 820 ALL DAYS: 1\/1\/2010 to 9\/2\/2016<\/pre><\/div>\n<div><pre>AS OF 1 1430, CRUDE AT 20 COMPARISON DAY HIGH <\/pre><\/div>\n<div><pre>INDEPENDNT   LAG1 HOUR   LAG2 HOUR       LO       HI     (TRADING DAYS)<\/pre><\/div>\n<div><pre>     TBOND     2  1700     1  1700    -5000       -1<\/pre><\/div>\n<div><pre><\/pre><\/div>\n<\/div>\n<\/div>\n",
            "lines": 33,
            "lines_more": 28,
            "preview_is_truncated": true,
            "channels": [
                "C1FJVPA1K"
            ],
            "groups": [],
            "ims": [],
            "comments_count": 1,
            "reactions": [
                {
                    "name": "hushed",
                    "users": [
                        "U1FHF07QT"
                    ],
                    "count": 1
                }
            ]
        },
        "user": "U1FKCRD8D",
        "upload": false,
        "display_as_bot": false,
        "username": "<@U1FKCRD8D|hernanavella>",
        "bot_id": null,
        "ts": "1475528052.000187"
    },
    {
        "type": "message",
        "subtype": "file_comment",
        "text": "<@U1FKCRD8D|hernanavella> commented on <@U1FKCRD8D|hernanavella>'s file <https:\/\/tradingfutures.slack.com\/files\/hernanavella\/F2JQCKMJ4\/-.txt|Untitled>: For tomorrow morning",
        "file": {
            "id": "F2JQCKMJ4",
            "created": 1475527926,
            "timestamp": 1475527926,
            "name": "-.txt",
            "title": "Untitled",
            "mimetype": "text\/plain",
            "filetype": "text",
            "pretty_type": "Plain Text",
            "user": "U1FKCRD8D",
            "editable": true,
            "size": 2194,
            "mode": "snippet",
            "is_external": false,
            "external_type": "",
            "is_public": true,
            "public_url_shared": false,
            "display_as_bot": false,
            "username": "",
            "url_private": "https:\/\/files.slack.com\/files-pri\/T1FJKLSJ2-F2JQCKMJ4\/-.txt?t=xoxe-49631706614-119786374643-119786374659-90264fc38b",
            "url_private_download": "https:\/\/files.slack.com\/files-pri\/T1FJKLSJ2-F2JQCKMJ4\/download\/-.txt?t=xoxe-49631706614-119786374643-119786374659-90264fc38b",
            "permalink": "https:\/\/tradingfutures.slack.com\/files\/hernanavella\/F2JQCKMJ4\/-.txt",
            "permalink_public": "https:\/\/slack-files.com\/T1FJKLSJ2-F2JQCKMJ4-b37625f80e",
            "edit_link": "https:\/\/tradingfutures.slack.com\/files\/hernanavella\/F2JQCKMJ4\/-.txt\/edit",
            "preview": "HERNANAVELLA-WS::Mon Oct 03 15:51:48 2016\r\nDEP VAR TBOND AT 820 ALL DAYS: 1\/1\/2010 to 9\/2\/2016\r\nAS OF 1 1430, CRUDE AT 20 COMPARISON DAY HIGH \r\nINDEPENDNT   LAG1 HOUR   LAG2 HOUR       LO       HI     (TRADING DAYS)\r\n     TBOND     2  1700     1  1700    -5000       -1\r",
            "preview_highlight": "<div class=\"CodeMirror cm-s-default CodeMirrorServer\" oncopy=\"if(event.clipboardData){event.clipboardData.setData('text\/plain',window.getSelection().toString().replace(\/\\u200b\/g,''));event.preventDefault();event.stopPropagation();}\">\n<div class=\"CodeMirror-code\">\n<div><pre>HERNANAVELLA-WS::Mon Oct 03 15:51:48 2016<\/pre><\/div>\n<div><pre>DEP VAR TBOND AT 820 ALL DAYS: 1\/1\/2010 to 9\/2\/2016<\/pre><\/div>\n<div><pre>AS OF 1 1430, CRUDE AT 20 COMPARISON DAY HIGH <\/pre><\/div>\n<div><pre>INDEPENDNT   LAG1 HOUR   LAG2 HOUR       LO       HI     (TRADING DAYS)<\/pre><\/div>\n<div><pre>     TBOND     2  1700     1  1700    -5000       -1<\/pre><\/div>\n<div><pre><\/pre><\/div>\n<\/div>\n<\/div>\n",
            "lines": 33,
            "lines_more": 28,
            "preview_is_truncated": true,
            "channels": [
                "C1FJVPA1K"
            ],
            "groups": [],
            "ims": [],
            "comments_count": 1,
            "reactions": [
                {
                    "name": "hushed",
                    "users": [
                        "U1FHF07QT"
                    ],
                    "count": 1
                }
            ]
        },
        "comment": {
            "id": "Fc2JQKSMFX",
            "created": 1475528052,
            "timestamp": 1475528052,
            "user": "U1FKCRD8D",
            "is_intro": false,
            "comment": "For tomorrow morning",
            "channel": ""
        },
        "is_intro": false,
        "ts": "1475528052.000188"
    }
]