[
    {
        "type": "message",
        "subtype": "file_share",
        "text": "<@U1FKCRD8D|hernanavella> uploaded a file: <https:\/\/tradingfutures.slack.com\/files\/hernanavella\/F2K9T4JJD\/-.txt|Untitled>",
        "file": {
            "id": "F2K9T4JJD",
            "created": 1475609551,
            "timestamp": 1475609551,
            "name": "-.txt",
            "title": "Untitled",
            "mimetype": "text\/plain",
            "filetype": "text",
            "pretty_type": "Plain Text",
            "user": "U1FKCRD8D",
            "editable": true,
            "size": 2616,
            "mode": "snippet",
            "is_external": false,
            "external_type": "",
            "is_public": true,
            "public_url_shared": false,
            "display_as_bot": false,
            "username": "",
            "url_private": "https:\/\/files.slack.com\/files-pri\/T1FJKLSJ2-F2K9T4JJD\/-.txt?t=xoxe-49631706614-119786374643-119786374659-90264fc38b",
            "url_private_download": "https:\/\/files.slack.com\/files-pri\/T1FJKLSJ2-F2K9T4JJD\/download\/-.txt?t=xoxe-49631706614-119786374643-119786374659-90264fc38b",
            "permalink": "https:\/\/tradingfutures.slack.com\/files\/hernanavella\/F2K9T4JJD\/-.txt",
            "permalink_public": "https:\/\/slack-files.com\/T1FJKLSJ2-F2K9T4JJD-f2d5e97fda",
            "edit_link": "https:\/\/tradingfutures.slack.com\/files\/hernanavella\/F2K9T4JJD\/-.txt\/edit",
            "preview": "HERNANAVELLA-WS::Tue Oct 04 14:32:08 2016\r\nDEP VAR TBOND AT 1700 ALL DAYS: 1\/1\/2013 to 9\/2\/2016\r\nINDEPENDNT   LAG1 HOUR   LAG2 HOUR       LO       HI     (TRADING DAYS)\r\n     TBOND     1  1700     0  1700    -5000     -100\r\n     TBOND     2  1700     1  1700    -5000       -1\r",
            "preview_highlight": "<div class=\"CodeMirror cm-s-default CodeMirrorServer\" oncopy=\"if(event.clipboardData){event.clipboardData.setData('text\/plain',window.getSelection().toString().replace(\/\\u200b\/g,''));event.preventDefault();event.stopPropagation();}\">\n<div class=\"CodeMirror-code\">\n<div><pre>HERNANAVELLA-WS::Tue Oct 04 14:32:08 2016<\/pre><\/div>\n<div><pre>DEP VAR TBOND AT 1700 ALL DAYS: 1\/1\/2013 to 9\/2\/2016<\/pre><\/div>\n<div><pre>INDEPENDNT   LAG1 HOUR   LAG2 HOUR       LO       HI     (TRADING DAYS)<\/pre><\/div>\n<div><pre>     TBOND     1  1700     0  1700    -5000     -100<\/pre><\/div>\n<div><pre>     TBOND     2  1700     1  1700    -5000       -1<\/pre><\/div>\n<div><pre><\/pre><\/div>\n<\/div>\n<\/div>\n",
            "lines": 39,
            "lines_more": 34,
            "preview_is_truncated": true,
            "channels": [
                "C1FJVPA1K"
            ],
            "groups": [],
            "ims": [],
            "comments_count": 0
        },
        "user": "U1FKCRD8D",
        "upload": true,
        "display_as_bot": false,
        "username": "<@U1FKCRD8D|hernanavella>",
        "bot_id": null,
        "ts": "1475609551.000191"
    },
    {
        "type": "message",
        "subtype": "file_share",
        "text": "<@U1FHF07QT|jkh> shared a file: <https:\/\/tradingfutures.slack.com\/files\/jkh\/F2KCNLHFX\/-.txt|Untitled>",
        "file": {
            "id": "F2KCNLHFX",
            "created": 1475624496,
            "timestamp": 1475624496,
            "name": "-.txt",
            "title": "Untitled",
            "mimetype": "text\/plain",
            "filetype": "text",
            "pretty_type": "Plain Text",
            "user": "U1FHF07QT",
            "editable": true,
            "size": 1145,
            "mode": "snippet",
            "is_external": false,
            "external_type": "",
            "is_public": true,
            "public_url_shared": false,
            "display_as_bot": false,
            "username": "",
            "url_private": "https:\/\/files.slack.com\/files-pri\/T1FJKLSJ2-F2KCNLHFX\/-.txt?t=xoxe-49631706614-119786374643-119786374659-90264fc38b",
            "url_private_download": "https:\/\/files.slack.com\/files-pri\/T1FJKLSJ2-F2KCNLHFX\/download\/-.txt?t=xoxe-49631706614-119786374643-119786374659-90264fc38b",
            "permalink": "https:\/\/tradingfutures.slack.com\/files\/jkh\/F2KCNLHFX\/-.txt",
            "permalink_public": "https:\/\/slack-files.com\/T1FJKLSJ2-F2KCNLHFX-1f469d2655",
            "edit_link": "https:\/\/tradingfutures.slack.com\/files\/jkh\/F2KCNLHFX\/-.txt\/edit",
            "preview": "JKH::Tue 04 Oct 2016 07:41:24 PM EDT\r\nDEP VAR TBOND AT 1930 : 01\/01\/2007 TO 01\/01\/2020  US\/Eastern\r\n\r\nINDEPENDNT LAG1  HOUR LAG2  HOUR  LO     HI          TZ\r\n       sp    2  1615    1  1615  -1  -5000  US\/Eastern\r",
            "preview_highlight": "<div class=\"CodeMirror cm-s-default CodeMirrorServer\" oncopy=\"if(event.clipboardData){event.clipboardData.setData('text\/plain',window.getSelection().toString().replace(\/\\u200b\/g,''));event.preventDefault();event.stopPropagation();}\">\n<div class=\"CodeMirror-code\">\n<div><pre>JKH::Tue 04 Oct 2016 07:41:24 PM EDT<\/pre><\/div>\n<div><pre>DEP VAR TBOND AT 1930 : 01\/01\/2007 TO 01\/01\/2020  US\/Eastern<\/pre><\/div>\n<div><pre><\/pre><\/div>\n<div><pre>INDEPENDNT LAG1  HOUR LAG2  HOUR  LO     HI          TZ<\/pre><\/div>\n<div><pre>       sp    2  1615    1  1615  -1  -5000  US\/Eastern<\/pre><\/div>\n<div><pre><\/pre><\/div>\n<\/div>\n<\/div>\n",
            "lines": 27,
            "lines_more": 22,
            "preview_is_truncated": true,
            "channels": [
                "C1FJVPA1K"
            ],
            "groups": [],
            "ims": [],
            "comments_count": 2
        },
        "user": "U1FHF07QT",
        "upload": false,
        "display_as_bot": false,
        "username": "<@U1FHF07QT|jkh>",
        "bot_id": null,
        "ts": "1475624531.000192"
    },
    {
        "type": "message",
        "subtype": "file_comment",
        "text": "<@U1FHF07QT|jkh> commented on <@U1FHF07QT|jkh>'s file <https:\/\/tradingfutures.slack.com\/files\/jkh\/F2KCNLHFX\/-.txt|Untitled>: ADP patt on bonds, bull for crude as well.",
        "file": {
            "id": "F2KCNLHFX",
            "created": 1475624496,
            "timestamp": 1475624496,
            "name": "-.txt",
            "title": "Untitled",
            "mimetype": "text\/plain",
            "filetype": "text",
            "pretty_type": "Plain Text",
            "user": "U1FHF07QT",
            "editable": true,
            "size": 1145,
            "mode": "snippet",
            "is_external": false,
            "external_type": "",
            "is_public": true,
            "public_url_shared": false,
            "display_as_bot": false,
            "username": "",
            "url_private": "https:\/\/files.slack.com\/files-pri\/T1FJKLSJ2-F2KCNLHFX\/-.txt?t=xoxe-49631706614-119786374643-119786374659-90264fc38b",
            "url_private_download": "https:\/\/files.slack.com\/files-pri\/T1FJKLSJ2-F2KCNLHFX\/download\/-.txt?t=xoxe-49631706614-119786374643-119786374659-90264fc38b",
            "permalink": "https:\/\/tradingfutures.slack.com\/files\/jkh\/F2KCNLHFX\/-.txt",
            "permalink_public": "https:\/\/slack-files.com\/T1FJKLSJ2-F2KCNLHFX-1f469d2655",
            "edit_link": "https:\/\/tradingfutures.slack.com\/files\/jkh\/F2KCNLHFX\/-.txt\/edit",
            "preview": "JKH::Tue 04 Oct 2016 07:41:24 PM EDT\r\nDEP VAR TBOND AT 1930 : 01\/01\/2007 TO 01\/01\/2020  US\/Eastern\r\n\r\nINDEPENDNT LAG1  HOUR LAG2  HOUR  LO     HI          TZ\r\n       sp    2  1615    1  1615  -1  -5000  US\/Eastern\r",
            "preview_highlight": "<div class=\"CodeMirror cm-s-default CodeMirrorServer\" oncopy=\"if(event.clipboardData){event.clipboardData.setData('text\/plain',window.getSelection().toString().replace(\/\\u200b\/g,''));event.preventDefault();event.stopPropagation();}\">\n<div class=\"CodeMirror-code\">\n<div><pre>JKH::Tue 04 Oct 2016 07:41:24 PM EDT<\/pre><\/div>\n<div><pre>DEP VAR TBOND AT 1930 : 01\/01\/2007 TO 01\/01\/2020  US\/Eastern<\/pre><\/div>\n<div><pre><\/pre><\/div>\n<div><pre>INDEPENDNT LAG1  HOUR LAG2  HOUR  LO     HI          TZ<\/pre><\/div>\n<div><pre>       sp    2  1615    1  1615  -1  -5000  US\/Eastern<\/pre><\/div>\n<div><pre><\/pre><\/div>\n<\/div>\n<\/div>\n",
            "lines": 27,
            "lines_more": 22,
            "preview_is_truncated": true,
            "channels": [
                "C1FJVPA1K"
            ],
            "groups": [],
            "ims": [],
            "comments_count": 2
        },
        "comment": {
            "id": "Fc2KCU2U8H",
            "created": 1475624531,
            "timestamp": 1475624531,
            "user": "U1FHF07QT",
            "is_intro": false,
            "comment": "ADP patt on bonds, bull for crude as well.",
            "channel": ""
        },
        "is_intro": false,
        "ts": "1475624531.000193"
    },
    {
        "type": "message",
        "subtype": "file_comment",
        "text": "<@U1FHF07QT|jkh> commented on <@U1FHF07QT|jkh>'s file <https:\/\/tradingfutures.slack.com\/files\/jkh\/F2KCNLHFX\/-.txt|Untitled>: this is what was making the 2 day of the month bearish for tbond.",
        "file": {
            "id": "F2KCNLHFX",
            "created": 1475624496,
            "timestamp": 1475624496,
            "name": "-.txt",
            "title": "Untitled",
            "mimetype": "text\/plain",
            "filetype": "text",
            "pretty_type": "Plain Text",
            "user": "U1FHF07QT",
            "editable": true,
            "size": 1145,
            "mode": "snippet",
            "is_external": false,
            "external_type": "",
            "is_public": true,
            "public_url_shared": false,
            "display_as_bot": false,
            "username": "",
            "url_private": "https:\/\/files.slack.com\/files-pri\/T1FJKLSJ2-F2KCNLHFX\/-.txt?t=xoxe-49631706614-119786374643-119786374659-90264fc38b",
            "url_private_download": "https:\/\/files.slack.com\/files-pri\/T1FJKLSJ2-F2KCNLHFX\/download\/-.txt?t=xoxe-49631706614-119786374643-119786374659-90264fc38b",
            "permalink": "https:\/\/tradingfutures.slack.com\/files\/jkh\/F2KCNLHFX\/-.txt",
            "permalink_public": "https:\/\/slack-files.com\/T1FJKLSJ2-F2KCNLHFX-1f469d2655",
            "edit_link": "https:\/\/tradingfutures.slack.com\/files\/jkh\/F2KCNLHFX\/-.txt\/edit",
            "preview": "JKH::Tue 04 Oct 2016 07:41:24 PM EDT\r\nDEP VAR TBOND AT 1930 : 01\/01\/2007 TO 01\/01\/2020  US\/Eastern\r\n\r\nINDEPENDNT LAG1  HOUR LAG2  HOUR  LO     HI          TZ\r\n       sp    2  1615    1  1615  -1  -5000  US\/Eastern\r",
            "preview_highlight": "<div class=\"CodeMirror cm-s-default CodeMirrorServer\" oncopy=\"if(event.clipboardData){event.clipboardData.setData('text\/plain',window.getSelection().toString().replace(\/\\u200b\/g,''));event.preventDefault();event.stopPropagation();}\">\n<div class=\"CodeMirror-code\">\n<div><pre>JKH::Tue 04 Oct 2016 07:41:24 PM EDT<\/pre><\/div>\n<div><pre>DEP VAR TBOND AT 1930 : 01\/01\/2007 TO 01\/01\/2020  US\/Eastern<\/pre><\/div>\n<div><pre><\/pre><\/div>\n<div><pre>INDEPENDNT LAG1  HOUR LAG2  HOUR  LO     HI          TZ<\/pre><\/div>\n<div><pre>       sp    2  1615    1  1615  -1  -5000  US\/Eastern<\/pre><\/div>\n<div><pre><\/pre><\/div>\n<\/div>\n<\/div>\n",
            "lines": 27,
            "lines_more": 22,
            "preview_is_truncated": true,
            "channels": [
                "C1FJVPA1K"
            ],
            "groups": [],
            "ims": [],
            "comments_count": 2
        },
        "comment": {
            "id": "Fc2KCQBBNH",
            "created": 1475624873,
            "timestamp": 1475624873,
            "user": "U1FHF07QT",
            "is_intro": false,
            "comment": "this is what was making the 2 day of the month bearish for tbond.",
            "channel": "",
            "reactions": [
                {
                    "name": "white_check_mark",
                    "users": [
                        "U1J0N0DPZ"
                    ],
                    "count": 1
                }
            ]
        },
        "is_intro": false,
        "ts": "1475624873.000194"
    }
]