[
    {
        "type": "message",
        "subtype": "file_share",
        "text": "<@U1FHF07QT|jkh> shared a file: <https:\/\/tradingfutures.slack.com\/files\/jkh\/F2ZFHBF60\/Long_Trump_pattern___.txt|Long Trump pattern...>",
        "file": {
            "id": "F2ZFHBF60",
            "created": 1478547036,
            "timestamp": 1478547036,
            "name": "Long_Trump_pattern___.txt",
            "title": "Long Trump pattern...",
            "mimetype": "text\/plain",
            "filetype": "text",
            "pretty_type": "Plain Text",
            "user": "U1FHF07QT",
            "editable": true,
            "size": 1007,
            "mode": "snippet",
            "is_external": false,
            "external_type": "",
            "is_public": true,
            "public_url_shared": false,
            "display_as_bot": false,
            "username": "",
            "url_private": "https:\/\/files.slack.com\/files-pri\/T1FJKLSJ2-F2ZFHBF60\/Long_Trump_pattern___.txt?t=xoxe-49631706614-119786374643-119786374659-90264fc38b",
            "url_private_download": "https:\/\/files.slack.com\/files-pri\/T1FJKLSJ2-F2ZFHBF60\/download\/Long_Trump_pattern___.txt?t=xoxe-49631706614-119786374643-119786374659-90264fc38b",
            "permalink": "https:\/\/tradingfutures.slack.com\/files\/jkh\/F2ZFHBF60\/Long_Trump_pattern___.txt",
            "permalink_public": "https:\/\/slack-files.com\/T1FJKLSJ2-F2ZFHBF60-11351ce497",
            "edit_link": "https:\/\/tradingfutures.slack.com\/files\/jkh\/F2ZFHBF60\/Long_Trump_pattern___.txt\/edit",
            "preview": "JKH::Mon 07 Nov 2016 02:27:35 PM EST\r\nDEP VAR TBOND AT 1500 : 01\/01\/2013 TO 01\/01\/2020  US\/Eastern\r\n\r\nINDEPENDNT LAG1  HOUR LAG2  HOUR   LO     HI          TZ\r\n    tbond    1  1500    0  1500  -50   -125  US\/Eastern\r",
            "preview_highlight": "<div class=\"CodeMirror cm-s-default CodeMirrorServer\" oncopy=\"if(event.clipboardData){event.clipboardData.setData('text\/plain',window.getSelection().toString().replace(\/\\u200b\/g,''));event.preventDefault();event.stopPropagation();}\">\n<div class=\"CodeMirror-code\">\n<div><pre>JKH::Mon 07 Nov 2016 02:27:35 PM EST<\/pre><\/div>\n<div><pre>DEP VAR TBOND AT 1500 : 01\/01\/2013 TO 01\/01\/2020  US\/Eastern<\/pre><\/div>\n<div><pre><\/pre><\/div>\n<div><pre>INDEPENDNT LAG1  HOUR LAG2  HOUR   LO     HI          TZ<\/pre><\/div>\n<div><pre>    tbond    1  1500    0  1500  -50   -125  US\/Eastern<\/pre><\/div>\n<div><pre><\/pre><\/div>\n<\/div>\n<\/div>\n",
            "lines": 24,
            "lines_more": 19,
            "preview_is_truncated": false,
            "channels": [
                "C1FJVPA1K"
            ],
            "groups": [],
            "ims": [],
            "comments_count": 0,
            "reactions": [
                {
                    "name": "white_check_mark",
                    "users": [
                        "U1FKCRD8D"
                    ],
                    "count": 1
                }
            ]
        },
        "user": "U1FHF07QT",
        "upload": false,
        "display_as_bot": false,
        "username": "<@U1FHF07QT|jkh>",
        "bot_id": null,
        "ts": "1478547061.000498"
    }
]