[
    {
        "type": "message",
        "subtype": "file_share",
        "text": "<@U1FKCRD8D|hernanavella> uploaded a file: <https:\/\/tradingfutures.slack.com\/files\/hernanavella\/F1WRQ7X2R\/-.txt|Untitled> and commented: Hi-Lo indicate is not so good to sell them higher....",
        "file": {
            "id": "F1WRQ7X2R",
            "created": 1470004215,
            "timestamp": 1470004215,
            "name": "-.txt",
            "title": "Untitled",
            "mimetype": "text\/plain",
            "filetype": "text",
            "pretty_type": "Plain Text",
            "user": "U1FKCRD8D",
            "editable": true,
            "size": 4132,
            "mode": "snippet",
            "is_external": false,
            "external_type": "",
            "is_public": true,
            "public_url_shared": false,
            "display_as_bot": false,
            "username": "",
            "url_private": "https:\/\/files.slack.com\/files-pri\/T1FJKLSJ2-F1WRQ7X2R\/-.txt?t=xoxe-49631706614-119786374643-119786374659-90264fc38b",
            "url_private_download": "https:\/\/files.slack.com\/files-pri\/T1FJKLSJ2-F1WRQ7X2R\/download\/-.txt?t=xoxe-49631706614-119786374643-119786374659-90264fc38b",
            "permalink": "https:\/\/tradingfutures.slack.com\/files\/hernanavella\/F1WRQ7X2R\/-.txt",
            "permalink_public": "https:\/\/slack-files.com\/T1FJKLSJ2-F1WRQ7X2R-cb2c682f50",
            "edit_link": "https:\/\/tradingfutures.slack.com\/files\/hernanavella\/F1WRQ7X2R\/-.txt\/edit",
            "preview": "HERNANAVELLA-WS::Sun Jul 31 17:24:21 2016\r\nDEP VAR TBOND AT 1700 ALL DAYS: 1\/1\/2012 to 7\/15\/2016\r\nINDEPENDNT   LAG1 HOUR   LAG2 HOUR       LO       HI     (TRADING DAYS)\r\n     TBOND     0   100     0  1700      150     5000\r\n\r",
            "preview_highlight": "<div class=\"CodeMirror cm-s-default CodeMirrorServer\" oncopy=\"if(event.clipboardData){event.clipboardData.setData('text\/plain',window.getSelection().toString().replace(\/\\u200b\/g,''));event.preventDefault();event.stopPropagation();}\">\n<div class=\"CodeMirror-code\">\n<div><pre>HERNANAVELLA-WS::Sun Jul 31 17:24:21 2016<\/pre><\/div>\n<div><pre>DEP VAR TBOND AT 1700 ALL DAYS: 1\/1\/2012 to 7\/15\/2016<\/pre><\/div>\n<div><pre>INDEPENDNT   LAG1 HOUR   LAG2 HOUR       LO       HI     (TRADING DAYS)<\/pre><\/div>\n<div><pre>     TBOND     0   100     0  1700      150     5000<\/pre><\/div>\n<div><pre><\/pre><\/div>\n<div><pre><\/pre><\/div>\n<\/div>\n<\/div>\n",
            "lines": 65,
            "lines_more": 60,
            "preview_is_truncated": true,
            "channels": [
                "C1FJVPA1K"
            ],
            "groups": [],
            "ims": [],
            "comments_count": 1,
            "initial_comment": {
                "id": "Fc1WQ32F5Z",
                "created": 1470004215,
                "timestamp": 1470004215,
                "user": "U1FKCRD8D",
                "is_intro": true,
                "comment": "Hi-Lo indicate is not so good to sell them higher....",
                "channel": ""
            }
        },
        "user": "U1FKCRD8D",
        "upload": true,
        "display_as_bot": false,
        "username": "<@U1FKCRD8D|hernanavella>",
        "bot_id": null,
        "ts": "1470004216.000105"
    },
    {
        "type": "message",
        "subtype": "file_share",
        "text": "<@U1FKCRD8D|hernanavella> uploaded a file: <https:\/\/tradingfutures.slack.com\/files\/hernanavella\/F1WRFAECC\/big_reversal_from_lows_yesterday____open.txt|Big Reversal from lows yesterday \/ @Open>",
        "file": {
            "id": "F1WRFAECC",
            "created": 1470004934,
            "timestamp": 1470004934,
            "name": "Big_Reversal_from_lows_yesterday____Open.txt",
            "title": "Big Reversal from lows yesterday \/ @Open",
            "mimetype": "text\/plain",
            "filetype": "text",
            "pretty_type": "Plain Text",
            "user": "U1FKCRD8D",
            "editable": true,
            "size": 1946,
            "mode": "snippet",
            "is_external": false,
            "external_type": "",
            "is_public": true,
            "public_url_shared": false,
            "display_as_bot": false,
            "username": "",
            "url_private": "https:\/\/files.slack.com\/files-pri\/T1FJKLSJ2-F1WRFAECC\/big_reversal_from_lows_yesterday____open.txt?t=xoxe-49631706614-119786374643-119786374659-90264fc38b",
            "url_private_download": "https:\/\/files.slack.com\/files-pri\/T1FJKLSJ2-F1WRFAECC\/download\/big_reversal_from_lows_yesterday____open.txt?t=xoxe-49631706614-119786374643-119786374659-90264fc38b",
            "permalink": "https:\/\/tradingfutures.slack.com\/files\/hernanavella\/F1WRFAECC\/big_reversal_from_lows_yesterday____open.txt",
            "permalink_public": "https:\/\/slack-files.com\/T1FJKLSJ2-F1WRFAECC-9f3aea31fe",
            "edit_link": "https:\/\/tradingfutures.slack.com\/files\/hernanavella\/F1WRFAECC\/big_reversal_from_lows_yesterday____open.txt\/edit",
            "preview": "HERNANAVELLA-WS::Sun Jul 31 17:40:52 2016\r\nDEP VAR TBOND AT 820 ALL DAYS: 1\/1\/2010 to 7\/15\/2016\r\nINDEPENDNT   LAG1 HOUR   LAG2 HOUR       LO       HI     (TRADING DAYS)\r\n     TBOND     2  1500     1   LOW    -5000     -100\r\n     TBOND     2  1500     1  1500        1     5000\r",
            "preview_highlight": "<div class=\"CodeMirror cm-s-default CodeMirrorServer\" oncopy=\"if(event.clipboardData){event.clipboardData.setData('text\/plain',window.getSelection().toString().replace(\/\\u200b\/g,''));event.preventDefault();event.stopPropagation();}\">\n<div class=\"CodeMirror-code\">\n<div><pre>HERNANAVELLA-WS::Sun Jul 31 17:40:52 2016<\/pre><\/div>\n<div><pre>DEP VAR TBOND AT 820 ALL DAYS: 1\/1\/2010 to 7\/15\/2016<\/pre><\/div>\n<div><pre>INDEPENDNT   LAG1 HOUR   LAG2 HOUR       LO       HI     (TRADING DAYS)<\/pre><\/div>\n<div><pre>     TBOND     2  1500     1   LOW    -5000     -100<\/pre><\/div>\n<div><pre>     TBOND     2  1500     1  1500        1     5000<\/pre><\/div>\n<div><pre><\/pre><\/div>\n<\/div>\n<\/div>\n",
            "lines": 29,
            "lines_more": 24,
            "preview_is_truncated": true,
            "channels": [
                "C1FJVPA1K"
            ],
            "groups": [],
            "ims": [],
            "comments_count": 0,
            "reactions": [
                {
                    "name": "thinking_face",
                    "users": [
                        "U1FHF07QT"
                    ],
                    "count": 1
                }
            ]
        },
        "user": "U1FKCRD8D",
        "upload": true,
        "display_as_bot": false,
        "username": "<@U1FKCRD8D|hernanavella>",
        "bot_id": null,
        "ts": "1470004935.000106"
    }
]